{
    "histories": {
        "0": {
            "0": {
                "out": {
                    "2": 1
                },
                "in": {},
                "attr": {
                    "0": [
                        1,
                        6,
                        10
                    ],
                    "1": [
                        2,
                        8
                    ]
                }
            }
        },
        "3": {
            "0": {
                "out": {},
                "in": {
                    "2": 1
                },
                "attr": {
                    "0": [
                        1,
                        10
                    ],
                    "1": [
                        8
                    ]
                }
            }
        },
        "5": {
            "0": {
                "out": {
                    "2": 1
                },
                "in": {},
                "attr": {
                    "0": [
                        1,
                        6,
                        10
                    ],
                    "1": [
                        2,
                        8
                    ]
                }
            }
        },
        "9": {
            "0": {
                "out": {},
                "in": {
                    "2": 1
                },
                "attr": {
                    "0": [
                        1,
                        10
                    ],
                    "1": [
                        8
                    ]
                }
            }
        },
        "12": {
            "0": {
                "out": {
                    "2": 1
                },
                "in": {},
                "attr": {
                    "0": [
                        1,
                        6,
                        10
                    ],
                    "1": [
                        2,
                        8
                    ]
                }
            }
        },
        "14": {
            "0": {
                "out": {},
                "in": {
                    "2": 1
                },
                "attr": {
                    "0": [
                        1,
                        10
                    ],
                    "1": [
                        8
                    ]
                }
            }
        },
        "16": {
            "2": {
                "out": {},
                "in": {},
                "attr": {
                    "0": [
                        1,
                        6
                    ],
                    "1": [
                        2
                    ]
                }
            }
        },
        "17": {
            "2": {
                "out": {},
                "in": {},
                "attr": {
                    "0": [
                        1,
                        6
                    ],
                    "1": [
                        2
                    ]
                }
            }
        },
        "15": {
            "2": {
                "out": {},
                "in": {},
                "attr": {
                    "0": [
                        1,
                        6
                    ],
                    "1": [
                        2
                    ]
                }
            }
        }
    },
    "signatures": {
        "0": [
            4,
            13,
            7
        ],
        "3": [
            11,
            4
        ],
        "5": [
            4,
            13,
            7
        ],
        "9": [
            11,
            4
        ],
        "12": [
            4,
            13,
            7
        ],
        "14": [
            11,
            4
        ],
        "16": [
            4,
            13
        ],
        "17": [
            4,
            13
        ],
        "15": [
            4,
            13
        ]
    }
}