0,102,583,521,522,1331,540,381,510
1,451,996,202,1034,236,364,110,1071,402,211,441,506
1152,3,167,232,71,393,427,44,1035,1255,1321,80,55,380,1598
355,4,6,169,139,46,51,28
5,133,40,210,21,277,23,183
481,134,7,1357,431,47,60,446
289,550,294,1384,8,1036,1615,660,156,542
1056,449,1571,9,458,649,467,405,22,1398,282
480,162,200,186,10,213,312,410
65,417,38,11,12,332,491,565,158
994,13,14,1038,187,190,29,1278
35,360,394,366,15,20,470,250
166,1671,1640,335,16,495,307,1491,85,314,27
225,1320,1325,45,18,244,503,152
448,140,142,178,19,116,87,248,155
1664,389,1672,333,220,1405,1046,247,24,1334,444,1661,94
161,453,104,214,57,188,25,255
1250,516,59,1258,235,301,208,1394,371,1139,1397,1403,285,30,1279
256,234,1643,271,1298,1554,604,93,350,31
32,1409,478,1383,264,298,1355,50,274,1045,376,1662
34,100,36,70,135,171,203,1499,222
576,418,37,198,91,463,370,1307,253
228,1669,1382,646,39,287,138,1610,308,534,511
1637,295,43,108,269,428,272,1461,150,1402,479
64,325,231,74,48,81,336,157
1505,1282,991,390,230,296,265,1644,49,344,154,1468,1247
353,1353,490,1322,53,342,439,442
450,1638,1641,523,54,217,189,351
69,136,361,362,1460,181,375,56,539
128,121,103,168,137,1256,172,334,471,280,1113,61,221,415
160,1472,290,1252,107,432,209,114,86,1114,63
321,66,1476,260,528,466,118,348,286
67,548,424,584,267,569,603,541
68,484,1318,319,233,395,1323,397,493,1135,401,1649,215,249,1407
517,73,426,75,305,1492,216,1501,318,127
1463,1379,644,645,326,586,77,1518,400,275,597,1303,1339,636,1438
130,515,456,1645,78,1616,529,530
1257,170,492,365,207,82,83,84
300,1677,245,182,246,88,373,219
291,164,141,177,438,89,316,349
1440,1251,1213,1302,1142,1401,90,1335
159,1665,357,422,297,212,372,95
96,105,106,266,113,115,436,377
97,194,1121,457,123,237,1486,143,145,1332,411
98,1602,549,1127,1674,302,304,475,543
352,612,536,109,1551,374,662,664
1443,1124,1157,1572,1608,204,1132,1358,111,339,1364,440,1150,1503
547,163,358,1479,1609,1133,240,1362,403,117,406
1560,1519,124,1457,1555,1464,120,126
153,1603,387,421,648,330,409,525,1613,1007,1593,185,122
132,173,367,147,179,279,281,317
512,1441,1442,1570,324,423,1576,489,144,146,340,347,477
608,385,1569,1280,229,650,1484,589,270,148
1504,354,995,1670,551,329,1130,526,1647,243,343,151
299,174,180,276,278,404,1333,251
482,1094,1000,459,176,564,310,254
192,483,197,554,239,341,408,313
193,1634,1605,1606,1642,1324,1676,1556
674,195,1639,1487,1459,1465,1566,1663
1060,199,652,205,1260,368,338,1044
1281,579,581,582,345,595,1171,443,1047,1273,346,1051,572,311,223
384,513,322,227,356,580,1480,1547,396,1611,1678,1493,407,315
257,1153,1635,1249,1160,1262,1008,1597
1600,386,263,392,303,399,284,567,1498,508,1277
1319,425,1659,1392,379,1594,283,1406
1667,568,1145,378,507,1052,1053,638
1380,1159,1546,1131,1327,1330,435,1365
1253,1061,454,1162,1516,1103,1679,1173,1116,1117
1536,834,835,837,838,839,1451,1243,1653,1111,827,829,830
832,833,1027,836,1585,1586,828,831
1272,1668,1607,1010,1304,1049,986,990
1120,1475,1351,1352,1128,1354,1511,989
992,1248,1477,1393,1462,1336,1500,1118
1154,997,1512,1099,1612,1266,1276,1151
1219,998,1063,1033,1483,1005,1040,1557
1217,999,1096,1066,1009,1170,1553,1215
1002,1326,1166,1297,1169,1270,1404,1439
1601,1261,1295,1264,1265,1011,1466,1275
1444,1126,1513,1550,1138,1012,1141,1305
1604,1093,1470,1161,1673,1037,1112,1502
1666,1411,1636,1065,1134,1359,1042,1396
1057,1123,1095,1067,1329,1140,1147,1148
1125,1675,1263,1648,1361,1299,1400,1214
