0,1601,1408,448,455,207,80,478,1249,1252,426,1258,1329,372,1332,438,318,1407
1,1159,136,776,523,528,403,1308,1309,542,1310,1311,1443,684,308,1476,1608,1480,204,462,480,614,119,378,254,1399
3,1603,1114,132,231,40,1350,170,441,491,45,13,336,179,89,1594,1307,1597
770,1527,1029,1030,383,1548,275,1431,1432,538,1314,552,42,810,1450,560,694,705,835,588,1360,1492,599,1367,1498,738,1507,488,1517,238,878,879,880,881,882,1268,757,1525,1655,502,634,1659,763
1351,584,871,496,1298,20,23,728,25,1500,1661,1663
1504,257,994,1635,998,8,526,50,1139,1459,565,1274,283,1404,1470
161,1154,9,1515,302,662,1593,1021,126,1151
512,1536,1410,11,12,331,79,145,401,534,1565,230,186,630,1145,442
1666,516,522,143,15,530,421,1324,1462,1334,444,834,66,76,206,215,88,1250,355,104
389,390,270,18,659,1300,31,1323,435,319,454,583,596,347,604,1501,1636,868,236,629,503,124,381,511
387,131,515,135,142,19,1302,1438,543,415,162,546,171,1460,456,1120,225,1248,103,242,375,1401,250
70,1607,203,332,1296,1042,1364,345,1497,349,32,544,34,97,98,483,376,60,191
33,1447,1610,1003,1612,1615,156,1330,499,1495,569,1276,989
385,451,1678,1425,1306,350,1570,1379,37,1446,1383,1578,1006,1647,1011,1012,118,1270
354,419,1254,39,1256,1672,490,395,1322,307,211,567
1027,1157,775,649,1421,1550,1046,1560,1561,1059,547,677,1572,1063,41,1194,1071,828,1214,1611,1613,109,1273,636,1150
134,524,1422,1429,90,348,1569,995,1381,294,1382,1384,1640,300,49,243,820
1380,196,1669,68,1674,1261,1357,1295,1616,1138,51,1458,342,1247
640,1667,1130,108,237,1518,1487,1264,1169,1424,52,1335,987
384,1281,130,771,392,1291,396,1420,656,273,1171,533,406,666,1181,1060,1196,556,1070,1326,1074,1203,53,826,571,572,447,1344,708,1479,846,1230,848,464,594,1619,595,1231,598,1237,1368,1369,1493,1371,477,865,610,1508,613,870,232,1516,1005,110,750,497,1521,1269,1528,761,639
1289,1163,782,271,1555,1048,793,1180,669,1056,1573,293,1192,1066,1328,182,823,1463,1471,320,67,1116,1631,224,1632,1124,1253,1002,1519,1523,1148,127
1473,1123,69,1318,1223,328,73,425,75,1419,471,991
418,1602,1477,71,424,265,1065,269,241,1363,501,249,1596
1441,1219,779,1067,77,1101,303,1358,337,1483,1556,253
261,1482,1038,1552,82,340,149,789,1112,1440,164,356,295,807,1320,445,190
1472,1153,1634,1638,1319,428,172,84,1336,379
256,1103,1617,1170,147,91,540,1057,1313,1574,1126,1127,1128,489,234,1007,1135,505,1146
1409,133,140,274,417,422,168,1321,431,178,312,1598,193,1113,93,351,1121,105,1393,1396,506,380
1282,258,1423,159,1449,297,1331,1604,1353,1609,333,470,1499,221,94,95,996,233,492,1134,1649,123
1280,99,1668,484,358,1670,1642,239,1297,1361,247
450,517,1094,1095,1352,138,205,1486,146,1442,420,102,177,1265,1142,1467
1162,1034,267,780,529,676,423,1575,1073,692,693,185,315,1341,1216,1600,1220,326,1356,718,465,851,346,997,1129,1004,111,1522,370,507,1144,251
521,1679,1173,791,1303,1049,1052,797,541,1062,309,1099,593,730,988,1118,352,608,493,112,1009,1652,373
1414,646,650,1305,282,1053,1058,1445,429,306,568,1339,1217,195,198,586,1490,341,622,117,252
581,550,1000,1481,1096,1513,1648,339,660,1140,1299,1301,125,1502
192,1664,644,1605,262,139,397,335,338,1491,1566,479,801,296,298,1400,1402,316
323,611,1444,1093,554,1547,461,1166,1266,1141,153,986,1660
1673,1147,1036,1040,597,1176,154,990,1567,1184,1571,1136,1524,310,1143,1337,1595,1215
449,706,1475,1546,1485,1168,721,212,155,1183,289,482,545,357,549,1398,510
481,1411,1606,427,268,174,495,1262,1394,1333,280,281,158
1088,1221,1222,201,652,1102,1039,1104,1489,1107,1557,1366,218,413,1117,227,494,1137,1534
416,513,704,580,645,1412,202,1675,498,1503
259,1092,485,838,615,606,1132,1037,1644,1488,1365,1653,1272,222
1251,228,582,1639,1131,1327,240,400,564,822,1662
