0,1604,1093,1470,583,1673,522,1331,1112,381,510
72,1161,1482,459,1166,1169,540,1439,482,102,487,1002,557,1261,1011,310,505,1404,254
2,133,6,41,105,490,180,277,86,436,248
1120,3,132,503,516,360,42,139,235,1394,1462,375,1403,28,415
448,471,5,169,74,46,174,113,276,214,23,438
1664,515,389,1672,10,1674,16,410,543,417,162,549,1324,305,312,186,444,207,220,480,97,225,1248,247
1410,134,12,140,141,142,1552,18,19,281,155,301,1594,59,317,195,333,1639,491,366,1139,116,244,250,1279
135,136,15,530,279,285,161,36,167,1322,299,427,45,47,51,56,316,1113,221,104,361,1393
1152,1153,1252,1319,1320,1511,1038,463,1487,83,20,1307,158,95
261,521,1676,143,24,25,1566,159,546,1661,297,1459,1336,1465,1472,65,194,1350,1351,73,1357,470,989,1502,488,372,1147,1405
1037,1556,1046,302,304,53,1334,1337,187,189,451,1606,1352,457,1483,1118,98,236,127
996,1127,200,1609,426,1034,1260,1642,78,529,402,251
130,1602,456,332,368,338,211,441,506,94
412,1068,1080,1082,702,1343,704,1216,706,707,710,714,716,717,1100,720,721,1232,1235,724,1108,1237,727,729,734,735,740,1388,110,750
512,1475,357,711,1447,1067,337,695,601,1148
1286,1287,1160,539,1619,1182,1183,1184,1185,1313,1314,1315,1448,1582,1071,1583,1620,694,696,697,698,699,700,701,1081,703,1342,705,1344,708,709,1221,712,713,715,718,719,1233,722,723,1234,725,726,1109,728,1236,730,731,732,733,1238,1371,736,737,738,739,1621,741,742,743,744,745,746,747,748,749,1385,1651,1526,1527,1528
481,1477,38,7,1128,11,431,212,565,1500,446
1036,1677,1553,1555,660,1560,156,289,294,1066,1457,182,1464,1215,1217,1096,1615,999,1384,1519,1009,245,246,373
449,649,9,458,1485,467,405,22,282,1567,1056,33,1568,1571,224,101,306,1458,1398
1601,258,323,26,1381,262,79,1264,1265,1295,184,1466,1275
257,1249,1635,1121,425,1258,123,237,145,411,1397,283,30
256,234,1643,271,1298,1554,604,93,350,31
32,1409,478,1383,264,298,1355,50,274,1045,376,1662
1666,1411,70,1353,203,1359,1042,342,1499,222,353,34,100,1636,1065,1134,1396,439,442
576,450,418,37,1641,523,1486,1332,54,217,91,351
1668,1669,646,1607,138,1610,534,1304,1049,986,990,287,228,1382,39,1010,308,1272,511
269,397,272,150,1440,295,43,428,1323,1461,1335,455,90,92,479,1251,484,1637,359,108,1135,1142,1401,1402,1407
164,71,1257,1321,44,1008,177,1460,1333,55,89,379,1598
1505,1282,991,390,230,296,265,1644,49,344,154,1468,1247
1408,259,131,268,1302,1306,416,175,562,52,445,1213,191,1092,331,461,464,1115,99,1510,1254,1399
321,66,1667,260,1476,528,466,348,1052,1053,286,118,568,1145,378,507,638
67,584,267,1550,1679,1305,1116,541,1117,548,1444,1253,424,1516,1138,1012
68,1318,233,395,493,401,1649,215,249,319
1057,517,1095,75,1329,1395,1140,216,1501,318
652,1044,419,292,1060,1328,1596,196,199,1481,76,205,206,1356,1363,363,241,242,1274,1660
645,1551,275,1043,662,1303,536,1048,1438,420,1463,1338,1339,575,452,1478,586,77,1106,597,473,988,352,1379,1518,494,1137,1143,1146,636,1021
1250,166,1671,1640,171,335,495,307,1491,85,152,314
1443,1124,1157,1572,1608,204,1132,1358,111,339,1364,440,1150,1503
1154,1220,1099,1612,1301,1561,606,997,1512,429,112,1266,125,566,1276,1469,1151
547,163,358,1479,1133,1645,240,1616,1362,403,117,406
1281,1171,1047,1051,284,567,311,1600,1360,1366,119,345,346,1498,223,993,226,614,1003,238,629,1271
1218,1413,581,582,263,1548,1004,303,595,1495,632
386,392,1129,1418,1549,399,1269,1273,1467,1277
387,1603,421,648,330,1131,525,1330,435,1593,122
153,1380,1159,1546,409,1613,1007,1327,1365,185
1219,324,1033,144,1040,146,340,1557,347,477,1441,1442,1570,998,423,1063,1576,489,1005
544,1059,1001,1097,587,1515,1168,1296,1490,149,987,1565
1504,354,995,1670,551,329,1130,526,1647,243,343,151
192,197,1675,1361,1299,341,408,483,1125,554,239,1263,1648,1400,313,1214
641,673,1507,1506,680,681,1387,688,1681,1172,670,671
514,1285,1050,1054,1055,1310,1064,682,555,1581,1073,690,563,434,1079,1340,1231,469,598,605,1508,618,1267,1268,634,382
1312,642,552,1517,1646,653,398,685,1074,691,1018,1019,1023
1283,611,677,639,1520,1650,498,659,693,437,1369,1149,383
675,1412,1062,1575,631,684,689,465,596,309,628,500,1496,1497,1309
1473,1156,1574,519,328,1386,527,656,369,1521,1525
610,1414,460,1069,654,1680,1523,1078,665,413
447,201,588,590,1494,1017,666,571,1308,1599
513,227,1480,619,1611,1547,1102,430,1493,407,1016,315
384,1474,1122,580,356,322,396,1678,1006,497
1632,640,1509,585,1259,1164,1580,1631,559,533,1559,1144,637,1311
545,1058,1514,1578,1163,1419,1039,1300,501,535,252,669
