0,1331,1604,1093,1112,1673,1470
1,155,1439,1459,1460,1465,1475,1477,1606,1609,1483,338,1501,1502,1511,1260,368,1522,1661
209,2,456,58,63
129,1665,3,132,5,393,11,12,15,147,285,157,160,417,290,35,165,38,168,41,171,172,173,46,1663,47,177,179,55,1337,60,316,62,444,446,65,1350,71,74,332,205,463,80,211,212,86,470,221,222,1255,360,106,107,364,113,114,371,127,254,255
336,81,4,69,137,415
471,325,6,231,121
8,1036,1677,1553,1555,660,1560,156,542,289,1066,1457,1215,1217,1096,1615,999,1384,1009,120,124,126
1056,1458,1571,101,1398,9,1485
994,29,28,13,190
16,161,51,136,202
17,183,105,187,174
225,44,45,18,244,503,89,30,1279
1472,1637,1319,1160,361,1642,140,142,1487,1552,178,19,87,539,1500,1566
27,20,214,438
210,180,21,277,248
133,23,40,170,251
1405,389,1046,1672,24,333,94
104,25,188,141
256,234,1643,271,1298,1554,604,93,350,31
32,1409,1383,1355,50,1045,376,1662
34,1411,1636,100,70,1666,203,1134
36,53,135,490,1322
450,37,1641,523,1486,1332,54,217,91,351
48,83,84,365,207
416,1408,131,1092,1254,1510,268,52,1399,1306,1115
159,1153,422,1352,56,1324,95
280,57,181,253
208,116,103,139,61,235
321,66,1667,1476,528,568,1145,378,507,1052,1053,638,286
68,1318,233,395,493,1649,401,215,249,319
387,102,648,73,409,1131,1330,1593,122
1603,1380,421,1546,330,75,525,1007
1660,419,1060,1481,76,1356,1328,241,242,1363,1274,1596
130,506,996,78
1601,323,1381,1295,79,1265,1264,1466,1275
992,82,453,1038
1440,90,1251,1335
455,1142,359,1401,92
96,128,432,115,377
97,194,1638,457,189,143
98,1602,549,1127,1674,302,304,475,543
402,451,1034,236,110,1071
547,163,358,1479,1645,1133,240,1616,1362,403,117,406
1121,145,123,411,237
162,213,134,186,410
144,146,1219,1063,477
544,587,1515,1296,1490,149,987,1565
1504,354,995,1670,329,1130,1647,151,152
435,185,1365,1159,153,1613,1327
480,164,158,167
169,195,349,366
1120,448,1634,198,1639,1351,1676,1325,1262,496,1492,441,1597
611,1285,201,447,1517,1073,498,596,1054,1310,1599
1329,1395,1140,517,1095,216,318
1220,997,1301,566,1512,218,1612
1474,322,250,1547,220,1006
1505,1282,1247,390,230,296,1644,344,991
1299,1675,1125,239
257,1249,1635,425,283
512,546,515,261,491,989
272,305,281,295,297,279,301
1035,436,276,1406
307,1491,1671,314,495,335
1169,482,310,459,1404
1648,483,1400,1214
320,1136,1573,1595,1471
337,1410,1394,1403,1397,1067,1148
1443,1124,1572,1608,1132,1358,339,1364,1150,1503
1442,1570,340,998,1033
355,357,1065,1353,1359,1396,372,342,1499,380
1040,1441,423,1576,489,347,1005
1480,1122,1611,356
404,375,1594,1659,492
484,1407,1323,397,1135
580,430,1493,407,1102,619,1678
676,601,1002,652,412
1444,424,1516,1550,1679,1173,1305,541
1106,678,1146,1338,494,575
1669,1382,1607,646,1610,1272,1049,511
1058,1311,1559,1514,559
1300,1509,1578,1163,1164,607,1039
1186,773,1420,780,782,783,1110,761,1562
1424,801,803,807
1088,849,851,1204,853,856
896,897,1348,903,1224,1225,906,1226,908,909,910,913,1657,893,1374
898,1349,1590,904,1433,1390
930,1316,1317,933,915,916,917,1207
938,925,1542,1591
934,935,1227,1293,927
960,1377,1543,1544,1228,1229,942,943,944,951,947,1686,950,954,956,1628,959
939,940,941,945,948,949
1378,1209,1629,1592,952,953,1658,955,957,958
1008,1042,1044,1037
1057,1393,1462,1113,1357,1118
1216,1250,1333,1334,1256,1166
1252,1257,1336,1321,1258
