0,1,2,3,4,5,515,8,10,11,1035,13,14,15,16,17,18,19,20,21,23,25,26,29,30,31,32,35,1060,38,40,41,44,45,46,47,48,51,54,55,58,61,62,63,64,65,68,69,71,73,74,75,76,77,80,81,82,84,85,86,87,88,89,90,91,92,96,99,100,103,106,107,113,114,115,116,627,121,123,124,125,128,129,130,131,132,134,135,138,139,140,141,147,152,153,155,160,674,165,1192,170,177,180,182,183,190,196,199,200,203,206,209,211,214,1253,1255,232,1256,248,1275,255,262,263,266,268,269,272,274,787,278,279,281,282,795,290,291,297,298,299,300,1325,302,306,307,308,309,312,313,317,319,322,329,354,355,364,374,375,377,379,380,381,385,387,389,390,394,395,397,406,411,412,417,421,424,426,428,432,433,440,441,442,444,1472,450,456,457,468,475,478,479,992,994
611,1476,1061,1123,1095,9,1002,649,1194,1611,1067,1519,337,1458,1173,1339,318,1567
67,1571,1126,583,616,1511,1006,1136,369,660,1048,986,1595,127
12,143,145,276,277,405,151,280,27,28,157,158,543,162,164,167,1320,168,173,178,179,564,181,436,314,186,193,323,453,334,213,215,93,94,221,222,359,105,1130,1644,108,1649,1395,1396,244,376,250,1405,1406
133,137,393,1300,285,166,174,448,325,198,202,205,208,594,1492,1115,481,362,365,366,496,506
257,517,1036,1166,148,422,1576,310,1215,197,711,335,604,991,224,97,995,101,998,1383,748,237,1261,1135,1007
288,1280,482,485,807,554,1354,1488,721,1556,373,1146,283,1148,797,1469
608,546,1410,484,1638,521,1449,1033,1483,525,431,530,1501
1120,6,301,142,207,1392,56,1500,477,95
1152,418,231,296,360,371,1460,57,1403,220
446,1223,361,490,427,367,1552,401,1404,1502
1634,1411,1319,1322,1394,1491,1397,1336,1402,415
1121,7,455,1134,495,1518,1044,59,1597,1470
640,644,1037,1424,400,1169,149,22,416,801,36,1066,176,49,50,1335,445,191,192,1350,333,1487,463,1112,1113,225,228,102,1384,1262,1139,1270,1142,505,1147
1248,1153,1441,1258,1676,1264,52,1140,1145,987
1506,1507,646,1159,391,648,527,1616,1425,1361,532,1364,662,1623,24,1276,1021
321,163,582,1162,1675,820,1309,187,541,286
1313,1572,742,1678,1040,243,507,252,510,1311
1219,803,37,1351,1609,79,341,470,344,217
1379,1220,1667,1094,358,1059,557,559,117,1183
581,588,78,593,598,599,1528,1050,572,1341
1346,610,612,110,1555,628,631,600,603,1051
642,653,1360,633,657,659,671,119,1529,1055
1414,681,682,1070,690,691,1461,694,700,702
705,737,739,710,1418,1073,723,219,1468,733
773,264,745,1420,238,753,1074,1494,251,766
776,1069,1421,816,273,792,824,311,1496,794
827,835,837,1451,1618,1080,826,315,830,831
1155,1124,326,1158,1099,1621,1111,1176,1177,1498
352,66,645,1382,1000,524,332,1523,789,1303,348
1444,1668,677,292,487,239,305,689,53,988
996,1254,1447,39,1065,1574,1071,1464,378,60
256,161,1250,1636,104,1001,171,718,1647,1042,1554,338,83,1399,1305,1118
1128,236,508,1327,304,240,1490,822,249,156
1463,706,548,1063,1513,1386,109,749,303,1617,146,212,245,695
328,1259,779,782,144,1557,1525,569,636,189
1024,1475,550,423,1547,791,112,788,407,539,669
704,451,454,1480,1161,683,811,459,1551,443
1096,716,589,1198,1168,1170,210,467,1365,1560
357,1575,1581,111,1106,1524,1652,1561,1018,1116
1670,392,1164,399,408,540,1184,1057,1569,1446,576,1221,466,999,1648,1011,118,246,1660
1570,1092,330,1131,331,1260,1358,719,1265,1010
289,545,676,1573,1093,294,70,265,1359,565
997,678,1129,1263,1553,1522,1009,1266,1277,1151
1027,420,1445,519,553,555,656,1521,1586,275,1144,793,634,637,1471
832,320,1478,1068,1549,698,665,730,828,703
833,707,452,327,585,1550,1493,728,120,1054
480,1508,1582,622,750,497,1235,755,630,735
1156,1160,1163,1583,1039,1103,1072,1141,632,1343
33,1154,34,614,552,204,1613,684,218,1310
122,1062,1127,1615,1138,185,1274,1149,126,1439
1216,1218,547,1285,1273,267,780,1485,1269,502,1304,537,571,284,829,990,1247
1056,1600,834,579,618,619,1489,596,605,607
384,388,1637,136,402,403,692,693,1308,1117
1122,227,1669,1337,615,458,652,184,345,350
1412,1125,1157,701,1133,1137,1143,1495,989,1150
449,1443,486,743,1677,499,1172,726,473,223
513,775,650,396,150,1052,429,316,1217,195,584,201,1356,461,465,595,216,346,1503,993,226,1251,234,1003,1004,1012,638
1281,1058,1257,1034,1516,1679,1171,1053,1214,287
1603,516,169,172,781,1326,1484,1005,1132,1298,438,471,409,1114,1659
194,1605,295,491,235,1038,336,404,410,1307
1665,483,1641,425,270,1301,347,188,1213,1598
258,259,1252,261,230,260,233,1642,241,242,1363,247,254
419,324,229,1481,271,1008,435,597,253,1661
1671,1046,664,1049,154,159,439,1593,1474,342,349,606,1249,98,353,356,1515,1643,1272
368,464,1299,372,1045,339,343,340,1565,351
512,771,522,523,526,655,528,529,534,1175,542,544,673,675,549,556,560,1585,566,567,568,1078,836,580,713,586,587,1230,1107,1109,1367,601,492,493,501,629,503,1013,511
609,488,575,591,592,758,1527,504,1182,1631
1408,1409,1664,1666,1413,1672,1674,1419,1295,1296,1297,1566,1440,1318,1407,1321,1662,1323,1324,1457,1459,1332,1333,1462,1334,1465,1594,1466,1596,1467,1601,1602,1473,1604,1477,1606,1607,1608,1352,1610,1353,1612,1355,1357,1479,1486,1497,1499,1504,1505,1635,1381,1639,1640,1512,1514,1645,1393,1398,1400,1401,1278,1663
1578,1389,1422,1328,1330,1362,1302,1338,1534,1279
1282,1442,1380,1482,1546,1423,1329,1331,1306,1438
514,386,1286,518,1673,531,536,538,413,1185,1193,1196,1203,1340,1231,1234,1236,469,474,1243,489,494,370,1651,498,1653,500,1014,1016,1015,1017
1632,1536,838,551,839,43,430,462,1047,447
