0,1604,261,1093,73,426,1673,627,1331,216,318,1663
1,1443,1124,364,1132,78,211,1364,1150,1503
128,2,4,6,393,266,17,276,21,278,23,277,290,165,42,299,1325,48,432,1594,58,62,64,74,81,82,84,1114,1255,105,106,107,362,492,113,114,115,371,377,1659
257,1282,3,390,7,265,10,11,140,13,269,15,272,1035,19,20,154,155,283,35,38,295,296,43,428,44,47,431,49,178,54,55,312,57,59,60,1468,190,319,68,69,71,80,213,87,344,89,90,215,92,217,221,95,351,1505,994,225,991,357,230,359,1247,233,235,1644,108,116,372,250,1278
5,133,1038,404,1307,157,40,46,174,51,180,181,438,183,188,61,1605,453,325,207,336,210,83,214,992,231,232,365,248,251,1406
449,649,9,458,1485,467,405,22,282,1567,1056,33,1568,1571,224,101,306,1458,1398
134,1675,12,143,145,1299,408,164,167,554,172,177,313,189,1214,192,65,194,193,197,341,97,483,1263,1400,123
1408,259,131,268,14,1306,29,416,37,562,52,187,191,1092,461,208,464,91,1115,99,1254,1510,370,1399
1409,135,264,16,274,1045,25,27,32,36,298,50,307,53,314,1355,85,342,478,353,1383,376,1662,255
1670,329,526,18,212,150,343,151,152,30,1504,354,995,551,1130,45,1647,243
98,389,234,1515,302,304,1168,24,1565,94
417,1601,258,323,1381,262,79,1264,184,26
195,198,169,170,1354,496,1492,1556,375,28
547,163,358,1479,1133,1645,240,1616,1362,403,117,406,31
34,185,100,70,330,203,1131,1330,1593,122
1668,1669,646,1607,138,1610,534,1304,1049,986,990,287,228,1382,39,1010,308,1272,511
1120,1153,1252,1256,360,1320,1609,1324,1262,56
321,66,1667,260,1476,528,466,348,1052,1053,286,118,568,1145,378,507,638
67,1253,1061,1516,1103,1679,1138,1012,1173,1305,1116,1117
1280,385,418,72,650,1484,589,270,1297,148,1270
1665,102,583,510,522,75,1112,381,1470,127
196,456,1481,76,205,206,1356,1363,1596,419,1060,292,363,1328,241,242,1274,1660
352,612,326,586,77,1551,597,536,1048,1438
636,1463,1379,1478,1518,1137,1043,1143,1303,1339,988,1021
256,544,1059,1001,1097,587,271,1296,1490,149,987,220,93,350
130,1572,1157,1608,204,236,110,111,1358,339,440
1218,1548,1549,1360,1171,595,1366,1047,345,1051,223,993,226,614,1129,1003,238,1273
1217,999,1096,1384,1066,1009,1555,1560,120,1215
132,1160,136,137,139,1676,280,539,415,159,161,291,173,179,1597,448,1351,1352,202,471,1634,1639,1392,121
289,294,1036,1677,1519,1615,1457,1553,660,246,1464,126,156,542
324,1033,144,1040,146,340,1557,347,1441,1442,1570,998,423,1576,489,1005
168,425,367,1295,1265,147,379,411,1466,1275,380
153,387,1380,421,1159,648,1546,525,1613,1327,435,409
162,1125,199,200,175,239,1361,1648,186,158
1603,166,395,171,397,1007,401,1365,410,222
1062,618,398,1523,500,1079,1496,1369,382,1055
1606,1319,488,281,427,1068,301,1337,412,317
1281,386,1495,581,1413,582,392,1418,399,1271,1467,284,1277,572
320,327,331,524,333,334,335,1617,468,538,293,1573,553,556,1136,1595,1471
1472,1128,297,394,332,368,529,338,470,1334
1122,356,1480,619,1611,430,1006,497,402,315
1312,611,675,677,552,1064,653,596,1494,1497,1310,383
1475,517,1257,1642,493,1333,439,442,540,445
1216,1123,1385,1067,1260,989,444,1147,1148,1661
1152,1664,516,446,1671,1672,457,1486,1487,481,1279,1321,1258,1323,1460,565,503,1598,1407
450,1635,484,523,495,463,1394,1139,1462,479
451,996,1065,1482,1643,1134,1042,1011,1046,1213
480,576,546,1638,455,490,491,1491,1113,1403
1121,482,1249,1640,521,459,652,1397,1461,604
1477,549,487,557,1008,1552,1336,505,475,543
477,1057,1410,1602,1350,1353,1322,1359,1396,1501
1250,1251,1318,1095,1674,1135,1140,1142,506,1499
512,1440,1666,1636,1401,1649,1332,1335,1465,1566
545,1058,535,585,1578,1164,1580,607,559,1039,561,1300,1559,669,1311
1412,1575,684,685,689,1073,691,628,693,639
676,1127,1002,1034,1037,1614,1071,1169,1298,1044
1345,774,775,776,777,1190,1449,781,755,1239,1529,1530,766,767
770,771,1288,778,1421,1682,1186,1187,1189,1191,1222,1110,1240,1241,1242,757,758,759,760,761,762,763,764,765
768,769,1188,772,773,779,1420,780,782,1562
1389,783,784,751,752,753,754,756,1622,1083
1248,1637,1511,1641,1357,1393,1459,1402,1500,1118
