129,2,5,133,1035,139,141,17,23,280,165,40,41,51,181,316,62,105,1262,1392,113
4,6,137,28,157,415,160,290,1321,169,46,48,432,63,448,207,209,86,471,1114,231,107,114,121
1477,134,7,11,12,1038,1500,992,481,994,357,38,1128,372,565,60,446
289,550,294,1384,8,300,1036,1519,1615,1457,660,126,156,542
1121,1249,1635,200,10,1258,1397,312,123,1279
492,13,14,431,212,1594,187,190,29,1278
35,360,140,334,15,1394,470,1113,250,221
70,1671,135,16,1042,85,25,27,222,36,166,1640,490,171,307,53,255
291,325,103,1256,1325,208,336,19,371,61
20,155,285,349,1248,1252,1637,1638,295,1320,235,301,366,1393,178,116,1462,317,1407
1504,34,1411,100,389,1636,1127,1666,1130,203,526,1134,151,24,1405
1601,258,323,26,1381,262,79,1264,1265,1295,184,1466,1275
256,234,1643,604,271,1298,1554,220,93,1334,444,1661,350,31
576,193,450,195,523,1486,217,91,158,351,417,418,37,1511,1639,1641,1332,54
416,1408,1092,1254,461,464,562,52,1306,1115
159,69,422,297,1642,1459,1336,56,1566,95
68,453,395,401,214,215,152,57,1250,1318,104,233,493,1649,249,319
128,394,1403,276,278,164,168,170,299,172,174,177,59,1472,82,84,87,89,1139,375,379
64,96,1257,74,106,266,115,436,377,1598
321,66,1667,260,1476,528,466,348,1052,1053,286,118,568,1145,378,507,638
98,549,1672,333,302,304,1046,475,94,543
102,1161,1002,1483,1166,1169,1011,1404,540,254
1124,1572,1608,1132,204,1358,111,339,1364,440
1603,1380,185,1159,648,1546,1131,1327,1330,409,122
355,132,173,1357,367,179,147,279,281,1118
153,387,421,330,525,1613,1007,435,1365,1593
480,162,186,1322,335,410,495,1491,213,314
192,197,1675,1361,1299,341,408,483,1125,554,239,1263,1648,1400,313,1214
384,513,322,1122,356,1474,1547,396,1611,1006
353,1383,1353,1355,1359,1396,439,442,1499,1662
454,1162,1550,1103,1679,1173,1305,1116,1117,1444,1061,1253,1126,1516,1012,1141
1410,517,1350,1095,1337,1487,1329,1395,1465,1307
896,897,1538,903,1224,1225,906,908,909,910,1657,893,1374
961,962,963,964,1633,1210,1294,1434,1564,1630
1120,1153,1634,1605,1606,1351,1352,1324,1676,1008
1057,1604,1470,1067,1037,1112,1147,1148,1501,1502
