0,1604,1093,510,583,1673,522,1331,1112,381,1470
1665,129,2,6,7,393,1035,17,21,278,160,290,295,41,432,58,62,63,209,82,215,216,217,95,351,107,114,377,1278
3,4,10,11,13,16,23,24,34,36,37,38,44,47,48,51,53,54,55,60,64,70,75,80,84,85,87,89,91,94,96,98,99,100,102,106,108,110,113,116,1663,128,130,135,140,146,155,165,178,190,203,205,211,213,221,222,225,1255,233,234,235,236,255,256,257,259,261,266,271,272,283,299,302,304,310,312,314,319,342,353,372,426,428,431,436,994
5,133,1038,404,1556,1307,157,40,169,170,180,181,438,183,188,195,1605,198,325,453,1354,336,210,83,1492,214,992,231,365,496,375,251,1406
232,174,207,46,14,208,248,187,28,29
547,163,358,1479,1133,1645,240,1616,1362,403,117,406,31
32,1409,478,1383,264,298,1355,50,274,1045,376,1662
1505,1282,991,390,230,296,265,1644,49,344,154,1468,1247
530,279,412,422,1319,1320,1324,1334,56,1337,1472,1606,1609,337,338,1120,1256,1147,1148,1661
192,65,194,193,197,200,1675,1299,341,408,97,162,1125,177,1400,186,123,1214
321,66,1667,260,1476,528,466,348,1052,1053,286,118,568,1145,378,507,638
67,584,267,1550,1679,1173,1305,541,1117,1444,548,1126,424,1516,1138,1012
1443,1124,1157,1572,1608,204,1132,1358,111,339,1364,440,1150,1503
1603,387,421,648,330,1131,525,1330,435,1593,122
132,166,136,168,171,173,367,147,179,212,220
1280,385,1094,650,1484,589,270,1297,148,608,1569,229,1000,1326,176,564,1270
153,1380,1159,409,1546,1613,1007,1327,1365,185
640,585,1419,1039,533,1559,1311,1058,1514,237,244,501,247,249,252,637
1464,1096,1384,1066,1036,1677,1615,1009,1457,1553,1555,245,1560,1215
417,418,420,389,425,395,397,401,402,379,410,411,380
392,1129,1418,1549,499,1269,502,1273,1467,572
1664,1249,1477,549,1353,1261,1298,1011,439,1113,543
1251,1636,1502,521,1037,505,1401,442,540,1566
1248,1121,1602,451,1672,1166,1359,1008,1486,1044,506,477
1411,455,1321,490,1643,1552,1393,1139,1396,1460,1499,1598
480,1440,1250,1065,1257,459,1482,1674,604,1118
481,516,1638,1350,463,1042,1302,503,1462,1500
482,1671,1063,1002,493,1405,1046,474,1501,575
1152,1410,1511,1641,1323,491,1487,1333,475,1404,1279
1057,1635,1637,487,1169,1649,1395,1465,1402,479
1632,1509,1578,1163,1164,1259,1580,559,607,561,1300,535,1144,1631
546,1640,1322,1134,1394,1459,1397,1142,1336,1403
1344,1185,738,1221,748,749,1582,1109,1621,1527,728,733
1536,833,1027,837,838,839,1451,1586,1653,828,831
1088,1028,849,850,851,852,853,854,855,856,1204
