1,130,1572,1609,202,204,364,78,529,211,440,441,1503
129,2,325,336,81,1113,165,231,41,42,105,113,1139,1397,183,58,1403,62
1248,1249,1472,3,1252,1008,1460,89,379,1118
4,516,6,169,1258,172,334,59,221,30
5,133,40,17,210,1394,21,277,23,248
1638,38,168,7,394,11,1323,431,565,60
289,550,294,1384,8,300,1036,1519,1615,660,182,1464,156,542
1671,10,45,495,335,18,307,312,314,152
65,481,1475,357,491,12,14,372,29,446
225,1250,453,200,15,16,244,503,25,250
291,141,1262,28,208,19,371,181,316,349
35,1256,427,366,367,1491,20,214,470,1279
1664,1666,1411,389,1672,203,333,1046,24,94,161,34,100,1636,1134,247,188,1405
1409,264,1355,274,85,1045,27,478,32,1383,1640,298,50,376,1662,255
256,234,1643,271,1298,1554,604,93,350,31
36,70,166,135,329,490,171,1322,1647,1042,53,222
480,1318,186,43,108,428,212,213,1402,479
1153,1605,167,71,44,80,272,55,380,158
74,1035,140,492,46,48,178,180,155,157
1505,1282,991,390,230,104,265,296,1644,49,344,57,154,1468,1247
103,137,139,1325,51,471,280,121,61,415
1120,193,450,417,295,523,1676,54,217,351
159,69,422,1511,136,297,1352,332,1486,1142,56,187,95
160,290,1635,393,107,1357,432,209,114,1393,86,1462,1114,63
64,96,128,1255,232,106,266,115,436,377
321,66,1667,260,1476,528,466,348,1052,1053,286,118,568,1145,378,507,638
353,68,1128,1353,1065,395,401,1649,1396,1461,342,439,442,319
1410,1350,73,1354,75,1492,1556,1501,1057,674,1123,426,496,305,627,1337,1147,127
1477,207,82,83,84,276,278,1500,989,992,1639,170,299,1642,174,1594
124,1553,1170,245,246,373,88,219,120,126
1152,1634,1637,1606,455,359,1257,90,92,1598
98,419,292,549,1060,1127,1481,1674,302,304,1274,475,543
451,358,1479,236,1133,110,240,1616,402,117
1443,1124,1157,1608,1132,1358,111,339,1364,1150
1495,1129,1003,1004,1549,1360,1269,1271,1277,1022
153,387,421,1159,648,330,409,525,435,185,122
257,1121,164,425,123,237,177,145,411,283
355,132,301,173,179,147,279,281,317,1406
512,1219,1483,459,1166,144,1169,146,477,1439,482,1063,1002,310,1404,254
1280,385,1094,650,1484,589,270,1297,148,608,1569,229,1000,1326,176,564,1270
162,233,269,493,1359,150,215,249,410,1499
515,547,163,456,1034,1260,1645,1071,368,338,403,530,1362,406
1408,1092,1510,1254,1552,1399,1465,1306,1115,191
192,197,1675,1361,1299,341,408,483,1125,554,239,1263,1648,1400,313,1214
1602,199,652,1356,205,1328,1363,1044,1660,1596
1093,487,1161,1482,557,1261,1011,1112,505,540
640,545,1509,1514,1163,1259,559,561,533,535,1144,669,1311
1088,1028,849,850,851,852,853,854,855,856,1204
1463,1379,1478,1518,1137,1013,1303,988,1021,1438
1217,999,1096,1066,1677,1009,1457,1555,1560,1215
1603,1380,1546,1131,1613,1327,1007,1330,1365,1593
1440,1251,1351,1321,1641,1324,1332,1333,1335,1401
