0,1604,261,1093,583,510,1673,522,73,1487,1112,1123,1639,305,1331,1465,381,1470,1663
1,130,529,403,406,163,547,441,1479,456,1609,202,78,1616,1362,211,358,364,1133,1645,240,117
257,129,2,4,5,6,133,137,393,13,145,17,21,277,23,283,29,415,165,41,425,432,1460,183,63,74,81,209,210,86,96,1121,1249,1635,121,994,231,105,106,107,237,1008,113,114,115,377,123
128,3,132,7,394,139,141,142,15,143,397,19,20,147,279,280,281,28,157,291,168,169,170,427,172,301,46,431,1323,1325,51,181,438,59,61,189,448,194,325,457,334,207,336,208,82,84,87,1113,221,97,355,484,1252,1638,103,365,1262,366,367,1135,1394,371,1139,375,250,1403,1407
516,10,18,152,30,35,164,1320,45,173,177,179,312,57,1468,317,453,200,470,214,89,991,1247,225,1250,104,360,1256,235,1258,244,1397,503,379,1279
1248,481,134,38,11,1357,565,1462,60,446
1477,357,12,349,116,372,1336,285,316,989
1671,1322,335,16,307,1491,25,314,27,255
1664,389,70,1672,333,1042,1046,24,220,94,222,161,1334,247,444,188,1405
1601,258,323,262,79,463,1295,26,1566,1381,1264,1265,370,1459,184,1466,1275
256,271,1554,1298,1299,604,93,350,31,1125,234,1643,1648,1400,313,1214
1409,264,395,401,274,1045,410,32,162,1318,298,50,186,319,68,1355,213,215,478,480,1383,233,493,1649,376,249,1662
353,34,1411,100,1666,166,1640,203,1134,1359,1396,342,439,442,1499
1636,36,135,1065,490,171,1353,495,85,53
576,418,1634,37,1351,1641,523,1676,1486,1332,54,91,351
1668,1669,646,1607,138,1610,534,1304,1049,986,990,287,228,1382,39,1010,308,1272,511
992,167,71,1319,140,44,178,55,155,1597
1605,136,297,332,1324,1038,47,80,212,380
1472,1255,232,362,48,1392,83,180,404,251
1505,1282,390,230,296,265,1644,49,344,154
159,69,1352,361,1035,492,56,1594,539,95
840,841,842,843,844,845,846,847,848,1290,1291,1427,1428,1452,1688,62
64,266,299,174,276,436,278,1114,1659,1406
321,66,1667,260,1476,528,466,348,1052,1053,286,118,568,1145,378,507,638
67,1444,548,1126,424,584,267,1550,603,541
1057,546,198,426,75,496,1329,1552,253,318
550,1464,1036,1677,300,1519,1615,1457,1553,660,182,246,88,219
1120,90,455,359,1642,108,428,1402,92,479
98,1602,549,1127,1674,587,302,304,1490,475,543
352,612,536,109,1551,597,662,664,1048,1438
451,996,1572,1608,204,236,110,1358,402,339,440,506
1443,1124,1157,1034,1132,1071,111,1364,1150,1503
1217,999,1096,1384,1066,1009,1555,1560,120,1215
995,330,1131,1613,1647,1330,243,151,1593,122
1219,324,1033,144,1040,146,340,1557,347,477,1441,1442,1570,998,423,1063,1576,489,1005
1280,385,229,650,1484,589,270,176,1297,148,564,254,1439
1504,153,387,1380,421,1159,648,1546,525,1007,1327,435,409
193,450,417,1637,295,1511,272,217,158,1118
192,483,197,554,1675,239,1263,1361,341,408
1410,195,1350,1095,1354,1395,1140,1492,1556,1307
515,199,1481,652,205,1356,338,530,1044,1260,368,1328,242,1274,1596,1661
577,1154,388,391,1099,1612,593,532,1561,218,606,997,1512,1266,566,1276,1151
384,513,322,1122,356,580,1474,1547,396,1006
1379,1478,1518,400,1137,1043,1143,1463,1339,1303,1021
454,1162,1679,1103,1173,1305,1116,1117,1061,1253,1513,1516,1138,1012,1141,569
1569,482,1094,1000,1002,1166,1169,1011,1270,1404
1289,823,1199,816,1425,1426,820,822,1623,825
1152,1153,1128,1257,1160,1321,1393,1333,1500,1598
