0,1604,1093,102,583,510,1161,522,1673,1331,1112,540,381,1470
128,2,325,169,81,82,180,248,188
96,280,4,137,170,1325,367,208,1392,436,157,214,278,61
5,6,40,105,492,46,48,113,276,23
133,1255,1035,1262,84,181,86,1278
161,257,355,994,1319,1320,13,1038,496,1492,190,95
1252,27,362,314,14,1114,1659,1598
768,769,130,770,771,772,773,774,775,776,777,778,779,780,781,782,783,784,1682,1420,1421,1529,1530,1562,674,1186,1187,1188,1189,1190,1191,1449,557,1083,1345,1222,1288,1622,1239,1110,1240,1241,1242,1123,1389,751,752,753,754,755,756,757,758,759,760,761,762,763,764,765,766,767
1153,1634,231,365,627,438,29,1406
453,456,299,338,1302,349,94,1663
1120,3,132,516,503,103,360,139,375,28,415
1152,7,167,297,332,431,80,1008,1460,380
1568,33,449,101,9,458,649,1002,306,467,1458,22,1398,282
480,162,1250,1640,200,10,186,85,213,312,410,152
193,417,1637,38,134,295,1511,11,272,565,60,158
491,12,301,366,141,145,20,283,317,1279
35,100,427,45,237,15,1552,1393,1397,279,281,250,155,285
1664,225,34,1635,484,389,70,1671,1482,1324,207,16,335,307,411,220,30
1411,136,142,143,18,19,25,1321,47,51,56,1594,316,470,1636,104,361,1258,244,123
512,521,1676,1037,144,1169,24,546,425,310,1465,1472,194,1351,73,331,1502,482,99,488,236,495,1011,1147,1661,127
1601,258,323,26,1381,262,79,1264,1265,1295,184,1466,1275
256,234,1643,271,1298,1554,604,93,350,31
32,1409,478,1383,264,298,1355,50,274,1045,376,1662
353,36,135,1065,490,1322,1353,1359,1396,53,342,439,442,1499
576,418,37,463,370,1459,91,1566
228,1669,646,1607,39,1610,511,1304,1049,990,287
1638,166,422,42,235,140,333,397,178,179,116,1462,57,1597
43,108,428,269,1461,150,1402,479
1505,1282,991,390,230,296,265,1644,49,344,154,1468,1247
416,1408,131,1092,1254,1510,268,461,464,562,52,1399,1306,1115,191
450,1641,523,1486,1332,54,217,351
1609,1034,1260,78,529,402,1046,55,505,251
89,164,168,59,394,172,334,177,1394,1139,379,1113,1403,221
159,65,259,195,261,71,1639,1323,1357,372,1333,1336,1404,1405,1407
321,66,1667,1476,260,1052,528,466,118,568,1145,378,507,348,1053,638,286
541,67,1444,548,1061,1253,584,424,1126,267,1516,1550,1679,1138,1173,1305,1116,1117
68,1318,233,395,493,401,1649,215,249,319
1665,1605,69,198,1354,1134,1487,1042,147,1307,253
1184,704,1216,708,1063,1483,720,146,1491,1334,1080,1337,1343
448,992,74,173,174,404,87,471
1057,1410,517,1350,1095,426,75,1329,1395,1140,216,1501,318
419,196,1060,292,1481,363,76,1356,206,1328,241,242,1363,1274,1660,1596
645,1551,400,1043,1303,1048,1438,1463,1339,1478,586,77,597,988,1379,612,109,1518,1137,374,1143,636,1021
1440,1251,359,455,1142,1335,1401,90,92
1249,1121,97,1672,1257,459,1261,305,444,445
1248,451,1642,203,247,187,477,222
98,1602,549,1127,1674,302,304,475,543
1443,1124,1157,1572,1608,204,1132,1358,111,339,1364,440,1150,1503
388,1512,1612,112,532,1301,566,1561,218,1469,1151
547,163,358,1479,1133,1645,240,1616,1362,403,117,406
1218,579,226,386,1051,1418,1548,238,1171,1047,629,1366,1495,443,1277,223
1036,1677,1553,1555,1560,542,289,294,1066,300,1457,182,1464,1215,1217,1096,1615,219,999,1384,1519,1009,373,245,120,126
1603,1380,648,1546,1131,525,1330,409,122
1668,1382,138,1010,308,534,1272,986
544,1059,1001,1097,587,1515,1168,1296,1490,149,987,1565
1504,354,995,1670,551,329,1130,526,1647,243,343,151
153,387,421,1159,330,1613,1007,1327,1593,435,1365,185
1666,1219,487,1352,171,175,1135,1556,189,1118
192,197,1125,408,1675,239,1299,1400
515,996,199,652,205,530,1044,506
481,1477,1606,1128,212,1500,989,446
224,1056,1571,1439,1485,1166,405,254,1567
384,513,322,227,356,1474,1480,1547,396,430,1006,407
545,1058,1514,1419,1578,1300,501,535,252,607
675,1412,1062,1575,684,465,689,596,309,631,1496,1497,1309
1600,581,392,1003,1360,499,311,1467
483,554,1263,1648,1361,341,313,1214
1441,1442,1570,324,998,423,1576,489,1033,1005,1040,340,1557,347
1473,1156,1574,328,1386,527,656,369,1521,1525
1475,357,1447,711,1067,337,695,601,1148,1213,702
1283,1285,653,398,1054,1055,1312,1310,677,1064,1073,691,1079,611,1520,1650,1267,1268,628,1149,382,383
993,1281,1413,1129,1549,399,1269,502,567,1273,1498,1271,572
1632,1509,1163,1164,1580,1631,1039,533,1144,1311
1286,1182,1183,1185,1314,1582,1071,696,697,1081,699,700,703,1344,705,718,719,722,723,1109,1238,725,728,730,1371,733,737,738,742,743,745,1385,749,1651,1526
1313,1221,1160,748,1621,1527,539,701
1280,1569,1094,1000,650,1484,1326,1297,1270
682,685,690,1494,1369,666,1017,1599
