0,1604,1093,510,583,1673,522,1331,1112,381,1470
1,515,1034,236,205,110
96,432,2,115,58,106
16,35,3,20,25,27
4,325,6,231,137,336,81,471,121,415
195,5,232,13,174,14,180,276,187
65,38,7,11,12,158
289,294,8,1384,1615,1009,660,126,156,542
449,467,405,1398,649,458,9
18,152,244,104,10,45
162,164,166,168,171,172,15,145,147,59
17,82,113,69,1255,105
208,19,51,371,61,139,141
248,210,133,277,21,40
224,33,101,22,282,1485
992,83,84,23,170,375,207
1405,389,1046,1672,24,333,94
64,128,103,169,266,28
85,213,135,411,237,30
256,234,1643,271,1298,1554,604,93,350,31
34,1411,1636,100,70,1666,203,1134
426,305,36,53,73,1002
160,129,41,107,431,1008,114,62
43,108,428,269,1461,150,1402,479
80,132,380,394,44,367
97,134,123,60,47,143
48,404,157,74,251,365
49,390,230,296,265,991,1247
562,1092,52,1254,1399,191
450,1641,523,1486,1332,54,217,351
179,56,317,539,173,1262
453,214,57,364,366,255
321,66,1476,260,528,466,348,1145,1052,1053,638
67,548,584,603,267,541
68,1318,233,395,493,401,1649,215,249,319
355,71,281,410,397,334
144,146,102,75,254,127
419,196,1060,292,1481,76,206,1328,1274,1660
400,1021,644,645,326,586,77
130,451,506,459,477,78
136,140,301,142,116,87,279,349
1440,1251,359,455,1142,1335,1401,90,92
360,422,1334,1320,1337,95
98,1602,549,1127,1674,302,304,475,543
352,612,374,1303,636,109
1443,1124,1157,1132,204,111,1150,1503
240,547,163,403,358,117
1667,118,568,378,507,286
435,185,421,1159,153,122
416,1408,131,1510,268,461,464,1306,1115
228,1669,646,1607,534,138,287
1280,385,1569,1000,650,589,270,1326,1297,148,1270
1296,1490,149,1515,587,1565
1504,995,1670,151,1130,1647
1392,178,361,235,155,285
338,470,1319,1352,1324,159
161,247,441,202,188,335
209,211,165,456,1035,1278
193,194,200,1675,239,1648,177,313,186,189,1214
448,291,181,438,280,316
418,357,198,297,332,253
1361,1299,1125,199,1400,1263
225,517,1095,1329,222,1395,1140,216,221,318
368,337,261,1351,444,220
272,257,417,295,425,283
994,1406,278,1114,1659,1038
288,1154,615,616,429,606
320,293,327,553,524,556,1471
1665,627,436,362,299,1663
1281,595,582,567,443,303
1441,1442,307,312,1576,314
324,340,310,423,489,347
384,513,322,580,1611,396,1678,1493,407,315
1603,387,648,330,1131,409,525,1007,1593
339,1572,1364,440,1608,1358
1616,1362,1133,406,1479,1645
1120,1148,412,1067,1260,1068
1305,424,1513,1516,1550,569
1444,454,1162,1103,1141,1173,1116,1117
480,481,482,512,484,457,490,491,463,495,503
1409,1045,478,1383,1355,1662
496,1492,1594,1354,1307,1325
576,529,530,565,652,540
704,1313,721,1183,701,735
801,803,807,811,813,815
848,1428,1291,844,845,846
1537,869,872,873,874,876,1624,1625
868,870,871,875,877,1589
1010,1668,1272,1049,986,990
1266,1220,997,1099,1276,1151
1040,1570,1557,998,1033,1005
1138,1012,1061,1253,1126,1679
1379,1438,1013,1463,1339,1518
1169,1522,1044,1147,1037,1071
1121,1250,1161,1042,1609,1135
1248,1057,1123,1635,1638,1128
1217,1553,1170,1096,1066,1215
1113,1249,1257,1258,1598,1118
1152,1394,1139,1252,1333,1321
1472,1153,1661,1639,1256,1160
1264,1601,1265,1381,1275,1295
1664,1475,1477,1671,1500,1279
1410,1350,1385,1322,1404,1439
1393,1606,1336,1323,1357,1407
1330,1380,1365,1546,1613,1327
1491,1460,1459,1462,1511,1403
