0,263,14,1429,151,1441,292,432,1329,1459,316,318,194,88,353,1383,489,1131,108,1645,496,1404
1024,1,386,645,1030,1273,774,1545,1288,1548,658,788,790,1687,1562,922,1311,1190,554,433,946,691,949,950,571,1084,572,1343,833,980,1604,966,968,585,714,969,717,1230,462,720,1233,1234,1235,976,1621,977,599,978,979,1626,218,347,1245,1246,735,473,476,610,738,867,741,750,626,1266,882,1269,1143,761,1271
1377,481,1349,1223,427,268,77,913,84,1333,1307,93,1598
1664,1442,1669,838,7,1606,1258,147,1491,1653,1302,1466
256,352,1253,1125,9,1481,523,1675,1613,530
906,10,422,557,302,176,565,1607,331,1363,1374,1505,1382,1511,871,493,241,501,886,1655,1151
96,1152,453,1605,455,425,1641,11,172,1325,181,55,27
65,1153,262,1350,1609,12,140,158,543,929,33,1321,490,822,1594,1403,190
198,296,1320,1130,139,491,13,1482,431,1140,438,887,1112,253,159
1408,1666,1419,909,525,15,18,1042,1046,1566,1440,416,546,1060,424,305,50,178,60,61,576,1473,1219,68,328,1357,1113,1121,994,355,1639,1649,242,123,893,1407
36,1256,970,587,76,16,1528,25,1435,124,415
516,133,266,786,19,20,664,285,1319,295,170,436,58,1597,1472,193,325,208,210,221,1262
526,1296,145,406,24,31,544,801,1056,549,1331,51,196,1479,199,206,1247,1504,1250,1638,368,1142,125,510
354,1477,351,875,47,179,820,1045,1334,26,444,479
195,269,281,89,349,30,484,1252,1318,166,360,361,45,48,1460,116,441,314,446
32,162,483,1411,739,358,39,584,903,277,1627,1148
1414,1547,271,1039,1168,1555,660,534,1180,1184,1058,932,429,1328,689,1339,1213,706,1619,1508,1259,1133
1601,134,265,138,1373,225,1380,421,38,103,1385,237,1138,1139,951,445
1216,644,1384,41,233,1355,300,1483,1518,1643,1644,1011,1272,1146,798
1094,1674,910,1361,466,1306,90,1375,1248,163,998,487,1574,49,442,380
897,258,1275,146,417,1057,420,807,1449,52,1335,317,450,1351,333,1486,79,1115,603,1249,482,611,1379,1134,879,1657,379
66,98,678,905,1257,1487,1425,1044,56,1663
902,399,148,1685,917,1303,1308,542,1317,933,1463,185,62,1476,459,1362,604,999,1515,1390,240,629,1149
1280,513,130,1443,993,69,1465,1489,1529,1599
1217,1218,1027,1543,652,1490,1116,1444,1126,1575,1194,234,1582,373,507,1276,254,1471
385,387,1348,73,908,1488,1493,608,485,683,239,815,497,1524,1270,1400,381
448,1410,154,1323,492,80,177,375,186,1470,1279
1474,356,901,1353,748,463,400,1423,1298,307,1616,85,92,1662
1033,1170,403,1556,1301,155,161,545,937,435,182,443,191,1226,203,204,1101,589,467,343,601,91,1501,477,480,229,1127,1001,749,1648,755,249
99,1446,1000,1358,143,304,1297,592,1263,1523,118
257,451,101,934,1063,1576,1513,669,540,1299,120,1660,989,990
961,1475,1124,357,102,649,1422,1519,1364,789,503,344,1629,286
960,1352,1359,1617,153,1497,1305,730,1049,862,936,1007,1135,1264,1327,1654,122
1159,423,1161,650,1514,1356,1550,1040,1652,597,1173,568,636,126,127
1570,1095,327,583,1036,1454,1009,306,310,1402,1467,157
1120,192,1602,260,164,200,394,171,366,1396,470,859,1405
418,1635,230,1255,1324,173,372,244,1397,1336,222
896,312,1542,1065,1401,207,272,335,1615,215,376,1593,991,220,1215
1409,1092,517,334,1424,1552,274,340,213,1623,217,475,1438,1381,294,1008,319
224,261,1520,1330,1107,308,1686,536,1048,1309
1313,227,1636,1546,1166,721,1137,851,339,245,1109,1553,927
1220,1225,1229,270,411,348,541,1565,1118,289,676,1322,1261,1006,1326,1522,1395,1214
1667,996,389,287,528,338,1398,1053,1502,1439
288,1122,1251,1637,1062,1670,1300,309,1399,1052,1469,1150,1503
1539,1164,1554,1573,550,1066,1199,559,1586,313,569,1595,1221,582,1096,1103,1365,1128,1018,892
898,1154,1541,1671,1672,395,524,342,419,1254,1642,1458,1332,1274,1596,1661
1282,1507,1572,1061,614,1003,684,461,345,1310,671
