10,1169,1301,151,287,33,162,166,171,188,321,196,453,1481,206,604,353,99,1254,1008,1527,249,125,511
1,130,227,1220,1443,195,359,1256,291,1642,202,332,397,1645,339,1657,506,893
0,2,3,4,5,6,7,11,12,13,17,18,19,21,28,29,31,36,38,40,44,45,47,48,51,58,59,61,62,63,64,65,74,79,80,81,82,83,84,85,86,87,89,96,97,100,1639,103,106,107,114,116,1140,118,121,128,129,1153,131,132,137,139,140,141,154,155,157,160,165,168,169,170,173,174,177,178,179,183,186,190,192,198,209,1248,231,1255,233,250,253,262,268,269,274,786,276,278,279,280,281,795,285,801,290,807,297,1323,299,329,1357,336,361,875,377,390,405,409,410,432,435,444,455,463,470,471,479,992,995,490,495,1010,505
899,654,782,1172,673,811,1198,1078,1599,585,203,204,719,464,210,594,1368,1519,885,758,1014,504
1538,611,388,1080,1445,1547,716,1230,1072,1168,1557,216,730,282,891,220,575
640,1152,258,263,1035,525,526,1295,16,14,149,23,283,798,159,1441,35,164,1447,1065,41,298,820,180,822,436,312,318,319,834,69,325,837,458,330,205,344,859,95,1250,483,1380,104,108,748,492,1648,113,115,248,251
1218,550,678,1000,1384,554,1643,815,1328,1615,1647,629,565,568,1049,1308
385,1475,739,1285,1352,8,1513,1385,524,557,146,467,1554,1524,1270,1398,1528,1247
577,1381,1093,75,77,1037,1525,693,1274,187
260,391,528,1297,530,1276,1303,407,689,1458,313,1609,1616,1251,1001,1515,1652,636,1151
1184,292,197,1669,487,584,1480,9,423,791
352,1505,451,1221,70,102,1675,493,112,343
1409,1121,515,1602,133,1477,167,360,1605,394,522,338,1396,1397,1113,1534,1279
1252,1671,1320,457,135,150,56,1497,124,24
191,98,419,871,1296,316,342,441,1660,1215
1601,1318,1350,1257,1322,1424,1138,1139,503,1150
32,1666,1411,517,1253,646,582,341,182,26
1606,265,395,1324,461,50,52,1142,534,310
1664,1442,1511,1351,1449,1353,1330,1302,1334,376
1470,101,1383,1640,362,237,1265,1661,1662,351
609,548,37,328,1673,1164,144,592,1490,53,91,286
512,122,110,559,538,569,986,1595,1501,127
1536,1379,1636,71,1128,1610,1644,1166,728,271,1363,596,152,1465,156,1214,57
544,1154,549,39,300,304,1300,308,540,1596
257,387,1092,73,138,331,1226,496,49,627,148,1593,1439
450,259,456,143,145,1331,1492,1272,153,510
1474,482,356,261,838,1410,1223,1225,906,1258,1068,1135,1404,442,1500,412,1374
1472,296,425,491,428,1038,379,54,1403,317
1504,417,546,366,401,372,213,501,1305,1146
230,711,1482,1326,887,375,664,314,1148,446
389,421,424,334,1170,211,1364,181,1598,415
1376,987,1063,648,908,1612,910,302,305,147,185,1499
998,1095,1033,1036,1261,1553,1266,1523,1143,828
66,1059,322,1419,1483,1486,1556,1337,1467,92
1024,1632,1539,771,293,552,553,1259,1516,275,788,1273,539,990,1343
67,1030,556,882,1555,309,566,1463,597,573
704,1507,900,1286,392,905,912,1563,892,703
1062,1512,1160,1548,1071,1039,721,1106,1108,1182
576,1569,1571,1575,1514,1611,1582,1583,1617,1183
608,452,750,735,723,1237,245,508,1373,1631
448,355,422,1319,393,1130,427,1260,1306,1521,1335,380,1466,60
418,134,1607,270,400,1460,695,1336,445,991
1440,1408,1635,1423,1329,1459,1044,1333,1400,1438
1056,161,289,480,68,586,656,340,1623,1407
1094,1676,1007,1264,1552,117,1653,1339,1566,1663
641,898,773,1415,1479,1159,904,780,529,797
294,1420,684,430,686,434,1494,694,1051,671
579,567,581,459,588,465,1299,1495,1052,701
226,1061,614,218,1677,474,726,1433,90,477
993,1572,1194,620,1104,1073,1107,1109,1021,1310
1349,238,1390,1646,497,628,1590,507,1309,1503
1549,1043,535,1311,1448,433,570,571,580,462,593,595,598,486,498,499,500,1019,1022
1314,610,631,619,622,111,1047,599,1530,603
1346,163,1540,645,676,659,663,1048,666,639
708,1478,712,1354,722,725,184,1050,219,189
224,738,229,232,1360,1489,761,763,1054,223
775,267,1069,783,789,1366,790,1496,794,254
1088,803,1091,1067,1099,1102,1522,1074,1369,1084
1600,327,839,810,1105,315,849,824,826,1371
1412,1156,1162,1133,1167,1619,1171,853,1110,1117
384,1414,346,370,1174,374,889,1626,894,895
1186,1188,901,1418,1196,1197,1203,1204,1621,1177
902,907,396,1421,911,402,403,1684,1206,408
1281,1004,1422,1231,1269,1526,1016,1277,1018,413
320,1157,903,426,1613,1358,494,1679,851,307,1332,662,886,119,347,252
1060,1125,1161,1066,1005,1550,239,1361,988,1053
1280,1219,1476,1224,76,333,176,1395,564,1429,20,120,93
1249,199,1672,142,15,1393,214,94,158,30
484,516,1674,123,1359,215,25,475,989,543
34,1382,105,172,46,1275,1487,55,88,27
1313,545,1027,1668,323,326,454,683,909,660,1365,1375
1057,1446,742,615,1546,243,888,217,378,222
1126,999,1096,1578,1103,1327,1141,1145,1338,126
1216,513,647,776,1608,650,523,1362,406,1529,541,638
193,1122,547,1604,201,337,692,440,1401,443
1282,136,727,78,335,879,1655,345,1405,542
1637,997,1034,1003,240,1137,1493,247,476,1149
1217,194,1123,1348,996,1670,652,1134,1112,1402,607
416,1473,354,358,489,236,749,1425,1042,533
1667,1127,1199,1011,373,1045,1399,1176,633,1278
896,481,994,266,1131,1485,207,208,367,277,1462,221,1406
449,200,1641,1659,1355,1321,1394,1594,1307,1213
1570,420,677,1576,521,1678,399,1488,303,466,306,212,1136,1046,1457,698,606
1565,1124,357,1129,1009,1205,823,1144,637,1502
256,225,1444,1574,1031,519,234,235,618,241,913,1586,244,1012,1656,1627,1471
707,485,682,555,1356,429,1040,1560,348,350
1058,1508,1573,616,1002,1006,1116,1263,1173,1180
1634,364,781,1325,301,368,1392,242,438,1114,1597,478,255
897,1603,295,589,1262,272,1491,404,371,411
1665,1090,587,365,431,1298,884,601,349,381
1120,644,1638,1115,1132,1101,1518,1649,1147,1118
