0,1604,261,1093,583,510,1673,522,73,1487,1112,1123,1639,305,1331,1465,381,1470,1663
1,130,529,403,406,163,547,441,1479,456,1609,202,78,1616,1362,211,358,364,1133,1645,240,117
128,3,132,7,394,139,141,142,15,143,397,19,20,147,279,280,281,28,157,291,168,169,170,427,172,301,46,431,1323,1325,51,181,438,59,61,189,448,194,325,457,334,207,336,208,82,84,87,1113,221,97,355,484,1252,1638,103,365,366,367,1262,1135,1394,371,1139,375,250,1403,1407
257,4,5,133,137,13,145,17,21,277,23,283,29,415,165,425,432,1460,183,63,74,81,209,1121,1249,1635,121,994,231,105,107,1008,113,114,115,377,123
1248,481,134,38,11,1357,565,1462,60,446
1477,357,12,349,116,372,1336,285,316,989
1671,1322,335,16,307,1491,25,314,27,255
1664,389,70,1672,333,1042,1046,24,220,94,222,161,1334,247,444,188,1405
256,271,1554,1298,1299,604,93,350,31,1125,234,1643,1648,1400,313,1214
1409,1355,1045,213,478,32,480,162,1318,1383,233,298,1649,50,249,1662,319
1636,36,135,1065,490,171,1353,495,85,53
576,418,1634,37,1351,1641,523,1676,1486,1332,54,91,351
992,167,71,1319,140,44,178,55,155,1597
1605,136,297,332,1324,1038,47,80,212,380
1505,1282,390,230,296,265,1644,49,344,154
416,1408,131,1092,1510,268,461,562,52,191
159,69,1352,361,1035,492,56,1594,539,95
64,266,299,174,276,436,278,1114,1659,1406
321,66,1667,260,1476,528,466,348,1052,1053,286,118,568,1145,378,507,638
67,1444,548,1126,424,584,267,1550,603,541
1057,546,198,426,75,496,1329,1552,253,318
1120,90,455,359,1642,108,428,1402,92,479
98,1602,549,1127,1674,587,302,304,1490,475,543
451,996,1572,1608,204,236,110,1358,402,339,440,506
1443,1124,1157,1034,1132,1071,111,1364,1150,1503
1217,999,1096,1384,1066,1009,1555,1560,120,1215
995,330,1131,1613,1647,1330,243,151,1593,122
1504,153,387,1380,421,1159,648,1546,525,1007,1327,435,409
193,450,417,1637,295,1511,272,217,158,1118
354,1603,1670,551,329,1130,526,1365,343,185
515,199,1481,652,205,1356,338,530,1044,1260,368,1328,242,1274,1596,1661
384,513,322,1122,356,580,1474,1547,396,1006
1569,482,1094,1000,1002,1166,1169,1011,1270,1404
640,1632,1509,1146,1514,1163,1419,533,1338,1631
1376,891,1348,1349,1224,1390,1590,1626,1627,1375
896,897,1225,906,908,909,910,1657,893,1374
1378,939,940,941,1228,945,948,949,952,1592,1209,1658
1543,1229,942,943,944,947,959,954,956,1628
960,1377,1629,1544,1686,950,953,955,957,958
1152,1153,1128,1257,1160,1321,1393,1333,1500,1598
