0,1536,450,37,1285,1065,1353,1486,721,1332,312,217
1,2,4,5,6,1035,14,17,19,23,24,25,28,30,31,34,35,40,41,44,46,51,55,58,59,60,61,62,63,65,68,1606,71,73,74,77,81,82,83,84,86,87,89,1114,93,96,102,104,1641,107,114,115,116,627,1140,121,1659,124,1660,128,129,131,134,135,137,142,152,158,160,165,169,172,180,181,183,186,192,194,196,197,198,199,200,204,205,208,209,210,211,213,214,216,1247,1248,225,231,1256,233,235,236,248,251,1278,255,256,257,258,259,260,263,269,270,274,786,276,277,278,279,280,795,290,291,292,294,296,298,299,310,329,361,362,364,367,1394,375,376,377,393,404,405,409,415,432,458,459,463,467,468,470,475,477,479,480,992,482
32,66,98,358,7,582,584,1610,75,108,1324,112,272,215,1118,442,94
774,8,782,22,665,1190,1580,1453,1583,560,1457,833,707,718,594,1367,1368,1244,605,613,488,877,751,504
1031,1159,9,1565,798,289,545,419,1570,303,1458,185,1465,1600,1361,1112,986,989,1381,1383,239,886,1143,1534
1408,1153,10,1419,18,36,38,39,1326,305,50,52,1607,1609,76,80,90,608,237,511
1666,1635,1252,456,1321,426,11,1357,150,154,1499,92,29,159
97,859,1380,357,1639,265,1130,461,557,47,16,49,1135,21,411,606
33,130,227,513,1122,1157,1443,1128,1669,525,1263,119,1277,378,571,572,1053,1215
641,773,776,1034,524,780,529,657,1046,794,797,1309,810,1194,1197,1073,53,567,443,1341,831,1216,322,1346,708,1220,1480,714,1107,1493,1494,1623,346,218,1503,739,1637,614,870,616,620,1004,238,497,498,1009,1014,631,1528,1529,1019,254
140,1036,1164,147,149,406,153,540,1566,416,1446,56,1217,1479,716,345,988,1008,1398,636
1665,268,410,1307,170,179,436,57,1598,1603,69,325,207,336,1497,1634,106,491,1132,113,371,501
1024,514,1160,1161,267,523,1163,399,1039,787,790,535,792,1303,1559,539,1180,1563,1182,1055,1183,1313,1186,1192,1193,682,556,1586,566,829,1089,706,67,1611,212,1108,733,1501,1631,352,1632,612,229,742,1512,1129,1513,1259,109,1520,630,758,120,761,637
136,271,676,423,552,684,430,195,1221,201,78,335,465,856,1645,110,1522,890,506,508,1150
519,650,1162,1547,653,1553,1173,1048,1308,413,288,293,1061,1069,1582,569,189,1342,1469,451,709,457,1358,79,1365,219,99,494,1523
1441,101,1253,1355,333,1423,464,528,1362,1395,1554,182,1049,122,91,319
1030,1043,1047,536,1051,1062,1574,1070,562,570,1599,1088,579,1613,1102,1103,1104,1618,595,1619,1109,1116,1117,1119,610,619,1133,111,623,1137,628,632,1656,647,652,654,1167,1168,1171,1174,1177,666,674,1188,1196,692,1204,1205,1206,700,704,705,712,1231,725,726,1237,732,223,750,753,1269,763,1281,771,772,1284,1288,1291,273,1310,813,1328,309,827,1347,848,849,1360,851,853,1386,369,370,882,883,887,888,889,384,1412,1415,396,402,403,408,433,447,462,466,1490,469,473,993,1505,1507,1510,493,1013,1016,1018
1027,1176,282,541,286,287,1058,420,686,698,320,1356,592,341,730,990,1124,1125,1384,1643,749,1011,117,505,125,1151
1667,228,261,330,203,300,1147,1265,306,1330,118,155,1470
801,1636,1257,234,241,1169,1139,1363,151,1596,126,1407
1414,648,138,1550,275,660,788,1300,1301,1557,1056,1569,547,1571,677,1572,1066,1071,568,313,1471,581,1481,1495,348,1126,999,1003,1006,1519,499,885,1527
391,1672,521,1678,143,1296,145,1679,542,544,1331,1615,339,1113,1502,350,607,995,1276
385,1033,148,1429,1560,156,1057,1444,550,815,1327,191,1219,1093,1094,1096,1352,1612,1511,1270,1145
1673,407,1052,157,161,162,1573,429,302,1338,575,1474,327,583,1099,593,1492,222,356,997,1642,1515,1516,879,496,1647,1266,243,1524,629,1655,252
1280,1282,388,1677,1184,163,164,1576,689,308,1466,1214,193,1617,728,224,1382,1012,247,1401,507,1399
387,515,266,1676,781,1403,285,166,424,173,174,304,314,1213,190,448,1090,202,1364,471,601,220,221,1250,365,1392,242,884,1272,249,379
645,775,1421,1422,1021,1297,1555,662,1054,1311,1445,1072,1463,1080,703,577,1230,719,1106,1624,474,611,874,245,1144,253,509
1152,389,390,1671,394,395,1038,401,664,281,283,543,1406,1318,295,297,425,427,428,301,1067,431,1329,307,1333,1462,695,1336,317,318,445,446,453,837,1223,587,1101,334,337,343,344,347,478,481,354,1254,1255,360,490,875,492,1005,366,495,368,1131,1264,1397,1142,503,1525,510,1279
1504,1218,483,1251,1379,1411,554,526,1616,1298,1299,565,1141,1306,828
512,516,517,522,1546,1037,1040,1552,530,1042,1044,533,534,1045,1556,1561,538,546,1059,1060,549,1063,1578,555,1068,559,564,1593,1594,1595,1597,1601,1602,1092,1604,1605,1095,1608,586,589,596,597,1115,604,1120,1121,1123,1638,1127,615,1640,1644,1134,1136,1649,1138,1652,1653,1146,1148,1149,638,1661,640,1662,1154,1663,644,1664,646,1668,1670,649,1674,1675,1166,656,1170,659,678,683,1199,693,727,1249,1258,748,1260,1261,1262,1273,1274,1275,1295,1302,791,793,1305,803,807,1319,1320,1322,1323,1325,820,822,1334,1335,1337,1339,834,838,1350,1351,1359,862,1385,1393,1396,1400,1402,1404,1405,1409,1410,1424,1425,1438,1439,1440,1442,1508,1449,1459,1460,1467,1472,1473,1475,1476,1477,1482,1483,1485,1487,1488,1489,1491,987,1500,991,994,484,485,486,487,996,489,998,1000,1001,1002,1518,1007,1010
