0,1604,1093,510,583,1673,522,1331,1112,381,1470
1665,1,259,257,4,261,6,7,135,10,130,271,17,19,278,283,290,37,38,295,426,299,44,428,431,47,48,178,307,436,54,55,312,314,59,60,61,318,190,64,68,69,73,74,205,81,85,342,89,90,91,92,93,351,95,353,99,359,105,233,235,236,113,116,250
96,2,165,42,106,1035,432,377,58,63
65,164,167,12,143,145,177,1361,123,189
128,35,255,364,16,20,25,27,57,1663
98,100,70,203,302,304,94,24,1278,350
1601,258,418,323,1381,262,26,79,1264,1265,1295,184,1466,1275
453,169,170,496,188,181,214,438,28,1406
547,163,358,1479,1133,1645,240,1616,1362,403,117,406,31
160,129,1255,41,107,209,114,115,86,62
355,1319,360,361,301,1262,279,56,281,317
291,103,137,139,141,1392,471,280,121,415
448,161,104,202,1676,142,441,539,285,159
1443,1124,1157,1572,1608,204,1132,1358,111,402,339,1364,440,1150,1503
1603,1380,1546,1131,1613,1327,1330,1365,1593,122
168,425,367,147,212,379,411,1306,1115,380
387,185,421,166,1159,648,330,171,409,525,1007,435,153
194,483,554,1675,172,239,1263,1648,1400,1214
320,1573,293,327,524,333,334,335,556,1136,1617,1595,1471
515,488,1068,337,305,529,530,601,444,412
1474,1122,1480,1547,1611,430,1006,1678,497,315
1441,1442,1570,324,998,423,1576,489,1033,1005,1040,340,1557,347
512,1152,516,521,457,459,1487,1439,481,546,482,1321,491,1643,565,503,1404,1405,446
480,576,450,484,1257,523,463,495,1598,479
454,1162,1679,1103,1173,1305,1116,1117,1444,1061,1253,1126,1513,1516,1138,1141
549,487,652,557,1298,505,506,475,604,543
1127,1161,1034,1261,494,1071,1011,1044,1046,1338
1184,708,718,719,721,723,725,727,730,703
1431,1029,1030,878,879,880,881,882,1655,1432
1120,1123,1256,1609,1128,1067,1260,1147,1148,989
1217,999,1096,1066,1677,1009,1457,1555,1560,1215
1440,1318,1322,1008,1332,1460,1302,1335,1401,1402
1664,1602,1666,1636,1477,1671,1672,1674,1554,1118
1248,1121,1250,1251,1475,1511,1135,1465,1500,1279
1323,1357,1393,1394,1139,1333,1397,1336,1403,1407
1472,1153,1252,1606,1320,1385,1324,1334,1337,1661
1249,1637,1638,1640,1641,1642,1552,1649,1462,1566
1410,1411,1350,1353,1258,1359,1329,1395,1396,1491
