0,1331,1470,583,1112,522,510
1673,381,1604,1093
1,130,78,529
121,2,471,40,137,415
281,3,132,279
51,355,4,139
23,5,133,183
436,28,6,231
1248,1153,1336,1393
422,1462,56,1357,47
431,95,446,7
156,660,126,1519
245,550,294,246,219,1036
1217,1066,1677,1215
1560,124,373,300
120,1553,88,182
1464,1555,1384,1615
1096,1457,1009,999
449,306,1458,1398,649,458,9
467,1485,405,22
224,33,282,1567
1056,1568,1571,101
312,186,10,200
1475,11,565,38
481,372,357,1352,1500,12,1278
13,232,393,170,365,362
1035,29,14,375
316,1320,155,172,221,334,15
16,161,1491,25,314,188
17,42,21,165
225,1250,45,244,152
453,18,214,503,1279
19,59,1403,87
1113,250,35,20
24,1672,94,1046
184,1601,26,1295
258,323,262,1466,79
1264,1265,1275,1381
104,57,27,255
1397,470,30,1256,1258,237,366
256,1554,234,1643,604,271
1298,93,350,31
32,264,298,50
1409,1355,1045,1662
376,274,478,1383
34,1411,1636,100,1666,203,1134
1042,36,53,166,135,490
307,495,335,1671
576,418,37,261,91
1552,1465,546,1487
1049,986,1668,287
1304,1669,646,1382,534,138,511
1272,1010,990,1607
1610,228,308,39
41,58,129,62
108,43,428,269
1402,1461,150,479
55,71,1598,1659,44,1262
48,266,64,46
1505,390,230,296,1468
344,265,1282,49
154,991,1644,1247
416,131,1510,1306,268,461,191
1408,1115,1254,1399
464,562,1092,52
217,450,523,54
1641,1332,1486,351
1008,1460,60,1511
280,1394,61,103
96,377,106,63
65,212,1639,1351,491,1324,253
528,321,66,260,638
568,378,1667,118
466,1476,286,348
1145,507,1052,1053
584,1061,1116,1117
1138,1253,1126,1679
1649,68,1318,233,395,319
401,249,493,215
1594,492,69,1038
353,85,342,1640,1065,442,1499
1322,171,222,70
557,1011,487,72,505,1482,1261
248,105,74,277
216,1337,75,517
1481,419,76,206
1363,1060,1596,1356
1328,242,1660,1274
644,645,326,586,636,1021,1518
400,275,77,1478
612,109,374,1551
664,1043,597,662
536,1048,352,1303
1339,1379,1438,1143
80,380,1152,167
128,336,81,276,278,299,174
82,1333,438,181
210,83,180,157
1139,84,325,207
160,113,290,86,1114,107
379,89,177,164
1440,455,359,90,92
1401,1251,1142,1335
272,194,1638,295
97,1637,457,143,189
304,98,549,302,543
1602,475,1674,1127
1410,99,259,1350,426,1213
102,521,1404,540,1385
402,451,236,110
1443,1364,1157,1358
339,1124,440,1503,204,111
1608,1132,1572,1150
1512,1151,1469,391
593,218,1220,532
1266,1099,1276,997
288,566,615,1561,1612,125,606
616,112,1301,429
432,209,114,115
208,371,291,349
285,235,116,1325
240,547,163,358
1616,1362,1645,1479
117,403,1133,406
386,508,303,311,1273,284
1281,263,392,399,567
345,1418,579,223
346,443,572,1413
581,582,1548,1549,595,499
1600,226,614,238,629
1051,1218,1171,1047
993,1467,1003,1129
1360,1004,1269,1271
632,119,502,1495
1603,387,648,330,1007
409,153,525,1159
1546,1131,1330,1327
1380,1365,1613,421
185,1593,122,435
145,123,411,1121
1057,1140,127,1095
1329,1395,1501,318
417,193,134,1606,158
136,427,301,448
1257,140,141,142
512,1216,144,601,477
146,1219,1483,1063
168,147,367,1472
1280,608,229,1270,270
1000,1297,1094,176
1569,1484,1326,564
544,587,149,1515
1097,1001,1059,1168
1296,1490,987,1565
1504,329,354,551
995,343,526,243
151,1130,1670,1647
994,187,1477,159
480,162,213,410
1392,169,1406,1321
178,179,317,173
331,445,1302,175
251,404,190,1255
192,408,341,197
1648,313,1675,1400
1361,554,483,239
1299,1125,1214,1263
1354,195,1459,198
196,220,444,1661
530,652,205,199
514,527,1525,519
1017,1018,1340,1308
1312,1283,1412,1268,1309,1310
628,684,382,1079
680,654,656,1074,671
611,653,1054,383
681,659,398,1055
682,666,563,1078
201,571,309,1062
590,1050,588,670
1064,618,685,598
634,1267,596,631
688,665,610,1069
328,1073,693,369
1680,641,555,605
690,434,642,1581
691,437,677,1575
552,413,1574,639
673,1650,675,1599
465,1386,460,469
1681,689,500,1149,1646,1023
1520,1521,1506,1523,1414,1496,1497
211,456,1609,202,441,364
384,513,322,580,1493,1016
1480,227,430,407
396,1474,619,356
1122,1547,1102,1006
497,1611,1678,315
241,363,292,1334
1664,1405,389,247,333
545,561,585,1163,1164,669,559
1632,1144,637,1311
1514,252,1509,1631
1002,1166,254,1439
360,257,394,1252
425,283,1249,1635
320,468,524,327
1136,1595,1573,1471
1160,297,1597,1319
1169,459,1502,310
1040,1441,324,423,489,347
1033,1442,1005,998
1576,1570,340,1557
992,361,539,332
368,338,515,1044,1260
516,484,1407,1323,397,1135
1106,420,452,678,1338,1614,575
560,1105,433,1155,1230,622
1353,1396,439,1359
473,1146,474,494
506,1034,996,1071
1665,627,1556,1663
696,1185,697,700
712,705,713,1287
722,1315,726,715
728,1314,731,732
736,737,733,1582
738,739,741,1583
1344,744,745,743
1448,1233,1109,1221
746,747,748,1621
1528,1620,1526,1527
1651,1236,749,1238
1286,718,719,1619,723,1081,1182
730,716,725,703
706,710,714,1388,717,750
1232,721,1235,702
729,724,1100,734
740,1108,1237,1082
1313,709,742,720,694,1342
1234,699,708,701
1184,698,1371,1183
704,707,711,727,735
1080,1447,695,1343
1120,1642,1128,989
1067,1123,1148,1147
1634,1676,1605,1118
