0,1665,1604,1093,102,583,522,75,1331,381,510,1663
1,1443,1124,364,1132,78,211,1364,1150,1503
257,1282,265,10,1035,140,13,15,272,154,283,35,295,296,44,428,47,54,55,312,57,59,60,190,319,71,80,213,87,344,89,90,221,1247,95,1505,225,351,994,357,991,359,233,235,1644,108,116,372,250,1278
128,129,6,17,276,277,278,41,1325,436,1594,63,64,74,1114,1255,106,107,371,1659
1675,12,1299,341,158,483,164,167,554,239,1263,177,1400,313,123,1214
32,1409,36,1383,298,1355,1662,1045,53,342,25,27,478,255
417,1601,258,323,262,79,1295,1265,184,26,1275
404,170,46,51,181,438,183,188,195,1605,325,198,207,83,1492,214,992,365,496,375,1406
547,163,358,1479,1133,1645,240,1616,1362,403,117,406,31
34,70,1131,395,397,401,1330,1593,410,222
1668,1669,646,1607,138,1610,534,1304,1049,986,990,287,228,1382,39,1010,308,1272,511
422,1606,281,394,427,1067,279,56,1337,317
321,66,1667,260,1476,528,466,348,1052,1053,286,118,568,1145,378,507,638
67,1444,548,1126,424,584,267,1550,603,541
318,261,73,426,1673,627,216,1112,1470,127
294,1036,1677,1519,1615,1457,1553,660,245,182,1464,88,124,126
97,162,194,1125,200,172,143,1648,1361,189
544,98,587,1515,302,304,1168,149,1565,350
1603,100,166,330,171,203,1007,1365,185,122
132,1160,136,137,1676,141,142,280,285,159,291,179,441,316,1597,1351,1352,202,1634,1639,104,1392,121,253
1217,999,1096,1384,1066,1009,1555,1560,120,1215
324,1033,144,1040,146,340,1557,347,1441,1442,1570,998,423,1576,489,1005
1381,168,425,367,1264,147,379,1466,411,380
608,385,1280,650,1484,589,270,1297,148,1270,254
153,387,1380,421,1159,648,1546,525,1613,1327,435,409
1122,227,356,1480,619,1611,430,1006,497,315
1123,1320,1609,1068,301,1260,1324,1334,1147,1148
1120,1153,1472,1252,1319,1128,361,1256,1262,989
1478,1518,1137,597,374,1143,536,1048,1339,988,1021,1438
576,450,1411,455,490,1034,1482,493,439,442
1152,516,446,1671,457,1037,1359,480,481,1637,1640,1321,1322,495,1460,565,1396,503,1598
482,549,459,1483,557,543,1554,1146,540,1439
1410,1350,1401,463,1329,1395,1302,1335,1465,1566
1440,1318,1511,1641,1486,1487,1459,1461,1501,479
484,1638,1323,1357,1393,1491,1397,1336,1403,1407
1248,1250,1251,1475,491,1135,1008,1333,1142,1279
1664,1602,1666,1636,996,1672,1674,1643,506,1405
1057,1127,1161,523,1261,1552,1011,1046,1402,1500
546,1477,1095,1065,1642,1134,1042,1140,1332,1213
1683,1429,1430,857,858,859,860,1372,861,862,864,865,866,867,863,1587,1588,1654,1691
1219,1063,1353,1002,1166,1071,1169,1649,1044,1499
1249,1121,1635,1257,1258,1394,1139,1462,1113,1118
