0,1604,1093,102,583,510,1161,522,1673,1331,1112,540,381,1470
1,121,1256,393,202,368,210,211,441
128,2,325,169,81,82,180,248,188
1120,3,132,516,503,103,360,139,375,28,415
96,4,137,170,1325,367,208,1392,61,436,214,278,280,157
5,6,40,105,492,46,48,113,276,23
1152,7,167,297,332,431,80,1008,1460,380
480,162,1250,1640,200,10,186,85,213,312,410,152
193,417,1637,38,134,295,1511,11,272,565,60,158
491,12,301,366,141,145,20,283,317,1279
161,994,355,257,1319,1320,13,1038,496,1492,190,95
35,100,427,45,237,15,1552,1393,1397,279,281,250,155,285
1664,225,34,1635,484,389,70,1671,1482,1324,335,207,16,307,411,220,30
1411,136,142,143,18,19,25,1321,47,51,56,1594,316,470,1636,104,361,1258,244,123
1601,258,323,26,1381,262,79,1264,1265,1295,184,1466,1275
1153,1634,231,365,627,438,29,1406
256,234,1643,271,1298,1554,604,93,350,31
1638,166,422,42,235,140,333,397,178,179,116,1462,57,1597
64,106,266,364,44,336,371,255
416,1408,131,1092,1254,1510,268,461,464,562,52,1399,1306,1115,191
450,1641,523,1486,1332,54,217,351
1609,1034,1260,78,529,402,1046,55,505,251
160,107,209,115,183,58,795,62,63
89,164,168,59,394,172,334,177,1394,1139,379,1113,1403,221
159,65,259,195,261,71,1639,1323,1357,372,1333,1336,1404,1405,1407
68,1318,233,395,493,401,1649,215,249,319
1472,512,482,1351,521,73,331,1676,236,1037,144,1169,1011,1465,1147,1661,1502,127
448,992,74,173,174,404,87,471
1057,1410,517,1350,1095,426,75,1329,1395,1140,216,1501,318
133,1255,1035,1262,84,181,86,1278
1440,1251,359,455,1142,1335,1401,90,92
453,456,299,338,1302,349,94,1663
97,1249,1121,1672,1257,459,1261,305,444,445
98,1602,549,1127,1674,302,304,475,543
1443,1124,1157,1572,1608,204,1132,1358,111,339,1364,440,1150,1503
547,163,358,1479,1133,1645,240,1616,1362,403,117,406
321,1667,1476,528,118,1145,378,1052,1053
1603,1380,648,1546,1131,525,1330,409,122
1668,1382,138,1010,308,534,1272,986
1504,354,995,1670,551,329,1130,526,1647,243,343,151
153,387,421,1159,330,1613,1007,1327,1593,435,1365,185
1248,451,1642,203,247,187,477,222
515,996,199,652,205,530,1044,506
481,1477,1606,1128,212,1500,989,446
224,1056,1571,1439,1485,1166,405,254,1567
384,513,322,227,356,1474,1480,1547,396,430,1006,407
1060,1481,1356,242,1363,1274,1660,1596
1444,1126,424,584,267,1516,1550,1679,1305,541
1217,1384,300,1677,1615,1457,1555,373,1560,542
674,1123,773,775,776,1449,780,781,1421,1529,1562
800,1347,808,810,813,814,815,1197,1535
896,1543,1544,1686,930,939,940,941,942,944,945,947,948,949,950,952,953,954,955,1209,957,958,959,960,1592,1090,1228,1229,1629,1378,884,1658
1376,1348,903,1224,908,909,910,1375
929,931,932,1541,1542,933,936,937,938,1316,1591,1454,919,915,916,1685,1207,925
