0,1536,450,1285,37,1065,1353,1486,721,1332,312,217
1,2,4,5,6,1035,14,17,19,23,24,25,28,30,31,34,35,40,41,44,46,51,55,58,59,60,62,63,65,1606,71,73,74,77,81,82,83,84,86,87,89,1114,93,96,102,104,1641,107,114,115,116,627,1140,121,1659,124,1660,128,129,131,134,135,137,142,152,160,165,169,172,180,181,186,192,194,196,197,198,199,200,204,205,208,209,210,211,213,214,216,1247,1248,225,231,1256,233,235,236,248,251,1278,255,256,258,259,260,263,269,270,274,786,276,277,278,279,280,795,290,291,292,294,296,298,299,310,329,361,362,367,1394,375,376,377,393,404,405,409,415,432,458,459,463,467,475,477,992,482
1538,1539,900,1343,1286,1575,892,553,392,905,452,1514,912,723,1373,573,735
896,897,3,132,133,891,899,903,906,1548,12,13,15,141,144,146,913,20,26,27,417,418,548,421,167,168,171,811,48,176,177,178,54,823,438,440,187,316,64,576,449,70,1224,1225,1226,206,85,88,476,349,1374,95,609,355,100,103,105,1648,633,240,244,372,1657,123,380,381,127
1540,1156,901,902,1418,907,1549,783,911,1684,789,1022,663,895,1050,1314,1448,1074,1203,184,824,826,315,1084,1091,580,1478,839,1354,1105,722,1621,598,599,1110,1366,1626,603,1369,1371,1496,738,232,622,500,374,1526,1530,894,639
898,904,1420,1172,1433,671,673,1198,434,1590,1078,694,701,1349,585,588,1627,226,618,1646,1390
66,582,7,584,1610,75,272,215,94,1118,32,98,358,108,1324,112,442
545,1534,1031,1383,9,303,1361,1458,886,1143,1112,185,1565,798
1600,289,1570,419,1381,1159,239,1465,986,989
1408,1153,10,1419,18,36,38,39,1326,305,50,52,1607,1609,76,80,90,608,237,511
1666,1635,1252,456,1321,426,11,1357,150,154,1499,92,29,159
265,461,16,21,411,859,606,97,1380,357,1639,1130,557,47,1135,49
641,773,776,780,524,529,797,1309,1194,1197,1073,443,1216,322,708,1220,1107,1493,1494,346,218,1637,614,616,620,238,497,1014,631,1528,1529,1019
1346,1480,1034,1004,1009,53,1046,1623,794,1503
416,1217,161,1566,1673,1164,1036,302,496,1266,147,1524,1492,1398,157,222
407,162,1474,356,1515,1647,1008,243,629,406,1655,56,345,1338,988
997,1573,1446,1479,1642,1099,1516,1052,153,636,540
1665,268,410,1307,170,179,436,57,1598,1603,69,325,207,336,1497,1634,106,491,1132,113,371,501
1024,1160,1161,523,267,790,1303,535,539,1180,1563,1182,1183,1186,682,556,1586,566,67,1611,1631,352,229,1512,1259,758,761
1632,1313,637,742,1129,1513,399,1039,212,1108,120,1501
676,1221,423,136,552,684,1645,335,465,1522,1150
519,457,650,1547,1162,1358,1553,1173,1365,1048,219,1308,99,293,1061,1069,1582,1523,189
1355,333,1423,464,528,1362,1554,1049,91,1441,101,1253,1395,182,122,319
1505,647,652,1613,493,1103,1328,1137,851,692,1205,887,888,1116
384,771,1412,1030,1415,1656,396,654,402,403,1174,1047,408,1177,666,1051,1310,1188,1574,1062,1196,433,1204,1206,570,1599,704,1088,579,712,1102,1231,1104,462,849,595,1237,1109,725,726,853,1117,223,993,610,1507,619,1133,750,111,882,370,628,1269,1016,889,1018,763
1281,1167,1168,1360,1490,1619,466,309,1043,1171
1027,1176,282,541,286,287,1058,420,686,698,320,1356,592,341,730,990,1124,1125,1384,1643,749,1011,117,505,125,1151
801,1636,1257,234,241,1169,1139,1363,151,1596,126,1407
1056,677,1126,648,1481,1066,138,1550,660,1301,1527,568
1569,547,581,999,1003,275,1300,313,348,1471
1571,1572,1414,1006,1519,1071,499,788,885,1557,1495
391,1672,521,1678,143,1296,145,1679,1615,339,1113,542,350,544,1502,607,995,1331,1276
385,1033,148,1429,1560,156,1057,1444,550,815,1327,191,1219,1093,1094,1096,1352,1612,1511,1270,1145
1280,1282,388,1677,1184,163,164,1576,689,308,1466,1214,193,1617,728,247,224,1382,1012,1399,1401,507
387,515,266,1676,781,1403,285,166,424,173,174,304,314,1213,190,448,1090,202,1364,471,601,220,221,1250,365,1392,242,884,1272,249,379
645,1421,1422,1230,1297,1106,1555,474,1054,1311,611,1445,1072,1463,1080,1144,1021
1152,389,390,1671,394,395,1038,401,664,281,283,543,1406,1318,295,297,425,1067,427,428,301,431,1329,307,1333,1462,695,1336,445,318,317,446,453,837,1223,587,1101,334,337,343,344,347,478,481,354,1254,1255,360,490,875,1131,1005,492,366,1264,495,368,1525,1142,503,1397,510,1279
1504,1218,1379,483,1251,1411,554,526,1616,1298,1299,565,1141,1306,828
517,646,1674,586,1359,1487,656,564,822,1275
1121,1409,994,1605,1350,807,1320,1477,1322,1325,1262,1424,1649,1500,1597
1059,1092,1337,1483,1261,534,1302,1593,1274,987
1664,1440,546,838,1482,1148,1653,1400,1594,1404,991
1120,1601,1249,644,1319,1258,748,1518,1393,1438
1472,834,1602,1410,484,522,1138,1170,1396,1045
1668,678,615,1578,555,683,1488,1040,791,1405
1475,998,1063,1095,489,559,1425,1556,693,1663
640,1476,996,1670,1323,1134,1295,1007,1010,1662
1508,485,1060,487,1546,1675,530,1652,727,1402
1442,1123,1351,1127,1449,1552,1459,820,1335,1305
1473,1154,549,1000,1644,1166,1199,533,1339,1661
512,1385,1068,1485,1136,538,1467,597,1146,1595
516,1640,589,1042,1491,1460,596,1334,1115,604
803,1604,486,1638,1608,1002,1489,659,638,1439
