1,130,1443,1572,1157,1609,202,364,78,1358,211,441,1503
1152,129,2,4,5,133,7,6,21,23,165,167,40,1321,41,431,1460,55,58,71,332,80,336,81,210,1008,113,248,380
64,257,3,266,74,1357,283,157,1118,96,1249,1255,1262,48,432,180,1462,377,63
480,1505,162,186,10,1323,213,312,410,1247
65,1252,38,134,1642,11,491,47,565,1336
12,276,278,170,299,174,1477,1606,82,84,989,1120,481,994,992,357,1639,1128,372,1659
362,1035,13,14,404,1594,251,190,29,1406
35,453,1256,366,15,1394,20,214,470,1598
140,141,143,19,155,28,285,291,164,1320,301,1325,177,178,316,61,189,1472,194,457,208,87,89,349,97,1634,1638,103,360,235,371,116,379
1666,1411,389,1672,203,333,1046,24,94,161,34,100,1636,1134,188,1405
1601,323,36,359,490,79,1295,401,53,1401,26,1275,319
1409,1250,1671,1383,335,495,307,85,1045,376,314,27,1662,255
192,350,554,1643,1675,271,1298,1299,1554,341,1400,93,1214,31
1668,228,646,39,287,138,1610,308,534,1304,1049,511
1637,43,428,269,108,1461,150,1402,60,479
448,1248,1635,139,492,142,46,207,1393,51
450,295,1641,523,1486,272,1332,54,217,351
159,195,422,198,1352,464,95,56,253,1278,1663
321,66,1667,260,1476,528,466,348,1052,1053,286,118,568,1145,378,507,638
67,1444,548,1126,424,584,267,1550,603,541
1440,258,68,262,233,493,1142,215,249,1466
1605,69,365,1038,83,212,375,187,1500,446
353,387,70,122,1353,1546,1613,1042,342,439,442,1499,222
160,290,1319,393,107,209,114,86,1114,1597
1251,1381,1318,455,135,1322,395,1264,1265,1649,1335,184,90,92
98,419,549,1127,1674,302,304,1328,475,543
99,1254,1351,1459,1302,1399,1306,1115,1213,1566
102,510,1673,1487,1329,381,1395,216,1501,1470
1124,1608,1132,204,111,529,339,1364,440,1150
515,547,996,163,456,1133,1071,1616,530,403,1362,117,406
1217,999,1096,1384,1066,1009,1555,1560,120,1215
1475,137,1676,1392,181,438,471,280,121,415
550,1036,1677,300,1519,1615,1457,1553,373,182,1464,126,219,542
355,132,1257,427,1644,367,147,1333,279,281
512,608,482,229,459,1483,1326,144,1169,146,310,1404,477
385,1063,650,1484,270,176,148,564,254,1439
153,421,1159,648,409,525,1327,1593,435,185
193,418,417,546,1153,1665,463,370,1307,158
256,483,1125,197,234,239,1263,1361,1648,408,313,604
1602,199,1481,652,205,338,1363,220,444,1060,1260,368,1334,1274,1660,1661
227,580,1480,619,430,1102,1678,497,1493,407,1016,315
1603,1380,1065,330,1131,1007,1359,1330,1396,1365
420,452,678,575,494,1106,473,474,1595,1471
1441,1442,1570,998,423,1033,1037,1005,1040,1502
1410,1669,1382,1350,1607,426,1010,1272,986,990
1057,1123,1093,1095,1337,1161,1140,1112,1465,540
1280,1569,1219,1094,1000,1002,589,1166,1297,1270
1683,1429,1430,857,858,859,860,1372,861,862,864,865,866,867,863,1587,1588,1654,1691
