0,1408,1441,387,1534,1639,207,1424,122,1404,862
2,3,4,5,6,515,10,1035,13,1038,15,16,17,21,534,23,25,26,28,29,31,1057,35,36,37,39,40,42,44,46,56,57,58,63,64,68,74,587,76,77,81,82,83,84,86,87,1112,1114,93,1629,97,99,102,105,106,107,114,115,627,121,123,124,128,129,131,132,134,1676,143,150,151,157,159,160,165,167,180,183,190,193,195,199,202,209,211,212,213,216,220,221,236,1264,242,251,1275,255,259,265,266,268,269,278,281,795,285,295,297,299,305,307,322,834,837,329,330,331,351,1377,364,377,379,385,1410,389,390,394,911,400,403,404,409,428,1462,961,970,992,511
512,1092,294,1127,8,937,906,1066,1226,1385,1542,1487,241,178,52,1046,797,1374
256,517,1031,1159,9,908,1301,286,161,1570,686,1465,954,1095,1101,1497,990,1505,1379,229,1384,1513,243,1148
139,12,154,669,300,176,179,313,186,828,1469,194,450,196,197,198,1486,611,1381,1002,1143,1146
576,353,1473,103,328,73,616,75,108,1131,14,496,565,118,1653,88
1547,1293,1550,271,1168,1678,146,149,22,927,1571,932,188,1365,730,90,987,1124,487,1133,117,630,1013,1144,636,254,127
905,270,1169,406,279,24,153,544,1056,1059,676,1454,49,1479,1363,224,101,1257,1643,1007,1649,125
33,163,1253,1573,683,909,302,1071,1615,435,467,1524,182,1655,991,443,191
1504,801,38,233,1065,206,79,47,145,50,51,1296,85,1330,1565
135,1543,1679,1554,1149,1308,41,689,568,1474,203,204,851,1251,1515,1137,249,250,1661,126
1669,391,1049,550,564,53,66,1476,1609,1610,1617,341,239,112,381,1141,503,1276,893
392,1161,1677,144,1560,1561,282,288,1572,935,62,1471,458,342,1626,347,1116,615,1640,494,1136,1657,1277
771,1160,650,1162,1163,275,1555,533,1559,1176,539,796,673,293,1445,808,553,555,1455,1586,566,1078,189,702,1213,1600,706,67,707,1218,971,1099,1227,1611,593,594,1619,1368,1117,1508,1000,1512,1259,1516,1005,1647,632
898,1541,267,1421,1039,272,1173,416,1184,1058,1574,306,1088,321,1220,70,721,597,1118,356,742,1514,1395,629,120,633,1150
518,1032,1549,529,536,537,538,1070,1582,1073,1085,579,71,1105,595,1107,1630,1119,1632,1633,617,1129,620,623,628,631,1656,634,1155,656,1171,1686,1177,666,1180,1182,682,687,688,184,698,703,705,1217,710,711,201,713,722,725,728,731,733,226,232,753,754,1284,773,777,1294,273,794,284,1314,817,311,825,826,827,1337,831,1346,326,839,845,846,1364,856,346,861,1386,1391,369,1413,402,914,1436,1447,1448,938,944,952,447,963,965,459,973,974,465,1495,1496,988,488,1004,1517,1521,499,500,1526,1527,1016,1017,1530
1282,1604,136,586,684,397,78,497,1041,1362,1493,119,505,475,1309,542,223
1667,1033,523,530,1048,155,411,540,545,1063,310,185,1093,1094,1613,463,1488,91,357,485,1010,886
986,1123,548,457,649,652,1338,1567,1519,148,1652,474,92,575
248,1665,1154,291,1603,137,169,142,336,214,1302,152,1598,95
384,1281,1544,396,653,1529,399,657,915,1043,1557,407,1433,1310,1183,1316,552,554,430,1199,304,947,694,315,1341,1599,320,580,966,327,968,1478,1480,1102,719,469,726,599,1366,1507,228,1637,614,619,1003,1132,110,111,1390,1520,1269,374,1273,508,638
162,1348,234,1194,524,493,749,559,1326,1578,1556,1467,252
393,781,786,276,277,424,427,448,1472,456,1482,208,210,608,1634,1256,235,1262,495,1394,1139,1278
1539,900,901,1670,775,1299,933,1446,429,1463,451,1489,477,350,607,1125,486,1254,1128,1001,1382,1522,244,245,1012,1399,892
261,262,263,646,1675,1553,274,1170,1300,419,292,1575,309,312,569,316,318,319,1214,1216,1096,1481,1485,1361,340,1499,348,989,1501,1375,480,1135,1648,1009,501,1660
516,1528,521,395,401,913,1298,664,415,1318,1319,296,1321,1576,1325,436,1333,438,695,950,441,314,1460,317,446,1597,1090,325,453,455,1223,1349,1491,1108,727,1500,1502,1503,482,361,490,1641,748,365,1138,884,1140,1525,375,376,1145,1147
1027,522,1546,1036,525,526,1037,528,1040,1042,1552,1044,1045,541,1053,543,1566,546,1060,549,1061,557,1593,1594,1595,1596,1601,1602,1605,583,584,1607,1612,1616,1106,1623,1113,1115,604,1627,1631,1120,1121,1635,1126,1638,1130,1645,1134,1142,1654,1658,1662,1663,1152,1153,1664,1666,644,1668,1673,1164,660,677,678,1219,1224,1225,1228,1247,1248,1249,1250,739,1255,1260,1261,755,1270,1272,1274,1279,782,1295,1297,789,1305,798,807,1320,1322,1323,1324,1327,1328,1329,1331,820,822,1334,1335,1336,323,838,1350,1351,1352,1353,1356,1357,1358,1359,859,1373,1376,865,1380,1383,875,879,1396,1397,1398,887,1400,1401,1402,1403,1405,1407,896,1409,1411,1419,910,1422,1425,1429,1435,1438,1439,1440,929,930,1442,1444,1449,1457,1458,1459,951,1466,956,958,1470,960,1475,1477,1483,1492,994,483,995,996,1511,489,491,1006,1518,1008,1018,510
388,1540,1685,791,1313,1215,449,582,333,334,335,1103,1229,338,339,1109,601,1636,997,998,999,1644,1011,507,1151
1280,1166,1052,934,1606,589,466,343,344,354,355,358,359,871,1642,366,368,1265,1523,372,373
1285,1286,1172,412,1564,1569,804,1195,1068,1583,1072,693,1211,969,715,972,975,592,1490,723,606,618,885,504,637
