0,1604,1093,510,583,1673,522,1331,1112,381,1470
2,133,6,41,105,490,180,277,86,436,248
96,992,4,170,172,1325,367,208,1392,61,280,60,157
448,5,169,74,46,174,113,276,23,214,471,438
481,1477,38,7,1128,11,431,212,565,1500,446
1664,515,389,1672,1674,10,16,410,543,417,162,549,1324,305,312,186,444,207,220,1248,225,97,480,247
1410,134,12,140,142,141,1552,18,19,281,155,301,1594,59,317,195,333,1639,491,366,1139,116,244,250,1279
1665,394,13,178,179,57,190,193,453,198,1492,213,475,349,994,355,1638,103,1256,496,380,1663
135,136,15,530,279,285,161,36,167,1322,299,427,45,47,51,56,316,1113,221,104,361,1393
290,165,422,232,1035,17,114,115,209,21,404,121,795
1152,1153,1252,1319,1320,1511,1038,463,1487,83,20,1307,158,95
1472,65,194,1350,73,521,1676,1357,143,470,24,989,1502,546,297,1459,1661
1601,258,323,26,1381,262,79,1264,1265,1295,184,1466,1275
69,1605,334,80,278,1114,27,29,1634,231,40,168,365,48,1659,1597,1406
257,1249,1635,1121,425,1258,123,237,145,411,1397,283,30
256,234,1643,271,1298,1554,604,93,350,31
32,1409,478,1383,264,298,1355,50,274,1045,376,1662
1666,1411,70,1353,203,1359,1042,342,1499,222,353,34,100,1636,1065,1134,1396,439,442
128,129,35,325,492,173,81,82,84,87,188
576,450,418,37,1641,523,1486,1332,54,217,91,351
1668,1669,646,1607,138,1610,534,1304,1049,986,990,287,228,1382,39,1010,308,1272,511
164,71,1257,1321,44,1008,177,1460,1333,55,89,379,1598
1505,1282,991,390,230,296,265,1644,49,344,154,1468,1247
451,1606,1352,457,1483,1037,1556,1046,1118,98,236,302,304,53,1334,1337,187,189,127
840,841,1290,1291,1452,842,843,844,845,846,847,1427,1428,848,362
64,291,137,106,266,364,1262,336,371,181,183,255
321,66,1667,260,1476,528,466,348,1052,1053,286,118,568,1145,378,507,638
67,584,267,1550,1679,1305,1116,541,1117,1444,1253,548,424,1516,1138,1012
68,1318,233,395,493,401,1649,215,249,319
1057,517,1095,75,1329,1395,1140,216,1501,318
1060,1481,1356,76,1328,1363,1044,1274,1660,1596
996,1127,200,1609,426,1034,1260,1642,78,529,402,251
1250,166,1671,1640,171,335,495,307,1491,85,152,314
130,1602,456,332,368,338,211,441,506,94
1443,1124,1157,1572,1608,204,1132,1358,111,339,1364,440,1150,1503
1154,1220,1099,1612,1301,1561,606,1469,997,1512,429,112,1266,566,1276,125,1151
547,163,358,1479,1133,1645,240,1616,1362,403,117,406
1603,387,421,648,330,1131,525,1330,435,1593,122
1219,324,1033,144,1040,146,340,1557,347,477,1441,1442,1570,998,423,1063,1576,489,1005
1280,385,1094,650,1484,589,270,1297,148,608,1569,229,1000,1326,176,564,1270
153,1380,1159,409,1546,1613,1007,1327,1365,185
1217,1464,999,1384,1036,1677,1615,1009,1457,1553,1555,182,1560,1215
192,197,1675,1361,1299,341,408,483,1125,554,239,1263,1648,1400,313,1214
1218,581,582,1413,263,1004,1548,303,595,1495,632
384,322,1122,356,580,1474,396,1006,1678,497
