0,1,2,4,5,6,8,1035,13,14,17,530,21,23,26,28,29,30,546,35,38,39,44,45,46,50,51,54,56,57,58,59,61,62,63,64,69,74,81,82,84,86,87,96,106,107,108,1137,114,115,121,1659,125,128,129,132,165,169,174,179,181,183,186,188,190,198,205,207,208,209,212,215,216,217,220,1252,230,231,266,276,277,278,795,290,291,1336,329,361,364,365,371,377,401,417,422,423,424,446,992,994,496
1537,1281,1291,396,1420,1551,1171,1186,808,556,1070,1198,688,1074,1589,825,1085,830,1599,447,715,1100,846,848,594,595,1619,1237,598,1624,1625,1368,1369,1371,472,740,869,870,743,872,873,874,876,877,761
1220,1096,1547,1550,718,22,1560,1176,988,1309,1567,1058,1571,420,1508,550,1382,1066,684
130,131,135,1673,138,148,149,151,25,282,158,36,47,52,187,194,195,707,70,199,203,206,851,986,1254,1389,1012,1143,1272
1443,1667,1157,1127,457,267,1613,271,440,1117,510,31
32,1569,419,996,1381,1639,330,524,1647,1330,1490,373,381
256,1505,1154,676,1126,616,1644,1297,1522,1660,1247
387,37,838,1578,76,237,1422,1264,1010,243,1653
1475,584,1612,333,1040,1361,989,1053,483,1060,677,678,1575,41,1265,307,1523,191
273,537,666,1181,1196,1203,826,571,1342,1344,708,709,712,1231,1621,610,741,1510,613,617,110,750,639
192,225,1282,259,1636,1546,1135,80,49,176,1009,1363,1499,991
357,1670,1643,1645,1678,1295,1263,1302,1399,1306,1277,1471
289,450,390,1001,1486,1423,305,1364,343,312,60,94
416,99,68,1000,1672,1356,272,689,308,341
1666,1380,1671,1352,73,442,1044,376,1497,1146
576,1152,1635,75,492,1134,470,1466,411,1404
1280,1413,1133,596,119,1366,1494,1652,378,1019,1149
511,786,1299,1429,154,859,159,864,1384,1513,123,1261,239,1008,1334,1274,1275,126,319
1668,645,1183,1570,549,554,1476,837,582,1095,1481,1485,1365,350,1118,1253,1257,112,117,1142,120
1441,517,134,1640,1033,525,400,1457,1395,820
774,1286,782,1180,1182,1190,682,1068,1588,692,182,1469,703,1343,468,735,865,866,362,748,370,504
993,1637,326,776,1480,1642,429,508,251,657,1073,507,1308,831
1410,263,269,1038,1566,1440,421,1063,296,1321,1325,1327,432,1458,564,310,1335,1465,314,1467,445,322,1474,1351,456,1223,1482,334,1487,462,1495,344,1113,1115,604,479,1248,354,1250,1123,360,1128,1256,1136,499,1396,1397,1140,1270,1148
1634,1603,393,268,1262,336,1392,436,1492,471,285,1598
1358,1617,347,1151,1184,607,294,295,297,298,300,557,302,1005,698,1339,575
1511,1610,1166,1103,304,1007,1170,1362,1141,1045
640,356,1518,1424,1169,1552,503,1402,316,543
1121,355,394,1322,1324,1393,1460,1401,1594,317
1472,1153,1638,1606,425,427,428,1298,534,379,1500,318
321,418,385,1477,1607,589,1296,1042,501,444
482,323,485,615,779,1037,337,1556,1398,1501
1219,997,327,999,555,1359,1553,1173,1561,1338,1214
1408,1249,1473,455,328,426,491,1676,1329,1112
1504,803,1604,807,1320,1449,1353,526,1139,380
801,998,1260,1649,338,1331,340,565,1400,1470
1411,522,664,409,1307,415,1318,1319,431,1462,1597,448,834,1491,478,359,1255,490,506,1403,1278
544,1536,995,389,1067,1515,1326,372,1596,1438
1217,388,581,1273,1003,815,1071,1648,435,1529,1021,1310,1215
608,547,1092,392,1147,1488,1425,1595,636,606
484,1479,650,1131,1674,461,622,1357,406,540
1088,867,1347,1285,486,1288,1069,1102,1104,1489,1557,1014,603
827,1415,1160,714,845,813,494,562,1587,754,413,632,539,861,1534
1601,1442,1602,454,1258,1419,844,1459,1145,1279
1664,1407,1323,497,1011,1332,1333,1493,1405,1663
