0,1,2,4,5,6,8,1035,13,14,17,530,21,23,26,28,29,30,546,35,38,39,44,45,46,50,51,54,56,57,58,59,61,62,63,64,69,74,81,82,84,86,87,96,106,107,108,1137,114,115,121,1659,125,128,129,132,165,169,174,179,181,183,186,188,190,198,205,207,208,209,212,215,216,217,220,1252,230,231,266,276,277,278,795,290,291,1336,329,361,364,365,371,377,401,417,422,423,424,446,992,994,496
1029,1030,9,1548,275,1431,1432,1049,27,1314,1059,1450,569,705,835,197,71,588,599,88,92,868,488,878,879,880,881,882,757,1655
1220,1096,1547,1550,718,22,1560,1176,988,1309,1567,1058,1571,420,1508,550,1382,1066,684
130,131,135,1673,138,148,149,151,25,282,158,36,47,52,187,194,195,707,70,199,203,206,851,986,1254,1389,1012,1143,1272
1443,1667,1157,1127,457,267,1613,271,440,1117,510,31
32,1569,419,996,1381,1639,330,524,1647,1330,1490,373,381
387,37,838,1578,76,237,1422,1264,1010,243,1653
1475,584,1612,333,1040,1361,989,1053,483,1060,677,678,1575,41,1265,307,1523,191
192,225,1282,259,1636,1546,1135,80,49,176,1009,1363,1499,991
289,450,390,1001,1486,1423,305,1364,343,312,60,94
1669,521,146,662,669,797,1313,1572,1061,1445,548,1444,1194,1199,1328,1337,577,67,458,335,1623,346,732,990,1259,1004,1006,1525,1144
416,99,68,1000,1672,1356,272,689,308,341
1666,1380,1671,1352,73,442,1044,376,1497,1146
576,1152,1635,75,492,1134,470,1466,411,1404
1668,645,1183,1570,549,554,1476,837,582,1095,1481,1485,1365,1118,350,1253,1257,112,117,1142,120
516,325,1605,1609,211,405,280,1114,168,1641,1130,683,173,113,1394,441,1406
1441,517,134,1640,1033,525,400,1457,1395,820
352,1218,1251,1446,1414,780,1677,783,597,150,536,1048,1502
1024,1027,1159,391,649,1289,1163,1162,1421,1164,265,270,274,659,787,1555,279,793,281,283,412,1054,798,1192,1463,823,828,1213,702,1099,593,1116,1631,1632,240,242,245,247,249,1276,254
1410,263,269,1038,1566,1440,421,1063,296,1321,1325,1327,432,1458,564,310,1335,1465,314,1467,445,322,1474,1351,456,1223,1482,334,462,1487,1495,344,1113,1115,604,479,1248,354,1123,1250,360,1128,1256,1136,499,1396,1397,1140,1270,1148
1634,1603,393,268,1262,336,1392,436,1492,471,285,1598
1358,1617,347,1151,1184,607,294,295,297,298,300,557,302,1005,698,1339,575
1511,1610,1166,1103,304,1007,1170,1362,1141,1045
640,356,1518,1424,1169,1552,503,1402,316,543
1121,355,394,1322,1324,1393,1460,1401,1594,317
1472,1153,1638,1606,425,427,428,1298,534,379,1500,318
321,418,385,1477,1607,589,1296,1042,501,444
482,323,485,615,779,1037,337,1556,1398,1501
1219,997,327,999,555,1359,1553,1173,1561,1338,1214
1408,1249,1473,455,328,426,491,1676,1329,1112
801,998,1260,1649,338,1331,340,565,1400,1470
1120,353,1665,1483,1132,367,1138,1524,1301,375,349
357,1670,1643,1645,1678,1295,1263,1302,1399,1306,1277,1471
1411,522,664,409,1307,415,1318,1319,431,1462,1597,448,834,1491,478,359,1255,490,506,1403,1278
544,1536,995,389,1067,1515,1326,372,1596,1438
1217,388,581,1273,1003,815,1071,1648,435,1529,1021,1310,1215
608,547,1092,392,1147,1488,1425,1595,636,606
484,1479,650,1131,1674,461,622,1357,406,540
1664,1407,1323,497,1011,1332,1333,1493,1405,1663
