0,1604,261,1093,73,426,1673,627,1331,216,318,1663
1,130,1572,1157,1608,236,364,110,78,1358,211
2,4,6,393,278,23,290,41,299,1325,48,432,436,1594,74,81,82,209,84,86,1114,1255,106,492,366,113,114,115,1659
257,1282,3,390,7,10,11,140,13,269,15,272,1035,19,20,155,283,35,38,295,296,428,47,54,55,312,57,59,190,319,69,71,87,344,217,92,351,991,1505,225,994,1247,357,359,233,1644,108,116,250,1278
992,5,198,133,40,169,1605,46,1038,336,1406
164,1125,134,167,12,1648,145,177,1361,123
1408,131,1092,37,1254,1510,461,14,187,208,1399,1306,1115,29
98,389,234,1515,302,304,1168,24,1565,94
547,163,358,1479,1133,1645,240,1616,1362,403,117,406,31
32,1409,1383,135,298,1355,50,307,85,342,1045,314,1662,255
34,1380,70,1159,1546,395,397,1613,1327,401,410,222
453,51,1492,181,214,438,1556,1307,188,61
192,65,1666,483,197,199,554,1675,239,1263,1400,1214
321,66,1667,260,1476,528,466,348,1052,1053,286,118,568,1145,378,507,638
1665,102,583,510,522,75,1112,381,1470,127
193,194,200,1672,143,1299,158,97,1636,1638,1640,1257,1642,1397,186,1403
387,100,166,648,171,203,525,1131,1330,1593
132,1160,1676,142,539,285,159,291,173,441,316,1597,448,1351,1352,471,349,1634,1639,104,103,1392,121,253
1443,1124,204,1132,111,339,1364,440,1150,1503
1217,999,1096,1384,1066,1009,1555,1560,120,1215
1603,185,421,330,409,1007,435,1365,153,122
168,425,367,1295,1265,147,379,411,1466,1275,380
608,1569,229,1094,1000,1326,176,564,310,254
1472,355,422,360,427,1260,1334,279,281,317
320,327,331,524,333,334,335,1617,468,538,293,1573,553,556,1136,1595,1471
1216,297,1385,332,368,529,338,470,444,1661
1153,1252,1319,1256,1320,1609,1068,1324,1262,337
1120,1123,1606,1128,394,1067,1337,1147,1148,989
1410,1350,1318,1161,1329,1395,1302,1335,445,1502
1152,481,516,446,457,1321,1460,565,503,1598
450,1635,484,523,495,463,1394,1139,1462,479
1602,451,996,549,487,1127,1034,1261,1046,1405
454,1162,1679,1103,1173,1305,1116,1117,1061,1253,1513,1516,1138,1012,1141,569
1411,1643,652,557,1134,1071,1044,506,475,543
1248,1121,1250,1664,1249,490,1322,1491,1118,1279
1440,546,1357,1552,1393,1459,1332,1333,1336,1401
576,1057,1637,1641,1135,1649,1140,1402,1501,1566
1089,1090,1031,1244,889,1453,883,884,885,886,887,1656,888,890,1205,1206
1251,1095,1353,1674,1065,1042,1011,1142,1499,1213
