0,1331,583,1673,522,381,510
128,209,2,456,58,63
46,3,14,1255
81,137,4,471
113,106,5,157
336,69,325,6,121,231,415
11,7,38,1663
660,1384,8,156,542,1519
449,1458,306,1398,649,458,9
627,212,12,446
994,29,28,13,190
360,211,470,15
16,161,208,25,202,188,61
17,183,105,187,174
18,244,45,503
1552,19,1637,1566
104,57,20,214
133,21,277,40,170,251
467,1485,405,22
248,210,180,23
1405,389,1046,1672,24,333,94
1264,1265,26,1381
27,181,438,103
225,89,44,30,1279
1298,93,350,31
32,264,50,298
224,33,282,101
34,203,100,70
35,371,364,255
36,53,135,490,1322
1641,91,37,351
1610,228,308,39
160,41,129,62
393,42,74,165
108,43,428,269
80,1665,332,47
48,83,84,365,207
344,49,265,1247
280,51,139,141
1254,52,1510,1399
450,1332,54,217,523,1486
55,179,173,71
159,1153,422,1352,56,1324,95
168,59,172,147
64,299,436,278
321,66,260,378,1052
67,1116,1061,1117
1649,68,1318,233,395,493
73,409,75,102
1481,196,206,76
992,82,453,1038
114,107,290,86
1598,1642,1606,87
88,1553,373,246
455,1251,359,90,92
96,377,115,432
97,194,1638,457,189,143
98,1602,549,1674,302
352,612,988,109
402,451,1034,236,110,1071
440,339,1608,111
112,616,1301,429
136,235,116,253
403,117,406,1479
528,1145,568,118
120,1457,124,126
1593,122,1330,1007
1121,145,123,411,237
166,127,254,463
130,506,652,996
416,1408,131,1306,1115,268,191
291,132,285,316
164,134,167,186,158
1669,1382,646,1607,534,138,511
140,1475,1500,1511
144,146,1219,1063,477
608,148,1484,270
544,587,149,1515
1402,1461,150,479
152,1130,1670,151
153,435,421,1159
154,1282,1644,991
480,162,213,410
240,547,163,358
169,195,349,366
171,444,205,222
176,1569,564,1326
177,221,1350,1337
1555,300,182,550
185,1546,1131,1613
192,197,341,408
496,674,1392,198
1443,1124,1157,1364,204,1503
249,401,215,319
1329,1395,1140,517,1095,216,318
593,218,1220,532
1066,219,1036,1170
497,227,580,1493,315
1000,1297,229,1094
1505,390,230,296,1468
256,1554,234,1643,604,271
1360,567,345,1418,238
554,483,1675,239
241,1660,1060,1356
1328,242,1274,1596
243,343,526,995
289,1677,294,245
1509,252,1445,1631
257,1249,1635,425,283
1601,258,323,262,1466
576,546,491,261
584,267,603,541
272,305,281,295,297,279,301
376,1409,274,478
1114,1035,276,1406
466,1667,348,286
1049,986,1668,287
288,1612,606,615
320,293,327,553,1471
304,475,543,1127
307,1491,1671,314,495,335
1169,482,310,459,1404
312,324,317,340
1400,1361,1648,313
1480,322,430,407
644,645,326,586,1339,636,1021
648,330,387,525
1499,379,372,334
337,1067,1148,1403
353,1396,342,439,1353,1065
394,355,380,367
384,513,1474,356
374,1013,1518,1463
404,375,1594,1659,492
1280,385,1270,650,589
484,1407,1323,397,1135
640,509,533,535
418,1106,1146,426,427,431
1441,1570,1005,423
1634,1320,441,1676,1262
448,1325,1597,1639
1141,454,1173,1305,1162,1103
481,565,540,989
1576,489,1442,998
595,572,1413,499
1618,1580,501,1311
507,1476,1053,638
521,530,515,516
1136,1617,538,1595
545,1163,669,607,559
561,1058,585,1164,1039
681,611,1581,571
626,1307,1354,1351
1144,1514,1632,637
1575,677,1574,653
1313,709,742,694,701,1342,1183
1448,739,732,741
787,788,789,1422
1584,793,1194,1563,797
1424,801,803,807
816,1203,822,1623,824
1088,1028,849,851,852,853,854
856,850,1204,855
1296,1490,987,1565
993,1051,1549,1047
1561,1266,1099,997
1464,1009,999,1615
1003,1004,1269,1366
1016,1611,1678,1006
1008,1042,1044,1037
1048,1043,1478,1143
1355,1045,1662,1383
1248,1057,1462,1113,1118
1072,1176,1446,1488
1112,1604,1093,1470
1096,1217,1215,1560
1120,1492,1556,1605
1299,1125,1214,1263
1138,1253,1126,1550
1132,1150,1572,1358
1616,1362,1133,1645
1666,1411,1636,1134
1137,1379,1438,1303
1440,1401,1142,1335
1216,1250,1334,1256,1257,1258,1166
1336,1321,1252,1333
1465,1459,1319,1487
1603,1380,1365,1327
1417,1394,1397,1410
1640,1609,1664,1439
1522,1483,1501,1502
