0,1604,261,1093,73,426,1673,627,1331,216,318,1663
1,1443,1124,364,1132,78,211,1364,1150,1503
128,129,2,4,6,266,17,276,21,278,23,160,290,165,41,42,299,1325,48,432,1594,62,64,74,209,82,86,1114,96,1255,105,106,107,492,362,366,113,114,377,1659
257,1282,3,390,7,265,10,11,140,13,269,15,272,1035,19,20,154,155,283,35,38,295,296,43,428,44,47,431,49,178,54,55,312,57,59,1468,60,190,319,68,69,71,80,213,87,344,89,90,215,92,221,217,95,351,225,994,991,1247,357,230,359,1505,233,235,1644,108,116,372,250,1278
5,133,404,28,40,169,170,46,51,180,181,438,188,61,195,1605,198,453,1354,207,210,1492,214,992,232,365,496,375,248,251,1406
289,1036,1677,300,1615,1519,1553,1457,245,246,373,1464,124,126
1217,999,1096,1384,1066,1009,1555,1560,120,1215
449,649,9,458,1485,467,405,22,282,1567,1056,33,1568,1571,224,101,306,1458,1398
134,1675,12,145,1299,408,158,164,167,554,175,177,313,186,1214,192,65,193,197,199,341,483,1263,239,1400,123
1408,259,131,268,14,1306,29,416,37,562,52,187,191,1092,461,208,464,91,1115,99,1510,1254,370,1399
1409,135,264,16,274,1045,25,27,32,36,298,50,307,53,314,1355,85,342,478,353,1383,376,1662,255
1670,329,526,18,212,150,343,151,152,30,1504,354,995,551,1130,45,1647,243
256,1059,389,1001,234,1097,271,1296,1490,24,987,220,93,94
1601,258,323,417,262,1295,79,1265,184,26,1275
1219,1063,1674,1002,1037,1487,1169,1459,1011,505
547,163,358,1479,1133,1645,240,1616,1362,403,117,406,31
34,1380,70,1159,1546,395,397,1613,1327,401,410,222
1668,1669,646,1607,138,1610,534,1304,1049,986,990,287,228,1382,39,1010,308,1272,511
1153,1252,1319,1320,1609,1256,1068,1324,1262,305
321,66,1667,260,1476,528,466,348,1052,1053,286,118,568,1145,378,507,638
1665,102,583,510,522,75,1112,381,1470,127
196,456,1481,76,205,206,1356,1363,1596,419,1060,292,363,1328,241,242,1274,1660
636,1463,1379,1478,1518,1137,1043,1143,1303,1339,988,1021
352,612,326,586,77,1551,597,536,1048,1438
325,231,1038,174,336,83,1556,183,1307,157
97,194,162,1125,200,172,143,1648,1361,189
544,98,587,1515,302,304,1168,149,1565,350
387,100,166,648,171,203,525,1131,1330,1593
132,1160,136,137,1676,141,142,539,285,159,415,161,173,441,1597,448,1351,1352,349,1634,1639,104,103,1392
130,1572,1157,1608,204,236,110,111,1358,339,440
577,1154,388,391,1099,1612,593,532,1561,218,606,997,1512,1266,566,1276,1151
1281,386,1495,1413,581,263,582,1271,1418,443,311,1273,1467,284,1277
1218,1548,1549,1360,1171,595,1366,1047,345,346,1051,223,993,226,614,1129,1003,238
1600,1004,499,629,502,119,632,1269,1498,508
1603,185,421,330,409,1007,435,1365,153,122
324,1033,144,1040,146,340,1557,347,1441,1442,1570,998,423,1576,489,1005
1381,168,425,367,1264,147,379,1466,411,380
608,1569,229,1094,1000,1326,176,564,310,254
1473,610,514,1506,1386,1497,1069,527,688,1521,659,1525,665,666,670
1312,673,675,677,552,555,1520,498,1369,1054,671
519,618,1517,1074,1523,598,1078,1017,1018,1308,605
611,1062,596,500,1494,1079,1496,1019,1310,1023
1283,1507,1285,1508,460,1231,1680,1681,465,1267,1268,437,469,447
1412,1575,1064,684,653,398,685,689,1650,691,628,309,1149,631,1309,382,639
1156,1414,1574,680,681,682,1581,654,656,690,563,413
641,201,1387,588,1646,590,434,1172,634,571
642,383,328,1055,1073,369,693,1050,1340,1599
1122,227,356,1480,619,1611,430,1006,497,315
585,1164,237,559,561,1300,244,1559,249,247
576,480,1637,455,490,493,1461,1397,439,442
1472,355,422,360,427,1260,1334,279,281,317
1216,297,1385,332,368,529,338,470,444,1661
384,513,322,1474,580,1547,396,1102,1678,402,1493,407,1016
1120,1123,1606,1128,394,1067,1337,1147,1148,989
517,549,1500,1357,557,1552,475,540,445,543
1477,1095,1065,1642,1134,1140,1046,1336,1213,479
1152,481,516,446,457,1321,1460,565,503,1598
450,1475,546,484,491,523,495,463,1008,1333
451,996,1127,1482,1034,1643,1261,1166,1071,1044
1410,1602,1350,1158,1318,1353,459,1359,1396,1502
512,521,494,1614,1106,1298,473,474,604,477
1440,487,1161,1401,1323,1332,1335,1465,1402,1407
1182,1183,1447,695,1080,1082,702,1343,704,706,707,710,711,714,1100,717,716,1232,720,1619,1108,1237,724,729,734,735,740,1388,750
1313,709,742,1528,746,747,748,749,1234,1371,1651,1526,694,696,697,699,701
1314,1527,718,719,721,1235,723,725,727,703
705,1315,708,1286,712,713,1582,730,698,700
1344,1287,715,1583,722,726,728,731,732,733
736,737,738,739,741,743,1448,744,1620,1081
1184,1185,1221,745,1233,1236,1621,1109,1238,1342
1248,1250,1251,1638,1135,1042,1491,1142,1403,1279
1664,1057,1666,1636,1511,1640,1641,1393,1649,1566
1249,1121,1635,1257,1258,1394,1139,1462,1113,1118
1411,1483,1329,1554,1395,1302,1146,1404,1405,1439
