0,1,2,4,5,6,8,1035,13,14,17,530,21,23,26,28,29,30,546,35,38,39,44,45,46,560,50,51,54,56,57,58,59,61,62,63,64,69,74,81,82,83,84,86,87,96,100,106,107,108,1137,114,115,121,1659,125,128,129,132,160,165,169,172,174,179,180,181,183,186,188,190,198,205,207,208,209,212,215,216,217,220,1252,230,231,232,248,255,266,276,277,278,795,290,291,1336,329,361,364,365,371,377,401,417,422,423,424,446,992,994,495,496
1161,10,143,147,1046,24,1057,1574,1447,1094,1350,204,342,987,98,358,487,489,246,122,124,1150
130,131,135,1673,138,148,149,151,25,282,155,156,158,161,162,163,36,171,47,303,177,1583,1586,52,187,194,195,196,707,70,199,203,206,851,986,1254,1389,1012,1143,1272
32,1569,65,419,996,1381,1639,330,524,1647,145,1330,1490,373,381
483,1060,677,678,1475,584,41,1575,1612,333,1040,1265,1053,307,1361,1523,989,191
289,450,390,1001,123,1486,1423,305,1364,213,343,312,88,60,157,94
258,9,395,11,12,139,15,18,1428,789,1565,1439,159,40,1464,1593,193,66,587,1355,1616,339,90,91,477,102,118,1661,1662
1412,1034,523,1675,529,1052,284,1062,309,567,189,451,202,332,77,1615,466,1122,498,638
775,648,144,1573,553,1582,1072,566,1080,1600,464,592,601,609,612,109,1521,758,127
771,1547,788,22,1560,1176,541,1309,1567,1058,1571,1066,313,1220,718,730,219,988,1508
545,420,1382,550,1096,684,1550,559,822,348
1667,1157,510,267,271,1305,287,31,1443,1334,440,457,1125,1384,234,493,1261,239,1008,1274,1275,126,511
1059,292,1127,1065,1613,306,1300,568,1117,319
256,1505,1154,646,1126,1644,528,152,475,1660,286,351
33,34,97,676,616,236,1297,1522,439,1247
416,387,99,37,838,1000,1672,1356,272,1010,341
68,1578,76,237,1422,1264,689,243,308,1653
772,773,1028,264,780,783,273,790,1303,1468
1284,293,42,811,1549,816,536,537,794,1311
579,324,1478,839,1041,561,824,826,571,1342
1344,352,610,585,1039,850,597,855,856,1498
1346,613,617,619,620,110,111,623,1047,1502
1509,383,1360,369,627,628,374,1048,634,639
1056,386,1386,653,655,666,150,663,665,1562
1510,1414,681,1168,1105,1107,1108,1109,1177,1086
708,709,1446,701,712,1611,459,687,443,1181
1216,1218,1251,1222,1448,1196,1231,1203,725,1621
224,739,741,1517,238,750,1618,1268,469,223
1451,1677,751,752,1519,502,1271,1016,1017,1022
514,776,552,1418,43,1516,815,1679,570,1528,1529,538,1051,1308,763
832,581,326,1071,849,852,1461,853,1310,831
384,388,647,1480,429,686,1073,657,633,1341
1124,1188,1129,1581,1197,1167,435,1204,1174,1496
738,1507,227,1637,201,251,500,694,507,1215
1217,993,1642,1514,1003,1648,1269,1273,508,1021
1409,1282,3,259,262,7,1546,141,142,16,19,20,27,164,176,49,178,55,192,71,200,79,80,85,214,92,93,95,225,1636,103,104,105,235,1135,1009,250,253
167,170,140,48,1363,116,89,1499,221,991
512,449,185,197,1670,1093,586,1643,1036,1645,1299,182,1399,153,1049,1471
320,611,583,1678,1295,1263,210,660,53,407
357,101,618,748,1554,467,1302,505,1306,1277
1669,521,399,527,146,1043,1172,1171,662,1180,669,797,1313,1185,1088,1230,595,854,603,1266,504,1534
288,1444,1285,682,1484,556,782,693,408,766
704,577,833,67,548,1061,1445,458,690,1525
1572,1194,1259,1004,1006,1199,1328,335,1144,990
742,346,721,252,1623,1337,1018,732,573,703
608,418,427,492,1139,1011,470,503,1402,1500,317
1408,1153,803,453,328,394,428,400,1466,540
480,1666,484,1477,1320,425,397,1134,338,535
576,1559,644,779,716,1103,656,1367,728,474
517,615,1576,73,75,1457,1106,1329,636,606
1472,1249,1602,640,801,525,526,1393,372,565
385,482,1221,134,807,1383,1518,622,1595,318
1601,426,461,1460,1333,820,411,1112,379,543
544,513,547,1608,392,589,1166,430,572,1503
1536,1121,1607,1352,1353,1322,491,1324,1332,1405
323,355,1640,1260,1357,340,501,376,442,1470
1092,1033,1002,1067,1037,1007,1424,1556,1527,1146
454,1449,337,1425,1459,534,1401,1147,1404,1438
321,389,1610,650,331,497,1170,1493,406,380
1441,1380,1512,1323,1580,719,1296,1298,1398,1400
995,1604,1671,1649,1362,1042,1044,444,1596,1663
1664,1152,1479,1258,1131,1326,1169,1045,1145,1279
1504,674,356,455,844,749,304,1331,1594,316
1442,1635,1606,1638,1674,1676,1488,1552,1141,1501
1473,1379,485,998,1511,1419,1515,1395,1497,1407
1280,641,1413,136,652,402,810,1200,817,315,580,78,465,1494,119,614,1133,629,631,378,1149
228,791,403,1652,532,1366,596,345,1019,542
1570,1476,837,1668,645,1095,582,549,554,1485,112,350
1253,1481,1257,1365,117,1142,120,154,1118,1183
515,516,133,1609,137,299,1641,173,1354,366,113,626,211,404,244,1114,1406
1605,325,168,1130,683,781,1394,405,280,441
1024,257,260,1159,265,1162,1163,1164,1421,270,1289,274,1555,279,793,281,283,412,798,1054,800,166,679,1192,1584,691,695,823,828,1213,702,706,1099,593,218,1116,733,222,1631,1632,229,240,241,242,245,1013,247,249,1276,509,254
770,1027,391,649,659,787,533,1463,1563,637
1665,353,1603,711,1417,1483,463,367,368,1492,1301,285,349
1634,261,393,233,268,301,1262,336,1524,375
1120,481,1132,1392,1138,436,438,471,410,1598
448,354,360,1325,1038,431,1491,664,409,1403,478
834,263,296,1482,462,1327,564,1270,344,479
322,421,359,1256,456,334,1396,1462,506,604
1248,1250,1411,1123,1255,490,1136,1113,1115,1597
1440,1410,1318,1351,1128,1319,269,1307,1335,1467
522,432,499,1140,1397,310,1465,314,445,415
1474,1223,1063,1321,1487,1458,1495,1278,1148,1566
1219,294,295,327,297,298,555,300,557,302,1359,1553,1339,698,1561,1338,347,575
1184,997,999,1005,1358,1617,1173,1151,1214,607
