0,1604,1093,510,583,1673,522,1331,1112,381,1470
1,130,3,35,104,78,57,27
2,517,7,521,10,11,12,523,1034,1035,16,1037,1042,1044,1046,28,30,1057,34,36,37,38,41,46,47,53,54,58,60,62,63,64,65,70,73,80,85,86,89,95,96,100,102,105,106,107,113,114,115,1663,128,129,139,152,165,173,174,187,193,209,211,212,1255,235,236,237,244,1278,261,266,290,297,299,305,307,314,318,357,364,367,377,389,394,410,411,417,418,425,427,428,431,432,1011
4,69,325,6,231,137,336,81,51,471,121,61,25,415
5,133,40,170,74,365,48,83,84,21,23,157,375
164,132,134,167,172,15,147,158
166,136,140,141,142,19,116,87,155
1601,258,323,26,1381,262,79,1264,1265,1295,184,1466,1275
256,234,1643,271,1298,1554,604,93,350,31
416,1408,131,1092,1254,1510,268,461,464,562,52,1399,1306,1115,191
1153,412,422,1319,1320,1324,1334,56,1337,444,317,1472,1216,1606,1609,332,470,989,1639,360,361,1256,1260,1262,1661
66,1667,1476,528,1145,507,1052,1053,638
67,1444,424,584,1516,1550,1103,1679,1305,541
68,1318,233,395,493,401,1649,215,249,319
98,1602,549,1127,1674,302,304,475,543
1603,1380,648,330,1131,108,525,1546,1330,409,122
1443,1124,1157,1572,1608,204,1132,1358,111,339,1364,440,1150,1503
153,387,421,1159,1613,1007,1327,1593,435,1365,185,127
1668,1382,138,1010,308,534,1272,986
257,259,295,301,269,144,272,146,279,281,283,254
1384,1615,1457,1553,1555,660,245,1560,156,1215
992,994,195,1605,169,492,1325,1038,207,404,1492,214,1556,1307,1406
192,483,197,408,1263,1648,1299,1400
384,225,322,227,356,513,1122,1474,1547,396,430,1006
1125,554,1675,239,1361,341,313,1214
1056,1571,458,1485,306,467,1458,405,1398,282,1567
1060,292,1481,1328,1363,1274,1660,1596
353,355,1353,1065,331,333,334,335,1359,1396,342,439,442,1499,351
512,482,515,484,516,487,490,491,495,503,505,506
1280,1569,1094,1000,650,1484,1326,1297,1270
1539,1349,905,1390,913,1433,1627,892,1373
1376,1538,1348,1224,1225,1226,909,910,1657,1374,1375
930,1317,934,935,1227,1293,917,927
960,1377,1378,1543,1544,1229,943,944,957,947,1658,951,1686,954,956,1629,958,1628
961,962,963,964,1633,1210,1294,1434,1564,1630
1672,1257,1642,1486,1491,1332,1113,1402
1664,1121,1250,1482,1261,1166,1395,1118
1410,1638,1511,1134,1487,1302,1500,1598
1321,1322,1552,1393,1139,1460,1333,1397
1666,1219,1483,1357,1140,1336,1465,1147
1475,1350,1641,1329,1459,1404,1213,1566
1249,1411,1636,1394,1462,1403,1502,1439
1635,1637,1477,1671,1640,1258,1323,1407
