0,102,583,521,522,1331,540,381,510
355,4,6,169,139,46,51,28
5,133,40,210,21,277,23,183
481,134,7,1357,431,47,60,446
289,550,294,1384,8,1036,1615,660,156,542
1056,449,1571,9,458,649,467,405,22,1398,282
480,162,200,186,10,213,312,410
65,417,38,11,12,332,491,565,158
994,13,14,1038,187,190,29,1278
35,360,394,366,15,20,470,250
166,1671,1640,335,16,495,307,1491,85,314,27
225,1320,1325,45,18,244,503,152
448,140,142,178,19,116,87,248,155
1664,389,1672,333,220,1405,1046,247,24,1334,444,1661,94
161,453,104,214,57,188,25,255
1250,516,59,1258,235,301,208,1394,371,1139,1397,1403,285,30,1279
256,234,1643,271,1298,1554,604,93,350,31
34,100,36,70,135,171,203,1499,222
576,418,37,198,91,463,370,1307,253
228,1669,1382,646,39,287,138,1610,308,534,511
1637,295,43,108,269,428,272,1461,150,1402,479
64,325,231,74,48,81,336,157
416,1408,131,1092,1254,1510,268,461,464,562,52,1399,1306,1115,191
450,1638,1641,523,54,217,189,351
69,136,361,362,1460,181,375,56,539
128,121,103,168,137,1256,172,334,471,280,1113,61,221,415
160,1472,290,1252,107,432,209,114,86,1114,63
68,484,1318,319,233,395,1323,397,493,1135,401,1649,215,249,1407
517,73,426,75,305,1492,216,1501,318,127
130,515,456,1645,78,1616,529,530
1257,170,492,365,207,82,83,84
291,164,141,177,438,89,316,349
1440,1251,1213,1302,1142,1401,90,1335
159,1665,357,422,297,212,372,95
96,105,106,266,113,115,436,377
97,194,1121,457,123,237,1486,143,145,1332,411
98,1602,549,1127,1674,302,304,475,543
1443,1124,1157,1572,1608,204,1132,1358,111,339,1364,440,1150,1503
153,1603,387,421,648,330,409,525,1613,1007,1593,185,122
132,173,367,147,179,279,281,317
544,1059,1001,1097,587,1515,1168,1296,1490,149,987,1565
1504,354,995,1670,551,329,1130,526,1647,243,343,151
299,174,180,276,278,404,1333,251
482,1094,1000,459,176,564,310,254
192,483,197,554,239,341,408,313
193,1634,1605,1606,1642,1324,1676,1556
1060,199,652,205,1260,368,338,1044
257,1153,1635,1249,1160,1262,1008,1597
1319,425,1659,1392,379,1594,283,1406
1216,1573,293,553,556,1068,1136,1617
1667,568,1145,378,507,1052,1053,638
1380,1159,1546,1131,1327,1330,435,1365
896,897,1376,1348,903,1224,1225,908,909,910,1375
1316,933,1541,916,1685,918,919,921,922,923,924,1207
929,931,932,936,1292,1454,915,1208
930,1317,934,935,914,917,920,925,927
928,1542,937,938,1227,1293,1591,926
992,1248,1477,1393,1462,1336,1500,1118
1154,997,1512,1099,1612,1266,1276,1151
1219,998,1063,1033,1483,1005,1040,1557
1217,999,1096,1066,1009,1170,1553,1215
1002,1326,1166,1297,1169,1270,1404,1439
1601,1261,1295,1264,1265,1011,1466,1275
1444,1126,1513,1550,1138,1012,1141,1305
1604,1093,1470,1161,1673,1037,1112,1502
1666,1411,1636,1065,1134,1359,1042,1396
1057,1123,1095,1067,1329,1140,1147,1148
1125,1675,1263,1648,1361,1299,1400,1214
