1,130,78,529
121,2,471,40,137,415
281,3,132,279
51,355,4,139
23,5,133,183
436,28,6,231
7,95,446,431
449,1458,306,1398,649,458,9
312,186,10,200
1475,11,565,38
481,372,357,1352,1500,12,1278
13,232,393,170,365,362
1035,29,14,375
316,1320,155,172,221,334,15
16,161,1491,25,314,188
17,42,21,165
18,453,214,503,1279
19,59,1403,87
1113,250,35,20
467,1485,405,22
24,1672,94,1046
104,57,27,255
1397,470,30,1256,1258,237,366
1298,93,350,31
32,264,50,298
224,33,282,1567
34,1411,1636,100,1666,203,1134
1042,36,53,166,135,490
576,418,37,261,91
1610,228,308,39
41,58,129,62
108,43,428,269
55,71,1598,1659,44,1262
225,1250,244,152,45
48,266,64,46
422,1462,56,1357,47
344,49,1282,265
217,450,523,54
1008,1460,60,1511
280,1394,61,103
96,377,106,63
65,212,1639,1351,491,1324,253
528,321,66,260,638
67,603,267,541
1649,68,1318,233,395,319
1594,492,69,1038
70,1322,171,222
248,105,74,277
216,1337,75,517
1481,419,76,206
400,275,77,1478
258,323,262,1466,79
80,380,1152,167
128,336,81,276,278,299,174
82,1333,438,181
210,83,180,157
1139,84,325,207
353,85,342,1640,1065,442,1499
160,113,290,86,1114,107
88,1553,120,182
379,89,177,164
1440,455,359,90,92
97,1637,457,189,143
304,98,549,302,543
612,109,374,1551
402,451,236,110
339,1124,440,1503,204,111
432,209,114,115
285,235,116,1325
117,403,1133,406
568,378,1667,118
632,119,502,1495
185,122,435,1593
145,123,411,1121
1560,124,373,300
288,566,615,1561,1612,125,606
156,660,126,1519
1057,1140,127,1095
417,193,134,1606,158
136,427,301,448
1257,140,141,142
512,1216,144,601,477
146,1219,1483,1063
168,147,367,1472
544,587,149,1515
1402,1461,150,479
151,1130,1670,1647
153,409,525,1159
154,991,1644,1247
994,187,1477,159
480,162,213,410
240,547,163,358
1392,169,1406,1321
178,179,317,173
176,1000,1094,1297
251,404,190,1255
192,197,341,408
272,194,1638,295
1354,195,1459,198
196,220,444,1661
530,652,205,199
201,382,309,1062
211,456,1609,202,441,364
208,291,371,349
249,401,493,215
593,218,1220,532
245,550,294,246,219,1036
345,1418,579,223
1600,226,629,614,238
1480,227,430,407
608,1280,229,1270,270
1505,390,230,296,1468
256,1554,234,1643,604,271
1361,554,483,239
241,363,292,1334
1328,242,1660,1274
243,343,526,995
1664,1405,389,247,333
1514,252,1509,1631
1002,1166,254,1439
360,257,394,1252
1281,567,263,392,399
376,274,478,1383
425,283,1249,1635
386,311,1273,284,303
466,1476,286,348
1049,986,1668,287
1617,538,293,553
1160,297,1597,1319
1671,307,335,495
310,1169,459,1502
1400,313,1675,1648
1329,1395,1501,318
1040,1441,324,423,489,347
644,645,326,586,636,1021,1518
1504,329,354,551
1603,387,648,330,1007
992,361,539,332
368,338,515,1044,1260
1576,1570,340,1557
346,443,572,1413
1641,1332,1486,351
356,1474,619,396
496,674,370,1492,1307,1566,463
1673,1604,381,1093
1512,391,1469,1151
516,484,1407,1323,397,1135
609,1522,676,488,412,1068,1101
1106,420,452,678,1338,1614,575
1380,1365,1613,421
1353,1396,439,1359
657,620,1174,617
1444,1141,454,1173,1162,1103
465,1386,460,469
473,1146,474,494
1602,475,1127,1674
506,1034,996,1071
1145,507,1052,1053
514,519,1525,527
545,561,585,1163,1164,669,559
1552,1465,546,1487
1569,1484,1326,564
584,1116,1061,1117
664,1043,597,662
1665,627,1556,1663
1240,1241,1110,1191
808,1026,814,1535
802,1347,805,806,1198,1534
800,801,803,807
809,810,811,813
1424,1195,1196,1197
804,1533,812,815
1296,1490,987,1565
1137,988,1013,1463
1120,1642,1128,989
1272,1010,990,1607
993,1003,1467,1129
1266,1099,1276,997
1033,1442,1005,998
1096,1009,1457,999
1168,1097,1059,1001
1122,1547,1102,1006
1305,1012,1513,1516
1409,1355,1045,1662
1218,1051,1171,1047
1363,1060,1596,1356
1217,1066,1677,1215
1067,1123,1148,1147
1408,1115,1254,1399
1634,1676,1605,1118
1299,1125,1214,1263
1138,1253,1126,1679
1546,1131,1330,1327
1608,1572,1132,1150
1401,1251,1142,1335
1339,1379,1438,1143
1248,1153,1336,1393
1264,1265,1275,1381
1616,1362,1645,1479
1384,1555,1464,1615
1520,1521,1506,1523,1414,1496,1497
