256,1152,644,517,1285,9,906,270,1053,798,420,936,1067,302,432,1458,693,960,1090,1096,1224,1482,1483,474,1374,608,101,1130,373,888,634,1534
704,66,130,196,1282,359,1640,1610,459,397,1523,1141,1435,1308,1150
649,523,417,1059,1571,300,308,442,70,1613,1490,98,99,100,1251,1254,615,1127,1265
262,139,1423,147,1049,27,54,57,443,80,83,340,344,730,991,97,1383,105,1644,1007
132,516,781,142,1038,791,664,543,1057,291,164,427,301,174,441,834,332,1101,336,210,211,214,478,1634,231,360,365,1140,1397,1663
0,546,387,1382,1422,686,1583,243,533,789,917,1048,1148,1501,1502
449,1570,451,1445,1095,909,306,310,313,698
1221,1574,1253,1099,1324,1326,1009,1300,1433,348
224,1379,1576,616,1363,1011,1365,1173,1147,862
552,937,1514,554,684,1550,1041,916,536,925
963,968,1547,717,430,977,1047,952,572,1310
1122,1000,1129,1003,1520,1553,466,1104,1207,1112
3,515,5,7,10,11,12,13,14,15,16,18,19,1556,20,23,24,28,29,30,31,35,36,39,40,42,44,45,46,47,48,55,58,59,64,65,74,587,77,79,81,82,85,89,90,91,95,96,611,1638,103,104,1639,106,1641,1132,108,113,627,116,118,122,1659,1660,126,128,131,133,134,137,138,140,143,152,154,156,158,159,179,180,190,205,206,207,208,213,216,220,221,225,229,230,1255,235,1262,255,260,263,266,269,272,274,786,276,277,279,281,1307,287,288,289,292,295,297,299,305,307,822,312,314,316,317,319,321,323,325,837,838,329,330,331,334,335,337,859,361,364,371,884,375,887,893,896,905,404,405,409,410,411,412,415,419,421,422,424,428,431,943,433,435,436,438,444,445,448,961,450,453,454,456,463,467,471,475,477,479,480,482,483,485,487,489,490,491,493,495,496,501,506
160,1603,107,911,209,470,121,1114,1406,63
994,34,135,136,202,203,1676,1325,119,440
129,4,1607,170,1035,1394,86,183,278,251
290,165,393,1392,17,248,377,795,1629,1278
992,1665,2,6,169,141,114,115,1492,87
930,1250,1666,162,390,358,676,391,8,1355,1643,1261,1652,1274
1093,871,652,494,1647,1616,1522,596,540,350
33,193,1605,233,586,237,1487,368,50,84,1429,94,151,217,93,1118
1664,801,394,400,1138,820,21,181,727,1403
192,1409,1602,1440,1377,1330,1331,1396,1336,1500
548,1317,775,519,1545,808,1259,1421,783,1586,22,790,1626,1021,1054
865,581,555,1328,595,885,1078,856,1564,127
583,1513,553,1068,782,271,144,656,1559,569
673,931,408,1414,969,464,662,1144,665,1595
1229,976,1235,1108,1171,1110,1180,1469,1182,1567
1508,1535,721,1234,1619,978,1524,980,758,1471
1120,1601,1442,1536,68,32,73,395,1323,910,1649,51,376,25,61,927
26,1318,38,168,171,1037,366,1594,186,60
185,76,1593,1334,56,1113,892,381,222,191
161,995,933,902,903,1575,1159,678,41,1424,53,507,1407
354,1411,389,807,1674,748,1042,189,380,157
576,1060,1125,1257,1166,1135,1264,1306,1596,1247
1380,1606,1671,1609,212,1045,1655,1627,1661,1662
1446,1065,749,1454,1648,1395,500,886,1400,249
1673,1040,149,797,1439,1449,559,49,1329,828,1470,575,589,1134,239,372,1653,636,254
1376,1441,1381,1578,1425,406,1399,1302,1338,1052
996,1094,1479,1321,557,1169,1145,1146,990,1215
353,1410,355,545,198,1488,1170,52,568,188
1408,1123,195,1573,998,167,1511,176,1565,1566
512,1632,682,1515,429,1039,303,1266,1301,954,187,1277,958,1151
1056,1313,1058,1217,1546,1199,1168,1176,1213,703
1226,1516,719,117,631,120,1402,1116,62,607
993,513,1604,69,1273,711,999,399,1263,339,761,342,1303,345,378
352,997,614,110,944,112,497,1332,1493,218
1024,771,773,518,1162,780,273,1177,793,800,1342,1230,1245,1246,738,227,741,232,745,750,753,498,1527,1271
833,579,580,1541,1343,326,1288,71,571,831
610,867,1542,327,1034,1420,588,599,92,605
386,650,619,1548,626,658,374,1463,1051,638
1478,681,938,1069,1549,914,946,922,413,671
439,1070,947,692,1494,950,1562,123,124,701
1507,709,966,201,714,1584,1073,720,979,447
1088,1447,1621,725,726,469,473,731,476,735
226,1155,1156,1102,1105,1107,1529,1658,1084,1149
356,1668,1062,967,1256,1481,78,1071,240,465,1362,629,250,956,349,1503
1443,1637,1670,1645,1677,1615,1008,1679,309,1628
640,1419,1295,401,1044,534,549,1322,1327,177,1339,1348,338,88,1373,351,1505,1126,1258,1131,1139,1142
897,194,163,37,1353,908,178,1459,951,1279
1121,1350,298,1357,1552,1393,1298,1398,1305,1438
929,1219,1092,1225,1036,1293,1260,1657,1401,988
1252,197,550,204,461,1460,565,182,215,1405
609,153,261,293,1352,75,1164,1518,148,633,252,1214
1444,102,1543,1033,1066,1385,1517,1466,1467,1375
320,1281,1154,1248,1636,1623,1001,1678,1103,1006,1364,1012,1046,1685,1270,1143,125
898,388,423,457,1675,396,1519,1137,343,541
1280,1473,1249,707,900,901,1669,328,521,1359,593,146,1010
1540,294,1161,1361,145,241,341,150,987,223
1633,257,259,242,244,247,1497,155,1117,253
258,1582,1521,660,468,949,245,1465,1018,702
1472,1477,1223,296,1319,1642,268,913,1462,503,280,285,1597,446
318,322,1475,1124,357,1351,564,695,286,959
481,418,1320,425,875,172,173,1491,601,1598
1635,484,166,455,199,200,492,1333,1499,603
544,1349,1115,970,333,1486,367,879,379,1404
416,1539,1220,584,524,530,1276,597,1335,604,542
1504,1667,228,677,426,236,1358,689,1275,511
1184,1474,1476,1672,1608,1194,1612,1296,1457,1560
1216,385,739,646,582,1384,971,1485,462,1297,851,1528
1153,1027,742,1031,234,815,304,1557,1496,1561
645,1061,1063,392,486,267,1005,1631,1489,1554,1299,1205,1654,1272,505,669,1183
1218,932,934,935,265,1227,1356,1106,1555,1109
1572,1128,585,1002,683,1390,592,986,347,989
1600,706,1316,774,1190,1163,1072,594,659,915,691,755,1368
522,525,526,528,1617,1233,504,573,510,1311
384,1,514,1030,776,1611,653,1133,403,788,1269,1591,1309,1599
1687,1004,111,882,499,628,1686,1495,728,346
