9,649,405,22,282,1567,1056,33,1568,1571,306,1458,449,458,1485,467,224,101,1398
1504,354,995,1670,551,329,1130,45,526,1647,18,243,343,212,150,151,152,30
163,547,358,1479,1133,1645,240,1616,1362,403,117,406,31
1409,135,264,16,274,1045,25,27,32,36,298,50,307,53,314,1355,85,342,478,353,1383,376,1662,255
1668,1669,646,138,534,1304,1049,287,39,308,1607,1610,986,990,228,1382,1010,1272,511
257,1282,3,390,7,265,10,11,1035,13,140,15,269,272,19,20,154,155,283,35,38,295,296,43,44,428,47,431,49,178,54,55,312,57,59,1468,60,190,319,68,69,71,80,213,87,344,89,90,215,92,217,221,1247,991,1505,95,225,351,357,230,359,994,233,235,1644,108,116,372,250,1278
1408,131,259,268,14,1306,29,416,37,562,52,187,191,1092,461,464,208,91,1115,99,1254,1510,370,1399
321,66,1667,260,1476,638,1052,528,466,118,568,1145,378,507,348,1053,286
1660,419,196,292,1060,456,1481,363,76,1356,206,205,1328,241,242,1363,1274,1596
132,1160,137,136,139,1676,141,142,280,539,285,415,159,161,291,173,179,441,316,1597,448,1351,1352,202,471,349,1634,103,104,1639,1392,626,121,253
128,129,2,4,6,393,266,17,276,277,21,23,278,160,674,290,165,41,42,299,1325,48,432,436,1594,58,63,64,74,81,82,209,84,86,1114,96,1255,105,362,106,492,107,366,113,114,371,115,377,1659
320,293,1573,327,553,331,524,333,334,335,556,1136,1617,468,538,1595,1471
1441,1442,1570,324,998,423,1576,489,1033,1005,1040,144,146,340,1557,347
0,1665,261,1093,73,426,1673,1331,627,216,318,1663
1604,102,583,510,522,75,1112,381,1470,127
5,133,1038,404,1307,157,40,46,174,51,180,181,438,183,188,61,453,1605,325,207,336,210,83,214,992,231,232,365,248,251,1406
195,198,169,1354,170,496,1492,1556,375,28
289,294,550,8,1036,1677,1615,1519,1457,124,660,126,156,542
300,219,1553,1170,245,182,246,1464,373,88
1217,999,1384,1096,1066,1560,1009,1555,120,1215
134,1675,12,143,145,1299,408,164,167,554,172,177,313,189,1214,192,65,193,194,197,341,97,483,1263,1400,123
162,1125,199,200,239,1648,1361,175,186,158
1601,258,323,417,262,1295,79,1265,184,26,1275
1381,168,425,367,1264,379,147,1466,411,380
1417,529,279,281,1319,1068,301,1334,56,1337,317,1216,1606,338,355,361,1262,368,1147,1148
1252,422,1320,360,394,427,297,332,470,1661
1472,1153,1120,1123,1128,1256,1324,1260,305,989
515,488,1609,1385,1067,337,530,601,444,412
1061,454,1253,1513,1162,1516,1103,1679,569,1138,1012,1173,1141,1305,1116,1117
67,1444,548,1126,584,424,267,1550,603,541
1379,420,644,645,1518,400,1043,275,662,1463,664,1303
352,612,1478,326,586,77,597,536,1048,1438
636,109,1551,1137,1013,374,1143,1339,988,1021
1,130,1572,1157,1608,364,236,1358,78,110,211
1443,1124,204,1132,111,339,1364,440,1150,1503
577,1154,388,1220,997,391,1512,1612,593,1266,532,566,1561,218,1276,606,1151
288,615,616,1099,429,112,624,1301,125,1469
1281,386,1413,263,392,1271,399,303,663,1467,284,1277,1022
579,567,581,582,1418,1495,1273,443,572,311
226,1284,614,1548,238,1360,595,345,346,223
993,1218,1129,1003,1549,623,1171,1366,1047,1051
1600,1004,499,629,502,119,632,1269,1498,508
34,1380,70,1159,1546,395,397,1613,1327,401,410,222
387,100,166,648,1131,171,203,525,1330,1593
1603,185,421,409,330,1007,435,1365,153,122
1280,385,608,650,1484,589,270,1297,148,1270,254
1569,418,229,1094,1000,72,1326,176,564,310
544,256,1059,1097,1001,587,271,1296,1490,149,987,220,93,350
98,389,234,1515,302,1168,304,24,1565,94
1473,514,519,552,555,558,527,1041,1681,1521,1523,500,1525,537,1308
578,588,590,1489,563,570,1050,571,1309,574
599,600,592,594,596,1558,1054,598,602,1310
1312,610,611,1062,617,618,620,621,1494,605
641,642,643,639,628,631,1496,634,1340,1055
647,1064,651,653,654,655,656,657,1497,1341
1575,1069,658,659,661,1368,665,666,667,668
672,673,1506,675,677,679,1070,1369,670,671
680,681,682,684,1581,685,686,687,1073,1370
1507,1386,1098,688,1074,1075,1107,1078,1079,1119
201,1387,689,690,691,692,693,273,1149,1599
1412,1156,1165,1646,1167,1172,309,1174,1175,1177
1414,1574,328,398,369,434,1179,413,382,383
1283,1508,1285,1231,1650,1267,437,1178,1180,1181
486,460,1517,1680,465,1268,469,472,476,447
1415,1520,498,1014,1015,1017,1018,1019,1020,1023
384,513,1474,322,580,227,1547,396,1102,1678,1493,407,1016
1122,356,1480,1611,619,430,1006,497,402,315
640,1509,1163,1419,237,244,533,247,249,509
545,535,585,1164,559,561,1300,1559,669,414
1058,1577,1578,1580,607,1039,1618,1076,1077,1311
1632,1445,1514,1259,501,1144,635,252,637,1631
1155,485,518,613,1416,520,1446,683,1579,462,591,1488,1230,1104,1072,1176
622,560,1105,433,625,1524,630,1367,504,633
1152,516,1671,1046,1321,1459,1460,565,1598,446,457,1486,481,482,1511,1640,1641,1649,503
450,1635,484,523,495,463,1394,1139,1462,479
1248,1249,1121,1638,1257,1258,1491,1113,1403,1118
609,676,452,678,1101,1522,531,1338,573,575
1219,1158,1063,1002,1614,1166,1106,1298,473,1146
480,576,546,1475,455,490,491,493,1008,1333
1411,1483,1329,1554,1395,1302,474,1404,1405,1439
1251,1477,1065,1642,1135,1042,1142,1336,1213,1279
1250,1637,517,549,1397,1461,439,442,445,543
1410,1350,1318,1353,1643,1037,494,1359,1396,1502
1602,451,996,1482,1034,652,1071,1044,506,604
477,1664,1666,1636,1672,1674,1322,1169,1335,1501
1095,487,521,1357,557,1552,475,505,1500,540
512,1440,1057,1127,1161,1261,1134,1011,1140,1499
1401,459,1323,1487,1393,1332,1465,1402,1566,1407
