0,524,272,147,789,1442,1570,176,1330,820,442,330,339,1364,482,1251,358,1257,1647,1265,1011,1140,1146
2,4,5,6,7,1035,13,14,16,17,21,22,23,24,25,26,28,29,30,32,35,36,37,40,41,44,51,57,58,60,61,62,63,64,70,74,586,81,82,84,86,87,89,90,1114,96,97,98,611,1634,102,103,1641,106,107,108,113,114,115,116,627,121,122,123,124,126,128,129,1664,131,132,134,135,137,1673,141,142,143,144,146,148,155,157,158,159,160,165,166,169,170,174,178,179,180,181,182,183,187,188,190,191,193,195,196,197,199,200,203,204,205,206,209,210,213,215,216,218,221,222,225,1253,230,1255,235,237,239,241,242,248,263,265,266,274,276,278,795,1307,290,291,295,296,298,300,301,303,307,312,1339,316,318,321,323,1351,329,1355,335,364,367,377,1406,404,405,410,412,415,419,421,425,426,431,436,441,994
608,999,8,1576,1457,1010,501,117,1560,1497,990,1183
391,9,1033,407,1049,154,289,557,302,306,1458,1459,693,310,1338,575,340,1495,986,987,864,229,1381,487,1130,875,1266,499,1274,1276
10,267,15,19,659,1300,1052,1308,34,1323,704,1600,322,451,1218,326,327,583,1615,88,95,104,489,112,1648,118,631,632,1273
192,1505,644,1380,1606,1384,1131,12,268,493,47,1359,145,1518,1363,1335,1400,189
544,1280,1411,388,581,550,1000,1096,236,719,18,435,212,153,1306,347,1501
995,356,1379,1636,1607,1678,304,1169,1299,1399,31,1118,511
1537,1549,1039,1551,539,540,1051,1573,43,1069,1070,562,1074,1589,566,572,1599,1088,580,1102,1103,1104,595,1107,1621,598,1624,1625,1632,610,612,1125,615,617,620,1133,110,111,639,1160,1161,1162,657,1171,1174,666,1181,1186,679,1196,686,691,692,1203,701,708,709,712,714,715,1231,1237,732,733,735,741,743,232,754,761,1288,1291,273,790,287,813,817,825,826,315,827,1341,830,1342,1343,1347,324,1354,848,851,1366,1369,346,1371,861,867,869,872,873,874,876,370,1413,1415,1420,403,413,1461,443,447,1471,1489,472,1496,993,486,1510,1512,1004,1516,500,1018,1019,1021
1536,1425,149,1059,49,50,1331,52,1593,186,65,66,75,76,1356,79,1616,1490,342,470,1382,234,1643
392,269,1550,533,662,1571,1061,1445,1575,811,815,53,1480,1099,593,1117,228,996,870,1003,1005,1263,378,507,636,1277,638
1156,519,1036,399,1554,1176,286,1058,1063,1587,1463,569,698,449,67,1485,468,727,730,224,1124,1126,1383,1129,1513,1136,245
256,771,1157,1286,1163,1168,787,1555,1047,1048,793,1559,1180,1182,545,1574,808,1192,682,556,1198,1199,1582,561,1337,703,707,458,77,462,718,592,845,594,1619,1368,223,1509,1128,877,750,1013,1144,127
1153,1667,645,650,270,1297,1184,1313,677,308,1215,1220,1608,1358,91,99,742,1515,1008,372
448,1121,1252,133,1319,105,1038,1649,1142,1336,93
1057,1247,101,1610,240,305,338,1362,596,1045,440,319
420,1285,1385,1578,988,109,1389,1595,603,252,669,510
384,1281,773,647,1528,523,396,652,780,529,1170,541,1311,1056,1572,293,1066,429,430,1071,1327,1073,313,571,1085,831,320,1216,1217,1344,1221,1222,459,1611,1613,846,469,725,1493,1494,1116,477,739,613,616,497,498,628,1269,120,633
1665,393,1301,678,1325,432,1213,1597,1603,325,198,453,1609,202,208,336,1492,484,233,361,496,1392,373,1659,1660,125
641,130,1034,1553,1557,406,1053,798,1060,1326,1478,1479,201,589,227,494,1523,1012,374,1529,1275,1534
1414,139,1547,271,660,1303,797,1309,548,676,1062,1194,1328,309,185,1214,343,217,345,1499,352,997,998,1001,1259,1522,1141,247,508,1149
1248,162,258,387,333,1261,1138,1460,150,475,1438
1154,389,646,1422,1046,151,152,156,416,161,163,164,1444,554,171,684,177,1474,1476,454,461,1502,868,503,381
1668,231,167,297,1256,366,211,280,1403,220
1067,1605,584,587,1106,1112,1132,1645,1148,1661,1663,1676,664,172,194,711,1223,207,214,1262,244,1278,1279,255,260,781,1295,786,1298,277,279,281,285,1321,299,314,317,1350,328,334,337,859,359,360,871,365,368,1393,1394,371,1397,379,1405,1408,394,395,409,417,418,422,1446,424,427,428,438,446,1472,1473,450,1482,1486,463,1500,989,478,992,481,491,495
774,1289,782,1428,665,537,283,288,294,423,1190,688,823,1469,1470,844,1100,464,606,1631,865,740,362,1514,622,1137
649,1040,1561,1567,555,1072,1080,706,331,332,716,344,474,348,349,351,353,354,1508,1006,1519,1014,1143
515,516,1027,521,522,1546,525,526,1037,528,1552,530,1042,1044,1556,534,1565,542,543,1054,1566,546,1569,549,1065,1068,564,1588,567,568,1594,1596,1598,576,1601,1602,1092,1604,582,1094,1612,1617,597,601,1113,1115,604,607,1120,609,1122,1123,1635,1638,1127,1639,1640,1642,1644,1134,1135,1139,629,1653,1145,1147,1150,1151,640,1152,1662,1666,1669,1670,1159,1671,1672,1674,1675,1677,1679,656,1173,689,1230,1249,1250,1254,1258,748,1260,1264,1270,1272,1282,779,1296,1302,1305,801,803,1318,807,1320,1322,1324,1329,1332,1333,822,1334,828,834,837,838,1352,1353,1357,1361,1365,866,1395,1396,1398,1401,1402,1404,1407,1409,1410,1419,1423,1424,1429,1439,1440,1443,1447,1449,1462,1465,1466,1467,444,445,1475,452,1477,455,456,457,1481,1483,1487,1488,467,1491,471,479,480,991,1503,483,1504,485,1511,490,1002,492,1007,1521,504,505,506
