0,1470,1093,1604,583,1673,522,1331,1112,381,510
9,649,405,22,282,1567,1056,33,1568,1571,306,1458,449,458,1485,467,224,101,1398
232,46,174,14,207,208,248,187,28,29
1504,354,995,1670,551,329,1130,45,526,1647,18,243,343,150,151,152,30
1601,258,323,1381,262,79,1264,1265,1295,1466,184,26,1275
163,547,358,1479,1133,1645,240,1616,1362,403,117,406,31
32,1409,1383,264,298,1355,1662,50,274,1045,376,478
1668,1669,646,138,534,1304,1049,287,39,308,1607,1610,986,990,228,1382,1010,1272,511
1505,1247,1282,230,390,296,265,1644,49,344,154,1468,991
416,1408,131,1092,1254,1510,268,461,464,562,52,1399,1306,1115,191
321,66,1667,260,1476,638,1052,528,466,118,568,1145,378,507,348,1053,286
1660,419,196,292,1060,1481,363,76,1356,206,1328,241,242,1363,1274,1596
1443,1124,1157,1572,1608,204,1132,1358,111,339,1364,440,1150,1503
132,166,136,168,171,173,367,147,179,212,220
608,385,1280,1569,229,1094,1000,650,1484,589,270,1326,176,1297,148,564,1270
544,1059,1001,1097,587,1515,1168,1296,1490,149,987,1565
674,362,492,1325,366,371,276,277,1594,1114,1659
320,293,1573,327,553,331,524,333,334,335,556,1136,1617,468,538,1595,1471
1441,1442,1570,324,998,423,1576,489,1033,1005,1040,340,1557,347
417,418,420,389,425,395,397,401,402,411,410,379,380
256,1665,130,318,234,236,205,78,110,271,370,216,93,350,1663
34,102,72,73,75,144,146,310,254,127
160,129,41,107,209,114,115,86,377,62
128,35,456,364,16,20,25,27,57,255
96,2,165,105,106,42,432,113,58,63
1,36,70,10,211,85,53,24,222,94
290,393,74,13,48,17,84,21,23,190
64,4,6,266,299,81,51,436,278,61
353,98,100,68,203,302,304,342,90,92
3,69,1255,140,82,19,178,116,87,155
257,7,71,1035,44,431,80,47,55,95
357,38,295,11,43,272,627,372,60,1278
994,261,59,108,269,428,213,54,89,283
225,135,233,15,307,215,312,314,221,319
259,99,37,359,426,235,217,250,91,351
992,5,133,325,40,336,210,180,404,1492,183,157,1406
195,198,170,365,1038,83,181,438,375,251
1605,453,231,169,1354,496,1556,214,1307,188
289,294,550,8,1464,1384,300,1615,1519,660,182,88,156,542
1217,999,1096,1066,1036,1677,1009,1170,219,1215
1560,1553,1457,1555,373,245,246,120,124,126
192,483,1400,197,1125,199,167,554,1675,239,1263,1361,1648,341,408,313
193,162,134,200,175,143,1299,186,189,158
65,194,97,164,12,172,145,177,123,1214
355,422,360,361,301,1262,279,56,281,317
1319,297,394,427,332,368,305,338,470,444
1216,1123,488,1128,1067,1068,1260,1147,1148,989
515,1320,1324,601,337,530,529,1334,1337,412
1472,1153,1120,1252,1606,1256,1385,1609,1417,1661
1444,1061,454,1253,1126,1513,1162,1516,1103,1679,1138,1012,1173,1141,1116,1117
67,548,1305,584,424,267,1550,569,603,541
644,645,326,586,77,1551,400,275,597,662,664
352,1478,536,1137,1043,1013,1143,1048,988,1021
1463,1379,612,109,1518,374,1303,1339,636,1438
448,161,104,202,142,441,539,285,253,159
291,103,137,139,141,471,280,121,349,415
1634,1351,1160,1352,1639,1676,1392,626,316,1597
288,577,388,391,615,616,1512,1612,593,532,1301,566,1561,218,125,606,1469
1154,1220,997,1099,429,112,624,1266,1276,1151
386,567,263,392,399,303,1360,1467,1366,663,443,284,311
1281,226,579,581,582,595,345,346,572,223
993,1218,1284,1129,1003,1004,1171,1047,1273,1051
1413,614,238,623,499,629,502,119,632,508
1600,1495,1418,1548,1549,1269,1271,1498,1277,1022
153,1603,387,421,185,648,330,525,435,409,122
1380,1159,1546,1131,1613,1327,1007,1330,1365,1593
514,1414,519,552,1415,555,558,527,1680,1681,563,1525,537,570,571
578,588,590,592,1041,594,596,598,599,574
610,611,617,618,620,621,1558,600,602,605
641,642,643,647,651,628,634,631,1050,639
653,654,655,656,657,658,659,661,665,1054
672,673,675,677,1062,666,667,668,670,671
1064,1098,1069,1070,1073,1074,1075,1078,1079,1055
1574,679,680,681,682,684,685,686,687,688
1156,1581,1165,1167,1107,1172,1174,1175,1149,1119
328,201,689,690,691,692,693,273,309,1599
1283,1285,1646,1231,1267,1268,1177,1178,1179,1181
1575,447,460,398,369,434,437,413,382,383
1312,1650,1340,1368,1369,1370,1341,1308,1309,1310
1473,1506,1507,1508,1387,1517,1489,1494,1496,1497
1412,1020,465,1014,1015,1017,1018,1019,1180,1023
486,1386,1520,1521,498,1523,500,469,472,476
384,513,322,227,580,356,619,396,430,1493,407,315
1122,1474,1480,1547,1611,1102,1006,1678,497,1016
640,535,669,237,244,533,247,249,509,414
545,585,1164,559,561,501,635,252,637,607
1058,1577,1578,1419,1163,1580,1039,1076,1077,1559
1632,1311,1509,1445,1514,1259,1618,1300,1144,1631
485,518,613,520,1446,1416,683,1579,462,591,622,560,433,1488,1524,1367
1155,504,1230,1104,1105,1072,625,630,1176,633
1410,1672,1674,531,676,678,573,575,1602,452,1482,1101,473,474,1502,609,1258,1008,1405
512,1219,1158,1063,494,1166,1522,1106,1146,477
482,549,521,459,652,557,1338,604,540,543
996,1127,1034,1002,1261,1134,1071,1011,1044,1046
1411,1353,1614,1359,1329,1298,1395,1396,1404,1439
576,451,517,487,442,439,505,506,475,445
1251,1095,1065,1161,1169,1554,1042,1140,1142,1213
1321,1323,1357,1393,1394,1397,1333,1336,1403,1407
480,450,546,455,490,523,1643,493,463,479
1475,1477,1511,1491,1460,1459,1462,1461,1500,1598
1635,1637,1638,1671,1640,1641,1642,1552,1139,1566
1248,1057,1250,1121,1249,1483,1037,1135,1118,1279
1152,1440,1318,1350,1322,1332,1302,1335,1401,1402
481,516,484,1257,457,491,495,565,503,446
1664,1666,1636,1465,1486,1487,1649,1113,1499,1501
