1422,1300,1048,1433,1570,1574,1326,313,451,1221,1363,862,1502,1379,1253,1382,616,1009,1011
449,546,387,1099,1324,1583,1365,1147,348,1501
384,1,514,1547,653,1550,1553,1041,403,916,1686,1687,1047,925,1310,552,937,554,684,430,1591,1207,572,1599,1611,1104,977,466,1495,728,1112,346,1122,1000,1129,1514,1003,1004,1133,111,1520,499,628,1269
644,394,11,908,269,781,1295,400,1425,1437,177,820,565,312,1466,1467,1475,1092,1348,1351,75,77,981,1499,477,94,351,1373,225,1638,1518,887,1660,1279
896,1409,265,14,664,27,30,35,422,424,174,1330,307,55,1472,322,1602,199,200,1353,330,205,80,213,727,991,1639,490,368,372
258,1676,913,19,1440,296,1321,427,172,1329,1331,59,1339,319,961,331,587,91,93,1629,230,1130,875,492,1396
770,772,1157,1286,1670,904,777,1544,1656,529,402,1682,407,537,794,283,284,34,803,1064,1067,1451,942,1200,817,1456,948,1590,311,184,824,825,574,577,705,835,708,839,1480,337,1618,723,1237,983,1240,985,219,1244,733,1630,617,362,1386,369,370,757,630,1526,1016,633,1530,1017
509,389,648,655,1556,1175,538,672,1569,1186,547,37,1580,561,690,1337,710,458,1100,591,984,1241,740,1509,488,1013,1014,508,637,126
288,1247,67,1060,453,1477,39,1449,298,204,141,1663,1655,380,411,156,287
481,1605,455,1319,1320,365,45,431,495,1262,54,503
1093,871,8,391,1355,652,1261,494,1647,1616,1522,596,1652,350
256,1152,517,1285,9,906,270,798,420,302,432,1458,693,960,1096,474,1374,608,101,373,888,634,1534
1536,260,18,281,26,415,1318,168,171,1323,47,1334,1594,186,444,61,1601,1120,1649,376,123
259,1671,143,272,145,21,33,163,1322,178,951,1219,68,463,467,85,480,995,103,1142,1400,124
1414,1545,1171,790,1564,1182,1054,555,1078,1471,969,976,1619,856,865,1508,1259,758,1021
548,1317,1567,721,1586,1108,662,408,1469,127
775,808,1229,1421,1328,595,1524,22,1626,1535
32,930,1411,1250,354,1674,1166,335,1264,152,25
1539,902,903,1159,1424,1306,540,157,161,933,678,1575,1446,41,1454,53,1335,1596,189,576,1609,79,212,475,1627,611,1257,749,1648,500,886,249,507,1407
1376,636,1094,1673,1578,1052,239,1040,49,149,1399,828,797,254,1439
233,586,237,1487,50,1138,1429,151,217,1403,1118
640,134,1552,274,1298,279,1438,289,549,51,1459,1460,1350,1121,100,1252,1126,1258,1131,1393,1139,1398,247,1405,510
1410,323,198,1488,1170,1173,1053,1566,353,355,1123,1573,998,1511,1576,52,568,188
512,1313,1058,1546,1516,429,719,117,120,954,62,1151
1632,1515,303,1168,1266,1301,631,1402,187,1116,958,607
704,66,1282,196,130,359,1640,1610,459,397,1523,1141,1435,1308,1150
513,399,1303,944,1332,1604,69,711,339,1493,342,345,218,352,993,997,614,999,110,1263,112,497,761,1273,378
483,356,1667,70,1668,1608,1481,1071,440,542
386,1155,771,773,518,1541,1542,650,1034,780,1162,273,793,1177,1051,671,800,1447,681,938,1070,1584,946,947,439,1463,701,447,1088,833,579,580,326,71,327,966,201,1478,588,1102,1230,1105,1107,469,726,1494,1621,731,92,605,610,1507,867,226,227,232,619,750,498,374,1527,1529,1658,1149,638
194,996,73,589,1134,575,1653,90,1470,1215
191,1442,185,395,76,1037,910,1593,1113,892,381,222,927
1256,1645,1679,240,1615,1362,309,629,119,250
1443,1637,1062,967,136,1677,78,1008,465,1628
929,197,550,1225,1401,461,1293,1327,182,88,1657,988
97,262,1383,1644,1007,1423,340,344,1049,730,443
649,523,1613,1490,417,98,1059,1251,1571,1254,615,1127,300,1265,308,442
1504,162,99,1220,676,390,358,135,454,487,1643,526,822,1274,1666
321,261,1095,1352,1033,909,146,148,153,1375,1444,293,1445,102,1385,1066,1517,252,1148
1408,257,263,905,522,1169,1302,406,155,1565,545,1441,292,557,559,176,1338,1479,990,1381,485,108,1145,1146
448,138,1419,1357,207,401,338,1044,534,1305,1505,482,489,493,118,1336,122,893
1281,1154,898,388,396,1678,1685,1046,541,423,320,457,1103,1364,343,1248,1001,1006,1519,1137,1012,1270,1143,125
1635,1349,140,1486,1491,1333,601,1404,253,318,159
1633,1068,656,1521,144,660,1144,1465,1117,702
229,1543,1513,1497,1582,665,468,501,569,1018,1595
1280,1540,1669,901,900,1161,521,150,294,1473,707,328,1359,1361,593,341,987,223,1249,241,1010
416,1184,1636,228,1476,1672,426,1194,1675,203,524,1296,1457,689,1560,1276,511
1474,677,584,236,1612,1358,530,597,1623,1275,604
1380,1606,807,1065,748,206,1395,1045,316,445,1662
1216,1153,1027,1031,1384,1528,1485,1297,851,1557,1496,1561
645,392,267,1554,1299,669,1183,932,1572,934,935,1063,683,1205,585,1356,1489,347,989,1631,486,1128,1390,1654,1272,505
1600,1316,1190,504,553,1163,1617,594,659,691,1368,1311
