0,1604,1093,510,583,1673,522,1331,1112,381,1470
1,202,441,1260,368,338,1688,1689,1690,1661
2,133,6,1735,1736,41,1737,180,277,248
355,3,132,1252,427,301,367,147,279,281,1691,1692
4,325,5,105,137,1738,1739,1740,81,276,436,86,23
1120,481,1152,1477,1606,167,7,47,80,431,1336,380,1500,446
449,649,9,458,1485,467,405,22,282,1567,1056,33,1568,1571,224,101,306,1458,1398
488,521,10,1676,1037,1556,312,1465,187,444,989,1502
65,193,1475,11,12,1552,1693,158,417,546,357,38,1511,1642,491,372,565
994,362,365,13,14,1741,1114,27,29,190,1663
1696,1697,35,1256,360,15,470,250,1694,1695
195,261,142,1742,16,207,19,20,212,25,220,1639,104,297,1128,366,51,1594,317
1255,393,1035,1758,1262,278,1756,1757,1278,1759
1760,1761,290,1762,165,232,17,82,209,21,183,121
129,1763,1764,1765,107,432,114,115,58,63
768,769,772,773,776,777,1288,1529,1345,1240,1241,1242,756,757,759,761,764,765,767
1186,779,1420,780,782,783,784,751,752,1530
674,771,1190,775,774,1449,781,1682,755,766
770,762,778,1421,753,758,1239,760,1562,763
1187,1188,1189,1222,1191,1389,754,1622,1110,1083
225,1698,1699,516,1700,45,18,244,503,1279
1664,1666,1411,389,1672,203,333,1046,24,94,34,100,1636,1134,247,1405
1601,258,323,26,1381,262,79,1264,1265,1295,184,1466,1275
103,42,299,139,208,1744,1745,179,61,375,57,28,1597,415
257,1249,1635,1121,425,1258,123,237,145,411,1397,283,30
256,1701,234,1643,271,1298,1554,604,93,350,31
32,1409,478,1383,264,298,1355,50,274,1045,376,1662
480,162,36,70,135,1702,186,490,1322,1042,53,213,410,222
450,418,37,1641,523,1332,54,217,1213,351
1668,1669,646,1607,138,1610,534,1304,1049,986,990,287,228,1382,39,1010,308,1272,511
64,448,74,336,1746,1747,404,214,471,87,992,40,169,170,173,46,174,113
269,397,272,150,479,484,1637,295,43,108,428,1323,1135,1461,1402,1407
1703,71,1257,1321,44,1008,1460,1333,55,1598
96,1634,231,492,48,84,1748,1659,157,1406
1505,1282,991,390,230,296,265,1644,49,344,154,1468,1247
416,1408,131,1092,1254,1510,268,461,464,562,52,1399,1306,1115,191
159,1153,1351,1352,1705,1704,1706,1324,56,95
89,164,168,59,394,1707,172,334,177,1394,1139,379,1113,1403,221
1248,134,1708,1357,1709,1710,1393,1462,60,1118
321,66,1667,260,1476,528,466,348,1052,1053,286,118,568,1145,378,507,638
67,1253,1061,1516,1103,1679,1138,1012,1173,1305,1116,1117
68,1318,233,395,493,1711,401,1649,215,249,319
1665,1605,69,198,1354,1038,1487,496,83,627,1492,1307,253
482,487,72,1482,459,557,1261,310,505,1404,254
1057,1123,73,75,1712,305,1713,1147,1501,127
419,196,199,76,205,206,652,1356,1044,1660
1463,1379,1478,77,1518,1303,1043,1143,1339,988,1021
130,515,996,1609,78,529,530,1714,1715,506
1250,166,1671,1640,171,335,495,307,1491,85,152,314
1440,1251,359,455,1716,1142,1335,1401,90,92
576,1410,259,1350,331,1486,463,1302,91,1566,99,426,175,370,1459,445
97,194,1638,457,143,1717,1718,1719,1720,189
98,1602,549,1127,1674,302,304,1721,475,543
512,102,1161,1002,1483,1166,1169,1011,540,1439
352,612,536,109,1551,597,662,664,1048,1438
451,1479,1034,1616,402,403,1362,406,547,163,358,236,1133,110,1071,240,1645,117
1443,1124,1157,1572,1608,204,1132,1358,111,339,1364,440,1150,1503
1472,285,1320,235,155,178,116,1722,1723,349
1218,1548,1549,1360,1171,595,1366,1047,345,1051,223,993,226,614,1129,1003,238
1217,999,1096,1384,1066,1009,1555,1560,120,1215
153,387,648,330,1131,525,1330,435,1593,122
128,291,266,1325,371,1749,1750,1751,1752,255
422,1319,136,361,1160,140,539,1724,1725,1726
1728,1729,1730,141,1392,181,438,280,316,1727
1219,324,1033,144,1040,146,340,1557,347,477,1441,1442,1570,998,423,1063,1576,489,1005
544,1059,1001,1097,587,1515,1168,1296,1490,149,987,1565
1504,354,995,1670,551,329,1130,526,1647,243,343,151
161,453,456,332,364,211,1753,1754,1755,188
289,294,1036,1677,300,1519,1615,1457,1553,245,182,373,1464,542
1603,1380,421,185,1159,1546,1613,1007,1327,1365,409
192,197,1675,1361,1299,341,408,483,1125,554,239,1263,1648,1400,313,1214
1731,1732,1733,517,1095,1329,1395,1140,216,318
292,1060,1481,363,1328,241,242,1363,1274,1596
1281,386,1495,1413,263,392,1418,399,1467,1271,1273,443,572,311,1277
1412,1574,369,1650,1073,309,631,1149,1054,383
384,513,322,1122,356,580,1474,1547,396,1006
1216,1447,711,1067,716,1068,1743,720,337,1232,1148,695,601,412,702
353,1734,1353,1065,1359,1396,342,439,442,1499
1575,684,685,689,691,628,693,1079,1309,382
640,545,1632,1509,1514,1163,1419,494,533,535,669,1631
