832,481,1282,485,134,1479,1037,1424,1488,627,1045,22,406,216
1,391,1034,399,529,1443,291,39,567,202,203,1484,211,218,1122,227,1256,1642,364,247,506,1276
1505,1250,1573,1128,104,267,236,1328,188,1299,1300,60,1117,1151
128,129,2,1411,4,261,5,6,137,522,13,17,21,23,664,1305,281,160,417,162,549,299,44,436,180,57,58,317,445,61,190,62,63,455,329,334,81,209,84,471,87,1114,93,96,1511,1255,1258,490,106,107,113,114,115,248,121,1405,1406
256,993,1154,732,1412,1157,130,201,1503,493,430,110,1052,378,572,511
580,645,326,647,264,1476,619,111,1103,561,1021,1364,184,1468,477
293,1063,1483,1101,622,1551,1116,1137,789,153,1146,1339,828
1184,33,322,35,195,1379,1125,1671,1384,1065,332,206,79,1617,1524,1306,1502
287,101,1062,8,1481,524,300,787,308,1663
353,451,1669,1192,1297,499,53,309,629,568
133,390,135,9,138,268,1042,683,45,1458,51,1593,207,338,86,475,1121,354,365,367,375
166,103,360,361,301,366,1393,214,1113,1500
1602,453,1318,456,168,141,1038,15,16,20
1408,1409,139,781,409,410,285,169,426,1332,565,1462,1336,314,834,1603,325,1605,1357,235,368
225,1666,801,38,1449,149,279,1465,379,478
994,1319,105,11,82,405,55,56,29,1598
1153,69,393,1321,91,140,12,401,83,1659
1472,230,108,1552,80,530,1335,215,123,316
1569,1444,646,1674,554,557,1166,461,528,241,435,340,822,1145,252
416,544,1351,1485,18,274,597,282,540,1053
1219,323,68,1094,998,1519,1359,49,1275,1150
258,483,1254,1609,649,1610,1323,1131,1295,305,1490,339,1363,151,24
1667,37,454,1001,1616,240,1398,26,1661,254
65,34,197,1670,41,233,1355,1132,1641,14,147,1467
1665,1474,259,1252,73,397,495,52,1302,253
608,418,425,298,1419,525,50,1459,148,991
1123,102,1350,1134,1395,1278,1594,1404,1566,1439
1024,320,636,823,1550,560,691,407,408,1273,539,1303,1471
352,833,577,67,1285,838,585,1452,1555,725
612,1222,1160,1289,1006,1584,1072,1266,1182,1343
1600,1632,1386,1611,750,369,1653,1143,504,1631
389,145,27,31,164,421,678,167,1322,47,307,1601,70,711,213,217,90,480,1249,995,1257,1260,116,501,1402
1607,1324,335,244,503,94,220,989,95,543
97,131,644,1644,333,302,237,1296,177,1423,1264,1044,820,1118,1499,1470
1248,546,356,132,262,1320,404,1460,221,351
1152,427,142,431,179,1396,441,1466,349,158
1664,198,295,394,1262,143,48,1333,92,222
1440,194,1639,199,75,76,272,1169,470,442
1281,773,777,780,273,275,1172,790,1174,537,1313,1198,1199,1231,507,990,224,739,229,741,742,1004,238,1520,500,1269,1013,1527,1016,502,1530,1014,1017,1534
800,547,1290,1547,811,303,815,816,1366,791
581,840,841,829,1548,1039,825,1369,315,311
1478,843,845,78,846,847,1041,593,598,1371
610,613,1496,1549,374,1047,600,346,603,607
681,652,653,402,403,1621,120,1498,1054,639
1099,1516,1104,1105,690,1426,1074,1109,1048,1055
704,708,1652,469,1110,726,1528,698,702,223
161,1381,71,1447,1352,1407,1515,748,1676,1007,176,1649,1331,380,249,1274,1596,159
192,385,1442,1473,422,807,331,1135,344,286
98,100,328,492,1265,372,566,1400,1497,604
512,1027,583,586,797,1259,1422,1136,146,659,1586,1557,1078,1463,637
673,1194,109,1581,1106,1365,245,373,189,703
388,650,1678,1043,1171,1180,1309,1183,420,548,682,684,429,1216,1361,997,1126,122,1002,239,112,631,1018,638
582,1575,614,234,1356,719,1040,595,596,693
66,484,1672,395,589,1261,269,1330,342,376
450,294,400,1168,689,306,532,1495,187,1565
576,423,1067,144,656,337,212,1012,1338,1501,575
482,1475,1092,228,1382,357,496,1521,118,381
384,513,769,1346,1413,136,392,396,783,251,370,498,628,1494,632,1051,1341
1507,676,552,1418,1196,657,662,536,794,284
1509,459,728,1073,465,1304,345,571,701,606
1217,226,358,615,745,618,494,753,1522,1310
1218,1637,1003,1133,1263,1107,1015,119,1277,1311
288,289,1606,669,1161,1066,844,527,660,1301,541
163,1059,616,988,555,1677,313,186,1308,125
1508,1061,1572,999,1514,1327,1679,1457,1648,1469
1504,1570,517,1033,1482,458,1546,749,526,464,497,1329,1492,318,127
1604,1093,1491,1493,1046,1272,1337,986,1148,1213
1410,387,324,489,77,1486,1011,534,310,154
1441,1380,1223,1512,1383,428,1425,1140,1270,1307
640,515,419,1159,1127,10,587,1421,1009,1141,439,1464,124
996,837,775,487,1645,1326,270,246,1112,156
0,257,3,516,263,266,277,280,28,1438,290,803,165,296,297,40,424,170,1325,46,172,173,174,54,446,64,448,205,208,1120,992,355,1638,231,1392,1138,371,1139,1397,1142,1279
193,7,1640,59,491,178,1401,250,1115,157
795,1634,1035,432,276,278,183,438,377,1403
1130,74,336,1394,19,181,89,1597,30,479
514,1445,1480,648,1162,559,1010,788,182,1623,793,798
706,327,1673,1354,1291,718,210,730,219,348
1506,1058,1571,1124,1253,1576,1164,1553,1561,735
1057,191,1635,36,196,292,1446,200,1353,359,171,242,411,152,1147,1662,255
1536,260,319,265,1008,1362,85,343,25,415
32,611,1251,1608,1129,457,1675,204,1578,1358,304,466,443,150,185,283,508,1149
1280,545,99,1668,677,550,521,271,1399,505
1247,1220,1096,1071,1523,1556,1173,440,1214,1215
609,1080,519,553,842,715,362,1195,782,1230,1068,1427,1108,1175,1144,569,1562,573
1156,804,1513,655,592,721,665,538,1563,412
449,1095,523,1005,462,1487,848,1298,533,633,510
1574,1643,1036,1613,463,1615,1554,1428,1560,1567
1056,1221,155,1518,467,243,1049,126,1595,350
321,312,1636,1477,232,1000,1647,1170,564,88,444,542
1060,584,330,1612,347,341,1334,117,987,1660
