0,1604,1093,102,583,510,1161,522,1673,1331,1112,540,381,1470
136,13,16,530,152,161,56,316,190,453,198,1353,207,338,1492,349,994,355,104,361,496
448,1665,992,1605,1354,362,365,14,1307,627,438,314,27,29,1598
768,769,770,771,772,773,774,775,776,777,778,779,780,781,782,783,784,529,1682,1420,1421,1529,1530,1562,674,1186,1187,1188,1189,1190,1191,1449,1083,1345,1222,1288,1110,1239,1622,1240,1242,1241,996,1389,751,752,753,754,755,756,757,758,759,760,761,762,763,764,765,766,767
130,1256,1609,202,299,1260,456,78,368,51,211,307,1396,441,506,251,220,1663
1120,1634,3,42,139,235,1392,178,181,503,280
1152,7,71,297,167,1321,332,431,80,1008,1460,55,380
224,1056,1568,1439,9,306,467,1458,405,1567
10,269,397,150,410,162,43,428,1323,1461,312,186,200,213,479,480,484,108,1135,1402,1407
481,1477,357,38,1128,11,12,212,372,565,1500,446
516,59,1258,172,334,15,1394,1139,1397,1113,250,1403,221,30
195,261,1671,75,141,142,18,19,470,25,159,1250,1639,177,244,1333,1594
1153,69,394,1038,147,20,83,253,95,164,1252,422,1319,1320,301,366,57,317,1279
33,449,1571,101,649,458,1002,1485,1166,22,1398,282,254
34,1411,1636,100,549,333,1134,247,24,475,543
1601,258,323,26,1381,262,79,1264,1265,1295,184,1466,1275
96,132,231,40,103,360,492,48,336,61,84,1659,28,157,1406
256,234,1643,271,1298,1554,604,93,350,31
32,1409,478,1383,264,298,1355,50,274,1045,376,1662
36,70,135,1640,490,171,1322,1042,85,53,222
37,1337,73,426,305,1329,1395,1140,1465,91
1668,1669,646,1607,138,1610,534,1304,1049,986,990,287,228,1382,39,1010,308,1272,511
89,166,427,140,45,155,1552,179,116,1499,279,281,285,379,1597
1248,257,1249,1635,425,1357,47,1393,1462,1336,283,1118
1282,390,265,154,1440,296,49,1335,1468,455,344,90,92,991,1247,1505,1251,230,359,1644,1142,1401
1408,259,131,268,1302,1306,416,175,562,52,445,1213,191,1092,331,461,464,1115,99,1254,1510,1399
134,523,158,1566,417,1459,1332,54,60,65,450,193,1475,1486,463,217,351,1511,1641,1642,491,370
321,66,1667,260,1476,528,466,348,1052,1053,286,118,568,1145,378,507,638
67,584,267,1550,1679,1173,1305,541,1117,1444,1253,548,424,1516,1138,1012
68,1318,233,395,493,401,1649,215,249,319
482,487,72,1482,459,557,1261,1169,1011,310,505,1404
196,1481,1356,76,206,1363,1596,419,1060,292,363,1328,241,242,1274,1660
1036,1677,1553,1555,660,1560,156,289,294,1066,300,1457,1464,1215,1217,1096,1615,88,999,1384,1519,1009,373,126
1664,98,1602,1666,389,1127,1672,1674,203,302,304,1046,1405,94
97,194,1121,1637,1638,295,457,123,237,143,272,145,411,189
1551,400,275,1043,1303,664,1048,1438,1463,1339,1478,586,597,988,1379,109,1518,1137,1143,636,1021
1157,1034,402,1443,1572,1071,440,451,1608,204,1358,339,1364,1503,1124,1132,236,110,111,1150
1479,199,652,205,1616,1362,403,1044,406,547,163,358,1133,1645,240,117
1603,387,421,648,330,1131,525,1330,435,1593,122
512,521,1676,1037,144,546,1067,695,1472,1351,711,337,601,989,1502,1501,488,495,1147,1148,1661,127
544,1059,1001,1097,587,1515,1168,1296,1490,149,987,1565
1504,354,995,1670,551,329,1130,526,1647,243,343,151
153,1380,1159,409,1546,1613,1007,1327,1365,185
225,353,515,1606,1065,1257,1324,335,1359,1556,342,439,187,444,477
192,197,1675,1361,1299,341,408,483,1125,554,239,1263,1648,1400,313,1214
514,1019,1064,682,1646,690,1523,563,469,1268,1054,1017,666,571,1055,1310,447
1018,1285,618,1520,1681,434,1073,1050,1308,605
576,418,1123,1410,517,1350,1095,1487,216,318
226,579,1413,614,1549,1366,1271,345,1498,443,572
384,513,1122,227,356,580,1474,1480,1547,430,1006,407
545,1058,1514,1163,1419,1578,1300,501,535,252,669,607
675,1412,1062,1575,684,465,689,628,500,309,631,1496,1497,596,1309
1600,392,1129,1003,1360,499,502,567,1467,311
1441,1442,1570,324,998,423,1576,489,1033,1005,1040,340,1557,347
1156,677,1574,328,1386,527,656,369,1521,659
1283,611,383,498,1267,1650,437,693,1079,1494,1369,382,639
1184,1344,706,1160,748,717,1621,1527,728,539,701
1286,1182,1183,1313,1185,1314,1582,696,697,1082,1080,699,700,1081,698,703,705,708,1221,714,718,719,722,723,1109,1238,725,730,1371,733,737,738,742,743,745,1385,749,750,1651,1526
