1031,8,522,1169,149,279,797,547,1059,1578,686,1071,1457,1093,1610,987,1376,995,633
449,1571,646,488,586,1485,1517,303,464,1136,1010,564,53,22,634,891,1567
1248,163,90,998,487,1094,1574,1674,1306,910,49,466,1361,442,380,1375
128,1410,2,4,5,6,394,17,404,21,278,23,154,795,160,164,165,40,1323,44,177,180,183,186,1470,63,448,329,80,209,86,859,105,107,492,1392,114,115,372,375,248,121,251,1279
900,135,143,1297,931,677,1446,426,304,954,457,1358,592,341,219,99,1000,1263,1523,118,378
898,136,395,524,1439,930,419,554,1458,440,572,191,321,1608,211,359,364,119,1528,1274
960,1305,936,1352,1497,1007,1135,862,1264,1327,1359,1617,1654,1049,153,122,730
512,865,1600,707,1123,808,1002,1338,782,1583,1678,468,282,575
1538,553,874,1535,1068,1624,1631,594,1368,412,1183
288,964,228,552,78,1300,596,150,1052,1503
1,1670,202,619,110,958,309,1399,250,1150
480,1122,1251,1604,1637,1062,34,1626,218,1469
640,1441,1504,1442,197,455,7,749,1005,401,435,1459,1653,1302,1147,1500
425,1482,1676,77,14,627,1301,601,347,125
256,352,1668,1540,1157,9,523,530,791,247
1125,1253,1481,1129,1675,1613,1679,1141,508,511
1505,422,871,1382,10,906,331,557,302,1363,1655
1511,1607,493,176,241,565,501,886,1374,1151
1664,129,1666,3,131,1669,137,266,1035,268,781,141,142,786,19,276,280,409,28,297,169,299,170,301,46,943,51,436,57,58,59,64,1603,837,1606,453,456,74,208,81,210,82,87,96,1634,1641,106,113,116,377,1406
994,68,262,12,305,18,1429,123,893,1566
838,1639,441,1325,431,147,89,1466,477,478
992,290,231,911,367,83,1462,30,1598,95
322,1411,739,39,1612,76,332,204,1148,31,277,376,25,1627,443,124,991
32,896,162,483,1542,358,903,1065,584,1645
481,418,1255,371,1397,214,152,281,1597,510
1377,834,1605,174,410,336,48,1460,506,285
351,875,1649,820,1045,1334,26,444,61,479
193,100,1477,27,171,1419,366,242,1042,155
1635,1252,360,200,45,20,181,314,1405,94
1120,1602,230,42,491,365,368,1333,1113,446
1414,615,648,1547,271,1039,659,660,533,534,916,117
932,37,682,555,1168,1328,1555,408,793,925
706,67,581,458,429,719,689,1591,1339,1180
1184,1058,1508,1259,1133,1619,1013,1213,605,607
225,1336,1380,1350,103,296,1385,428,140,237,495,1403,1594,664,1114,88,1373,543
33,929,65,1609,432,1138,822,91,1404,190
1601,421,134,38,1321,265,138,1139,951,445
1216,644,1033,1355,1101,1170,1011,1556,1142,1145,1146
1384,41,233,1643,1483,300,1518,1644,1272,798
897,259,611,1349,1379,1258,1134,79,913,146,1491,317
192,390,1479,1449,489,269,1140,406,222,159
417,258,420,807,879,379,52,1335,1275,1501
1152,1056,1057,263,1383,1130,1131,1486,1115,1247
1249,194,97,450,482,1351,333,145,1657,603
66,98,196,678,104,905,1257,587,1487,1425,1044,56
1250,35,260,549,199,16,496,1492,151,1663
1473,132,167,328,393,1659,205,887,1307,956,29,1278
1223,1319,295,11,13,84,405,471,1628,93
1472,195,325,133,139,525,1262,1394,54,221
1408,1665,1440,1121,1320,1038,178,1046,60,1407
1476,902,999,459,1390,399,1362,148,917,1685,1463,604,542
933,1317,1515,240,629,1303,185,1308,1149,62
1280,513,130,261,519,776,397,653,1330,1529,1309
1282,293,684,944,308,662,536,1465,1310,671
705,1443,69,461,1489,465,692,725,1048,345
224,993,1507,1316,1061,486,997,614,1107,346
1572,1003,1004,494,1520,1686,1526,505,1658,1599
320,1217,323,70,1575,1543,391,234,1126,652,1194,1582,1276,698,507,828,254,1471
1218,1027,1444,236,1116,112,1490,1043,373,252
608,385,387,1348,485,73,683,908,1488,1524,1270
1400,1224,75,815,239,497,1493,727,1112,381
1474,901,415,490,1357,207,272,400,1615,307,215,312,1401,158,1215
1060,356,748,909,463,1616,1423,15,85,92
416,576,546,1219,355,424,335,1298,50,1662
1153,198,168,1353,173,244,438,1593,220,349
1536,544,1638,361,235,172,427,1396,470,55
636,257,1159,650,1040,1173,540,669,1063,1576,451,1356,597,989,990,1513,1514,1652,1660
101,934,423,1161,568,1550,1299,120,126,127
961,1475,1124,357,649,1132,1422,1329,789,1525,503,344,286
1090,102,526,1519,1364,884,695,253,1629,318
514,579,580,1034,588,620,1677,111,1680,562,1527,1341
641,1544,638,1041,657,628,630,663,665,1342
704,709,1478,681,696,1366,1047,184,187,701
1378,226,1480,201,728,722,726,216,1051,223
771,1413,773,775,745,777,267,238,1561,1054
1415,780,1069,783,273,315,819,1494,283,284
1088,326,330,1067,1420,1070,847,1073,1495,829
1089,1102,1104,337,1105,885,1590,374,1496,350
384,1156,904,396,1110,888,1498,1117,1630,1119
1633,1510,1162,915,1205,407,920,1177,1181,413
1632,1281,935,1227,1516,430,947,1240,1210,957
963,1285,1673,1421,1294,1012,469,1014,474,447
498,499,500,502,1656,1017,1530,1019,1021,1022
1546,144,1553,1557,1560,1433,927,1569,693,1099,593,721,339,851,227,1636,1640,245,632,1144
1313,742,1611,1293,1166,1137,1106,1108,1109,986
0,1036,1037,1295,24,545,1570,327,583,1226,589,988,484,1647,1648,1009,1265,1402,1534
1095,616,1454,306,243,310,538,1467,156,157
1409,1092,517,1381,334,1552,1424,274,1008,340,213,1393,217,475,1438,319
801,354,1318,294,298,1260,206,47,179,1623
289,515,291,36,516,166,1256,676,1322,270,1522,1395,348,541,255
1220,1225,1229,1326,1261,1006,411,1214,1565,1118
161,292,1541,454,1127,996,521,937,1254,1661,1296,1331,182,342,1398,316,1053,1502
353,1667,1001,203,1324,108,467,212,343,249
1154,389,1671,1672,1642,528,338,1332,1596,287
1539,1221,582,1096,1128,1066,1164,1103,1199,1554,1499
1573,550,559,569,1586,1365,313,1018,1595,892
962,1155,388,637,518,1241,392,1484,1292,656,1072,1584,1521,1207,1337,573,702,1277
800,679,1163,622,758,439,504,1434,923,1564
