0,1604,1093,510,583,1673,522,1331,1112,381,1470
1,36,70,10,211,53,85,24,94,222
96,2,165,105,42,106,432,113,58,63
3,69,1255,140,82,19,116,178,87,155
64,4,6,266,299,81,51,436,278,61
992,325,5,133,40,336,210,180,404,1492,183,157,1406
257,7,71,1035,44,47,80,431,55,95
97,481,516,164,1257,172,12,565,503,446
290,393,74,13,48,17,84,21,23,190
232,174,207,46,14,208,248,187,28,29
225,135,233,15,307,215,312,314,221,319
128,35,456,364,16,20,25,27,57,255
1670,329,526,18,150,343,151,152,30,1504,354,995,551,1130,45,1647,243
1601,258,323,26,1381,262,79,1264,1265,1295,184,1466,1275
547,163,358,1479,1133,1645,240,1616,1362,403,117,406,31
32,1409,478,1383,264,298,1355,50,274,1045,376,1662
34,451,102,73,75,144,310,439,445,127
259,99,37,359,426,235,217,250,91,351
1668,1669,646,1607,138,1610,534,1304,1049,986,990,287,228,1382,39,1010,308,1272,511
160,129,41,107,209,114,115,86,377,62
1505,1282,991,390,230,296,265,1644,49,344,154,1468,1247
416,1408,131,1092,1254,1510,268,461,464,562,52,1399,1306,1115,191
994,261,59,108,269,428,213,54,89,283
355,422,360,361,301,1262,279,56,281,317
65,194,484,457,491,495,177,145,123,1214
321,66,1667,260,1476,528,466,348,1052,1053,286,118,568,1145,378,507,638
67,548,424,584,267,1550,569,1305,603,541
353,98,100,68,203,302,304,342,90,92
576,517,487,72,442,146,505,506,475,254
196,1481,1356,76,206,1363,1596,419,1060,292,363,1328,241,242,1274,1660
644,645,326,586,77,1551,400,275,597,662,664
256,1665,130,318,234,236,205,110,78,271,370,216,93,350,1663
195,198,170,365,1038,83,181,438,375,251
291,103,137,139,141,471,280,121,349,415
448,161,104,202,142,441,539,285,253,159
1463,1379,612,109,1518,374,1303,1339,636,1438
1443,1124,1157,1572,1608,204,1132,1358,111,339,1364,440,1150,1503
1560,1457,1553,1555,245,246,373,120,124,126
153,1603,387,421,648,330,409,525,435,185,122
132,166,136,168,171,173,367,147,179,212,220
544,1059,1001,1097,587,1515,1168,1296,1490,149,987,1565
192,197,199,1675,1361,341,408,483,1125,167,554,239,1263,1648,1400,313
1605,453,231,169,1354,496,1556,214,1307,188
1217,999,1096,1066,1036,1677,1009,1170,219,1215
1281,226,579,581,582,595,345,346,572,223
1632,1311,1445,1509,1514,1259,1618,1300,1144,1631
674,1114,362,492,1325,366,371,276,277,1594,1659
320,327,331,524,333,334,335,1617,468,538,293,1573,553,556,1136,1595,1471
1319,297,394,427,332,368,305,338,470,444
1441,1442,1570,324,998,423,1576,489,1033,1005,1040,340,1557,347
515,1320,1324,601,337,530,529,1334,1337,412
417,418,420,389,425,395,397,401,402,379,410,411,380
480,450,546,455,490,523,1643,493,463,479
482,549,521,459,652,557,1338,604,540,543
512,1219,1158,1063,494,1166,1106,1522,1146,477
1024,1422,785,786,788,789,790,791,793,1531,796,797
1025,1223,1192,1193,1194,792,794,1084,1085,1086
795,1346,1423,1584,787,1652,1563,1532,798,799
996,1127,1034,1002,1261,1134,1071,1011,1044,1046
1380,1159,1546,1131,1613,1327,1007,1330,1365,1593
1248,1057,1250,1249,1121,1483,1037,1135,1118,1279
1251,1095,1065,1161,1169,1042,1554,1140,1142,1213
1664,1113,1666,1636,1486,1487,1649,1465,1499,1501
1635,1637,1638,1671,1640,1641,1642,1552,1139,1566
1152,1440,1350,1318,1322,1332,1302,1335,1401,1402
1411,1353,1614,1359,1329,1298,1395,1396,1404,1439
1321,1323,1357,1393,1394,1333,1397,1336,1403,1407
