0,1604,1093,510,583,1673,522,1331,1112,381,1470
1,36,70,10,211,53,85,24,94,222
96,2,165,105,42,106,432,113,58,63
3,69,1255,140,82,19,116,178,87,155
64,4,6,266,299,81,51,436,278,61
992,325,5,133,40,336,210,180,404,1492,183,157,1406
257,7,71,1035,44,47,80,431,55,95
97,481,516,164,1257,172,12,565,503,446
290,393,74,13,48,17,84,21,23,190
232,174,207,46,14,208,248,187,28,29
225,135,233,15,307,215,312,314,221,319
128,35,456,364,16,20,25,27,57,255
34,451,102,73,75,144,310,439,445,127
259,99,37,359,426,235,217,250,91,351
160,129,41,107,209,114,115,86,377,62
355,422,360,361,301,1262,279,56,281,317
65,194,484,457,491,495,177,145,123,1214
321,66,1667,260,1476,528,466,348,1052,1053,286,118,568,1145,378,507,638
353,98,100,68,203,302,304,342,90,92
195,198,170,365,1038,83,181,438,375,251
291,103,137,139,141,471,280,121,349,415
132,166,136,168,171,173,367,147,179,212,220
192,197,199,1675,1361,341,408,483,1125,167,554,239,1263,1648,1400,313
1281,226,579,581,582,595,345,346,572,223
1319,297,394,427,332,368,305,338,470,444
480,450,546,455,490,523,1643,493,463,479
454,1162,1679,1103,1173,1116,1117,1444,1061,1253,1126,1513,1516,1138,1012,1141
482,549,521,459,652,557,1338,604,540,543
1545,976,977,946,979,978,980,1687,1245,1246
996,1127,1034,1002,1261,1134,1071,1011,1044,1046
1380,1159,1546,1131,1613,1327,1007,1330,1365,1593
1248,1057,1250,1249,1121,1483,1037,1135,1118,1279
1251,1095,1065,1161,1169,1042,1554,1140,1142,1213
1664,1113,1666,1636,1486,1487,1649,1465,1499,1501
1635,1637,1638,1671,1640,1641,1642,1552,1139,1566
1152,1440,1350,1318,1322,1332,1302,1335,1401,1402
1376,1348,1349,1225,1433,1390,1657,1373,1374,1375
1321,1323,1357,1393,1394,1333,1397,1336,1403,1407
