0,1604,102,583,510,1673,522,1331,540,381,1470
1,130,451,1609,1034,236,110,78,1071,529,402
129,2,165,41,58,62
1472,257,283,3,51,425,139
1249,4,103,28,61,46
81,5,6,231,169,183
481,565,38,7,1659,11,446
289,8,1384,1036,1615,1009,660,126,156,542
449,467,405,1398,649,458,9
312,1318,200,249,10,319
82,212,357,372,12,431
13,83,404,1500,365,207
84,1477,375,170,29,14
35,20,470,250,27,15
34,1411,1636,100,1666,203,1134,16,25
225,516,1256,45,1262,1392,18,244,503,1406
40,140,142,178,19,210,87,23,155
224,33,101,22,282,1485
1664,389,1672,333,1046,247,24,1405,94
258,323,26,262,184,1466,79
97,194,1319,457,143,1139,30,189,1598
256,234,1643,271,1298,1554,604,93,350,31
32,1409,50,274,264,298
36,53,85,490,171,255
418,37,261,91,253,1487
308,1382,39,1304,1610,511
43,428,108,269,1461,214,150,1402,479
355,1320,59,44,301,367
1120,1248,1606,134,492,47,1393,1462,1336,60,1118
128,48,1635,180,74,157
1505,1282,390,230,265,1644,49,344,154,1468,1407
145,450,1332,54,217,523,351
55,281,71,297,427,1597
159,69,422,56,1357,95
1649,1250,453,104,57,152
96,432,209,115,377,63
64,1460,436,232,105,266
65,1634,1475,1605,1642,1676,1552,1556,1594
321,66,1476,260,528,466,348,1145,1052,1053,638
67,548,584,603,267,541
401,68,215,233,395,493
1042,1396,70,1065,1322,1359
674,73,75,1067,496,305,337,1148,1501,318,127
196,1481,76,206,220,1274,444,1661
400,1021,644,645,326,586,77
1152,80,1160,1257,332,380
160,290,114,86,393,107
550,294,182,88,300,1677
177,164,1638,167,89,379
272,417,295,90,92,158
98,1602,549,1127,1674,302,304,475,543
1008,113,1252,1114,1255,106
352,612,374,1303,636,109
1443,996,1572,204,111,339,1364,440,506,1503
349,116,438,285,316,141
240,1616,117,199,652,205
1667,118,568,378,507,286
1170,245,373,246,120,219
121,181,471,280,137,415
435,185,421,1159,153,122
334,123,221,411,237,1486
1457,1555,1464,1560,124,1519
448,132,279,136,361,539
353,135,1640,1353,342,439,442,1499,222
1668,1669,228,646,534,138,287
1441,1442,324,423,489,1005,144,340,347
1570,146,1557,1576,1483,477
179,147,360,317,235,173
1296,1490,149,1515,587,1565
995,1670,151,1130,343,1647
161,1491,456,441,202,188
480,162,484,213,410,397
547,163,358,1479,1260,1645,403,1044,406
166,1671,364,495,335,307,211,314
1113,1121,168,1641,394,172
336,276,325,278,299,174
176,1297,564,229,1000,1484
1247,296,186,1323,1135,991
546,195,627,198,491,187
992,1128,362,251,989,190
192,483,197,408,554,239,1648,341,1400,313
193,1410,1251,1637,455,359,1511,426,463,370,1142
208,291,371,1325,366,1279
579,581,303,595,1171,1047,345,346,1051,311,223
497,1474,227,356,619,430
1504,354,243,551,329,526
385,1569,1270,1166,1326,270
275,597,1478,662,536,664
288,1220,615,616,429,606
689,659,309,1575,665,653
384,513,322,580,1611,396,1678,1493,407,315
1603,387,648,330,1131,409,525,1007,1593
368,1362,515,530,338,1133
1045,478,1383,376,1355,1662
420,452,678,1338,494,474,1106,473,1146,575
1305,424,1513,1516,1550,569
1488,1524,1446,630,504,633
1281,582,567,1273,443,572
1444,454,1162,1103,1141,1173,1116,1117
1169,1011,505,1482,1404,1261
512,1040,1219,998,1063,1033
1093,1502,1112,1161,1037,521
832,833,1536,835,836,837,1451,828,829
838,839,1585,827,830,831
834,1027,1586,1653,1111,1243
1010,1607,1272,1049,986,990
993,1218,1129,1418,1003,1004
1153,994,1352,1278,1035,1038
1154,1266,997,1099,1276,1151
1217,1553,999,1096,1066,1215
1138,1012,1061,1253,1126,1679
1057,1123,1140,1492,1095,1147
1328,1660,1363,1060,1356,1596
1124,1157,1608,1150,1132,1358
1361,1299,1125,1675,1214,1263
1394,1333,1397,1321,1258,1403
1264,1601,1265,1381,1275,1295
1473,1489,1285,1494,1496,1497
1665,1351,1354,1307,1324,1663
1330,1380,1365,1546,1613,1327
1440,1459,1350,1335,1401,1566
1379,1438,1463,1339,1518,1551
