1,2,4,5,6,1035,14,17,19,23,24,25,28,30,31,34,35,40,41,44,46,51,55,58,59,60,61,62,63,65,68,1606,71,73,74,77,81,82,83,84,86,87,89,1114,93,96,102,104,1641,107,114,115,116,627,1140,121,1659,124,1660,128,129,131,134,135,137,142,152,158,160,165,169,172,180,181,183,186,192,194,196,197,198,199,200,204,205,208,209,210,211,213,214,216,1247,1248,225,231,1256,233,235,236,248,251,1278,255,256,257,258,259,260,263,269,270,274,786,276,277,278,279,280,795,290,291,292,294,296,298,299,310,329,361,362,364,367,1394,375,376,377,393,404,405,409,415,432,458,459,463,467,468,470,475,477,479,480,992,482
32,66,98,358,7,582,584,1610,75,108,1324,112,272,215,1118,442,94
1408,1153,10,1419,18,36,38,39,1326,305,50,52,187,1607,1609,76,80,90,608,237,511
133,265,16,21,411,557,47,49,461,88,859,606,97,1380,357,100,1639,1130,1135,123
513,130,1157,1669,525,1053,33,1443,440,571,572,1215,70,1122,227,1128,1263,119,378,1277
1665,3,268,410,1307,27,170,45,48,179,436,57,1598,1603,69,325,207,336,1497,1634,106,491,1132,113,371,501
136,392,271,676,423,552,684,430,195,1221,326,201,78,335,465,856,1645,110,1522,890,506,508,1150
1027,1176,282,541,286,287,1058,420,686,698,320,1356,592,341,730,990,1124,1125,1384,1643,749,1011,117,505,125,1151
1667,228,261,323,355,330,203,300,1147,176,1265,306,1330,178,118,155,1470
1169,151,801,435,316,1596,1363,85,342,349,1636,359,1257,234,241,1139,380,126,1407
391,1672,521,1678,143,1296,145,1679,542,544,1331,1615,339,1113,1502,350,607,995,1276
387,515,266,1676,781,1403,285,166,424,173,174,304,314,1213,190,448,1090,202,1364,471,601,220,221,1250,365,1392,242,884,1272,249,379
1504,321,1218,483,1251,1379,1411,554,332,526,1616,1298,1299,565,1141,373,1306,828
1536,417,0,450,1285,422,421,37,1353,400,721,338,372,438,312,217,351
418,1065,139,171,1486,177,1332,340,441,188
833,707,774,8,1580,1453,782,1583,560,751,1244,22,1367,504,412
613,1190,488,877,718,1457,594,1368,665,605
289,545,419,1570,185,1534,1031,1383,9,303,239,1361,1465,798
1600,1565,1381,1159,1458,886,1143,1112,986,989
1666,132,11,12,15,20,150,154,29,159,167,1321,426,54,64,711,456,455,92,353,1252,103,244
1635,26,105,1357,141,13,250,1499,444,95
641,773,1480,776,1034,524,780,529,657,1529,1019,1309
567,810,1493,1046,53,443,794,1341,797,831
322,739,708,614,218,714,1197,1494,1623,346
1216,1346,1220,870,1194,1004,1073,1009,1107,1503
1637,616,620,238,497,498,1014,631,1528,254
1217,1446,1479,140,716,147,149,406,56,153
416,636,988,1164,1036,1008,1398,345,540,1566
1024,1632,514,535,637,267,523,399,787,790,1303,120,761,1501,1631
706,1512,1161,682,556,566,1559,792,539,829
1183,67,1160,1513,1163,1039,1563,1180,1182,1055
352,1313,1186,612,229,742,109,1586,212,733
1089,1192,1193,1129,1611,1259,1520,1108,630,758
519,1162,650,1547,653,1048,1308,1061,1069,1582,189,1469,1342,451,709,457,1358,79,1523
288,99,293,494,1553,1365,1173,569,219,413
1441,101,1355,333,1423,528,464,1554,240,1362,1395,182,1049,122,91,381,319
1253,262,1447,168,230,871,331,397,206,1648
1281,771,772,1167,1168,273,1171,1174,536,1177,1310,1188,1196,813,562,1204,309,1205,1206,712,462,1231,1490,466,725,726,1237,469,473,1016,732,223,993,493,750,753,1269,1013,1656,1018,763
1505,579,1030,1328,848,849,595,851,570,827
610,1347,1507,1288,619,111,623,369,370,853
1284,1574,1360,882,883,628,888,887,632,889
384,1088,1062,1386,1291,1070,1043,1047,1051,1599
1412,647,652,1613,1102,396,654,402,403,408
1415,1133,1103,1104,1618,1109,666,1116,1117,1119
704,705,674,1510,433,1137,1619,692,700,447
1056,547,1571,677,1414,1572,648,138,1006,275,660,788,1527,127,1471
581,1066,1550,144,499,1300,885,568,313,348
576,548,1481,553,823,1071,146,1557,1301,789
609,1569,1126,999,1289,1514,1003,1519,1521,1495
385,1219,1444,550,454,1352,328,1612,815,1327,148,1560,156,191
449,1057,1093,1094,1511,1096,1033,1429,1270,1145
161,1474,327,583,1673,429,302,1266,407,1338,1052,575
162,356,1573,1099,879,496,593,1492,157,222
997,1642,1515,1516,1647,243,1524,629,1655,252
1280,193,224,163,388,1382,1677,689,308,1399,728,1466
1184,1282,164,1576,1617,1012,247,1401,507,1214
577,1311,645,1445,775,1421,1230,719,1297,1555,245,662,1624,253,474,509,703
611,874,1422,1072,1106,1463,1080,1144,1021,1054
1152,510,394,395,1038,281,1318,295,297,425,1067,427,301,431,1329,695,317,318,445,446,837,1223,334,337,344,347,478,1255,360,490,875,492,1005,366,495,368,1131,1264,1525,1397,1142,1406,1279
354,389,390,1254,1671,453,587,307,1333,343
481,428,1101,664,401,1462,503,1336,283,543
1440,803,586,1483,1068,1662,656,1649,1393,659,1594,793,538,1339,1500,862
1120,1121,994,1249,644,1258,1262,1518,1134,1334
1476,646,615,683,748,791,1561,604,1149,638
1472,834,1638,1127,998,1260,1396,1044,1045,991
1123,1605,1000,1166,1042,1491,693,1335,1274,987
640,1601,516,549,484,807,1320,522,1487,564
1604,1477,1305,487,1337,1323,1359,1425,1400,1273
1059,1508,1668,1608,1674,1675,1644,1652,727,1593
1473,1063,1095,1037,1199,1040,1556,597,1146,1148
486,1351,1385,1578,1295,1489,1170,1302,1438,1439
546,838,530,1459,596,820,822,534,1404,1663
1640,1546,1482,1552,533,1653,1595,1402,1115,1597
1602,1060,1449,1001,555,1261,1325,1138,1275,1405
512,1409,1442,1670,1319,1350,1322,1007,1488,1424
1475,517,678,485,649,489,589,559,1010,1661
1664,1410,1154,1092,996,1002,1485,1136,1460,1467
