0,510,583
368,1
2,58
1472,3
169,4
23,5,183
81,6,231
7,431
8,1036
9,449,1398
200,10,312
11,565,38
372,12,357
13,190
1035,14
250,15
16,25
17,165
225,18
19,87
1256,20
40,21
405,22
24,389,94
26,1295
104,57,27
28,61,103
29,1278
1258,1397,30
256,31
32,1355
33,1485
34,100,1134
366,35,470
1322,36,53
91,37
1272,39
41,62
42,115
1257,44
45,1279
170,365,46
1336,47
48,404
50,1662
51,291,139
416,52,1408
523,54
1321,55,71
56,1153
59,1403
60,134
86,63
64,209,436
65,1642
466,66,378
68,1318
69,1605
70,1042,222
74,133
1057,75,1501
1363,76
77,662
130,78
1601,79
80,380
992,82
83,1659
84,207
1640,171,85
88,1066
89,164
90,1335
1440,92,455
1643,93
95,159
96,106
97,143
98,549,543
1571,101
1161,540,102
105,290
114,107
108,428
110,1071
1608,111
112,1154
113,277
116,349
1362,117
1053,118
1003,119
120,1384
121,137
153,122,1546
123,411
124,1215
1276,125
126,1519
1385,1147,127
128,336,325
160,129
131,1092
355,132,279
490,135
138,1669,511
448,140
316,141,438
142,1406
144,146,477
145,237,1121
147,1252,367
1000,148
1515,149
1670,151
152,1250
1505,154
178,155
1560,156
251,180,157
158,1511
161,188
162,186
307,166,495
1152,167
168,394,360
1113,172,334
179,173
266,174,278
176,385,1280
177,379
280,181
1457,182
185,1159
1352,187
194,189
191,1399
192,197
193,417
195,1351
1481,196
1307,198
1044,199
441,202
1666,203
652,205
419,206
208,255
210,1114
456,211,364
1128,212,989
480,410,213
453,214
1649,215
216,1095
217,1486
218,1301
220,1334
516,221
1600,223
1547,227
1282,230
232,248
233,249
234,350
1320,235,285
1034,236
1125,239
240,1645
241,1596
1328,242
243,995
244,503
1009,245
1664,247
1144,252
1492,253
254,1439
258,323,1275
1667,260
1465,261,1487
1381,262
993,263
296,265
267,1061
1554,271
272,1637,295
273,1107
274,1045
299,276
281,427
1052,286
1010,287
288,997,1151
289,1615
292,1356
553,293
1553,294
297,332
298,1383
301,317
1602,302
1548,303
304,1127
305,1123
1458,306
986,308
309,1062
482,1404,310
313,1263
314,1671
1395,517,318
395,319
320,524
528,321
384,322
586,326
1573,327
329,1130
331,1302
333,1405
1491,335
337,1067
338,1260
339,1572
1040,340
1675,341
1065,342
343,1647
344,1644
346,1495
1570,347
1476,348
1332,351
352,988
1353,1499,353
1611,356
358,1479
1251,359
361,1319
371,1325
1170,373
374,1463
492,375
376,478
432,377
1331,381
386,1277
387,1613
1266,388
991,390,1247
1220,391
392,1269
393,1255
1474,396
1323,397
400,664
401,493
403,1133
1616,406
408,1361
409,1603
412,1068
1069,413
415,471
576,418
420,678
421,1327
1324,422
1557,423
424,1513
426,1350,1410
429,1469
430,1006
433,1155
435,1365
1396,439
440,1364
442,1359
1273,443
444,1661
445,1213
1500,446
1641,450
457,1638
1169,459
464,461
1566,463
649,467
473,1338
474,1106
1674,475
1402,479
481,1477
1299,483
484,1135,1407
1576,489
491,1475
497,1493
498,1054
1129,499
1507,500,1517
505,1011
506,996
1145,507
512,1483
513,580
530,515
1105,518
1149,519
521,1037,1502
522,1470
1131,525
1504,526
533,1039
1610,534
536,1303
541,1103
542,999
545,1559
1552,546,1639
1305,548
1096,550
552,1285
554,1214
1482,557
1300,559,1311
564,1326
568,638
569,1162,1141
1467,572
1146,575
579,1047
581,582
584,1173,1126
1490,587
589,1270
592,1070
593,1099
1298,604
1018,605
1578,607
608,1297
609,1522
1073,611
1218,614
616,615
619,1102
626,1148
627,1556,1663
628,1574,1575
689,659,631
633,1524
682,634
1339,636
644,1021,645
1668,646
650,1094
660,1677
665,1156
1058,669
676,1101
1176,683
695,711
1184,698
704,707
706,714,750
1619,719
721,1235,1108
728,1621
730,1182
735,1343
739,741
749,1527
753,1562
755,775
776,1529
1449,781,1190
788,789,1422
793,1194
801,807
1534,815
1425,820
833,828
837,838
867,1654
882,1030,879
1090,884
885,886,1031
888,887
893,1349
896,1225
897,906,1374
1657,898
905,900
1540,901
913,1627,903
1376,908
909,1375
1226,910
914,915,1316
916,933,1207
930,1317,917
922,1685
937,938,925
927,934,935
936,929,931
932,1541
952,949
943,951
944,1229,1686
977,1687
976,1545
978,980
946,1245
979,1246
1377,956
1658,958
960,959
961,1633
968,966,967
970,1435
987,1565
990,1382
1441,998
1001,1059
1002,1166
1033,1005
1330,1007
1008,1460
1012,1516
1586,1027
1594,1038
1672,1046
1048,1143
1049,1607
1056,1567
1219,1063
1072,1446
1604,1093
1112,1673
1306,1115
1116,1679
1117,1550
1248,1393,1118
1120,1606
1122,1678
1443,1124
1132,1358
1137,1518
1138,1444
1394,1139
1329,1140
1401,1142
1150,1503
1168,1296
1313,1183
1584,1223
1224,1348
1227,1293
1249,1635
1632,1259
1392,1262
1264,1265
1274,1660
1496,1497,1309
1333,1598
1357,1462
1593,1380
1400,1648
1411,1636
1595,1471
1634,1676
