1031,8,522,1169,149,279,797,547,1059,1578,686,1071,1457,1093,1610,987,1376,995,633
449,1571,646,488,586,1485,1517,303,464,1136,1010,564,53,22,634,891,1567
134,265,138,909,15,26,416,546,1060,421,38,424,47,50,951,445,576,1601,1219,1357,1373,225,355,1380,103,1385,237,1138,1139
1216,644,1384,41,233,1355,300,1483,1518,1643,1644,77,1011,1272,1146,798
1248,163,90,998,487,1094,1574,1674,1306,910,49,466,1361,442,380,1375
897,450,258,420,482,1057,1351,1379,91,333,1486,52,1657,603
608,385,387,1348,485,73,683,908,14,239,815,497,1488,1524,1493,1270,1400,381
901,1423,400,1298,27,35,45,48,307,54,55,1474,1353,463,1616,85,92,94,356,748,1662
900,135,143,1297,931,677,1446,426,304,954,457,1358,592,341,219,99,1000,1263,1523,118,378
961,1475,1124,357,102,649,1422,1519,1364,789,503,344,1629,158,286
129,1665,131,132,137,141,142,781,276,280,1307,290,297,170,299,301,436,1598,1472,456,208,1634,231,367,1392,1394,371,116,887,1406
960,1305,936,1352,1497,1007,1135,862,1264,1327,1359,1617,1654,1049,153,122,730
1409,1092,517,294,1381,334,1008,1424,274,1552,340,213,1623,217,475,1438,319
512,865,1600,707,1123,808,1002,1338,1678,1583,468,282,575
1538,553,874,1535,1068,1624,1631,594,1368,412,1183
1377,471,1090,1005,1101,1262,786,1525,695,506,478
0,3,515,5,7,11,12,13,16,17,18,19,20,21,23,24,25,28,29,30,31,32,33,40,42,44,46,51,56,57,58,59,60,61,63,64,65,66,1603,68,74,75,76,79,80,81,82,83,84,86,87,88,89,601,93,95,96,97,98,100,104,105,106,113,114,115,627,121,123,124,125,133,136,139,140,146,147,151,152,154,155,159,160,162,164,165,166,167,168,169,171,172,173,174,177,178,179,180,181,183,186,190,192,193,194,195,196,197,198,199,200,204,205,206,207,209,210,214,215,220,221,222,230,235,242,244,248,253,1278,255,259,260,262,263,266,268,269,277,281,795,285,291,295,1325,321,322,325,837,328,329,332,335,349,351,354,358,359,360,361,364,366,368,372,375,376,377,379,390,393,394,395,911,401,404,405,406,409,930,425,943,441,956,453,992
128,2,4,6,1035,107,251,1462,278,1659
1,34,1255,202,211,1301,119,218,1628,191
256,352,1668,1540,1157,9,523,530,791,247
1125,1253,1481,1129,1675,1613,1679,1141,508,511
10,906,422,1324,557,302,176,1331,565,1363,467,212,343,1505,353,1382,108,1655,249,1151
871,1127,1607,521,331,493,241,501,886,1374
161,292,454,1511,1001,937,203,1296,182,316
1414,615,648,1547,271,1039,659,660,533,534,916,117
932,37,682,555,1328,1168,1555,408,793,925
1184,706,67,581,458,429,719,689,1591,1339
1058,1508,1259,1133,1619,1013,1213,1180,605,607
1476,902,999,459,1390,399,1362,148,917,1463,604,1149,542
933,1317,1515,240,1685,629,1303,185,1308,62
1280,513,130,261,519,776,397,653,1330,1529,1309
1282,293,684,944,308,662,536,1465,1310,671
705,1443,69,461,465,692,725,1686,1048,345
224,993,1316,1061,486,997,614,1489,1107,346
1507,1572,1003,1004,494,1520,1526,505,1658,1599
320,1217,323,70,1575,1543,391,234,1126,652,1194,1582,1276,698,507,828,254,1471
1218,1027,1444,236,1116,112,1490,1043,373,252
288,964,228,1670,1637,552,1062,78,1300,596,150,1469,1150
1122,1251,619,110,309,1399,250,1052,958,1503
636,257,1159,650,1040,1173,540,669,1063,1576,451,1356,597,989,990,1513,1514,1652,1660
101,934,423,1161,568,1550,1299,120,126,127
514,579,580,1034,588,620,111,1680,562,1527,1656,1341
641,1544,638,1041,657,628,630,663,665,1342
704,709,1478,681,696,1366,1047,184,187,701
1378,226,1480,201,728,722,726,216,1051,223
771,1413,773,775,745,777,267,238,1561,1054
1415,780,1069,783,273,315,819,1494,283,284
1088,326,330,1067,1420,1070,847,1073,1495,829
1089,1102,1104,337,1105,885,1590,374,1496,350
384,1156,904,396,1110,888,1498,1117,1630,1119
1632,1510,1162,915,1205,407,920,1177,1181,413
1633,1281,935,1227,1516,430,947,1240,1210,957
963,1285,1673,1421,1294,1012,469,1014,474,447
1677,498,499,500,502,1017,1530,1019,1021,1022
1546,144,1553,1557,1560,1433,927,1569,693,1099,593,721,339,851,227,1636,742,1640,245,632,1144
1313,1611,1293,1166,145,1106,1137,1108,1109,986
327,1095,583,616,1295,306,310,538,1467,156,157,1534
1570,1036,1037,1454,1647,1009,1265,243,1402,988
289,1220,676,1322,270,272,1522,411,348,541
36,1225,1229,1326,1261,1006,1395,1214,1565,1118
1154,1667,1541,39,1671,1672,1642,1332,1596,1661
996,389,1254,528,338,1398,342,1053,1502,287
1221,582,550,296,298,559,305,1554,1586,1365,312,569,1595,892,317
1539,1573,1096,1128,1066,1164,1103,1199,313,1018
481,418,491,428,365,495,1397,664,1114,1597
1536,544,834,314,1038,336,410,1405,510,415
516,1256,1528,1608,554,431,913,440,477,318
1504,1224,1132,1676,1329,884,1112,1145,1147,1279
1635,1349,1638,1641,1482,526,1429,347,1404,1470
962,1155,388,637,518,1241,392,1163,1484,656,1072,1584,1521,1207,1337,573,702,1277
800,679,1292,622,758,439,504,1434,923,1564
448,1223,1320,905,490,427,492,1612,1645,1393,1491,1460,470,859,1500,446,1663
896,545,484,1033,524,589,782,1556,727,1499
480,898,419,1604,739,903,584,1274,572,1439
1056,1257,1065,1130,1131,1458,1044,1626,443,1148
640,611,678,455,1383,807,749,879,1648,1142
1153,1410,1605,1319,1321,1323,1396,1333,1336,543
1120,994,1252,1350,1260,1042,1045,822,1113,1594
417,929,838,1606,489,1258,525,432,1466,893
1408,1441,1442,1449,435,1459,1653,1302,1335,1407
1664,1666,1669,1639,1609,1649,438,1046,1403,1566
1121,1250,549,1134,1275,1492,1593,991,1115,1215
801,1602,1477,1318,875,587,496,820,444,479
1440,1473,1411,483,1542,1487,1425,1334,1401,1627
1152,1249,1479,1226,1419,1615,1170,1140,1501,1247
