0,1604,1093,510,583,1673,522,1331,1112,381,1470
1665,129,2,6,7,393,1035,17,21,278,160,290,295,41,432,58,62,63,209,82,215,216,217,351,95,107,114,377,1278
4,10,11,13,16,19,23,24,25,34,35,36,37,47,51,53,55,59,61,64,68,70,73,74,75,78,80,81,84,85,87,89,90,91,92,96,98,99,100,102,105,106,113,116,127,128,1663,135,140,144,146,155,165,178,203,205,211,221,225,1255,233,234,235,250,254,255,256,257,259,266,269,271,283,299,302,304,307,310,314,318,319,353,372,431,456,994
1670,329,526,18,150,343,151,152,30,1504,354,995,551,1130,45,1647,243
1601,258,323,26,1381,262,79,1264,1265,1295,184,1466,1275
547,163,358,1479,1133,1645,240,1616,1362,403,117,406,31
416,1408,131,1092,1254,1510,268,461,464,562,52,1399,1306,1115,191
321,66,1667,260,1476,528,466,348,1052,1053,286,118,568,1145,378,507,638
1160,137,139,1676,141,142,539,285,291,1597,448,1351,1352,202,349,1634,1639,104,1392,121
1443,1124,1157,1572,1608,204,1132,1358,111,339,1364,440,1150,1503
1603,1380,185,1159,1546,1131,525,1613,1327,409,122
1154,1220,1099,1612,1301,1561,1469,288,997,615,616,1512,1266,566,1276,125,1151
133,1038,1556,1307,157,169,170,180,181,183,188,195,1605,325,336,1492,214,992,231,365,375,251,1406
153,387,421,648,330,1007,1330,435,1365,1593
1153,515,394,1319,1320,297,427,1324,1334,1337,1472,1606,1609,332,338,355,1123,1256,1147,1661
384,322,1122,356,580,1474,396,1006,1678,497
1251,517,1095,1002,1338,442,1554,1491,1140,1146
480,1248,451,1477,1672,1257,1166,1359,1008,1044
1152,1410,1636,1318,455,1552,1459,1336,1499,1404
484,1502,1063,457,521,1483,1037,1135,1335,1566
1057,482,1219,1666,459,575,1169,1465,1402,604,479
481,1249,516,549,1134,1302,475,1500,1598,543
1638,490,1322,1487,1042,1394,1397,1462,503,1403,1279
1411,1321,1323,1643,491,1393,1139,1396,1333,1460
1664,1250,1635,1637,1671,495,1649,1011,1401,1501
1121,1350,1511,1353,1641,557,1261,1329,1395,1142
1376,1539,900,1348,1224,905,906,910,1390,1433,1626,1627,892,1373,1374
929,931,1541,933,934,935,937,938,1454,915,916,1685,1207
930,932,1317,1542,1316,936,1227,1293,919,917,1591,925,927
1543,1544,1686,939,940,941,942,943,944,945,947,948,949,950,951,952,953,954,955,956,957,958,959,960,1209,1592,1228,1229,1628,1629,1377,1378,1658
