1664,1,1639,1640,202,1260,368,338,441,1661
160,129,2,1320,41,106,107,1262,114,62
1410,3,431
1153,4,134,7,394,140,141,147,20,280,155,28,35,166,168,301,46,178,181,1336,60,61,336,231,235,367,116
40,5,23
81,6
8,1036,1677,1553,660,1560,156,289,294,550,1066,1457,182,1215,1217,1096,1615,88,999,1384,1009,373,120,124,126
1056,224,33,1571,101,9,1485,1458,467,405,1398
200,10,312
11,565,38
372,12,357
994,13
992,492,14
142,15,530,19,152,285,297,171,1324,332,212,470,1250,361,247,506,251,127,255
16,104
17,211,174
225,45,18,244,503,1279
21,183
389,1672,333,1046,24,1405,94
25,188
1601,26,323,1381,262,79,1264,1295,1265,1466,1275
57,27
1035,29
1258,1397,30
256,1643,271,1298,1554,604,93,31
32,1409,478,1383,298,1355,50,1045,376,1662
1666,1411,100,34,1636,203,1134
36,135,1322,490,85,53
91,37
1257,44,1333,1598
48,157,207
1505,1282,390,154,296,265,1644,49,344,991,1247
450,1641,523,1486,1332,54,217,351
1321,55,71
1120,1472,422,1606,1483,1487,1392,1552,1460,56,1465
209,58,63
1403,1394,59,1139
64,128,266,299,276,436,278,1663
65,1642,1475,491
321,66,1667,1476,260,528,118,348,568,1145,378,507,1052,1053,286
68,1318,233,395,493,1649,401,215,249,319
1594,69
70,1042,222
73,1123,305
74,180
1057,75,1501
1660,196,1060,292,1481,76,1356,206,1328,241,242,1363,1274,1596
1152,80,380,167
170,82
83,84,365
448,290,325,1255,1319,113,404,214,86,87,438
89,379
1440,90,1251,1335
359,455,1142,1401,92
1352,95,159
96,115
97,457,1638,143
98,1602,549,1127,1674,302,304,475,543
259,99,331,1302,1213
1161,540,102
161,291,103,360,139,1325,366,208,371,253,316,349
1665,105,1038,1114,1406
236,110,1071
1443,1124,1572,1608,1132,204,1358,111,1364,440,1150,1503
163,1479,1133,1645,1616,1362,117,406
121,137
387,1131,1330,1593,122
1121,237,145,411,123
1609,130
281,132
210,133
136,261
1668,1382,138,1010,534,986,990
144,1219
146,477,1063
544,1001,1515,587,1296,1168,1490,149,987,1565
1504,354,995,1670,329,1130,526,1647,243,151
153,1159,1613,1327,435,1365,185
193,417,158,1511
480,162,186
177,164
1113,172,221,334
179,317,173
190,1278
195,1556,1492,1307,1597
652,1044,205,199
410,213
216,1329,1140,517
220,444,1334
1299,1675,1125,239
248,1659,277,375
1058,1514,1419,1578,501,250
1632,640,1311,1509,1631,1039,561,252,607
1002,1166,254,1439
257,1635,1249
272,1637,295
355,279
1671,495,335,307,1491,314
482,459,1169,310,1404
483,1263,1648,1361,341,1400,313,1214
1395,318,1095
1573,327,553,524,1136,1617,1471
1603,1380,421,1546,330,525,1007
337,1067,1148
1033,1570,1441,340
1442,998,1576,489,1005,347
353,1065,1353,1359,1396,442,1499
1480,1122,1611,356
370,1459,1566,463
432,377
1604,1093,510,1673,522,1331,1112,381,1470
384,1474,1547,396,1006
484,1323,397,1135,1407
1034,451,402
1678,430,1102,1493,407
488,412
415,471
576,418
1444,1061,1253,584,424,1516,1550,1679,1103,1138,1305,541
426,427,1350
1477,446
456,627
481,1500
487,1482,1261,1011,505
512,515,516,521,1037,1502
1522,676,989
1338,678,1106,1146
1184,698,708
1313,701,742,1183
1424,801
1200,817
1425,820
833,1586,1027
859,1429
1090,884
1656,1205,887
1224,893
896,1225,897,1657
898,1349,904,1390,913,1590,1433
909,903
905,1539,1373
1226,1374,906
1376,908,910
930,1316,933,915,916,1207
1317,917
925,1542,1591
1293,927
1227,934,935
1377,956,1628,943
960,947
1543,1229,1686,951
970,1435
976,1545
977,1687
1456,983,984,985,1212
1437,981,982
1216,1248,1128,1357,1393,1462,1147,1118
1256,1252
1634,1676,1605
