1,130,1157,202,204,78,111,529,211,339,440,441,1503
129,2,41,432,209,115,377,58,62,63
225,3,516,1258,427,45,1262,18,19,244,1397,503,30
4,325,6,231,169,15,336,81,1113,250
5,133,40,17,210,21,277,23,183,1403
449,482,9,458,459,649,1169,1458,467,405,310,22,1398,1404
1320,104,10,16,307,214,312,25,152,57
65,193,11,12,1038,1552,1500,158,417,546,357,1128,1642,491,1278,1663
1635,1606,71,13,1357,1594,1659,190,29,1598
35,360,173,367,1392,179,20,147,470,317
1666,1411,389,1672,203,333,1046,24,220,94,34,100,1636,1134,1334,444,1405
1664,36,453,70,135,490,171,1322,1042,53,247,27,222,255
1255,365,207,83,84,471,121,1114,28,415
256,544,234,587,271,1296,149,604,93,350,31
576,1665,418,195,259,37,198,1639,159,1486,91,95
394,334,89,221,164,165,168,105,42,59,172,113,177,1139,1394,379
96,128,232,74,106,299,46,48,180,157
1409,1383,1065,1355,1359,50,1396,1045,376,1499
448,103,137,170,139,142,51,87,61,1279
1605,69,136,140,332,213,539,480,1634,422,297,361,56,186,316,1597
64,160,290,393,266,107,114,436,86,248
321,66,1667,260,1476,528,466,348,1052,1053,286,118,568,1145,378,507,638
67,548,424,584,267,1550,569,1305,603,541
161,1250,166,200,1256,335,495,85,314,188
1440,99,455,359,92,1302,1335,90,380,351
97,194,457,123,237,143,272,145,411,189
1472,291,1252,1671,1640,141,178,1491,116,181,438,280,285,155,349
515,996,199,652,205,1133,530,1044,117,506
355,132,235,301,366,1325,208,371,279,281
608,385,1569,229,650,589,270,176,148,564,1337,254
319,233,1324,493,1008,401,1460,215,249,1247
579,1284,581,582,595,345,346,443,572,223
384,513,322,227,356,580,619,396,430,1493,407,315
352,1478,1137,1043,1013,1143,536,1048,988,1021
1443,1124,1572,1608,1609,1132,364,1358,1364,1150
454,1162,1679,1103,1173,1116,1117,1444,1061,1253,1126,1513,1516,1138,1012,1141
1474,1122,1480,1547,1611,1006,1102,1678,497,1016
965,966,967,968,969,970,971,972,973,974,975,1032,1435,1436,1391,1455,1211
1059,1001,1674,1643,1515,1298,1490,1554,987,1565
1152,1251,1351,1352,1641,989,1332,1142,1401,1213
992,1249,994,1257,1321,1035,1333,1336,1118,1406
993,1218,1129,1003,1004,1171,1269,1047,1273,1051
1217,999,1096,1066,1677,1009,1457,1555,1560,1215
1482,1261,1295,1264,1265,1487,1011,1465,1466,1275
1060,1481,1260,1356,1328,1363,1274,1660,1661,1596
1121,1410,1092,1637,1254,1350,1638,1399,1306,1115
1123,1604,1093,1095,1161,1329,1331,1140,1395,1112
1603,1380,1159,1546,1613,1327,1330,1365,1593,1566
