1,202,441,1260,368,338,1688,1689,1690,1661
2,133,6,1735,1736,41,1737,180,277,248
355,3,132,1252,427,301,367,147,279,281,1691,1692
4,325,5,105,137,1738,1739,1740,81,276,436,86,23
1120,481,1152,1477,1606,167,7,47,80,431,1336,380,1500,446
65,193,1475,11,12,1552,1693,158,417,546,357,38,1511,1642,491,372,565
994,362,365,13,14,1741,1114,27,29,190,1663
1696,1697,35,1256,360,15,470,250,1694,1695
195,261,142,1742,16,207,19,20,212,25,220,1639,104,297,1128,366,51,1594,317
1760,1761,290,1762,165,232,17,82,209,21,183,121
225,1698,1699,516,1700,45,18,244,503,1279
1664,1666,1411,389,1672,203,333,1046,24,94,34,100,1636,1134,247,1405
1601,258,323,26,1381,262,79,1264,1265,1295,184,1466,1275
257,1249,1635,1121,425,1258,123,237,145,411,1397,283,30
256,1701,234,1643,271,1298,1554,604,93,350,31
480,162,36,70,135,1702,186,490,1322,1042,53,213,410,222
450,418,37,1641,523,1332,54,217,1213,351
64,448,74,336,1746,1747,404,214,471,87,992,40,169,170,173,46,174,113
1703,71,1257,1321,44,1008,1460,1333,55,1598
96,1634,231,492,48,84,1748,1659,157,1406
159,1153,1351,1352,1705,1704,1706,1324,56,95
129,1763,1764,1765,107,432,114,115,58,63
89,164,168,59,394,1707,172,334,177,1394,1139,379,1113,1403,221
1248,134,1708,1357,1709,1710,1393,1462,60,1118
321,66,1667,260,1476,528,466,348,1052,1053,286,118,568,1145,378,507,638
67,1253,1061,1516,1103,1679,1138,1012,1173,1305,1116,1117
68,1318,233,395,493,1711,401,1649,215,249,319
1665,1605,69,198,1354,1038,1487,496,83,627,1492,1307,253
1057,1123,73,75,1712,305,1713,1147,1501,127
419,196,199,76,205,206,652,1356,1044,1660
1463,1379,1478,77,1518,1303,1043,1143,1339,988,1021
130,515,996,1609,78,529,530,1714,1715,506
1250,166,1671,1640,171,335,495,307,1491,85,152,314
1440,1251,359,455,1716,1142,1335,1401,90,92
97,194,1638,457,143,1717,1718,1719,1720,189
98,1602,549,1127,1674,302,304,1721,475,543
512,102,1161,1002,1483,1166,1169,1011,540,1439
451,1479,1034,1616,402,403,1362,406,547,163,358,236,1133,110,1071,240,1645,117
1443,1124,1157,1572,1608,204,1132,1358,111,339,1364,440,1150,1503
1472,285,1320,235,155,178,116,1722,1723,349
1217,999,1096,1384,1066,1009,1555,1560,120,1215
153,387,648,330,1131,525,1330,435,1593,122
128,291,266,1325,371,1749,1750,1751,1752,255
422,1319,136,361,1160,140,539,1724,1725,1726
1728,1729,1730,141,1392,181,438,280,316,1727
161,453,456,332,364,211,1753,1754,1755,188
1603,1380,421,185,1159,1546,1613,1007,1327,1365,409
192,197,1675,1361,1299,341,408,483,1125,554,239,1263,1648,1400,313,1214
1731,1732,1733,517,1095,1329,1395,1140,216,318
1218,1548,1549,1360,595,1171,1366,1047,345,1051,223,993,226,614,1129,1003,238
227,1480,619,1611,430,1102,1678,497,1493,407,1016,315
1255,393,1035,1262,278,1278,1756,1757,1758,1759
384,513,322,1122,356,580,1474,1547,396,1006
1376,1348,903,1224,1770,1771,908,909,910,1375
898,1538,1540,901,902,899,904,907,911,1684,1091,1349,1626,1627,1373,1390,1657,891,893
1539,900,905,912,913,1590,1433,892,894,895
