1,3,4,10,11,13,16,19,23,24,25,27,34,35,36,37,42,47,48,51,53,54,55,57,59,60,61,64,68,70,73,74,75,78,80,81,84,85,87,89,90,91,92,93,96,98,99,100,102,105,106,110,113,627,116,127,128,1663,135,140,144,146,155,165,178,203,205,211,213,221,225,1255,233,234,235,236,250,254,255,256,257,259,261,266,269,271,272,283,299,302,304,307,310,312,314,318,319,342,353,357,364,372,431,436,456,994
1665,129,2,6,7,393,1035,17,21,278,160,290,295,41,432,58,62,63,209,82,215,216,217,95,351,107,114,377,1278
5,133,1038,404,1556,1307,157,40,169,170,180,181,438,183,188,195,1605,325,198,453,1354,336,210,83,1492,214,992,231,365,496,375,251,1406
1670,329,526,18,150,343,151,152,30,1504,354,995,551,1130,45,1647,243
547,163,358,1479,1133,1645,240,1616,1362,403,117,406,31
32,1409,478,1383,264,298,1355,50,274,1045,376,1662
1505,1282,991,390,230,296,265,1644,49,344,154,1468,1247
192,65,194,193,197,1299,341,408,158,97,162,1263,1648,177,1400,313,186,123,1214
321,66,1667,260,1476,528,466,348,1052,1053,286,118,568,1145,378,507,638
196,1481,1356,76,206,1363,1596,419,1060,292,363,1328,241,242,1274,1660
1160,137,139,1676,141,142,539,285,291,1597,448,1351,1352,202,349,1634,1639,104,1392,121
1603,1380,185,1159,1546,1131,525,1613,1327,409,122
1280,385,1094,650,1484,589,270,1297,148,608,1569,229,1000,1326,176,564,1270
544,1059,1001,1097,587,1515,1168,1296,1490,149,987,1565
153,387,421,648,330,1007,1330,435,1365,1593
1217,1464,999,1384,1066,1677,1615,1009,1457,1553,1555,245,1560,1215
674,1114,362,492,1325,366,371,276,277,1594,1659
1153,515,394,1319,1320,297,1067,1324,1068,427,1334,1337,1472,1216,1606,1609,332,338,989,1120,1123,1252,355,1128,1256,1260,1262,1147,1148,1661
1600,392,1129,1003,1360,499,629,311,346,1467
1441,1442,1570,324,998,423,1576,489,1033,1005,1040,340,1557,347
1473,1156,1574,328,1386,527,656,369,1521,659
1440,450,1065,1674,1482,1486,439,1113,477,1118,445
1251,517,1095,1002,1338,442,1554,1491,1140,1146
480,1248,451,1477,1672,1257,1166,1359,1008,1044
609,1602,452,676,1127,1161,493,1298,1522,506
1152,1410,1636,1318,455,1552,1459,1336,1499,1404
484,1502,1063,457,521,1483,1037,1135,1335,1566
1057,482,1219,1666,459,575,1169,1465,1402,604,479
481,1249,516,549,1134,1302,475,1500,1598,543
1638,490,1322,1487,1042,1394,1397,1462,503,1403,1279
1411,1321,1323,1643,491,1393,1139,1396,1333,1460
1664,1250,1635,1637,1671,495,1649,1011,1401,1501
1121,1350,1511,1353,1641,557,1261,1329,1395,1142
1379,1478,1518,1551,597,1143,1463,1048,1339,1303,1438
1026,1424,800,801,802,803,804,805,806,807,808,809,810,811,812,813,814,815,1195,1196,1197,1198,1347,1533,1534,1535
