0,261,1673,522,305,1331,1465,1470,1604,1093,583,73,1487,1112,1123,1639,381,510,1663
9,649,405,22,282,1567,1056,33,1568,1571,306,1458,449,458,1485,467,224,101,1398
1664,161,389,70,1672,333,1042,1405,188,1046,247,24,1334,444,220,222,94
1601,258,323,1381,262,79,1264,1265,1295,1466,463,370,1459,184,26,1275,1566
1409,264,395,401,274,1045,410,32,162,1318,298,50,186,319,68,1355,213,215,478,480,1383,233,493,1649,376,249,1662
1668,1669,646,138,534,1304,1049,287,39,308,1607,1610,986,990,228,1382,1010,1272,511
321,66,1667,260,1476,638,1052,528,466,118,568,1145,378,507,348,1053,286
512,521,1161,1417,1037,540,674,1067,1337,1483,337,1502,102,1385,626,627,1147,1148,127
1,130,529,403,406,163,547,441,1479,456,1609,202,78,1616,1362,211,358,364,1133,1645,240,117
257,2,129,4,5,6,133,137,393,13,14,145,17,277,21,23,411,283,29,415,160,290,165,40,425,41,42,432,1460,183,58,190,63,74,81,210,209,86,471,96,1121,1249,1635,994,231,105,377,106,107,237,1008,113,114,115,248,121,123
1033,144,1040,146,1557,1441,1442,1570,423,1063,1576,1219,324,340,347,477,998,489,1005
1158,524,531,538,412,293,1573,553,556,1068,1595,573,1471,320,1216,327,1614,1617,468,601,488,1136
289,294,550,8,1036,1677,1615,1519,1457,124,660,126,156,542
300,219,1553,1170,245,182,246,1464,373,88
1217,999,1384,1096,1066,1009,1555,1560,120,1215
256,1125,234,1643,1214,271,1648,1298,1554,1299,1400,313,604,93,350,31
192,483,197,554,1675,1263,239,1361,341,408
353,1666,1411,34,100,166,1640,203,1134,1359,1396,342,439,442,1499
1671,1322,335,16,1491,307,25,314,27,255
1636,36,135,1353,1065,490,171,495,53,85
576,418,1634,37,1351,1641,523,1676,1486,1332,54,91,351
417,450,193,1637,1511,295,272,217,158,1118
159,69,1352,361,1035,492,56,1594,539,95
1605,136,297,1324,332,1038,47,80,212,380
1248,481,134,38,11,1357,565,1462,60,446
992,1319,71,167,140,44,178,55,155,1597
1477,357,12,349,372,116,1336,285,316,989
1152,1153,1160,1257,1321,1128,1393,1333,1500,1598
516,10,18,152,30,35,164,1320,173,45,177,179,312,57,1468,317,453,200,470,214,89,1247,991,225,1250,1256,360,104,235,1258,244,1397,503,379,1279
1505,1282,390,230,296,265,1644,49,344,154
65,1475,1606,422,491,43,269,150,1142,187,1278
1408,416,131,1092,1510,268,461,562,52,191
1120,90,455,359,1642,428,108,1402,92,479
1440,1251,1254,464,1461,1399,1401,1306,1115,1335
1061,454,1253,1513,1162,1516,1103,1679,569,1138,1012,1173,1141,1305,1116,1117
67,1444,548,1126,584,424,267,1550,603,541
1280,385,229,650,1484,589,270,176,1297,148,564,254,1439
608,487,72,1482,459,1261,557,1326,310,505
1569,482,1094,1000,1002,1166,1169,1011,1270,1404
1665,259,99,517,331,175,1302,1213,216,1501,445
1057,546,198,426,75,1552,1329,496,253,318
1410,195,1350,1095,1354,1395,1140,1492,1556,1307
515,199,1481,1260,1356,652,205,368,1328,338,530,242,1044,1274,1596,1661
419,196,1060,292,363,76,206,241,1363,1660
644,645,1478,326,586,77,400,1043,275,1303,636
352,612,536,664,109,1551,597,662,1048,1438
1379,1518,1137,1013,374,1463,1143,1339,988,1021
128,3,132,7,394,139,397,141,143,15,142,19,20,147,279,280,281,28,157,291,168,169,170,1323,427,1325,46,301,172,431,51,181,438,59,189,61,448,194,325,457,334,207,336,208,82,84,87,1113,221,97,355,484,1252,1638,103,365,366,1135,367,1262,1394,1139,371,375,250,1403,1407
64,266,299,174,436,276,278,1114,1659,1406
1472,1255,232,362,1392,48,83,404,180,251
451,996,1572,1608,236,204,1358,110,402,339,440,506
1443,1124,1157,1034,1132,1071,111,1364,1150,1503
577,1154,388,997,391,1512,1099,1612,593,1266,532,566,1561,218,1276,606,1151
288,1220,615,616,429,112,624,1301,125,1469
1281,386,1413,263,392,1271,399,303,663,1467,284,1277,1022
1495,579,1284,567,581,582,1418,311,443,572
226,614,345,1548,238,1360,595,1273,346,223
993,1218,1129,1003,1549,623,1171,1366,1047,1051
1600,1004,499,629,502,119,632,1269,1498,508
1504,153,387,1380,421,1159,648,1546,525,1327,1007,435,409
551,329,330,1131,526,1593,1330,151,185,122
354,995,1603,1670,1130,1613,1647,243,1365,343
1602,98,549,1127,1674,587,302,304,1490,475,543
544,1059,1097,1001,1515,1296,1168,149,987,1565
1473,514,519,552,555,558,527,1041,1681,1521,1523,500,1525,537,1308
578,588,590,563,570,1558,1050,571,1309,574
592,1489,594,596,598,599,600,602,1054,1310
1312,610,611,1062,617,618,620,621,1494,605
641,642,643,1574,639,628,631,634,1340,1055
647,1064,1575,651,653,654,655,656,657,1341
1496,1070,658,659,661,1368,665,666,667,668
672,673,675,677,679,1497,1069,1369,670,671
1506,680,681,682,684,685,686,687,1073,1370
1507,1386,1098,688,1074,1075,1107,1078,1079,1119
201,1387,689,690,691,692,693,273,1149,1599
1412,1156,1165,1646,1167,1172,309,1174,1175,1177
1414,328,398,369,1650,434,1179,413,382,383
1283,1508,1285,1581,1231,1267,437,1178,1180,1181
486,1415,460,1517,465,1268,469,472,476,447
1680,1520,498,1014,1015,1017,1018,1019,1020,1023
384,513,1474,322,580,227,1547,396,1102,1678,1493,407
1122,356,1480,619,1611,430,1006,497,1016,315
640,545,1632,1509,669,1514,1163,1419,1338,1618,533,535,1146,509,414,1631
585,1164,559,561,1300,501,1559,635,252,607
1058,420,1577,1259,1039,1076,1077,1144,637,1311
452,1445,678,1578,1580,494,1106,473,474,575
609,676,485,518,1416,520,1101,462,591,1522
613,683,622,1104,1488,560,433,625,630,1367
1155,1446,1579,1230,1072,1105,1524,504,633,1176
