0,131,1093,517,583,510,522,216,99,1510,1639,1331,1395,1399,381,1470
1,130,1443,1572,1157,1609,202,364,78,1358,211,441,1503
1152,2,4,5,6,7,137,393,277,23,167,40,1321,41,297,431,432,1460,183,58,63,1606,71,80,209,86,471,231,105,107,1008,115,248,377
3,132,266,11,12,13,14,1035,404,38,427,299,174,48,190,1472,1475,74,207,82,84,1114,989,992,994,1252,357,1255,1642,365,372,375,1278
1056,449,1571,9,458,649,1485,1166,1458,467,405,254,1439
200,1640,10,495,335,1394,1491,85,312,314
1248,225,516,237,1357,15,244,1462,503,30
161,1250,166,1671,27,16,307,25,1403,188
484,1638,123,45,397,1135,145,18,411,1407
139,141,142,143,272,19,20,147,155,35,291,295,1323,1325,178,181,438,316,189,448,194,457,208,470,87,349,1118,97,1121,1637,103,360,1256,1258,366,367,1392,1393,371,116,1397,250,1279
128,325,1262,336,51,280,1659,28,61,1406
256,1133,110,1071,271,1616,402,1362,93,31
34,1411,100,36,1666,490,171,1134,53,255
576,1057,418,1410,37,73,426,75,305,1501
416,1408,1095,1673,268,464,52,1140,1112,1213
450,1251,455,359,523,1355,1486,54,90,92
159,69,422,1352,187,1038,56,1594,539,95
394,140,152,285,164,1319,168,1320,172,173,301,177,179,57,59,1597,317,453,334,214,1113,89,221,104,361,235,1139,379
1440,217,1383,1641,60,1332,1335,1401,1500,351
321,66,1667,260,1476,528,466,348,1052,1053,286,118,568,1145,378,507,638
67,1253,1061,1516,1103,1679,1138,1012,1173,1305,1116,1117
1505,68,319,1318,233,395,493,401,215,1247
1664,1636,70,135,1322,203,1042,220,1334,247,444,222
98,549,1127,1674,302,304,243,475,1405,543
261,1094,102,1000,1326,1487,176,564,1270,540
1124,1608,1132,204,111,529,339,1364,440,1150
547,358,1479,199,652,205,1645,240,1044,117
1217,999,1096,1384,1066,1009,1555,1560,120,1215
153,1380,648,1546,1131,525,1593,1330,409,122
1570,1219,998,1063,1037,1005,1040,1147,1502,127
417,193,481,1477,134,1351,1128,212,158,446
480,162,186,479,1402,1649,213,249,410,991
163,451,1034,234,236,1643,1298,403,1554,406,604,350
1603,387,421,1159,330,1613,1007,1327,435,1365,185
1092,1604,1254,461,1329,562,1306,1115,318,191
192,197,1675,1361,1299,341,408,483,1125,554,239,1263,1648,1400,313,1214
674,1123,546,195,198,1350,496,627,1492,1337,1307,253,1663
515,456,1481,368,242,338,530,1363,1274,1596
644,326,536,1518,400,275,662,1303,664,1048
1216,1573,293,553,556,1136,1617,1595,1148,1471
1632,1445,1146,1514,1578,1580,494,1618,474,1631
1089,1090,1031,1244,889,1453,883,884,885,886,887,1656,888,890,1205,1206
