0,318,517,510,583,1673,522,73,1354,1556,1492,216,540,102,496,305,253,381,1470
1,130,1157,202,204,78,111,529,211,339,440,441,1503
129,2,41,432,209,115,377,58,62,63
225,3,516,1258,427,45,1262,18,19,244,1397,503,30
4,325,6,231,169,15,336,81,1113,250
5,133,40,17,210,21,277,23,183,1403
1248,257,134,7,425,44,47,431,1393,1462,55,283,60
289,294,550,8,1384,1036,300,1615,1519,660,182,1464,156,542
1217,999,1096,1066,1677,1457,1009,1555,1560,1215
449,482,9,458,459,649,1169,1458,467,405,310,22,1398,1404
1320,104,10,16,307,214,312,25,152,57
65,193,11,12,1038,1552,1500,158,417,546,357,1128,1642,491,1278,1663
1635,1606,71,13,1357,1594,1659,190,29,1598
362,492,174,14,82,276,404,278,375,251
35,360,173,367,1392,179,20,147,470,317
1666,1411,389,1672,203,333,1046,24,220,94,34,100,1636,1134,1334,444,1405
1601,258,323,261,262,487,72,1381,557,79,184,505,26
1664,36,453,70,135,490,171,1322,1042,53,247,27,222,255
1255,365,207,83,84,471,121,1114,28,415
256,544,234,587,271,1296,149,604,93,350,31
1409,1383,1065,1355,1359,50,1396,1045,376,1499
32,353,264,1353,298,1662,274,342,439,442,478
224,33,1056,1571,1568,101,1485,306,282,1567
576,1665,418,195,259,37,198,1639,159,1486,91,95
481,1475,1477,38,1511,372,212,565,187,446
1668,1669,646,1607,138,1610,534,1304,1049,986,990,287,228,1382,39,1010,308,1272,511
394,334,89,221,164,165,168,105,42,59,172,113,177,1139,1394,379
162,484,43,108,269,397,428,150,410,479
96,128,232,74,106,299,46,48,180,157
1282,68,390,265,395,344,154,991,1505,230,1318,296,1644,49,1649,1468
448,103,137,170,139,142,51,87,61,1279
416,1408,131,1510,295,426,268,461,464,562,52,191
450,167,523,331,175,80,54,217,1307,445
1605,69,136,140,332,213,539,480,1634,422,297,361,56,186,316,1597
64,160,290,393,266,107,114,436,86,248
321,66,1667,260,1476,528,466,348,1052,1053,286,118,568,1145,378,507,638
419,196,292,456,363,76,206,368,241,242,338
644,645,326,586,77,400,275,597,662,1463,664
1379,612,109,1518,1551,374,1303,1339,636,1438
161,1250,166,200,1256,335,495,85,314,188
1440,99,455,359,92,1302,1335,90,380,351
1121,1410,1092,1637,1350,1254,1638,1399,1306,1115
97,194,457,123,237,143,272,145,411,189
1602,98,549,1127,1097,302,1168,304,475,543
1059,1001,1674,1515,1643,1554,1298,1490,987,1565
451,1479,1034,1616,402,403,1362,406,547,163,358,236,1645,110,1071,240
577,1154,388,391,1612,593,532,1301,1561,218,606,288,615,1512,1276,1469,1151
1472,291,1252,1671,1640,141,178,1491,116,181,438,280,285,155,349
515,996,199,652,205,1133,530,1044,117,506
1281,386,263,392,508,399,303,1360,1366,567,284,311
993,1218,1129,1003,1004,1171,1269,1047,1273,1051
153,387,185,421,648,330,1131,525,463,1007,370,435,1459,409,122
1603,1380,1159,1546,1613,1327,1330,1365,1593,1566
1482,1261,1487,1295,1264,1265,1011,1465,1466,1275
355,132,235,301,366,1325,208,371,279,281
1504,354,995,1670,551,329,1130,526,1647,243,343,151
192,197,1675,1361,1299,341,408,483,1125,554,239,1263,1648,1400,313,1214
514,519,552,555,1387,527,1680,1681,563,1525,571
1283,1156,1285,1581,1646,1231,1267,1172,1268,1149
641,642,610,653,654,671,656,659,666,1055,670,639
673,611,1050,677,675,618,628,631,665,634,605,1054
1574,328,460,685,688,369,689,691,693,437,413
680,681,682,447,684,201,398,588,590,1599,1650,690,434,309,596,598,382,383
319,233,1324,493,1008,401,1460,215,249,1247
384,513,322,227,580,356,619,396,430,1493,407,315
1474,1122,1480,1547,1611,1678,1102,1006,497,1016
512,324,1033,1483,1040,340,1557,347,1441,1442,1570,998,423,1576,489,1005
1443,1124,1572,1608,1609,1132,364,1358,1364,1150
420,452,678,1338,494,474,1106,473,1146,575
1286,1447,716,718,719,1619,723,725,727,1080,1081,730,1182,703
706,740,710,714,1100,717,750,1388,702,721,1232,1235,724,1237,1108,729,1082,734
1344,1185,705,712,713,1448,715,1528,722,726,1527,696,697,700
736,737,1314,738,739,741,728,731,732,733
1221,743,744,745,746,1287,747,748,749,1582
1315,1583,1233,1651,1620,1109,1621,1236,1238,1526
704,707,708,709,742,711,720,695,698,735
1184,1313,1343,701,1234,694,1371,699,1342,1183
1152,1251,1351,1352,1641,989,1332,1142,1401,1213
992,1249,994,1257,1321,1035,1333,1336,1118,1406
1280,1094,1000,1002,1484,1166,1326,1297,1270,1439
1060,1481,1260,1356,1328,1363,1274,1660,1661,1596
1123,1604,1093,1095,1161,1329,1331,1140,1395,1112
1120,1153,1319,1160,1323,1676,1135,1461,1402,1407
