0,1442,356,1033,1465,1261,1554,217,475,511
608,1601,1066,492,524,1326,1459,565,313,1467
1,130,580,1157,1166,1495,33,1122,1443,39,554,171,370,499,1332,506
1536,642,1027,1158,1286,779,531,1304,793,1050,675,1451,1585,1074,1586,694,315,1340,827,828,829,830,831,832,833,834,835,710,836,837,713,328,838,839,462,591,1234,723,1235,1621,598,1111,216,1236,1243,737,1389,753,1473,1653,630,631
1152,3,1411,1638,1322,1132,140,1134,1262,495,371,89,27,1597,446,415
674,1354,1067,428,13,1482,337,594,627,1213
1409,644,261,139,1419,16,664,281,28,157,1566,30,35,167,173,179,181,1462,1594,314,68,213,344,221,349,478,354,355,230,103,105,490,1518,1393,375,376
193,132,6,7,334,145,82,279,409,1500,158,1120,360,1321,250,431,438,1402,59
1667,1220,8,331,1483,467,1438,545,1570,100,102,1254,1383,1511,1010,1331,373,189
1280,1154,9,10,265,652,521,1042,151,153,32,34,424,176,1458,1334,566,568,442,70,457,1610,206,1615,1490,466,212,350,483,996,484,1140,380,124,1661,1150
420,229,1192,1513,11,1547,1561,569,1301,1273,219,125
1153,258,12,141,283,285,542,801,166,45,47,50,439,316,317,191,453,71,207,335,1258,365,368,1649,244,1401,1405
385,134,525,270,14,1552,147,470,418,1318,807,1127,297,1320,310,1270,1148,445
1351,1160,73,1676,1423,1424,18,411,539,222,98,1130,1644,557,1135,1008,1139,1145,254
256,640,1168,1297,1298,1172,22,408,1560,1184,1313,300,689,1595,1214,67,1103,1361,986,997,999,1384,618,1519,1266,1652,1143
323,131,455,1352,327,1546,1296,660,149,342,24,88,480,353,1257,302,1404
389,263,393,395,1036,397,1147,25,1441,419,435,564,312,188,444,321,322,1604,711,1609,1484,1491,343,616,1264,496,247,1274,1275,1663
1282,1602,1606,1671,461,526,589,1169,1045,1112,26,543,416,1504,225,1131,1395,503,381
523,789,1049,31,1660,1057,1447,305,182,1093,1094,1613,340,987,482,489,1011,1142,249,1146,636,1278
66,1219,519,459,339,90,1565,1248,99,36,37,101,1380,1000,1648,1265,52,1400
1410,1666,522,1422,1044,154,161,162,164,421,38,168,1460,1596,76,220,93,481,1121,995,235,1260,1398,1399
704,1413,1669,391,203,332,1612,55,150,218,615,41,429,238,508,372,567,1276
512,386,201,1551,1360,402,346,1498,673,739,1575,43,619,1004,303,111
97,163,387,228,357,803,296,1381,1636,1643,237,49,1012,53,1662
1472,1664,1607,648,75,269,333,528,274,991,549,1640,1001,1324,240,1593,60,1407
1408,65,1474,1353,138,394,1357,79,215,1113,94,1249,361,108,177,186,1279
1665,1634,1635,69,295,1319,1639,1641,427,1355,1038,1333,1306,1307,989
1059,584,1515,1133,77,1645,112,1040,403,532,118,185,604,351
324,136,1608,1034,458,78,1358,1679,662,1052,607,227,1637,1642,236,242,1337,378
1670,487,1480,1481,1578,1675,1164,91,494,399,559,1327,187
259,1605,390,587,400,401,1115,92,159,1440,1065,1323,1009,178,1396,1336,123,319
514,1678,1048,1439,1572,693,1078,311,1461,1218,326,1616,465,1496,474,1116,226,110,1137,500,629,1528,251
1412,1677,529,1302,1176,1503,993,1060,678,1446,1071,1263,119,633,1466,1021
706,1611,593,1617,659,728,538,1567,1631,1632,735,1507,1343,552,1259,1581,120,703
611,287,1477,646,1138,501,1046,440,1305,122,1502,1247
257,449,517,1479,1095,716,1485,1425,146,306,820,1457,406,126
1475,1092,197,998,1063,1350,1037,143,148,1556,791,1272
1058,1123,485,1445,583,1478,1576,144,1488,374,1338,540
1185,450,1379,1156,1002,1522,1492,1525,407,1018,1470,1471
576,1251,645,1096,1673,497,1106,1117,443,246,1464,507,156,1149,990
773,1420,1175,536,792,1055,548,1193,682,684,1069,1582,1583,1072,1073,816,1203,433,691,822,1080,824,826,700,707,1489,1618,599,600,1124,486,749,1651,1269,1016,1017,637,766
1024,384,546,1508,649,797,555,788,692,1623,184,282,1309,286
192,1674,268,271,1170,1362,1363,669,1501,292,358,298,748,1007,304,241,1328
417,1668,1382,550,742,267,1295,210,596,1173,1499
1281,1285,776,1418,780,1549,1047,794,1051,1308,413,1070,701,447,1217,1346,579,588,1231,719,345,223,610,743,1003,498,1014,1529
1125,262,1512,1359,272,1647,1300,348,1118,1151
1571,1476,1444,1253,1672,1129,650,505,1497,1053
