0,517,1161,522,1673,540,1329,1331,318,1470,1604,1093,583,1095,216,1112,102,1395,1140,381,510
481,357,38,7,1128,1477,1606,11,12,431,212,372,565,1500,446
70,135,200,10,1042,85,213,410,222,480,162,36,1640,1322,171,490,53,312,186
65,259,1639,136,13,237,496,1492,342,1142,1335,159
1353,332,207,16,530,1298,1113,411,220,30,161,34,225,1636,1324,307,247,316
1219,453,456,271,18,338,1302,221,349,1057,104,299,1396,442,189,1663
1152,141,1552,145,20,281,155,1319,1320,301,317,455,1499,95,491,1643,366,1139,250,1279
1602,389,1672,1674,333,1046,24,475,94,543,98,549,1127,302,304,1405
1664,1250,1671,1258,75,143,470,1401,90,25,31
1665,355,1255,231,393,27,173,1392,113,244,86,1659,1406
1223,139,1424,152,28,157,801,35,103,167,105,297,361,807,1262,1594,123,380
32,1409,478,1383,264,298,1355,50,274,1045,376,1662
224,33,1056,1571,449,1439,1485,1166,282,1567
576,193,450,523,1486,217,91,158,351,417,418,37,1511,1641,1332,54
1668,1669,646,1607,138,1610,534,1304,1049,986,990,287,228,1382,39,1010,308,1272,511
164,71,1257,1321,44,1008,177,1460,1333,55,89,379,1598
1248,257,1249,1635,134,425,1357,47,1393,1462,1336,283,60,1118
1505,1282,991,390,230,296,265,1644,49,344,154,1468,1247
130,1352,1609,202,78,604,1251,100,996,1642,1260,368,51,1334,506,251,444
1252,1638,422,166,59,80,178,1394,1397,1403,1597,415
321,66,1667,260,1476,528,466,348,1052,1053,286,118,568,1145,378,507,638
67,584,267,1550,1679,1305,541,1117,1444,1061,548,1126,424,1516,1138,1012
1153,1634,1605,69,198,334,1038,1134,83,147,1307,253
1034,652,402,403,1044,406,163,547,1071,451,1479,199,205,1616,1362,358,236,1645,1133,110,240,117
1443,1124,1157,1572,1608,204,1132,1358,111,339,1364,440,1150,1503
1603,1380,185,1159,1546,1131,525,1613,1327,409,122
1280,385,1094,650,1484,589,270,1297,148,608,1569,229,1000,1326,176,564,1270
153,387,421,648,330,1007,1330,435,1365,1593
192,197,1675,1361,1299,341,408,483,1125,554,239,1263,1648,1400,313,1214
256,1313,1221,748,1109,1621,1527,728,701,1183
1601,258,1381,1482,1261,1295,1264,1265,1011,1466
1410,261,1350,1337,426,463,1487,370,1459,1465,1566
1217,1464,1096,1384,1066,300,1036,1677,1615,1457,1553,1555,1560,1215
1218,581,392,1129,1418,1548,303,499,502,1467
1062,1575,684,689,628,500,309,631,1496,1497,596,1309
512,482,521,459,1483,1037,1169,310,1404,1502
384,513,322,1122,356,580,1474,1547,396,1006
1441,1442,1570,324,998,423,1576,489,1033,1005,1040,340,1557,347
1154,1220,388,391,1099,1612,593,1301,1561,606,997,1512,429,1266,1276,1469,1151
