1,130,1443,1157,1609,202,364,78,529,211,441,1150,1503
129,2,133,5,139,1035,141,17,23,280,165,40,41,51,181,316,62,105,1262,1392,113
1152,3,167,71,427,44,80,1333,55,380
4,6,137,28,157,415,160,290,1321,169,46,48,432,63,448,207,209,86,471,1114,231,107,114,121
1477,134,7,11,12,1038,1500,992,481,994,357,38,1128,372,565,60,446
289,550,294,1384,8,300,1036,1519,1615,1457,660,126,156,542
1121,1249,1635,200,10,1258,1397,312,123,1279
492,13,14,431,212,1594,187,190,29,1278
35,360,140,334,15,1394,470,1113,250,221
70,1671,135,16,1042,85,25,27,222,36,166,1640,490,171,307,53,255
225,1319,1160,45,237,145,18,244,503,411
291,325,103,1256,1325,208,336,19,371,61
20,155,285,349,1248,1252,1637,1638,295,1320,235,301,366,1393,178,116,1462,317,1407
1504,34,1411,100,389,1636,1127,1666,1130,203,526,1134,151,24,1405
1601,258,323,26,1381,262,79,1264,1265,1295,184,1466,1275
257,516,136,425,361,283,30,539,1597,1406
256,234,1643,604,271,1298,1554,220,93,1334,444,1661,350,31
32,1409,264,1065,298,50,274,1045,342,376,478
576,193,450,195,523,1486,217,91,158,351,417,418,37,1511,1639,1641,1332,54
1668,1669,646,1607,138,1610,534,1304,1049,986,990,287,228,1382,39,1010,308,1272,511
65,546,1475,261,491,332,47,463,1552,370,1460
1505,1282,991,390,230,296,265,1644,49,344,154,1468,989,1247
159,69,422,297,1642,1459,1336,56,1566,95
68,453,395,401,214,215,152,57,1250,1318,104,233,493,1649,249,319
128,394,1403,276,278,164,168,170,299,172,174,177,59,1472,82,84,87,89,1139,375,379
64,96,1257,74,106,266,115,436,377,1598
321,66,1667,260,1476,528,466,348,1052,1053,286,118,568,1145,378,507,638
67,548,424,584,1513,267,1138,569,603,541
644,645,326,586,77,400,275,1043,597,1303,636
1255,232,393,362,365,251,83,180,404,1659
1677,124,1170,245,182,246,88,373,219,120
98,549,1672,333,302,304,1046,475,94,543
97,194,484,457,1323,397,143,272,1135,189
102,1161,1002,1483,1166,1169,1011,1404,540,254
352,612,536,109,1551,374,662,664,1048,1438
547,163,451,358,1034,236,110,402,1362,406
1124,1572,1608,1132,204,1358,111,339,1364,440
515,1479,199,652,205,1616,530,403,1044,338,996,1260,1133,1645,1071,240,368,117,506
1603,1380,185,1159,648,1546,1131,1327,1330,409,122
355,132,173,1357,367,179,147,279,281,1118
1219,324,1033,144,1040,146,340,1557,347,477,1441,1442,1570,998,423,1063,1576,489,1005
1280,385,1094,650,1484,589,270,1297,148,608,1569,229,1000,1326,176,564,1270
153,387,421,330,525,1613,1007,435,1365,1593
480,162,186,1322,335,410,495,1491,213,314
192,197,1675,1361,1299,341,408,483,1125,554,239,1263,1648,1400,313,1214
577,1154,388,391,593,532,1301,1561,218,606,288,997,1512,1266,1276,1469,1151
384,513,322,1122,356,1474,1547,396,1611,1006
353,1383,1353,1355,1359,1396,439,442,1499,1662
454,1162,1550,1103,1679,1173,1305,1116,1117,1444,1061,1253,1126,1516,1012,1141
1410,517,1350,1095,1337,1487,1329,1395,1465,1307
840,841,842,843,844,845,846,847,848,1290,1291,1427,1428,1452
1379,1478,1518,1137,1013,1143,1463,1339,988,1021
1217,1464,999,1096,1066,1009,1553,1555,1560,1215
1120,1153,1634,1605,1606,1351,1352,1324,1676,1008
1057,1604,1470,1067,1037,1112,1147,1148,1501,1502
