0,1604,1093,510,583,1673,522,1331,1112,381,1470
1,130,3,35,104,78,57,27
96,2,106,432,209,377,58,63
4,69,325,6,231,137,336,81,51,471,121,61,25,415
5,133,40,170,74,365,48,83,84,21,23,157,375
7,425,47,431,1042,379,89,411
289,550,294,1384,8,300,660,126,156,542
1056,449,649,458,9,1458,467,405,22,1398,282
193,417,1057,261,10,428,237,397,1008,1011,565,312,123,60
38,11,45,18,244,1046,152,314
357,71,297,12,44,80,212,380
290,165,105,393,42,13,17,113
992,195,169,492,1325,14,29,1406
128,456,364,16,307,20,28,255
166,136,140,141,142,19,116,87,155
34,389,1034,236,402,24,220,94
1601,258,323,26,1381,262,79,1264,1265,1295,184,1466,1275
394,235,173,367,179,211,59,30
256,234,1643,271,1298,1554,604,93,350,31
418,37,426,523,1037,150,54,91
228,1669,1382,646,39,287,138,1610,308,534,511
160,129,41,1035,107,114,115,372,627,86,62,1278,1663
64,103,266,299,139,174,46,278
416,1408,131,1092,1254,1510,268,461,464,562,52,1399,1306,1115,191
1255,427,178,82,55,187,190,95
448,422,360,361,1262,56,317,316,1661
321,66,1667,260,528,466,118,348,286
67,548,424,584,267,569,603,541
68,1318,233,395,493,401,1649,215,249,319
517,102,73,521,75,305,310,318
97,162,134,143,145,186,189,158
98,1602,549,1127,1674,302,304,475,543
153,387,648,330,409,108,525,1131,1007,1327,1593,1330,185,122,127
547,163,358,1479,1133,110,1645,240,1616,1362,403,117,406
1443,1124,1157,1572,1608,204,1132,1358,111,339,1364,440,1150,1503
257,259,295,301,269,144,272,146,279,281,283,254
608,385,229,650,270,176,148,564
1504,354,995,1670,551,329,1130,526,1647,243,343,151
291,285,1351,1160,1352,1392,181,438,280,1594,539,349,159
207,210,404,180,277,183,248,251
194,200,203,213,216,217,221,222
384,225,322,227,513,580,1480,1547,396,1611,1006,1678,1493,407,1016
1060,1356,1328,242,1363,1274,1660,1596
1320,332,368,337,338,529,470,444
1476,568,1145,378,507,1052,1053,638
1216,488,1609,1067,1068,601,1148,412
1603,1380,421,1159,1546,1613,435,1365
1253,1061,454,1162,1516,1550,1103,1173,1116,1117
512,482,515,484,516,487,490,491,495,503,505,506
1539,1349,905,1390,913,1433,1627,892,1373
929,931,932,933,1316,1454,1685,1207
930,1317,934,935,1227,1293,917,927
960,942,943,944,947,951,954,956,959
939,940,941,945,948,949,952,953
1377,1629,1686,950,1592,955,1628,957
1378,1543,1544,1228,1229,1209,1658,958
1120,1153,1252,1319,1128,1256,1260,989
993,1218,1413,1129,1003,1171,1047,1051
1220,997,1512,1612,1266,1561,1276,1151
1217,999,1096,1066,1036,1009,1170,1215
1123,1095,1161,1483,1261,1134,1140,1213
1152,1249,1257,1258,1321,1139,1113,1118
1248,1121,1250,1357,1135,1393,1336,1279
1125,1675,1263,1648,1361,1299,1400,1214
1376,1538,1348,1224,1225,1226,1374,1375
1411,1329,1522,1395,1302,1404,1405,1439
1475,1477,1511,1491,1460,1333,1462,1500
1664,1666,1636,1640,1641,1672,1394,1403
1635,1637,1638,1671,1598,1642,1552,1566
