0,1604,1093,510,583,1673,522,1331,1112,381,1470
1665,129,2,6,7,393,1035,17,21,278,160,290,295,41,432,58,62,63,209,82,215,216,217,95,351,107,114,377,1278
256,257,128,3,4,259,261,135,255,10,11,266,271,272,16,146,23,24,283,155,34,36,37,38,165,426,299,44,428,302,47,48,304,178,431,51,53,310,55,312,436,314,60,190,319,64,70,75,203,205,80,211,84,85,213,87,89,221,222,94,96,353,98,994,99,100,225,102,1255,106,234,108,235,236,113,1663
1601,258,323,26,1381,262,79,1264,1265,1295,184,1466,1275
1038,404,1556,1307,40,169,170,181,438,183,195,1605,453,325,198,336,83,1492,214,992,375,251,1406
416,1408,131,1092,1254,1510,268,461,464,562,52,1399,1306,1115,191
530,279,412,422,1319,1320,1324,1334,56,1337,1472,1606,1609,337,338,1120,1256,1147,1148,1661
192,65,194,193,197,200,1675,1299,341,408,97,162,1125,177,1400,186,123,1214
321,66,1667,260,1476,528,466,348,1052,1053,286,118,568,1145,378,507,638
1443,1124,1157,1572,1608,204,1132,1358,111,339,1364,440,1150,1503
1603,387,421,648,330,1131,525,1330,435,1593,122
132,166,136,168,171,173,367,147,179,212,220
153,1380,1159,409,1546,1613,1007,1327,1365,185
384,513,322,1122,356,1474,1547,396,1611,1006
1664,1249,1477,549,1353,1261,1298,1011,439,1113,543
1251,1636,1502,521,1037,505,1401,442,540,1566
1248,1121,1602,451,1672,1166,1359,1008,1486,1044,506,477
1411,455,1321,490,1643,1552,1393,1139,1396,1460,1499,1598
480,1440,1250,1065,1257,459,1482,1674,604,1118
481,516,1638,1350,463,1042,1302,503,1462,1500
482,1671,1063,1002,493,1405,1046,474,1501,575
1152,1410,1511,1641,1323,491,1487,1333,475,1404,1279
1057,1635,1637,487,1169,1649,1395,1465,1402,479
546,1640,1322,1134,1394,1459,1397,1142,1336,1403
897,898,1539,901,902,903,1349,905,1225,1226,908,911,913,1373,1657,892,893
960,954,1543,1544,1229,1686,1628,1629,1377,1378,943,944,947,951,1658,956,957,958
961,962,963,964,1633,1210,1294,1434,1564,1630
