0,1604,261,1093,583,510,1673,522,73,1487,1112,1123,1639,305,1331,1465,381,1470,1663
1,130,529,403,406,163,547,441,1479,456,1609,202,78,1616,1362,211,358,364,1133,1645,240,117
257,129,2,4,5,6,133,137,393,13,14,145,17,21,277,23,283,411,29,415,160,290,165,40,425,41,42,432,1460,183,58,190,63,74,81,209,210,86,471,96,121,994,1635,1121,1249,231,105,106,107,237,1008,113,114,115,248,377,123
128,3,132,7,394,139,397,141,143,142,15,19,20,147,279,280,281,28,157,291,168,169,170,1323,427,172,301,46,431,1325,51,181,438,59,61,189,448,194,325,457,334,207,336,208,82,84,87,1113,221,97,355,484,1252,1638,103,365,366,367,1262,1135,1394,1139,371,375,250,1403,1407
449,649,9,458,1485,467,405,22,282,1567,1056,33,1568,1571,224,101,306,1458,1398
516,10,18,152,30,35,164,1320,45,173,177,179,312,57,1468,317,453,200,214,470,89,991,1247,225,1250,104,360,1258,235,1256,244,1397,503,379,1279
1248,481,134,38,11,1357,565,1462,60,446
1477,357,12,349,116,372,1336,285,316,989
1671,1322,335,16,307,1491,25,314,27,255
1664,389,70,1672,333,1042,1046,24,220,94,222,161,1334,247,444,188,1405
1601,258,323,262,79,463,1295,26,1566,1381,1264,1265,370,1459,184,1466,1275
256,271,1554,1298,1299,604,93,350,31,1125,234,1643,1648,1400,313,1214
1409,264,395,401,274,1045,410,32,162,1318,298,50,186,319,68,1355,213,215,478,480,1383,233,493,1649,376,249,1662
353,34,1411,100,1666,166,1640,203,1134,1359,1396,342,439,442,1499
1636,36,135,1065,490,171,1353,495,85,53
576,418,1634,37,1351,1641,523,1676,1486,1332,54,91,351
1668,1669,646,1607,138,1610,534,1304,1049,986,990,287,228,1382,39,1010,308,1272,511
65,1475,422,1606,43,491,269,150,1142,187,1278
992,167,71,1319,140,44,178,55,155,1597
1605,136,297,332,1324,1038,47,80,212,380
1472,1255,232,362,48,1392,83,180,404,251
1505,1282,390,230,296,265,1644,49,344,154
416,1408,131,1092,1510,268,461,562,52,191
159,69,1352,361,1035,492,56,1594,539,95
768,1345,769,772,773,1241,776,777,1288,757,761,759,1240,1529,1242,764,765,767
770,1190,774,778,1421,1682,758,760,762,763
771,775,1449,779,780,781,755,1239,1562,766
1186,1420,782,783,784,751,752,753,754,1530
1187,1188,1189,1222,1191,1389,756,1622,1110,1083
64,266,299,174,276,436,278,1114,1659,1406
321,66,1667,260,1476,528,466,348,1052,1053,286,118,568,1145,378,507,638
454,1162,1103,1679,1173,1305,1116,1117,1061,1253,1513,1516,1138,1012,1141,569
608,487,72,1482,459,557,1261,1326,310,505
1057,546,198,426,75,496,1329,1552,253,318
419,196,1060,292,363,76,206,241,1363,1660
550,1464,1036,1677,300,1519,1615,1457,1553,660,182,246,88,219
1120,90,455,359,1642,108,428,1402,92,479
98,1602,549,1127,1674,587,302,304,1490,475,543
1665,99,259,517,331,175,1302,1213,216,1501,445
352,612,536,109,1551,597,662,664,1048,1438
451,996,1572,1608,204,236,110,1358,402,339,440,506
1443,1124,1157,1034,1132,1071,111,1364,1150,1503
1218,1548,1549,1360,1171,595,1366,1047,345,1051,223,993,226,614,1129,1003,238,1273
1217,999,1096,1384,1066,1009,1555,1560,120,1215
995,330,1131,1613,1647,1330,243,151,1593,122
1219,324,1033,144,1040,146,340,1557,347,477,1441,1442,1570,998,423,1063,1576,489,1005
544,1059,1001,1097,1515,1168,1296,149,987,1565
1504,153,387,1380,421,1159,648,1546,525,1007,1327,435,409
193,450,417,1637,295,1511,272,217,158,1118
354,1603,1670,551,329,1130,526,1365,343,185
192,483,197,554,1675,239,1263,1361,341,408
1410,195,1350,1095,1354,1395,1140,1492,1556,1307
515,199,1481,652,205,1356,338,530,1044,1260,368,1328,242,1274,1596,1661
1281,386,1413,582,392,1418,303,399,1467,1495,1277,1271,284,311
1574,1064,653,398,1650,691,309,693,631,1309,382,639
384,513,322,1122,356,580,1474,1547,396,1006
1312,1062,684,1517,465,659,596,1079,1496,1054
1379,1478,1518,400,1137,1043,1143,1463,1339,1303,1021
1440,1251,1254,464,1461,1335,1401,1306,1115,1399
1569,482,1094,1000,1002,1166,1169,1011,1270,1404
640,1632,1509,1146,1514,1163,1419,533,1338,1631
1184,705,1314,1082,1526,696,697,1080,1371,700
1152,1153,1128,1257,1160,1321,1393,1333,1500,1598
