0,1604,1093,510,583,1673,522,1331,1112,381,1470
1,130,453,456,1609,202,1034,338,211,530,161,1256,368,441,506,188
1472,355,3,132,1252,427,367,147,279,281
96,4,137,170,1325,174,208,1392,436,278,280,157
5,6,105,492,46,48,113,336,276,23,1114
135,200,10,397,213,410,480,162,36,484,490,1322,1323,1135,53,312,186,1407
65,193,1475,11,12,1552,158,417,546,357,38,1511,1642,491,372,565
992,1634,994,168,362,13,14,365,27,190,29,1406
261,136,142,15,19,25,155,285,301,51,56,1594,316,317,195,1353,470,1499,220,1639,104,361,366,1396,250
515,1477,1447,236,1324,207,16,989,1556,1661
334,145,18,1113,411,221,30,225,1121,1258,172,45,237,244,1397,503,123,1279
422,1319,1320,141,1038,431,20,57,446,95
1666,1411,389,70,1672,203,333,1042,1046,24,94,222,34,100,1636,1134,1405
350,1125,234,1643,1675,239,1361,1298,1299,1554,341,93,1214,31
448,231,40,74,173,404,214,87,438,1659
164,1257,59,44,177,1394,1139,379,1333,89,1403,1598
257,134,143,283,425,47,1462,1336,60,189,194,457,1357,1118,1248,1249,97,1635,1638,1393
416,1408,131,1092,1254,1510,268,461,464,562,52,1399,1306,1115,191
450,1637,295,1641,523,1486,272,1332,54,217,351
1152,71,167,297,1321,332,80,1008,1460,55,380
64,128,133,360,169,106,266,1262,371,180,181,86,471,277,183
321,66,1667,260,1476,528,466,348,1052,1053,286,118,568,1145,378,507,638
67,584,267,1550,1679,1305,541,1117,1444,1253,548,1061,424,1516,1138,1012
68,1318,233,395,493,401,1649,215,249,319
1057,1123,102,73,1161,75,305,1147,540,1501,127
353,451,1352,1261,110,78,342,1334,505,442,251,444
1250,166,1671,1640,171,335,495,307,1491,85,152,314
1602,196,199,1481,1674,1356,1363,1044,543,1660,98,292,1060,1127,302,304,1328,1274,1596
1443,1124,1157,1572,1608,204,1132,1358,111,339,1364,440,1150,1503
547,163,358,1479,1133,1645,240,1616,1362,403,117,406
153,1380,648,1546,1131,525,1593,1330,409,122
1154,1220,1099,1612,1301,1561,218,1469,997,615,616,1512,429,1266,1276,125,1151
1603,387,421,1159,330,1613,1007,1327,435,1365,185
192,256,483,197,408,554,271,1263,1648,1400,313,604
711,1128,1067,557,337,212,695,601,1148,1566
1410,517,1350,1095,426,1329,1395,1140,216,318
640,545,1058,1514,1419,1039,533,501,1559,252,637,1311
512,482,521,459,1483,1037,1169,310,1404,1502
1089,1090,1031,1244,889,1453,883,884,885,886,887,1656,888,890,1205,1206
