0,517,1161,522,1673,540,1329,1331,318,1470,1604,1093,583,1095,216,1112,102,1395,1140,381,510
65,259,1639,136,13,237,496,1492,1142,1335,342,159
1057,1219,453,104,456,299,271,18,338,1396,1302,221,442,349,189,1663
768,769,770,771,772,773,774,775,776,777,778,779,780,1288,782,781,784,529,1682,783,1420,1421,1529,1530,1562,674,1186,1187,1188,1189,1063,1190,1191,1449,1083,1345,1222,457,203,1110,1239,1622,1240,1241,1242,1123,1389,751,752,753,754,755,756,757,758,759,760,761,762,763,764,765,766,767
130,1251,100,996,1352,1609,1642,202,1260,78,368,506,51,1334,444,251,604
481,357,38,7,1128,1477,1606,11,12,431,212,372,565,1500,446
8,1036,1677,1553,1555,1560,289,550,1066,300,1457,1464,1215,1217,1096,1615,88,999,1384,1519,1009,120,124,126
1568,101,9,458,649,1002,306,467,1458,405,22,1398,254
70,135,200,10,1042,85,213,410,222,480,162,36,1640,1322,171,490,53,312,186
1353,332,207,16,530,1298,1113,411,220,30,161,34,225,1636,1324,307,247,316
1152,141,1552,145,20,281,155,1319,1320,301,317,455,1499,95,491,1643,366,1139,250,1279
1602,389,1672,1674,333,1046,24,475,94,543,98,549,1127,302,304,1405
1664,1250,1671,1258,75,143,470,1401,90,25,31
258,262,1295,26,557,184,1466,1601,323,72,1482,79,1381,487,1261,1264,1265,1011,505,1275
32,1409,478,1383,264,298,1355,50,274,1045,376,1662
224,33,1056,1571,449,1439,1485,1166,282,1567
576,193,450,523,1486,217,91,158,351,417,418,37,1511,1641,1332,54
1668,1669,646,1607,138,1610,534,1304,1049,986,990,287,228,1382,39,1010,308,1272,511
394,140,279,415,422,166,42,178,179,57,59,1597,80,92,1252,1638,235,1394,116,1397,375,1403
395,269,397,272,401,150,1318,295,43,428,1323,1461,319,68,215,479,484,1637,233,108,493,1135,1649,249,1402,1407
164,71,1257,1321,44,1008,177,1460,1333,55,89,379,1598
1248,257,1249,1635,134,425,1357,47,1393,1462,1336,283,60,1118
1505,1282,991,390,230,296,265,1644,49,344,154,1468,1247
416,1408,131,1092,1254,1510,268,461,464,562,52,1399,1306,1115,191
321,66,1667,260,1476,528,466,348,1052,1053,286,118,568,1145,378,507,638
67,584,267,1550,1679,1305,541,1117,1444,1061,548,1126,424,1516,1138,1012
1153,1634,1605,69,198,334,1038,1134,83,147,1307,253
1440,1472,194,99,1351,488,73,331,1676,495,989,93,1147,1661
196,1481,1356,76,206,1363,1596,419,1060,292,363,1328,241,242,1274,1660
1551,1043,1303,1048,1438,1463,1338,1339,452,1478,77,1106,474,988,1379,1518,1137,374,1143,1146,1021
1666,515,1359,335,1554,1556,477,350,97,353,1121,1065,234,175,305,439,187,445,127
1034,652,402,403,1044,406,163,547,1071,451,1479,199,205,1616,1362,358,236,1133,110,1645,240,117
1443,1124,1157,1572,1608,204,1132,1358,111,339,1364,440,1150,1503
1603,1380,185,1159,1546,1131,525,1613,1327,409,122
1475,1447,711,1067,1614,144,337,146,1491,1213,695,601,1148,1501,702
544,1059,1001,1097,587,1515,1168,1296,1490,149,987,1565
1504,354,995,1670,551,329,1130,526,1647,243,343,151
153,387,421,648,330,1007,1330,435,1365,1593
192,197,1675,1361,1299,341,408,483,1125,554,239,1263,1648,1400,313,1214
640,1058,1514,1163,1419,1578,1300,501,535,252,669,607
1185,1314,1582,696,697,699,700,1344,705,722,1238,1371,733,737,738,742,743,745,1385,749,1651,1526
256,1313,1221,748,1621,1109,1527,728,701,1183
1410,261,1350,1337,426,463,1487,370,1459,1465,1566
1218,581,392,1129,1418,1548,303,499,502,1467
1062,1575,684,689,628,500,309,631,1496,1497,596,1309
512,482,521,459,1483,1037,1169,310,1404,1502
384,513,322,1122,356,580,1474,1547,396,1006
1441,1442,1570,324,998,423,1576,489,1033,1005,1040,340,1557,347
1473,1156,1574,519,328,1386,527,656,369,1521,1525
1283,1412,653,398,465,1312,675,552,685,1520,1650,691,1267,1079,382,383
1281,386,1413,1549,399,1171,1047,1498,1051,993,1269,567,1273,1271,572,1277
1154,1220,388,391,1099,1612,593,1301,1561,606,997,1512,429,1266,1276,1469,1151
514,1285,1680,666,1050,1054,1055,1310,1064,682,1073,434,563,690,693,469,1494,1369,605,618,1646,498,1268,634,1017,1018,1019,639
