0,1470,510
1,1661
2,106
3,427
169,4
40,5,183
81,6
1336,7
8,1215
9,449,1398
200,10,312
11,565,38
372,12,357
13,190
29,14
1250,15
16,27
17,211,174
225,18
19,116
20,214
21,133
33,22
210,23
24,1046
25,188
26,1295
28,61
1258,1397,30
1643,31
32,1383
34,100,1134
35,470
36,53
576,37
1382,39
41,107
105,42,1665
1257,44
45,1279
181,46
134,47
48,157,207
344,49
1409,50
51,141
1408,52
54,1486
1321,55,71
56,1460
104,57
96,58
59,1403
62,129,1262
377,63
64,266
65,1642
466,66
68,1318
1594,69
70,1042,222
73,1123,305
74,180
1057,75,1501
196,76
77,1478
130,78
1264,79
80,380
170,82
83,84,365
1322,85
160,86
142,87
88,1519
89,379
1401,90
418,91
1251,92,455
1298,93
1405,94,389
1352,95,159
97,457
98,475,1674
1571,101
1161,540,102
291,103
108,269
1034,110
1608,111
112,1154
113,325
114,290
432,209,115
1616,117
528,568,118
1003,119
120,1066
121,137
153,122,1593
123,411
124,1036
125,1151
1457,126
1385,127
128,299
131,1092
355,132
490,135
138,1610
139,316
140,1319
1638,143
144,146,477
145,237,1121
147,367
148,270
1490,149
151,343
152,166
178,155
1009,156
158,1511
360,161
162,186,213
177,164
165,1038
1152,167
168,394
171,247
1113,172
179,317,173
176,1326
300,182
185,1380
187,212
194,189
416,191,1399
192,197
193,417
195,1492,1597
496,453,198
1044,199
441,202
1666,203
652,205
1481,206
208,366
249,215
216,1140
217,1641
218,1301
220,444,1334
221,334
1467,223
224,1567
227,1678
986,228
229,1094
1505,230,991
336,231
232,393
233,395
234,271
235,301
236,1071
1125,239
240,1645
241,1060
1328,242
243,1647
244,503
1170,245
248,277
251,404
252,1559,1631
253,349
254,1439
364,255
256,604
1601,258,1275
1667,260
601,261
323,262
1129,263
265,1644
1138,267
268,1254
272,1637,295
274,1662
276,1663
436,278
281,279
280,438
1320,285
1052,286
990,287
288,615
289,1555
292,1596
1553,294
296,1282
297,332
304,302
1004,303
306,1485
307,335
1010,308
482,1404,310
313,1263
314,1491
1395,517,318
1649,319
320,1471
321,638
513,322
553,327
328,1069
329,1670
331,1302
1672,333
337,1067,1148
338,1260
339,1572
1040,340
1299,341
342,1359
347,1557
1476,348
1554,350
1332,351
352,1048
353,1499,1065
1504,354
1547,356
358,1479
1440,359
361,1324
368,1639
371,1325
373,1615
374,1303
1659,375
376,1355
1145,378
1673,381
384,580
1280,385,1270
386,1269
387,1613
388,1276
390,1247
1099,391
1474,396
1323,397
1218,399
401,493
403,1133
1362,406
408,1675
409,1603
480,410
413,1078
415,471
1363,419
1330,421
422,1606
489,423
424,1444
426,1350
430,1006
1410,431
433,1524
435,1159
1396,439
440,1364
1353,442
1273,443
445,1213
1477,446
448,1153
450,523
1162,1141,454
456,627
1169,459
462,1446
1566,463
1458,467
1507,469,1523
473,1338
474,1146
1045,478
1402,479
481,1500
1361,483
484,1135,1407
491,1475
992,994,492
678,494
495,1671
497,1122
498,1054
499,1277
500,1517
1163,501
505,1261
506,530
507,1053
1669,646,511
512,1502
515,516
521,1037
522,1604
1595,524,1573
1131,525
1130,526
1164,533
1668,534
541,1103
1560,542
1602,543
544,1059
545,1039
548,1126
549,1127
1217,550
552,1285
554,1214
1482,557
585,1300,559
579,572
1106,575
581,1495
582,1271
1093,583
584,1173
586,597
587,1515
593,1220
595,1548
1578,607
608,1297
609,1101
610,1062
1073,611
614,1047
616,1561
619,1493
626,1487
628,684
1488,633
634,1599
636,1438
644,1021,662
988,645
1000,650
691,653,693
689,659
660,1677
664,1339
665,1156
1419,669
1522,676
1149,677
683,1230
695,711
704,735
706,717
707,727
1313,709
714,750
721,1235,1108
730,1619
739,741
1234,742
745,1109
781,774
786,1084
1024,788
790,1423
1584,793,797
795,1223
801,807
1534,815
1425,820
833,1586,1027
1536,838
859,1429
886,1031
1224,893
896,1225
897,1657
898,1349,1390
905,900
902,1375
909,903
1226,1374,906
1376,908,910
913,1433
930,915
916,933
1317,917
937,938,925
927,934,935
929,931
936,932
952,949
1377,943
944,1686
977,1687
976,1545
978,980
946,1245
979,1246
960,947
954,951
956,1628
1629,958
970,1435
987,1565
1008,996,989
1576,998
1384,999
1002,1166
1442,1005
1007,1327
1513,1012
1030,1655
1033,1570
1035,1278
1049,1607
1305,1061
1219,1063
1216,1068
1329,1095
1611,1102
1112,1331
1114,1406
1306,1115
1117,1550
1118,1462
1120,1552
1124,1358
1443,1132
1137,1379
1394,1139
1142,1335
1518,1143
1144,1514
1248,1147
1150,1503
1168,1296
1342,1183
1449,1190
1316,1207
1227,1293
1229,1543
1249,1635
1256,1252
1265,1381
1274,1660
1307,1556
1333,1598
1393,1357
1546,1365
1392,1465,1472
1400,1648
1411,1636
1516,1679
1634,1676,1605
1640,1664
