0,1604,1093,510,583,1673,522,1331,1112,381,1470
1,3,4,6,7,10,11,13,15,17,19,21,23,36,37,38,43,44,47,48,51,53,54,55,59,60,61,64,68,69,71,73,74,78,80,81,82,84,85,87,89,90,91,92,93,95,99,105,108,110,113,627,116,1665,130,135,140,155,178,190,205,211,213,215,216,217,221,222,225,233,234,235,236,250,256,257,259,261,266,269,271,272,278,283,290,295,299,307,312,314,318,319,342,351,353,357,359,370,372,393,426,428,431,436,456
96,2,165,42,106,1035,432,377,58,63
992,325,5,133,40,1605,1038,210,180,404,1556,183,1307,157
289,550,294,1384,8,300,1036,1519,1615,660,182,1464,156,542
449,649,9,458,1485,467,405,22,282,1567,1056,33,1568,1571,224,101,306,1458,1398
65,164,167,12,143,145,177,1361,123,189
1282,390,265,14,208,344,154,29,991,1247,1505,230,296,1644,49,187,1468
128,35,255,364,16,20,25,27,57,1663
1670,329,526,18,150,343,151,152,30,1504,354,995,551,1130,45,1647,243
98,100,70,203,302,304,94,24,1278,350
1601,258,418,323,1381,262,26,79,1264,1265,1295,184,1466,1275
453,169,170,496,188,181,214,438,28,1406
547,163,358,1479,1133,1645,240,1616,1362,403,117,406,31
1409,264,1355,395,397,401,274,1045,410,478,32,417,1383,298,50,376,1662
34,994,102,72,75,144,146,310,254,127
1668,1669,646,1607,138,1610,534,1304,1049,986,990,287,228,1382,39,1010,308,1272,511
160,129,1255,41,107,209,114,115,86,62
207,276,277,1114,674,232,362,492,1325,174,46,366,371,248,1594,1659
1408,131,132,1092,136,268,461,464,416,1254,1510,173,562,179,52,1399,191
355,1319,360,361,301,1262,279,56,281,317
321,66,1667,260,1476,528,466,348,1052,1053,286,118,568,1145,378,507,638
454,1162,1103,1679,1173,1305,1116,1117,1444,1061,1253,1126,1513,1516,1138,1141
196,1481,1356,76,206,1363,220,1596,419,1060,292,363,1328,241,242,1274,1660
352,636,420,612,109,77,597,374,1048,988
195,198,231,1354,365,336,83,1492,375,251
124,1553,1170,245,246,373,88,219,120,126
291,103,137,139,141,1392,471,280,121,415
448,161,104,202,1676,142,441,539,285,159
1443,1124,1157,1572,1608,204,1132,1358,111,402,339,1364,440,1150,1503
1603,1380,1546,1131,1613,1327,1330,1365,1593,122
193,162,1125,134,199,200,175,1299,186,158
168,425,367,147,212,379,411,1306,1115,380
544,1059,389,1001,1097,587,1515,1168,1296,1490,149,987,1565
387,185,421,166,1159,648,330,171,409,525,1007,435,153
194,483,554,1675,172,239,1263,1648,1400,1214
1281,386,1413,263,392,1549,303,399,1366,567,1498,284
644,645,326,536,586,1551,400,275,1043,662,664,1021
320,1573,293,327,524,333,334,335,556,1136,1617,1595,1471
515,488,1068,337,305,529,530,601,444,412
1575,1064,684,685,398,1073,659,596,309,382,383
579,581,582,345,1418,595,311,1273,443,572
1474,1122,1480,1547,1611,430,1006,1678,497,315
1441,1442,1570,324,998,423,1576,489,1033,1005,1040,340,1557,347
611,1062,689,465,691,628,437,693,631,1079,1309
1635,517,455,490,493,439,1113,442,540,445
512,1152,516,521,457,459,1487,1439,481,546,482,1321,491,1643,565,503,1404,1405,446
480,576,450,484,1257,523,463,495,1598,479
451,996,1482,1483,1486,1459,1461,1499,1501,1502
549,487,652,557,1298,505,506,475,604,543
477,1057,1095,1065,1134,1614,1042,1140,1142,1213
1127,1161,1034,1261,494,1071,1011,1044,1046,1338
770,1187,1188,1222,778,1421,758,760,762,1083,763
1345,774,775,776,777,1190,1449,781,755,1239,1529,1530,766,767
768,769,772,773,1288,779,780,1389,782,783,784,1622,765
1186,771,751,752,753,754,756,757,759,761
1189,1191,1420,1682,1562,1110,1240,1241,1242,764
1120,1123,1256,1609,1128,1067,1260,1147,1148,989
1217,999,1096,1066,1677,1009,1457,1555,1560,1215
1440,1318,1322,1008,1332,1460,1302,1335,1401,1402
1379,1478,1518,1137,1013,1143,1463,1339,1303,1438
1664,1602,1666,1636,1477,1671,1672,1674,1554,1118
1248,1121,1250,1251,1475,1511,1135,1465,1500,1279
1323,1357,1393,1394,1139,1333,1397,1336,1403,1407
1472,1153,1252,1606,1320,1385,1324,1334,1337,1661
1249,1637,1638,1640,1641,1642,1552,1649,1462,1566
1410,1411,1350,1353,1258,1359,1329,1395,1396,1491
