0,1,2,4,5,6,8,1035,13,14,530,21,23,26,28,29,546,35,39,44,45,46,50,51,54,56,57,58,59,61,62,64,69,74,81,82,83,84,86,87,96,100,106,108,1137,114,115,121,1659,125,128,132,160,165,169,174,179,180,181,183,186,188,190,198,205,207,208,209,212,215,216,217,220,1252,230,231,248,255,266,276,277,278,795,290,291,1336,329,361,364,365,377,401,417,422,423,424,446,992,994,495,496
1409,1282,3,259,262,7,1546,141,142,16,19,20,27,164,176,49,178,55,192,71,200,79,80,85,214,92,93,95,225,1636,103,104,105,235,1135,1009,250,253
258,9,395,11,12,139,15,18,1428,789,1565,159,1439,40,1464,1593,193,66,587,1355,1616,339,90,91,477,102,118,1661,1662
1161,10,143,147,1046,24,1057,1574,1447,1094,1350,204,342,987,98,358,487,489,246,122,124,1150
545,420,550,1382,1096,684,1550,559,822,348
135,1673,138,148,149,151,25,282,155,156,158,162,163,36,171,1583,177,52,195,70,199,203,206,851,986,1254,1389,1012,1143,1272
608,418,427,492,1139,470,503,1402,1500,317
1157,267,271,1305,287,1443,1059,292,306,1334,568,1613,1117,1125,1127,234,493,1261,239,510
1667,1384,457,1065,511,1008,1300,440,1274,1275,31,126,319
32,65,1569,419,996,1381,1639,330,524,1647,145,1330,1490,373,381
256,33,1154,1505,646,1126,1644,528,475,1660,286,351
97,34,676,616,236,1297,1522,439,152,1247
99,37,1578,237,1422,1264,689,243,308,1653
1475,584,1612,333,1040,1361,989,1053,483,1060,677,678,1575,41,1265,307,1523,191
1346,1284,1509,773,772,811,780,655,783,790,150,536,794
653,1047,1303,665,1311,293,816,1478,469,597,856,1502,223,352,224,739,619,620,111,623
1056,1216,1218,1251,1414,1611,1549,1105,628,725,374,1048,1562,443,701
579,324,1222,1446,459,1039,1168,687,1618,1107,1108,1109,561,627,1177
227,1124,1637,201,1129,1514,251,500,1496,507,508
1217,993,1480,1642,1003,1648,435,1273,1021,1215
167,170,140,48,1363,116,89,1499,221,991
320,1670,583,1295,210,660,407,1306,611,1643,1645,1263,53,1399,1277,1471
450,390,1486,1423,1364,213,343,88,157,94,289,1001,305,312,123,60
1088,67,548,1445,504,682,1484,782,1266,690,693,408,603
288,1313,704,577,833,1061,1285,458,1180,1534
1444,1572,742,521,399,335,721,146,662,1623,1018,797,990
1669,669,1194,1259,1004,1006,1199,1328,252,1172,1144,1337,346,732,573,703
416,387,68,838,1000,1672,76,1356,272,1010,341
385,482,517,1383,1576,615,622,1457,1106,606
1221,134,807,73,75,1518,1329,1595,636,318
1412,1034,523,1675,529,284,1052,1062,309,567,189,451,202,332,77,1615,466,1122,498,638
1280,641,1413,136,652,402,1200,817,315,580,78,465,1494,614,631,1133,629,119,378,1149
153,1093,357,101,586,1678,1299,467,505,1049
512,449,197,618,1036,748,1554,1302,182,185
1253,1257,1485,112,117,1142,1365,120,1118,1183
516,133,1609,781,173,1394,405,280,441,1114
1570,1476,549,582,645,837,1095,554,1481,1668,154,350
1024,257,509,260,1159,1289,1162,1163,1164,1421,270,274,787,1555,279,281,1054,166,1192,695,828,1213,706,1099,218,1116,733,222,1631,1632,229,240,241,242,1013,245,247,249,1276,637,254
1408,1153,803,453,328,394,428,400,1466,540
1190,774,1286,362,1068,735,1587,723,1304,858,1372,1469,1182,1343
864,865,866,452,1513,1101,786,1683,692,1429,1588,468,184,569,370,859,857
769,1415,1160,632,813,1102,1104,1489,562,1520,754,437,1110,1014,696,1654,539,413
710,1288,714,845,1680,1430,473,827,860,861
1347,867,486,745,1069,734,494,1557,862,863
1603,261,393,233,268,1132,1262,1138,1492,375
1120,481,301,336,1392,436,438,471,410,1598
834,263,296,1482,462,1327,564,1270,344,1597,479
1474,522,490,269,432,1113,314,1403,445,415
1219,327,1359,1553,1561,347,294,295,297,298,555,300,557,302,698,1338,1339,575
321,674,1380,356,331,844,304,1552,1141,1501
1248,1250,1123,1411,1319,1487,310,1495,1465,1115
485,454,455,1033,749,719,337,1459,1401,316
322,421,359,456,1256,334,1396,1462,506,604
1536,1121,323,355,1607,1322,491,340,376,442
480,1666,484,1477,1320,425,397,1134,338,535
448,354,360,1325,1038,431,1491,664,409,478
640,1472,1602,801,1249,525,526,1393,372,565
1379,1352,1353,1640,1324,1357,1260,1332,1405,1470
1601,426,461,379,820,1333,1460,1112,411,543
1504,389,1002,1515,497,1362,1331,501,1497,444
1664,1092,998,1479,1037,1326,1007,1011,406,1146
1440,1410,1318,1351,1255,1321,1458,499,1397,1307
1152,1638,1511,1258,1169,1042,1395,1045,534,1145
1184,997,999,1005,1358,1617,1173,1151,1214,607
995,1604,1671,650,1610,1170,1044,1493,1596,1663
1223,1128,1063,1136,1140,1335,1278,1467,1148,1566
1441,1449,1067,1676,1296,1425,1298,1424,1488,1438
1473,1442,1279,1131,1323,1419,1594,1147,1404,1407
