1,2,3,4,5,515,8,10,11,1035,13,14,15,16,17,18,19,20,21,23,25,26,29,30,31,32,35,1060,38,40,41,44,45,46,47,48,51,54,55,58,61,62,63,64,65,68,69,71,73,74,75,76,77,80,81,84,85,86,87,88,89,91,92,96,99,100,106,107,113,114,115,116,627,121,123,124,125,128,129,130,131,132,134,135,138,139,140,141,147,152,153,155,160,165,1192,170,177,180,182,183,190,196,199,200,203,206,209,211,214,1253,1255,232,1256,248,1275,255,262,263,266,268,269,272,274,787,278,279,281,282,795,290,291,297,298,299,300,1325,302,307,308,309,312,313,317,319,322,329,354,355,364,374,375,377,379,380,381,385,387,389,390,397,406,411,412,417,421,424,426,428,432,440,441,442,444,1472,450,456,457,475,478,479,992,994
1152,608,1411,1638,455,1223,360,427,142,431,207,401,367,1460
1120,1634,6,231,1319,361,490,1392,1403,371,1397,1336,57,59,1500,446
1121,546,7,301,1394,530,56,220,1597,1470,95
1410,1033,521,525,1552,1044,415,418,296,1449,1322,1483,1491,477,1502,1501,484,1134,495,1518,1402,1404
611,1476,1061,1095,9,1002,649,1194,1611,1519,1458,1173,1339,1567
777,1290,1548,652,1041,1426,1174,790,1048,1054,800,1199,303,815,825,708,840,841,843,845,846,847,1104,1105,1110,1366,1369,1371,613,741,1520,1530,639
12,1037,143,276,277,405,280,1052,28,157,158,34,36,1573,293,39,167,168,1067,171,173,179,52,565,181,436,439,60,318,832,193,1093,197,453,1101,334,335,337,1113,221,222,1248,97,1122,1123,1250,102,104,105,108,1262,1138,1139,1140,250,1406
647,782,1043,1427,665,1562,1563,1180,804,1195,1068,1072,561,1584,189,573,577,842,715,1108,615
640,769,265,1289,1291,1166,783,1428,151,154,1308,798,159,1660,33,289,416,164,294,807,1452,823,1337,186,191,192,66,195,70,328,1609,1354,330,331,332,333,79,848,844,458,1112,344,345,986,987,989,1118,350,98,995,228,101,1509,1127,359,1257,1384,1131,1260,1261,999,1000,1264,1265,1007,1010,1011,1270,1147,1148,1150
1153,1441,1258,1676,463,176,400,50,1487,22,1145,445
646,1159,648,1162,527,1425,532,24,541,286,163,820,187,321,582,1616,1361,1623,1506,243,252,510
1313,1507,1572,742,391,1675,1678,1040,1021,1364,662,507,1276,1309,1311
1219,1220,1667,1094,1351,341,470,217,1183,803,1059,37,358,1379,557,559,117
264,657,273,536,794,1051,681,682,1196,1073,1468,1341,572,326,1099,1621,1494,1498,745,110,494,753,370,498,628,1015,119,251
1536,514,1124,837,1673,489,1421,462,430,633
773,1418,659,538,816,690,691,311,1080,315,702,838,1231,1496,219,1632,612,1653,631
653,1555,1047,1055,1074,1346,581,78,593,469,598,600,1016,603,610,739,238,500,1014,1528,1017
1444,996,1574,487,292,1065,1447,1254,524,689,305,53,1464
352,1668,677,645,1382,988,1071,239,1523,1303,378,348
1571,67,1126,583,616,1511,1006,1136,369,660,1595,127
256,718,1554,1490,83,1305,156,1636,1128,1001,236,1327,304,1647,240,822,1399,249,508
323,1320,1130,1644,1649,1395,564,1396,93,376,1405,543
1024,1161,1547,1551,1168,1170,788,1560,1561,539,669,1575,811,683,1581,1198,443,704,451,1475,454,1480,1096,459,1106,1365,1116,111,1652,1524,1018
1670,392,1164,399,1553,408,540,1184,545,1057,676,678,1446,576,1221,1358,1359,466,997,1129,1263,1648,1009,1522,1266,118,246,1277,1151
480,1027,1508,1445,420,327,555,1103,656,497,1586,1521,1141,1493,793,637,703
1156,519,1160,1549,1550,1039,275,553,698,1343,320,833,1471,1478,728,120,750,622,632
614,122,552,1439,684,204,1613,1615,185,1274,1149,126,1310
481,166,393,362,205,365,208,496,1300,1492,506,1115
384,388,1157,1285,1669,267,780,1677,402,403,1172,1304,537,284,1056,547,693,184,829,701,1216,449,1218,834,1600,1485,596,726,1495,1117,990,1247,607,223,1637,1125,618,619,1133,1137,1269,502,1143,1273
224,257,517,422,998,1383,1576,237,1135,148,310,604,1215
513,1281,775,650,1034,396,1679,1171,150,1053,287,1058,429,1214,1217,584,201,1356,461,465,595,216,346,1503,993,226,1251,234,1003,1004,1516,1012,638
1665,516,781,270,1038,1298,404,1301,409,410,1307,295,425,169,172,1326,438,188,1213,1598,194,1603,1605,1484,336,471,1114,347,483,1641,491,235,1005,1132,1659
258,259,260,261,271,419,435,324,1481,1363,597,1252,229,230,233,1642,1008,241,242,247,253,1661,254
288,1280,482,485,554,1488,721,1556,373,1146,283,797,1469
1671,1299,1045,1046,1049,1565,1593,1474,464,339,340,342,343,349,606,351,353,356,1515,1643,368,372,1272
1282,1413,1672,1546,1674,1422,1296,1297,1306,1442,1578,1663,1328,1457,1330,1331,1334,1594,1338,1473,1604,1477,1606,1608,1612,1486,1362,1497,1504,1505,1380,1639,1512,1514,1645,1398,1400,1534,1407
1408,1664,1666,1302,1566,1438,1318,1321,1333,1462,1465,1466,1467,1601,1602,1607,1499,1393,1279
1635,1479,1640,1610,1419,1324,1662,1355,1423,1295,1329,1482,1459,1596,1278
