257,769,259,134,777,1290,1291,1548,142,1041,1427,1428,1563,1452,1663,1584,1457,186,840,841,842,715,843,844,206,845,846,847,848,85,1366,1369,1371,92,93,94,613,1530,639
1667,1220,8,331,1483,467,1438,545,1570,100,102,1254,1383,1511,1010,1331,373,189
484,70,9,457,1615,466,1042,212,1458,151,380,350
420,229,1192,1513,11,1547,1561,569,1301,1273,219,125
323,131,455,1352,327,1546,1296,660,149,342,24,88,480,353,1257,302,1404
66,1219,519,459,339,90,1565,1248,99,36,37,101,1380,1000,1648,1265,52,1400
97,163,387,228,357,803,296,1381,1636,1643,237,49,1012,53,1662
704,1413,1669,391,615,203,332,508,238,55,567,218,1276
1059,584,1515,1133,77,1645,112,1040,403,532,118,185,604,351
324,136,1608,1034,458,78,1358,1679,662,1052,607,227,1637,1642,236,242,1337,378
1670,487,1480,1481,1578,1675,1164,91,494,399,559,1327,187
198,231,169,299,428,205,1038,113,1462,280,410,1659,1406
611,287,1477,646,1138,501,1046,440,1305,122,1502,1247
1153,1665,515,137,405,1307,795,285,291,173,1325,441,448,1603,456,200,1354,336,1492,214,471,490,370,244,1403
1475,1092,197,998,1063,1350,1037,143,148,1556,791,1272
1096,1161,1673,1106,1107,150,153,155,1117,990,1251,553,1006,561,497,1464,443,1149,1215
576,1509,1574,294,645,1194,171,622,176,464,721,275,156,412,1183
1152,1482,781,664,216,992,1120,1634,995,230,1319,1255,1639,1641,427,1262,1392,181,376
1093,1094,523,1613,1049,987,1057,482,1447,305,1011,182,249,1146,1660,1278
1674,268,271,1170,669,292,298,304,1328,188,192,195,196,1362,1363,1501,358,748,1007,241
417,1571,1444,1476,550,1672,1129,1295,210,505,1053
1411,260,261,516,389,1033,525,409,283,1566,415,425,426,1067,431,1333,438,312,314,334,337,338,1495,217,730,475,347,478,479,481,359,360,491,1005,366,368,499,1397,247,1274,253
256,1297,1298,1361,1560,665,289,1313,423,1384,618,300,750,1519,1652,1595,1214
1125,262,1512,1359,272,1647,1300,348,1118,1151
1606,263,648,265,269,270,589,274,1045,279,991,1640,1324,503,1593,381
1668,1253,1382,742,650,267,596,1173,1497,1499
288,416,450,451,1058,1122,521,1002,1609,1332,506,1469
544,1664,1440,1252,1478,1127,295,297,1355,1644,1306,789,1594
489,1486,528,306,564,1334,1112,1338,1147,1596
1474,1250,996,1602,1353,1258,335,307,1113,445
801,1351,1676,1422,1009,435,1459,310,540,606
1472,354,483,1410,522,1066,1612,1044,344,313
318,1409,1223,1424,401,1552,1638,807,361,1321,1322,365,1518,1396,316,317,446
1473,1605,319,394,1419,1115,989,1123,1635,1128,1132,1134,374,1402,1148,1598,1279
321,322,419,1604,1154,1479,1323,406,1145,1150
1280,385,1442,1504,517,330,586,560,1554,372,565
1408,1666,453,333,421,1318,1407,1320,1130,1260,557,1008,1393,1460,439,1336,1401,1405,1399
608,1671,1449,395,397,463,1487,1169,1329,340,1270
1441,549,711,1001,587,1036,1491,343,1275,1661
356,1095,1610,1131,1488,1330,1395,1142,566,1339
1282,1379,1443,1445,1160,1065,1576,1484,526,1135,1326,1140,407,568,539
485,1607,424,1261,1490,470,1335,411,542,511
1249,418,1121,1357,461,1423,1649,1139,1398,1467
