1152,129,2,4,5,6,7,133,137,393,17,21,277,23,415,160,290,165,167,40,1321,297,41,42,169,431,432,1460,55,183,58,63,1606,71,332,80,81,209,210,86,471,96,121,231,105,106,107,1008,113,114,115,248,377,380
3,132,266,11,12,13,14,1035,276,404,278,279,281,157,29,38,170,299,427,46,174,48,180,565,436,190,64,65,1472,1475,74,207,82,83,84,1114,989,992,994,355,1252,357,1255,232,1642,362,491,492,365,372,375,251,1278
1056,449,1571,9,458,649,1485,1166,1458,467,405,254,1439
200,1640,10,495,335,1394,1491,85,312,314
1248,225,516,237,1357,15,244,1462,503,30
161,1250,166,1671,27,16,307,25,1403,188
484,1638,123,45,397,1135,145,18,411,1407
139,141,142,143,272,19,20,147,155,35,291,295,1323,1325,178,181,438,316,189,448,194,457,208,470,87,349,1118,97,1121,1637,103,360,1256,1258,366,367,1392,1393,371,116,1397,250,1279
354,1670,551,329,333,1359,1046,343,24,94
128,325,1262,336,51,280,1659,28,61,1406
256,1133,110,1071,271,1616,402,1362,93,31
32,1409,478,1511,264,298,50,274,1045,1142,376,1662
34,1411,100,36,1666,490,171,1134,53,255
576,1057,418,1410,37,73,426,75,305,1501
1153,1605,136,43,44,269,428,47,1324,150
1282,390,230,296,265,1644,49,344,154,1468
450,1251,455,359,523,1355,1486,54,90,92
159,69,422,1352,187,1038,56,1594,539,95
394,140,152,285,164,1319,1320,168,172,173,301,177,179,57,59,317,1597,453,334,214,1113,89,221,104,361,235,1139,379
1440,217,1383,1641,60,1332,1335,1401,1500,351
800,801,802,803,804,1026,807,808,1195,812,1197,814,1198,1424,1533,1535
1347,805,806,809,810,811,1196,813,815,1534
321,66,1667,260,1476,528,466,348,1052,1053,286,118,568,1145,378,507,638
67,1253,1061,1516,1103,1679,1138,1012,1173,1305,1116,1117
1505,68,319,1318,233,395,493,401,215,1247
1664,1636,70,135,1322,203,1042,220,1334,247,444,222
419,196,1060,292,363,76,1260,206,1356,1328,241,1660,1661
352,612,645,1478,586,109,77,1043,597,636,1438
550,294,1036,1677,1519,1615,1457,1553,660,245,182,1464,88,156
98,549,1127,1674,302,304,243,475,1405,543
261,1094,102,1000,1326,1487,176,564,1270,540
1120,1634,1160,1257,108,1676,1333,1461,1336,1598
1124,1608,1132,204,111,529,339,1364,440,1150
547,358,1479,199,652,205,1645,240,1044,117
1217,999,1096,1384,1066,1009,1555,1560,120,1215
153,1380,648,1546,1131,525,1593,1330,409,122
1570,1219,998,1063,1037,1005,1040,1147,1502,127
417,193,481,1477,134,1351,1128,212,158,446
512,324,521,1033,1483,144,146,340,1557,347,477,1441,1442,423,1576,489
608,385,1569,1280,229,1161,650,1484,589,270,1297,148,1465
544,1059,1001,1097,587,1515,1168,1296,1490,149,987,1565
1602,389,1672,1353,526,342,151,1499,1504,353,995,1065,1130,1647,1396,439,442
480,162,186,479,1402,1649,213,249,410,991
163,451,1034,234,236,1643,1298,403,1554,406,604,350
1603,387,421,1159,330,1613,1007,1327,435,1365,185
192,197,1675,1361,1299,341,408,483,1125,554,239,1263,1648,1400,313,1214
674,1123,546,195,198,1350,496,627,1492,1337,1307,253,1663
577,1154,388,391,1099,1612,593,532,1561,218,606,997,1512,1266,566,1276,1151
515,456,1481,368,242,338,530,1363,1274,1596
1281,1495,1413,263,392,1418,303,443,1467,567,1273,1271,284,311,1277
1379,1551,1137,1013,374,1463,1143,1339,988,1021
609,420,452,676,678,1101,1522,473,1338,575
