0,1604,1093,510,583,1673,522,1331,1112,381,1470
1664,1,1639,1640,202,1260,368,338,441,1661
160,129,2,1320,232,41,106,107,393,1262,114,62
1410,3,431
1153,4,134,7,394,140,141,147,20,280,155,28,35,166,168,301,46,178,181,1336,60,61,336,231,235,367,116
40,5,23
81,6
8,1036,1677,1553,1555,660,1560,156,542,289,294,550,1066,1457,182,1464,1215,1217,1096,1615,88,219,999,1384,1009,373,246,120,124,126
1056,224,449,1571,33,101,9,458,1485,306,467,1458,405,1398,22,282,1567
200,10,312
11,565,38
372,12,357
994,13
992,492,14
142,15,530,19,152,285,297,171,1324,47,51,1337,187,332,212,470,1250,361,247,506,251,127,255
16,104
17,211,174
225,45,18,244,503,1279
21,183
389,1672,333,1046,24,1405,94
25,188
1601,323,26,1381,262,79,1264,1295,1265,1466,1275
57,27
1035,29
1258,1397,30
256,234,1643,271,1554,1298,604,93,350,31
32,1409,478,1383,264,298,1355,50,274,1045,376,1662
1666,1411,100,34,1636,203,1134
36,135,1322,490,85,53
91,37
43,108,428,269,1461,150,1402,479
1257,44,1333,1598
48,157,207
1505,1282,390,230,296,265,154,1644,49,344,991,1468,1247
1408,131,1092,1254,1510,268,461,464,52,1399,1306,1115,191
450,1641,523,1486,1332,54,217,351
1321,55,71
1120,1472,1606,422,1483,1487,1392,1552,1460,56,1465
209,58,63
1139,1394,59,1403
64,128,266,299,436,276,278,1663
65,1642,491,1475
321,66,1667,1476,260,1052,528,466,118,568,1145,378,507,348,1053,638,286
67,1444,1061,1253,584,424,267,1516,1550,1679,1103,1138,1012,1173,1117,1305,1116,541
68,1318,233,395,493,1649,401,215,249,319
1594,69
70,1042,222
73,1123,305
74,180
1057,75,1501
292,196,1060,1481,1356,76,206,1328,241,242,1363,1274,1660,1596
1609,130,529,78
1152,80,380,167
170,82
83,84,365
448,290,325,1255,1319,113,404,214,86,87,438
89,379
1440,90,1251,1335
359,455,1142,1401,92
1352,95,159
96,115
97,194,1638,457,143,189
98,1602,549,1127,1674,302,304,475,543
259,99,331,1302,1213
1161,540,102
161,291,103,360,139,1325,366,208,371,253,316,349
1665,105,1038,1114,1406
236,110,1071
1443,1124,1572,1608,1132,204,1358,111,1364,440,1150,1503
288,1154,1220,997,391,1512,1099,1612,112,593,1266,1301,566,1561,1276,125,1151
547,163,358,1479,1133,1645,1616,240,1362,403,117,406
386,392,1171,1047,1051,284,567,1600,579,582,1360,595,345,1498,223,993,614,1003,238,629,119,1273,1277
121,137
387,648,409,1131,1330,1593,122
1121,237,145,411,123
281,132
210,133
136,261
1668,1382,138,1010,534,986,990
144,1219
146,477,1063
1280,1569,385,1094,1000,1484,270,1326,176,1297,148,564,1270
544,1001,587,1515,1296,1168,1490,149,987,1565
1504,354,995,1670,329,1130,526,1647,243,151
153,1159,1613,1327,435,1365,185
193,417,158,1511
480,162,186
177,164
1113,172,221,334
179,317,173
190,1278
192,483,1400,197,554,1263,1648,1361,341,408,313,1214
195,1556,1492,1307,1597
496,1354,198
652,1044,205,199
410,213
216,1329,1140,517
220,444,1334
1299,1675,1125,239
248,1659,277,375
1058,1514,1419,1578,501,250
1632,640,1509,1164,607,559,1631,561,1039,533,252,669,1311
1002,1166,254,1439
1249,257,1635,425,283
272,1637,295
355,279
1671,495,335,307,1491,314
482,459,1169,310,1404
1395,318,1095
1441,1570,324,1033,1040,340
1573,327,553,524,1136,1617,1471
1603,1380,421,1546,330,525,1007
337,1067,1148
353,1065,1353,1359,1396,342,439,442,1499
1442,998,1576,489,1005,347
1480,1122,1611,356
432,377
484,1323,397,1135,1407
1034,451,402
415,471
576,418
426,427,1350
1477,446
456,627
1412,1062,1575,465,689,1497
481,1500
487,1482,1261,1011,505
1146,1338,1106,678
512,515,516,521,1037,1502
1413,1129,1549,1495,572
1522,676,989
1080,1447,711,695
1344,1185,738,1221,748,749,1582,1621,1109,1527,728,733
1184,698,708
1313,701,742,1183
795,787,1422,1223
1024,788
1194,1584,793,1563,797
1424,801,803,807
1200,817
1425,820
1289,823
833,1586,1027
1088,851,854
856,850,1028,855
849,1204,852,853
1248,1216,1128,1357,1393,1462,1147,1118
1256,1252
1634,1676,1605
