1256,1,202,210
129,2,21,114
1120,3,42,139,394,235
992,4,297,155,157,15
113,5,174,23
48,276,277,6,86,183,63
1665,1042,198,7,1307,1487
1664,272,1250,312,10,75
1410,195,372,261,1639,11,141
250,317,12,301,366
994,134,71,13,1552,496,305,1492,190
515,70,1324,332,207,16,85,247,220,30
225,18,244,503,45,1279
1321,19,1460,142
20,565,1319,1038,431
1405,389,1046,1672,24,333,94
1594,1637,470,25,1258
1601,26,1381,1295,79,1265,1264,1466,1275
103,28,61,375
448,1634,436,438,170,29
256,234,1643,271,1298,1554,604,93,350,31
1056,33,449,1571,1458,1398,1485
34,1411,1636,100,1666,203,1134
168,35,371,46
36,53,135,490,1322
576,418,91,37
38,104,427,316,47
40,1659,404,173
1257,44,1333,1598
1409,478,1383,298,1355,50,1045,1662
56,361,51,136
450,1641,523,1486,1332,54,217,351
996,55,200,426,251,1260
178,1252,422,1320,57,95
128,432,290,58,106,62
59,1394,1139,1403
96,208,214,60,1325,367
64,266,336,180
65,1642,491,1475
66,1667,260,1476,1052,118,1145,378,507,348,1053,638,286
1444,1516,1550,1679,1103,1305,1116,541
68,1318,233,395,493,1649,401,215,249,319
1153,83,147,69,295,253
1556,73,1465,1676,1661
897,956,1377,1628
930,1543,1544,906,1226,1229,947,954,1374,959
1686,939,940,941,942,944,945,948,949,950,1592,1209,952,953,955,957,958,960,1228,1629,1378,1658
1660,419,1060,196,292,1481,76,1356,1328,1363,1274,1596
1609,130,529,78
80,380,1152,167
248,81,82,169
1392,84,181,231,280,492,1406
360,285,133,87
379,89,177,164
1440,1142,359,1401,90
455,1251,92,1335
97,194,1638,457,189,143
98,1602,549,1127,1674,302,304,475,543
1472,102,171,1606
402,451,1034,236,110,1071
377,115,325,278
179,116,1397,166,140,1597
547,163,358,1479,1645,1133,240,1616,1362,403,117,406
1036,1677,1553,1555,1560,156,542,294,1066,300,1457,182,1215,1217,1096,1615,999,1384,1009,373,120,126
415,121,137,471
1330,387,648,409,122,1131,1593
1121,145,123,411,237
1008,674,1449,781,1037,127
281,355,132,279
986,1010,1668,1382,534,138,990
144,146,1219,1063,477
544,1001,587,1515,1296,1490,149,1565
161,530,453,152,188
435,185,1365,1159,153,1613,1327
1505,1282,1247,230,296,265,1644,154,991
193,417,158,1511
1128,1336,1350,159
480,162,213,186,410
1113,172,221,334
1186,773,775,776,1420,780,782,783,761,1110,1529,1562,187
416,1408,1092,1254,1510,268,464,1399,1306,1115,191
483,197,1263,1648,1361,341,1400,1214
1044,652,205,199
368,338,211,456,441,506
1329,1395,1140,517,1095,216,318
1154,388,1301,566,1512,218,1612
1057,1334,1352,1337,444,222
384,497,1474,227,430,1678,1006
1600,579,582,238,1360,1047,1495,1277
1299,1675,1125,239
1002,1166,254,1439
257,1249,1635,425,283
1640,299,349,1663
307,1491,1671,314,495,335
1169,482,310,459,1404
322,356,1493,407,619,1611,1102
1136,1617,1573,327,1471
1504,354,995,1670,329,1130,1647,343
1603,1380,421,1546,330,525,1007
512,337,1067,1148,1501
1040,1441,423,1576,489,347,1005
353,1396,1065,1499,1359
546,516,365,1605
484,1407,1323,397,1135
1443,1124,1572,1608,1132,1358,1364,440,1150,1503
481,1500,1477,446
1331,1604,1093,1470,1112,1673,510
1480,513,1122,1547
561,1300,1509,1163,1164,1631,1039
640,1058,1559,1514,1419
1313,1221,742,1621,1109,1527,728,1183
1424,801,803,807,1223
1425,1203,822,1623
896,1225,1317,917
1376,1348,1224,908,909,910,1375
929,931,1316,1541,1591,932,936,937,938,1542,919,915,916,1207,925
1248,1393,1462,1357,1118
