Unnamed: 0,t,clustering,gen_kg,gen_history,data,sample,strategy,n_sg,anony_mode,info_loss,alpha_adm,alpha_dm,k,w,calgo,max_dist,algo,galgo
0,8,257.1800229549408,1.6689300537109375e-06,41.05913925170898,yago,-1,equaladd,50,only_clusters,adm,0.5,0.5,8,8,km,1.0,ctkga,ad2
0,4,537.1593573093413,2.6226043701171875e-06,19.007984638214108,yago,-1,equaladd,50,only_clusters,adm,0.5,0.5,4,1,km,1.0,ctkga,ad2
0,5,215.65973544120789,2.6226043701171875e-06,22.22493553161621,yago,-1,equaladd,50,only_clusters,adm,0.5,0.5,10,2,km,1.0,ctkga,ad2
0,3,733.7036964893341,2.1457672119140625e-06,8.702543973922731,yago,-1,equaladd,50,only_clusters,adm,0.5,0.5,2,1,km,1.0,ctkga,ad2
0,7,270.162383556366,1.9073486328125e-06,33.73718810081482,yago,-1,equaladd,50,only_clusters,adm,0.5,0.5,8,4,km,1.0,ctkga,ad2
0,10,254.4772846698761,1.9073486328125e-06,55.04877901077271,yago,-1,equaladd,50,only_clusters,adm,0.5,0.5,6,8,km,1.0,ctkga,ad2
0,4,214.1697838306427,1.9073486328125e-06,10.546105861663818,yago,-1,equaladd,50,only_clusters,adm,0.5,0.5,2,4,km,1.0,ctkga,ad2
0,1,208.55926179885864,3.814697265625e-06,6.075870990753174,yago,-1,equaladd,50,only_clusters,adm,0.5,0.5,4,8,km,1.0,ctkga,ad2
0,4,720.8396053314209,2.384185791015625e-06,10.691030502319336,yago,-1,equaladd,50,only_clusters,adm,0.5,0.5,2,1,km,1.0,ctkga,ad2
0,9,561.7989492416382,1.430511474609375e-06,33.62691712379456,yago,-1,equaladd,50,only_clusters,adm,0.5,0.5,8,1,km,1.0,ctkga,ad2
0,4,210.93004202842712,1.430511474609375e-06,12.91994571685791,yago,-1,equaladd,50,only_clusters,adm,0.5,0.5,4,6,km,1.0,ctkga,ad2
0,9,655.0535175800322,3.0994415283203125e-06,29.314899682998657,yago,-1,equaladd,50,only_clusters,adm,0.5,0.5,6,1,km,1.0,ctkga,ad2
0,10,268.6375663280487,2.6226043701171875e-06,43.96167922019959,yago,-1,equaladd,50,only_clusters,adm,0.5,0.5,6,6,km,1.0,ctkga,ad2
0,3,238.05102944374084,2.1457672119140625e-06,12.422075510025024,yago,-1,equaladd,50,only_clusters,adm,0.5,0.5,6,4,km,1.0,ctkga,ad2
0,6,303.58870267868036,1.9073486328125e-06,22.75005507469177,yago,-1,equaladd,50,only_clusters,adm,0.5,0.5,2,2,km,1.0,ctkga,ad2
0,9,229.66983914375302,1.9073486328125e-06,36.578790187835686,yago,-1,equaladd,50,only_clusters,adm,0.5,0.5,10,8,km,1.0,ctkga,ad2
0,0,444.28156065940857,2.6226043701171875e-06,5.532464027404785,yago,-1,equaladd,50,only_clusters,adm,0.5,0.5,6,2,km,1.0,ctkga,ad2
0,0,489.0819323062897,2.384185791015625e-06,3.812389373779297,yago,-1,equaladd,50,only_clusters,adm,0.5,0.5,4,6,km,1.0,ctkga,ad2
0,8,241.77835249900815,5.7220458984375e-06,30.106226682662964,yago,-1,equaladd,50,only_clusters,adm,0.5,0.5,4,8,km,1.0,ctkga,ad2
0,0,832.7931621074678,0.00011873245239257812,3.60341477394104,yago,-1,equaladd,50,only_clusters,adm,0.5,0.5,2,1,km,1.0,ctkga,ad2
0,8,267.2802760601044,1.6689300537109375e-06,16.978870868682858,yago,-1,equaladd,50,only_clusters,adm,0.5,0.5,2,2,km,1.0,ctkga,ad2
0,4,238.06410670280457,2.1457672119140625e-06,28.40829372406006,yago,-1,equaladd,50,only_clusters,adm,0.5,0.5,6,4,km,1.0,ctkga,ad2
0,3,435.2893135547638,2.86102294921875e-06,26.9239718914032,yago,-1,equaladd,50,only_clusters,adm,0.5,0.5,10,1,km,1.0,ctkga,ad2
0,8,236.61197066307068,2.1457672119140625e-06,16.741824865341187,yago,-1,equaladd,50,only_clusters,adm,0.5,0.5,2,8,km,1.0,ctkga,ad2
0,7,247.4985179901123,2.384185791015625e-06,29.40476584434509,yago,-1,equaladd,50,only_clusters,adm,0.5,0.5,10,4,km,1.0,ctkga,ad2
0,3,320.6753807067871,2.384185791015625e-06,24.507304668426514,yago,-1,equaladd,50,only_clusters,adm,0.5,0.5,10,8,km,1.0,ctkga,ad2
0,1,228.22354578971863,2.384185791015625e-06,6.353352785110474,yago,-1,equaladd,50,only_clusters,adm,0.5,0.5,4,2,km,1.0,ctkga,ad2
0,10,319.6098983287811,4.291534423828125e-06,25.68992829322815,yago,-1,equaladd,50,only_clusters,adm,0.5,0.5,4,8,km,1.0,ctkga,ad2
0,9,249.1847195625305,3.337860107421875e-06,45.62395000457764,yago,-1,equaladd,50,only_clusters,adm,0.5,0.5,6,4,km,1.0,ctkga,ad2
0,0,658.2666823863982,9.72747802734375e-05,7.186190605163574,yago,-1,equaladd,50,only_clusters,adm,0.5,0.5,2,2,km,1.0,ctkga,ad2
0,3,249.08786058425903,2.86102294921875e-06,12.456162452697756,yago,-1,equaladd,50,only_clusters,adm,0.5,0.5,6,2,km,1.0,ctkga,ad2
0,10,261.58398818969727,2.1457672119140625e-06,35.079105854034424,yago,-1,equaladd,50,only_clusters,adm,0.5,0.5,8,8,km,1.0,ctkga,ad2
0,0,556.5881035327911,1.9073486328125e-06,6.0914766788482675,yago,-1,equaladd,50,only_clusters,adm,0.5,0.5,8,8,km,1.0,ctkga,ad2
0,5,244.75067257881162,1.6689300537109375e-06,23.42358207702637,yago,-1,equaladd,50,only_clusters,adm,0.5,0.5,6,2,km,1.0,ctkga,ad2
0,9,417.74244689941406,2.6226043701171875e-06,37.37899494171143,yago,-1,equaladd,50,only_clusters,adm,0.5,0.5,10,1,km,1.0,ctkga,ad2
0,7,226.42549085617063,1.9073486328125e-06,14.843221426010132,yago,-1,equaladd,50,only_clusters,adm,0.5,0.5,2,2,km,1.0,ctkga,ad2
0,6,613.7114114761353,2.1457672119140625e-06,18.63373374938965,yago,-1,equaladd,50,only_clusters,adm,0.5,0.5,4,1,km,1.0,ctkga,ad2
0,10,250.13516330718997,2.1457672119140625e-06,35.35842180252075,yago,-1,equaladd,50,only_clusters,adm,0.5,0.5,8,4,km,1.0,ctkga,ad2
0,6,226.04951286315918,1.9073486328125e-06,25.763055324554443,yago,-1,equaladd,50,only_clusters,adm,0.5,0.5,10,4,km,1.0,ctkga,ad2
0,5,219.5801565647125,1.9073486328125e-06,22.091298580169678,yago,-1,equaladd,50,only_clusters,adm,0.5,0.5,10,8,km,1.0,ctkga,ad2
0,4,244.32929229736328,2.1457672119140625e-06,25.29064655303955,yago,-1,equaladd,50,only_clusters,adm,0.5,0.5,8,6,km,1.0,ctkga,ad2
0,6,223.72493624687198,2.6226043701171875e-06,26.32124447822571,yago,-1,equaladd,50,only_clusters,adm,0.5,0.5,10,6,km,1.0,ctkga,ad2
0,9,292.7468597888946,1.6689300537109375e-06,35.84865546226501,yago,-1,equaladd,50,only_clusters,adm,0.5,0.5,10,2,km,1.0,ctkga,ad2
0,0,524.5086660385132,2.6226043701171875e-06,7.367915868759155,yago,-1,equaladd,50,only_clusters,adm,0.5,0.5,6,1,km,1.0,ctkga,ad2
0,9,245.93536901474,5.0067901611328125e-06,23.634435653686523,yago,-1,equaladd,50,only_clusters,adm,0.5,0.5,4,8,km,1.0,ctkga,ad2
0,8,253.64645051956177,2.384185791015625e-06,31.12641668319702,yago,-1,equaladd,50,only_clusters,adm,0.5,0.5,6,8,km,1.0,ctkga,ad2
0,1,235.9494202136993,1.6689300537109375e-06,5.241127014160156,yago,-1,equaladd,50,only_clusters,adm,0.5,0.5,2,8,km,1.0,ctkga,ad2
0,2,267.43336653709406,1.9073486328125e-06,10.660154581069945,yago,-1,equaladd,50,only_clusters,adm,0.5,0.5,8,2,km,1.0,ctkga,ad2
0,4,503.00581336021423,1.9073486328125e-06,19.434715986251828,yago,-1,equaladd,50,only_clusters,adm,0.5,0.5,10,1,km,1.0,ctkga,ad2
0,6,241.6588237285614,2.6226043701171875e-06,35.405875444412224,yago,-1,equaladd,50,only_clusters,adm,0.5,0.5,6,4,km,1.0,ctkga,ad2
0,8,651.8741002082825,3.0994415283203125e-06,33.57227063179016,yago,-1,equaladd,50,only_clusters,adm,0.5,0.5,10,1,km,1.0,ctkga,ad2
0,2,220.5327229499817,1.9073486328125e-06,13.284247159957886,yago,-1,equaladd,50,only_clusters,adm,0.5,0.5,8,6,km,1.0,ctkga,ad2
0,2,289.2485105991364,2.1457672119140625e-06,14.173080682754517,yago,-1,equaladd,50,only_clusters,adm,0.5,0.5,4,6,km,1.0,ctkga,ad2
0,1,205.63228845596316,2.6226043701171875e-06,8.447143316268921,yago,-1,equaladd,50,only_clusters,adm,0.5,0.5,10,8,km,1.0,ctkga,ad2
0,2,216.05452990531919,1.6689300537109375e-06,12.592444896697998,yago,-1,equaladd,50,only_clusters,adm,0.5,0.5,2,4,km,1.0,ctkga,ad2
0,0,561.2236294746399,4.291534423828125e-06,3.7534885406494136,yago,-1,equaladd,50,only_clusters,adm,0.5,0.5,4,8,km,1.0,ctkga,ad2
0,5,229.2160904407501,1.6689300537109375e-06,19.760878801345825,yago,-1,equaladd,50,only_clusters,adm,0.5,0.5,2,6,km,1.0,ctkga,ad2
0,4,217.26151061058044,1.6689300537109375e-06,28.70222568511963,yago,-1,equaladd,50,only_clusters,adm,0.5,0.5,8,2,km,1.0,ctkga,ad2
0,6,244.80885004997253,4.76837158203125e-06,32.135051488876336,yago,-1,equaladd,50,only_clusters,adm,0.5,0.5,4,8,km,1.0,ctkga,ad2
0,4,234.33699011802673,2.384185791015625e-06,13.15430235862732,yago,-1,equaladd,50,only_clusters,adm,0.5,0.5,2,8,km,1.0,ctkga,ad2
0,9,270.32425904273987,2.1457672119140625e-06,33.15370678901673,yago,-1,equaladd,50,only_clusters,adm,0.5,0.5,8,6,km,1.0,ctkga,ad2
0,3,220.82545948028562,1.6689300537109375e-06,21.312212467193607,yago,-1,equaladd,50,only_clusters,adm,0.5,0.5,8,2,km,1.0,ctkga,ad2
0,5,271.11086344718933,2.1457672119140625e-06,39.675309419631965,yago,-1,equaladd,50,only_clusters,adm,0.5,0.5,8,2,km,1.0,ctkga,ad2
0,5,540.2585349082947,1.6689300537109375e-06,18.55275678634644,yago,-1,equaladd,50,only_clusters,adm,0.5,0.5,6,1,km,1.0,ctkga,ad2
0,0,705.8560237884521,0.00012087821960449221,4.787226915359497,yago,-1,equaladd,50,only_clusters,adm,0.5,0.5,4,4,km,1.0,ctkga,ad2
0,8,266.3752422332764,2.6226043701171875e-06,34.31974029541016,yago,-1,equaladd,50,only_clusters,adm,0.5,0.5,8,2,km,1.0,ctkga,ad2
0,9,267.6953604221344,1.9073486328125e-06,36.333650827407844,yago,-1,equaladd,50,only_clusters,adm,0.5,0.5,2,2,km,1.0,ctkga,ad2
0,8,284.1444160938263,2.384185791015625e-06,33.512702703475945,yago,-1,equaladd,50,only_clusters,adm,0.5,0.5,10,4,km,1.0,ctkga,ad2
0,10,250.11506366729736,2.1457672119140625e-06,35.47870397567749,yago,-1,equaladd,50,only_clusters,adm,0.5,0.5,8,6,km,1.0,ctkga,ad2
0,2,220.4898190498352,9.5367431640625e-07,21.221656322479244,yago,-1,equaladd,50,only_clusters,adm,0.5,0.5,8,4,km,1.0,ctkga,ad2
0,8,577.2690134048463,3.0994415283203125e-06,36.66415691375733,yago,-1,equaladd,50,only_clusters,adm,0.5,0.5,6,1,km,1.0,ctkga,ad2
0,1,564.0876717567444,1.6689300537109375e-06,6.1112024784088135,yago,-1,equaladd,50,only_clusters,adm,0.5,0.5,4,1,km,1.0,ctkga,ad2
0,9,238.45015978813169,2.6226043701171875e-06,28.798875331878662,yago,-1,equaladd,50,only_clusters,adm,0.5,0.5,2,6,km,1.0,ctkga,ad2
0,3,219.03548336029053,1.1920928955078123e-06,8.723309278488161,yago,-1,equaladd,50,only_clusters,adm,0.5,0.5,2,6,km,1.0,ctkga,ad2
0,9,254.40522575378415,1.9073486328125e-06,46.8663911819458,yago,-1,equaladd,50,only_clusters,adm,0.5,0.5,4,2,km,1.0,ctkga,ad2
0,3,304.90650963783264,1.9073486328125e-06,8.540179491043089,yago,-1,equaladd,50,only_clusters,adm,0.5,0.5,2,4,km,1.0,ctkga,ad2
0,6,247.4430446624756,2.1457672119140625e-06,23.592260599136356,yago,-1,equaladd,50,only_clusters,adm,0.5,0.5,4,2,km,1.0,ctkga,ad2
0,7,460.901784658432,2.384185791015625e-06,27.961477518081665,yago,-1,equaladd,50,only_clusters,adm,0.5,0.5,8,1,km,1.0,ctkga,ad2
0,5,512.5296025276184,1.9073486328125e-06,31.788247108459476,yago,-1,equaladd,50,only_clusters,adm,0.5,0.5,8,1,km,1.0,ctkga,ad2
0,0,475.56937313079834,1.6689300537109375e-06,5.774903297424316,yago,-1,equaladd,50,only_clusters,adm,0.5,0.5,8,6,km,1.0,ctkga,ad2
0,6,276.50420928001404,2.1457672119140625e-06,23.003381490707397,yago,-1,equaladd,50,only_clusters,adm,0.5,0.5,8,2,km,1.0,ctkga,ad2
0,4,228.49000215530398,1.6689300537109375e-06,19.347719192504886,yago,-1,equaladd,50,only_clusters,adm,0.5,0.5,2,6,km,1.0,ctkga,ad2
0,10,233.9701030254364,2.1457672119140625e-06,31.188275575637817,yago,-1,equaladd,50,only_clusters,adm,0.5,0.5,6,2,km,1.0,ctkga,ad2
0,0,478.07063698768616,2.1457672119140625e-06,4.276867866516113,yago,-1,equaladd,50,only_clusters,adm,0.5,0.5,6,6,km,1.0,ctkga,ad2
0,3,539.3499956130981,1.6689300537109375e-06,15.8867769241333,yago,-1,equaladd,50,only_clusters,adm,0.5,0.5,6,1,km,1.0,ctkga,ad2
0,7,232.29274344444275,1.6689300537109375e-06,22.5048303604126,yago,-1,equaladd,50,only_clusters,adm,0.5,0.5,6,4,km,1.0,ctkga,ad2
0,5,755.6253845691681,2.86102294921875e-06,12.245375633239744,yago,-1,equaladd,50,only_clusters,adm,0.5,0.5,2,1,km,1.0,ctkga,ad2
0,7,222.20899271965027,2.384185791015625e-06,28.85359239578247,yago,-1,equaladd,50,only_clusters,adm,0.5,0.5,10,6,km,1.0,ctkga,ad2
0,1,226.96715712547302,1.9073486328125e-06,5.1697211265563965,yago,-1,equaladd,50,only_clusters,adm,0.5,0.5,2,4,km,1.0,ctkga,ad2
0,2,237.8869948387146,2.1457672119140625e-06,11.874128103256226,yago,-1,equaladd,50,only_clusters,adm,0.5,0.5,10,4,km,1.0,ctkga,ad2
0,9,264.89456963539124,2.384185791015625e-06,32.87313437461853,yago,-1,equaladd,50,only_clusters,adm,0.5,0.5,8,2,km,1.0,ctkga,ad2
0,3,222.5673394203186,2.1457672119140625e-06,12.66914677619934,yago,-1,equaladd,50,only_clusters,adm,0.5,0.5,6,6,km,1.0,ctkga,ad2
0,1,258.71360874176025,1.6689300537109375e-06,6.026177167892456,yago,-1,equaladd,50,only_clusters,adm,0.5,0.5,4,6,km,1.0,ctkga,ad2
0,4,218.12589406967163,1.9073486328125e-06,18.93418955802917,yago,-1,equaladd,50,only_clusters,adm,0.5,0.5,10,4,km,1.0,ctkga,ad2
0,4,240.1240260601044,2.1457672119140625e-06,29.53635406494141,yago,-1,equaladd,50,only_clusters,adm,0.5,0.5,8,4,km,1.0,ctkga,ad2
0,7,268.1772427558899,2.384185791015625e-06,23.71292042732239,yago,-1,equaladd,50,only_clusters,adm,0.5,0.5,6,2,km,1.0,ctkga,ad2
0,7,219.8896782398224,1.9073486328125e-06,22.98718237876892,yago,-1,equaladd,50,only_clusters,adm,0.5,0.5,6,6,km,1.0,ctkga,ad2
0,4,210.44062304496762,3.5762786865234375e-06,13.052729845046995,yago,-1,equaladd,50,only_clusters,adm,0.5,0.5,4,8,km,1.0,ctkga,ad2
0,6,230.2782232761383,1.9073486328125e-06,26.45961618423462,yago,-1,equaladd,50,only_clusters,adm,0.5,0.5,10,8,km,1.0,ctkga,ad2
0,10,350.32721519470215,1.9073486328125e-06,39.68836212158203,yago,-1,equaladd,50,only_clusters,adm,0.5,0.5,10,2,km,1.0,ctkga,ad2
0,4,220.51823830604556,1.9073486328125e-06,15.18284821510315,yago,-1,equaladd,50,only_clusters,adm,0.5,0.5,6,6,km,1.0,ctkga,ad2
0,2,697.2029957771301,1.9073486328125e-06,7.0216052532196045,yago,-1,equaladd,50,only_clusters,adm,0.5,0.5,2,1,km,1.0,ctkga,ad2
0,3,232.61390709877014,2.384185791015625e-06,14.022238731384276,yago,-1,equaladd,50,only_clusters,adm,0.5,0.5,8,8,km,1.0,ctkga,ad2
0,0,497.99145698547363,3.0994415283203125e-06,6.359354019165039,yago,-1,equaladd,50,only_clusters,adm,0.5,0.5,4,1,km,1.0,ctkga,ad2
0,1,493.26319575309753,2.1457672119140625e-06,11.217275857925415,yago,-1,equaladd,50,only_clusters,adm,0.5,0.5,6,1,km,1.0,ctkga,ad2
0,0,447.6603009700775,2.1457672119140625e-06,7.746220111846924,yago,-1,equaladd,50,only_clusters,adm,0.5,0.5,10,1,km,1.0,ctkga,ad2
0,5,279.6374588012696,2.384185791015625e-06,19.053246021270756,yago,-1,equaladd,50,only_clusters,adm,0.5,0.5,6,8,km,1.0,ctkga,ad2
0,7,569.7598714828491,1.9073486328125e-06,19.4927990436554,yago,-1,equaladd,50,only_clusters,adm,0.5,0.5,4,1,km,1.0,ctkga,ad2
0,4,271.59872388839716,1.6689300537109375e-06,12.8903226852417,yago,-1,equaladd,50,only_clusters,adm,0.5,0.5,4,4,km,1.0,ctkga,ad2
0,10,233.3213346004486,2.6226043701171875e-06,39.05732488632202,yago,-1,equaladd,50,only_clusters,adm,0.5,0.5,10,6,km,1.0,ctkga,ad2
0,8,232.90343046188354,2.384185791015625e-06,32.92444896697998,yago,-1,equaladd,50,only_clusters,adm,0.5,0.5,2,6,km,1.0,ctkga,ad2
0,1,237.8410460948944,1.9073486328125e-06,9.6553156375885,yago,-1,equaladd,50,only_clusters,adm,0.5,0.5,2,6,km,1.0,ctkga,ad2
0,5,276.9787938594818,2.384185791015625e-06,20.698143720626828,yago,-1,equaladd,50,only_clusters,adm,0.5,0.5,8,6,km,1.0,ctkga,ad2
0,2,216.00403690338132,1.6689300537109375e-06,12.881466627120972,yago,-1,equaladd,50,only_clusters,adm,0.5,0.5,2,2,km,1.0,ctkga,ad2
0,9,248.4271466732025,1.9073486328125e-06,23.272029876708984,yago,-1,equaladd,50,only_clusters,adm,0.5,0.5,4,4,km,1.0,ctkga,ad2
0,9,234.78997659683228,2.1457672119140625e-06,35.289290428161614,yago,-1,equaladd,50,only_clusters,adm,0.5,0.5,2,4,km,1.0,ctkga,ad2
0,1,210.43162488937375,1.6689300537109375e-06,10.918887853622437,yago,-1,equaladd,50,only_clusters,adm,0.5,0.5,6,6,km,1.0,ctkga,ad2
0,1,639.3389489650726,2.1457672119140625e-06,5.279691457748413,yago,-1,equaladd,50,only_clusters,adm,0.5,0.5,2,1,km,1.0,ctkga,ad2
0,0,548.8493196964264,2.384185791015625e-06,7.408682823181152,yago,-1,equaladd,50,only_clusters,adm,0.5,0.5,6,4,km,1.0,ctkga,ad2
0,0,707.5430827140808,2.1457672119140625e-06,7.041121959686278,yago,-1,equaladd,50,only_clusters,adm,0.5,0.5,4,2,km,1.0,ctkga,ad2
0,8,442.36508440971375,1.6689300537109375e-06,30.541423320770264,yago,-1,equaladd,50,only_clusters,adm,0.5,0.5,8,1,km,1.0,ctkga,ad2
0,0,489.0953679084778,1.9073486328125e-06,4.83627462387085,yago,-1,equaladd,50,only_clusters,adm,0.5,0.5,10,8,km,1.0,ctkga,ad2
0,10,245.67832016944885,1.6689300537109375e-06,37.50473070144653,yago,-1,equaladd,50,only_clusters,adm,0.5,0.5,8,2,km,1.0,ctkga,ad2
0,3,262.1491680145264,2.1457672119140625e-06,15.612653255462645,yago,-1,equaladd,50,only_clusters,adm,0.5,0.5,10,4,km,1.0,ctkga,ad2
0,9,709.5784850120544,2.384185791015625e-06,30.60424113273621,yago,-1,equaladd,50,only_clusters,adm,0.5,0.5,2,1,km,1.0,ctkga,ad2
0,0,433.4663743972778,2.1457672119140625e-06,7.017052412033081,yago,-1,equaladd,50,only_clusters,adm,0.5,0.5,8,2,km,1.0,ctkga,ad2
0,6,216.4116780757904,1.6689300537109375e-06,26.044703483581547,yago,-1,equaladd,50,only_clusters,adm,0.5,0.5,10,2,km,1.0,ctkga,ad2
0,1,208.3610076904297,2.384185791015625e-06,13.501325607299805,yago,-1,equaladd,50,only_clusters,adm,0.5,0.5,10,4,km,1.0,ctkga,ad2
0,7,272.57661128044134,2.384185791015625e-06,22.892066717147827,yago,-1,equaladd,50,only_clusters,adm,0.5,0.5,6,8,km,1.0,ctkga,ad2
0,0,508.7453374862671,2.1457672119140625e-06,4.744623899459839,yago,-1,equaladd,50,only_clusters,adm,0.5,0.5,10,4,km,1.0,ctkga,ad2
0,3,215.02339100837708,2.1457672119140625e-06,8.827286720275879,yago,-1,equaladd,50,only_clusters,adm,0.5,0.5,2,8,km,1.0,ctkga,ad2
0,1,214.7233953475952,2.384185791015625e-06,8.445049524307251,yago,-1,equaladd,50,only_clusters,adm,0.5,0.5,10,2,km,1.0,ctkga,ad2
0,2,445.2385404109955,2.1457672119140625e-06,12.784013748168945,yago,-1,equaladd,50,only_clusters,adm,0.5,0.5,10,1,km,1.0,ctkga,ad2
0,8,231.50499033927917,2.6226043701171875e-06,32.94943141937256,yago,-1,equaladd,50,only_clusters,adm,0.5,0.5,10,8,km,1.0,ctkga,ad2
0,10,281.2673070430756,1.6689300537109375e-06,27.322357416152954,yago,-1,equaladd,50,only_clusters,adm,0.5,0.5,4,4,km,1.0,ctkga,ad2
0,3,263.2696402072906,1.9073486328125e-06,17.07745099067688,yago,-1,equaladd,50,only_clusters,adm,0.5,0.5,6,8,km,1.0,ctkga,ad2
0,9,565.8908755779266,2.384185791015625e-06,30.260880708694454,yago,-1,equaladd,50,only_clusters,adm,0.5,0.5,4,1,km,1.0,ctkga,ad2
0,5,281.15967178344727,1.9073486328125e-06,22.245803594589233,yago,-1,equaladd,50,only_clusters,adm,0.5,0.5,10,4,km,1.0,ctkga,ad2
0,1,274.11194086074835,1.6689300537109375e-06,14.642590045928955,yago,-1,equaladd,50,only_clusters,adm,0.5,0.5,8,8,km,1.0,ctkga,ad2
0,9,228.5802481174469,1.430511474609375e-06,36.385771751403816,yago,-1,equaladd,50,only_clusters,adm,0.5,0.5,10,4,km,1.0,ctkga,ad2
0,0,564.169331073761,2.384185791015625e-06,4.787023067474365,yago,-1,equaladd,50,only_clusters,adm,0.5,0.5,10,2,km,1.0,ctkga,ad2
0,6,818.2982182502748,2.6226043701171875e-06,25.942293167114254,yago,-1,equaladd,50,only_clusters,adm,0.5,0.5,2,1,km,1.0,ctkga,ad2
0,5,458.8075592517853,2.1457672119140625e-06,33.573167085647576,yago,-1,equaladd,50,only_clusters,adm,0.5,0.5,10,1,km,1.0,ctkga,ad2
0,0,528.1729726791382,1.9073486328125e-06,4.483349323272705,yago,-1,equaladd,50,only_clusters,adm,0.5,0.5,8,4,km,1.0,ctkga,ad2
0,2,274.78740334510803,2.1457672119140625e-06,9.729673147201536,yago,-1,equaladd,50,only_clusters,adm,0.5,0.5,6,2,km,1.0,ctkga,ad2
0,2,237.62630319595337,1.6689300537109375e-06,12.462167263031006,yago,-1,equaladd,50,only_clusters,adm,0.5,0.5,6,6,km,1.0,ctkga,ad2
0,7,265.5788805484772,2.1457672119140625e-06,25.28194284439087,yago,-1,equaladd,50,only_clusters,adm,0.5,0.5,2,8,km,1.0,ctkga,ad2
0,8,263.6531140804291,1.6689300537109375e-06,31.92126727104187,yago,-1,equaladd,50,only_clusters,adm,0.5,0.5,2,4,km,1.0,ctkga,ad2
0,1,274.71452832221985,1.9073486328125e-06,7.810284852981567,yago,-1,equaladd,50,only_clusters,adm,0.5,0.5,8,4,km,1.0,ctkga,ad2
0,0,482.5867710113525,2.384185791015625e-06,6.187130451202393,yago,-1,equaladd,50,only_clusters,adm,0.5,0.5,10,6,km,1.0,ctkga,ad2
0,2,499.3925287723541,1.6689300537109375e-06,11.052989721298218,yago,-1,equaladd,50,only_clusters,adm,0.5,0.5,8,1,km,1.0,ctkga,ad2
0,8,285.0250174999237,1.430511474609375e-06,33.07450819015503,yago,-1,equaladd,50,only_clusters,adm,0.5,0.5,10,2,km,1.0,ctkga,ad2
0,6,275.38960790634155,1.6689300537109375e-06,24.58329701423645,yago,-1,equaladd,50,only_clusters,adm,0.5,0.5,6,6,km,1.0,ctkga,ad2
0,9,293.4837350845337,2.6226043701171875e-06,37.62876868247986,yago,-1,equaladd,50,only_clusters,adm,0.5,0.5,6,6,km,1.0,ctkga,ad2
0,2,210.71889352798462,1.6689300537109375e-06,12.0370831489563,yago,-1,equaladd,50,only_clusters,adm,0.5,0.5,10,8,km,1.0,ctkga,ad2
0,10,515.0601563453673,1.9073486328125e-06,39.791499614715576,yago,-1,equaladd,50,only_clusters,adm,0.5,0.5,8,1,km,1.0,ctkga,ad2
0,2,307.87812733650213,4.291534423828125e-06,8.407995223999022,yago,-1,equaladd,50,only_clusters,adm,0.5,0.5,4,8,km,1.0,ctkga,ad2
0,6,242.77250480651853,2.6226043701171875e-06,42.73176503181458,yago,-1,equaladd,50,only_clusters,adm,0.5,0.5,8,8,km,1.0,ctkga,ad2
0,5,222.4137041568756,4.76837158203125e-06,15.275352478027346,yago,-1,equaladd,50,only_clusters,adm,0.5,0.5,4,8,km,1.0,ctkga,ad2
0,5,311.43603539466864,2.1457672119140625e-06,14.932580947875975,yago,-1,equaladd,50,only_clusters,adm,0.5,0.5,4,2,km,1.0,ctkga,ad2
0,4,209.09137773513797,1.430511474609375e-06,18.74567651748657,yago,-1,equaladd,50,only_clusters,adm,0.5,0.5,2,2,km,1.0,ctkga,ad2
0,10,424.63639402389526,2.6226043701171875e-06,41.14677810668945,yago,-1,equaladd,50,only_clusters,adm,0.5,0.5,10,1,km,1.0,ctkga,ad2
0,3,231.2455916404724,1.9073486328125e-06,15.96917963027954,yago,-1,equaladd,50,only_clusters,adm,0.5,0.5,10,6,km,1.0,ctkga,ad2
0,0,649.3592665195465,1.6689300537109375e-06,4.3909151554107675,yago,-1,equaladd,50,only_clusters,adm,0.5,0.5,6,8,km,1.0,ctkga,ad2
0,4,284.34376788139343,2.6226043701171875e-06,19.086098194122318,yago,-1,equaladd,50,only_clusters,adm,0.5,0.5,10,6,km,1.0,ctkga,ad2
0,1,239.00238752365112,1.9073486328125e-06,10.799849033355713,yago,-1,equaladd,50,only_clusters,adm,0.5,0.5,6,4,km,1.0,ctkga,ad2
0,1,227.78755760192868,1.9073486328125e-06,8.279297113418579,yago,-1,equaladd,50,only_clusters,adm,0.5,0.5,10,6,km,1.0,ctkga,ad2
0,1,264.63713812828064,2.384185791015625e-06,12.907675743103027,yago,-1,equaladd,50,only_clusters,adm,0.5,0.5,6,8,km,1.0,ctkga,ad2
0,2,211.2758777141571,2.1457672119140625e-06,11.960759401321411,yago,-1,equaladd,50,only_clusters,adm,0.5,0.5,10,2,km,1.0,ctkga,ad2
0,7,306.36588573455816,1.6689300537109375e-06,19.898728370666504,yago,-1,equaladd,50,only_clusters,adm,0.5,0.5,4,2,km,1.0,ctkga,ad2
0,6,505.8337080478668,2.1457672119140625e-06,24.025622844696045,yago,-1,equaladd,50,only_clusters,adm,0.5,0.5,8,1,km,1.0,ctkga,ad2
0,10,338.14451742172236,1.9073486328125e-06,40.34573650360107,yago,-1,equaladd,50,only_clusters,adm,0.5,0.5,10,8,km,1.0,ctkga,ad2
0,9,300.1836850643158,2.6226043701171875e-06,32.945280075073235,yago,-1,equaladd,50,only_clusters,adm,0.5,0.5,8,4,km,1.0,ctkga,ad2
0,0,587.3815529346466,3.337860107421875e-06,4.089172601699828,yago,-1,equaladd,50,only_clusters,adm,0.5,0.5,2,8,km,1.0,ctkga,ad2
0,4,256.1267008781433,2.1457672119140625e-06,14.927082777023315,yago,-1,equaladd,50,only_clusters,adm,0.5,0.5,6,8,km,1.0,ctkga,ad2
0,3,491.3357393741608,2.6226043701171875e-06,24.02251744270325,yago,-1,equaladd,50,only_clusters,adm,0.5,0.5,8,1,km,1.0,ctkga,ad2
0,7,232.94066143035892,2.1457672119140625e-06,31.407055377960205,yago,-1,equaladd,50,only_clusters,adm,0.5,0.5,4,6,km,1.0,ctkga,ad2
0,10,606.6672160625458,1.9073486328125e-06,43.89350485801697,yago,-1,equaladd,50,only_clusters,adm,0.5,0.5,4,1,km,1.0,ctkga,ad2
0,8,299.54823517799383,2.1457672119140625e-06,25.660346508026123,yago,-1,equaladd,50,only_clusters,adm,0.5,0.5,6,6,km,1.0,ctkga,ad2
0,8,228.29932260513303,1.6689300537109375e-06,39.1590428352356,yago,-1,equaladd,50,only_clusters,adm,0.5,0.5,6,2,km,1.0,ctkga,ad2
0,5,227.3544852733612,2.384185791015625e-06,16.803490161895752,yago,-1,equaladd,50,only_clusters,adm,0.5,0.5,4,4,km,1.0,ctkga,ad2
0,5,251.37441301345825,1.6689300537109375e-06,34.685582876205444,yago,-1,equaladd,50,only_clusters,adm,0.5,0.5,6,6,km,1.0,ctkga,ad2
0,3,223.43017363548282,1.430511474609375e-06,9.608527660369873,yago,-1,equaladd,50,only_clusters,adm,0.5,0.5,2,2,km,1.0,ctkga,ad2
0,3,265.5276408195496,1.9073486328125e-06,23.64677882194519,yago,-1,equaladd,50,only_clusters,adm,0.5,0.5,8,6,km,1.0,ctkga,ad2
0,8,226.1400227546692,2.1457672119140625e-06,32.83322811126709,yago,-1,equaladd,50,only_clusters,adm,0.5,0.5,10,6,km,1.0,ctkga,ad2
0,4,558.299644947052,2.384185791015625e-06,17.465675592422485,yago,-1,equaladd,50,only_clusters,adm,0.5,0.5,8,1,km,1.0,ctkga,ad2
0,6,230.15083074569702,2.1457672119140625e-06,23.425069570541385,yago,-1,equaladd,50,only_clusters,adm,0.5,0.5,8,6,km,1.0,ctkga,ad2
0,5,212.67167234420776,2.6226043701171875e-06,17.291335582733154,yago,-1,equaladd,50,only_clusters,adm,0.5,0.5,4,6,km,1.0,ctkga,ad2
0,8,521.2086760997772,1.9073486328125e-06,26.525235414505005,yago,-1,equaladd,50,only_clusters,adm,0.5,0.5,4,1,km,1.0,ctkga,ad2
0,3,227.53706979751587,1.6689300537109375e-06,10.559247493743896,yago,-1,equaladd,50,only_clusters,adm,0.5,0.5,4,6,km,1.0,ctkga,ad2
0,8,223.48040175437927,2.384185791015625e-06,25.62713980674744,yago,-1,equaladd,50,only_clusters,adm,0.5,0.5,6,4,km,1.0,ctkga,ad2
0,7,250.17811751365662,1.6689300537109375e-06,19.098609447479244,yago,-1,equaladd,50,only_clusters,adm,0.5,0.5,4,4,km,1.0,ctkga,ad2
0,0,843.9729144573213,0.005251646041870117,3.679132223129273,yago,-1,equaladd,50,only_clusters,adm,0.5,0.5,2,4,km,1.0,ctkga,ad2
0,2,560.7821402549744,2.86102294921875e-06,18.59352135658264,yago,-1,equaladd,50,only_clusters,adm,0.5,0.5,6,1,km,1.0,ctkga,ad2
0,5,530.3885388374329,1.9073486328125e-06,26.09330987930298,yago,-1,equaladd,50,only_clusters,adm,0.5,0.5,4,1,km,1.0,ctkga,ad2
0,1,236.69195175170898,1.6689300537109375e-06,9.510560512542725,yago,-1,equaladd,50,only_clusters,adm,0.5,0.5,2,2,km,1.0,ctkga,ad2
0,1,521.8427350521089,1.6689300537109375e-06,9.401171922683718,yago,-1,equaladd,50,only_clusters,adm,0.5,0.5,10,1,km,1.0,ctkga,ad2
0,6,233.07874751091003,2.1457672119140625e-06,19.35200929641724,yago,-1,equaladd,50,only_clusters,adm,0.5,0.5,2,8,km,1.0,ctkga,ad2
0,1,221.41734743118286,1.6689300537109375e-06,7.538801431655884,yago,-1,equaladd,50,only_clusters,adm,0.5,0.5,8,2,km,1.0,ctkga,ad2
0,7,235.958660364151,2.6226043701171875e-06,29.76983618736267,yago,-1,equaladd,50,only_clusters,adm,0.5,0.5,2,4,km,1.0,ctkga,ad2
0,8,809.8050034046173,2.86102294921875e-06,16.64473009109497,yago,-1,equaladd,50,only_clusters,adm,0.5,0.5,2,1,km,1.0,ctkga,ad2
0,5,211.9521780014038,1.9073486328125e-06,23.46841359138489,yago,-1,equaladd,50,only_clusters,adm,0.5,0.5,2,4,km,1.0,ctkga,ad2
0,9,284.5735652446747,1.9073486328125e-06,39.146031856536865,yago,-1,equaladd,50,only_clusters,adm,0.5,0.5,6,8,km,1.0,ctkga,ad2
0,1,207.27501392364502,2.1457672119140625e-06,7.171154975891112,yago,-1,equaladd,50,only_clusters,adm,0.5,0.5,4,4,km,1.0,ctkga,ad2
0,2,272.21413254737854,1.6689300537109375e-06,9.616277694702148,yago,-1,equaladd,50,only_clusters,adm,0.5,0.5,6,4,km,1.0,ctkga,ad2
0,8,262.11065220832825,1.9073486328125e-06,38.64485311508179,yago,-1,equaladd,50,only_clusters,adm,0.5,0.5,8,4,km,1.0,ctkga,ad2
0,3,277.7132337093353,1.9073486328125e-06,17.19775390625,yago,-1,equaladd,50,only_clusters,adm,0.5,0.5,8,4,km,1.0,ctkga,ad2
0,2,283.1901543140412,2.1457672119140625e-06,10.716768026351927,yago,-1,equaladd,50,only_clusters,adm,0.5,0.5,8,8,km,1.0,ctkga,ad2
0,4,219.08601427078247,2.1457672119140625e-06,18.882914066314694,yago,-1,equaladd,50,only_clusters,adm,0.5,0.5,10,8,km,1.0,ctkga,ad2
0,7,787.3516688346863,2.384185791015625e-06,29.20735740661621,yago,-1,equaladd,50,only_clusters,adm,0.5,0.5,2,1,km,1.0,ctkga,ad2
0,10,540.1235604286194,1.1920928955078123e-06,40.17790198326111,yago,-1,equaladd,50,only_clusters,adm,0.5,0.5,6,1,km,1.0,ctkga,ad2
0,7,232.13400101661682,1.9073486328125e-06,26.297888994216922,yago,-1,equaladd,50,only_clusters,adm,0.5,0.5,8,8,km,1.0,ctkga,ad2
0,6,475.30737948417664,1.9073486328125e-06,26.529513120651245,yago,-1,equaladd,50,only_clusters,adm,0.5,0.5,10,1,km,1.0,ctkga,ad2
0,1,215.94464802742004,1.9073486328125e-06,8.070087909698486,yago,-1,equaladd,50,only_clusters,adm,0.5,0.5,8,6,km,1.0,ctkga,ad2
0,10,256.92406344413763,2.1457672119140625e-06,34.15258955955505,yago,-1,equaladd,50,only_clusters,adm,0.5,0.5,2,8,km,1.0,ctkga,ad2
0,6,220.04630708694458,2.1457672119140625e-06,22.564733505249023,yago,-1,equaladd,50,only_clusters,adm,0.5,0.5,2,6,km,1.0,ctkga,ad2
0,2,219.9402434825897,2.1457672119140625e-06,18.152703285217285,yago,-1,equaladd,50,only_clusters,adm,0.5,0.5,6,8,km,1.0,ctkga,ad2
0,8,240.56250476837158,2.1457672119140625e-06,21.58586812019348,yago,-1,equaladd,50,only_clusters,adm,0.5,0.5,4,4,km,1.0,ctkga,ad2
0,3,543.6731269359589,2.1457672119140625e-06,13.642440557479858,yago,-1,equaladd,50,only_clusters,adm,0.5,0.5,4,1,km,1.0,ctkga,ad2
0,7,232.16938018798828,1.430511474609375e-06,14.92911672592163,yago,-1,equaladd,50,only_clusters,adm,0.5,0.5,2,6,km,1.0,ctkga,ad2
0,9,227.0291247367859,2.86102294921875e-06,36.58437156677246,yago,-1,equaladd,50,only_clusters,adm,0.5,0.5,4,6,km,1.0,ctkga,ad2
0,2,278.9920854568481,2.86102294921875e-06,11.897725105285645,yago,-1,equaladd,50,only_clusters,adm,0.5,0.5,10,6,km,1.0,ctkga,ad2
0,2,288.36842918396,1.9073486328125e-06,12.915325164794922,yago,-1,equaladd,50,only_clusters,adm,0.5,0.5,2,6,km,1.0,ctkga,ad2
0,6,472.5703983306885,2.1457672119140625e-06,20.914154291152954,yago,-1,equaladd,50,only_clusters,adm,0.5,0.5,6,1,km,1.0,ctkga,ad2
0,10,794.3173935413361,1.9073486328125e-06,36.14241933822632,yago,-1,equaladd,50,only_clusters,adm,0.5,0.5,2,1,km,1.0,ctkga,ad2
0,7,254.91867661476132,1.9073486328125e-06,26.559618949890137,yago,-1,equaladd,50,only_clusters,adm,0.5,0.5,8,6,km,1.0,ctkga,ad2
0,9,245.66889691352844,2.384185791015625e-06,18.529908895492554,yago,-1,equaladd,50,only_clusters,adm,0.5,0.5,2,8,km,1.0,ctkga,ad2
0,10,238.59164452552795,2.1457672119140625e-06,39.61269521713257,yago,-1,equaladd,50,only_clusters,adm,0.5,0.5,10,4,km,1.0,ctkga,ad2
0,3,264.4758679866791,4.529953002929688e-06,14.420727252960205,yago,-1,equaladd,50,only_clusters,adm,0.5,0.5,4,8,km,1.0,ctkga,ad2
0,5,260.93593740463257,1.9073486328125e-06,30.219868659973145,yago,-1,equaladd,50,only_clusters,adm,0.5,0.5,6,4,km,1.0,ctkga,ad2
0,7,221.14489555358887,1.6689300537109375e-06,33.466148376464844,yago,-1,equaladd,50,only_clusters,adm,0.5,0.5,10,8,km,1.0,ctkga,ad2
0,5,219.3287250995636,1.430511474609375e-06,12.569783687591553,yago,-1,equaladd,50,only_clusters,adm,0.5,0.5,2,2,km,1.0,ctkga,ad2
0,9,242.32189559936523,1.9073486328125e-06,55.72936320304871,yago,-1,equaladd,50,only_clusters,adm,0.5,0.5,6,2,km,1.0,ctkga,ad2
0,4,226.5290808677673,2.384185791015625e-06,24.683486223220825,yago,-1,equaladd,50,only_clusters,adm,0.5,0.5,6,2,km,1.0,ctkga,ad2
0,2,271.24910044670105,1.9073486328125e-06,7.0128653049468985,yago,-1,equaladd,50,only_clusters,adm,0.5,0.5,2,8,km,1.0,ctkga,ad2
0,7,220.96670842170715,2.384185791015625e-06,36.9074764251709,yago,-1,equaladd,50,only_clusters,adm,0.5,0.5,10,2,km,1.0,ctkga,ad2
0,5,314.3783330917358,2.1457672119140625e-06,23.80581760406494,yago,-1,equaladd,50,only_clusters,adm,0.5,0.5,2,8,km,1.0,ctkga,ad2
0,7,422.6036944389343,2.384185791015625e-06,38.24843239784241,yago,-1,equaladd,50,only_clusters,adm,0.5,0.5,10,1,km,1.0,ctkga,ad2
0,9,242.29501056671143,2.384185791015625e-06,61.743677616119385,yago,-1,equaladd,50,only_clusters,adm,0.5,0.5,8,8,km,1.0,ctkga,ad2
0,10,247.6068925857544,1.9073486328125e-06,26.94858407974243,yago,-1,equaladd,50,only_clusters,adm,0.5,0.5,4,2,km,1.0,ctkga,ad2
0,3,220.67020082473755,1.9073486328125e-06,11.940125942230225,yago,-1,equaladd,50,only_clusters,adm,0.5,0.5,4,4,km,1.0,ctkga,ad2
0,6,258.23658871650696,1.9073486328125e-06,21.326979637146,yago,-1,equaladd,50,only_clusters,adm,0.5,0.5,6,2,km,1.0,ctkga,ad2
0,10,256.96238589286804,9.5367431640625e-07,20.385851621627808,yago,-1,equaladd,50,only_clusters,adm,0.5,0.5,2,6,km,1.0,ctkga,ad2
0,9,231.6308312416077,1.9073486328125e-06,35.815237522125244,yago,-1,equaladd,50,only_clusters,adm,0.5,0.5,10,6,km,1.0,ctkga,ad2
0,7,234.95732855796814,2.6226043701171875e-06,41.094983100891106,yago,-1,equaladd,50,only_clusters,adm,0.5,0.5,8,2,km,1.0,ctkga,ad2
0,2,207.34726691246036,1.430511474609375e-06,8.353101253509521,yago,-1,equaladd,50,only_clusters,adm,0.5,0.5,4,2,km,1.0,ctkga,ad2
0,1,536.8133208751678,1.430511474609375e-06,11.398015022277832,yago,-1,equaladd,50,only_clusters,adm,0.5,0.5,8,1,km,1.0,ctkga,ad2
0,3,212.4116940498352,2.384185791015625e-06,10.97572636604309,yago,-1,equaladd,50,only_clusters,adm,0.5,0.5,4,2,km,1.0,ctkga,ad2
0,4,250.98176097869876,2.86102294921875e-06,17.965870141983032,yago,-1,equaladd,50,only_clusters,adm,0.5,0.5,8,8,km,1.0,ctkga,ad2
0,5,262.30928921699524,2.384185791015625e-06,20.063922405242923,yago,-1,equaladd,50,only_clusters,adm,0.5,0.5,8,4,km,1.0,ctkga,ad2
0,10,233.79358196258545,2.6226043701171875e-06,34.22929239273071,yago,-1,equaladd,50,only_clusters,adm,0.5,0.5,4,6,km,1.0,ctkga,ad2
0,0,525.5098869800569,2.1457672119140625e-06,5.333987236022949,yago,-1,equaladd,50,only_clusters,adm,0.5,0.5,8,1,km,1.0,ctkga,ad2
0,8,257.11033129692083,2.384185791015625e-06,37.86461591720581,yago,-1,equaladd,50,only_clusters,adm,0.5,0.5,4,2,km,1.0,ctkga,ad2
0,6,216.12869310379028,2.86102294921875e-06,17.805616855621334,yago,-1,equaladd,50,only_clusters,adm,0.5,0.5,4,6,km,1.0,ctkga,ad2
0,10,288.3640427589416,2.384185791015625e-06,30.505585193634033,yago,-1,equaladd,50,only_clusters,adm,0.5,0.5,6,4,km,1.0,ctkga,ad2
0,8,267.18768620491034,2.384185791015625e-06,21.431711912155148,yago,-1,equaladd,50,only_clusters,adm,0.5,0.5,4,6,km,1.0,ctkga,ad2
0,6,252.6704819202423,1.9073486328125e-06,13.647228956222534,yago,-1,equaladd,50,only_clusters,adm,0.5,0.5,2,4,km,1.0,ctkga,ad2
0,4,216.13767194747925,2.1457672119140625e-06,18.67868566513061,yago,-1,equaladd,50,only_clusters,adm,0.5,0.5,10,2,km,1.0,ctkga,ad2
0,6,216.39058637619016,2.384185791015625e-06,19.560604333877567,yago,-1,equaladd,50,only_clusters,adm,0.5,0.5,4,4,km,1.0,ctkga,ad2
0,7,585.8579261302947,2.6226043701171875e-06,31.28227663040161,yago,-1,equaladd,50,only_clusters,adm,0.5,0.5,6,1,km,1.0,ctkga,ad2
0,4,218.73990941047668,3.0994415283203125e-06,14.206671714782715,yago,-1,equaladd,50,only_clusters,adm,0.5,0.5,4,2,km,1.0,ctkga,ad2
0,0,801.0339207649231,2.384185791015625e-06,3.4276275634765625,yago,-1,equaladd,50,only_clusters,adm,0.5,0.5,2,6,km,1.0,ctkga,ad2
0,2,597.6546728610992,1.430511474609375e-06,8.33815336227417,yago,-1,equaladd,50,only_clusters,adm,0.5,0.5,4,1,km,1.0,ctkga,ad2
0,2,210.9894912242889,2.1457672119140625e-06,8.267524242401121,yago,-1,equaladd,50,only_clusters,adm,0.5,0.5,4,4,km,1.0,ctkga,ad2
0,6,300.18883061409,1.6689300537109375e-06,34.042307138442986,yago,-1,equaladd,50,only_clusters,adm,0.5,0.5,8,4,km,1.0,ctkga,ad2
0,8,246.54634261131287,1.9073486328125e-06,28.7687349319458,yago,-1,equaladd,50,only_clusters,adm,0.5,0.5,8,6,km,1.0,ctkga,ad2
0,5,239.45736575126648,2.384185791015625e-06,37.81003165245056,yago,-1,equaladd,50,only_clusters,adm,0.5,0.5,8,8,km,1.0,ctkga,ad2
0,6,230.5343894958496,1.9073486328125e-06,36.060488939285285,yago,-1,equaladd,50,only_clusters,adm,0.5,0.5,6,8,km,1.0,ctkga,ad2
0,10,245.4972333908081,2.1457672119140625e-06,20.114660263061523,yago,-1,equaladd,50,only_clusters,adm,0.5,0.5,2,2,km,1.0,ctkga,ad2
0,1,208.46184253692627,1.9073486328125e-06,7.032217741012572,yago,-1,equaladd,50,only_clusters,adm,0.5,0.5,6,2,km,1.0,ctkga,ad2
0,4,559.8635017871857,1.9073486328125e-06,16.137286186218258,yago,-1,equaladd,50,only_clusters,adm,0.5,0.5,6,1,km,1.0,ctkga,ad2
0,7,277.13379788398737,4.76837158203125e-06,21.460143089294434,yago,-1,equaladd,50,only_clusters,adm,0.5,0.5,4,8,km,1.0,ctkga,ad2
0,10,225.9463722705841,2.384185791015625e-06,23.82326698303223,yago,-1,equaladd,50,only_clusters,adm,0.5,0.5,2,4,km,1.0,ctkga,ad2
0,3,242.27558255195615,1.9073486328125e-06,19.72840905189514,yago,-1,equaladd,50,only_clusters,adm,0.5,0.5,10,2,km,1.0,ctkga,ad2
0,5,311.9211974143982,2.1457672119140625e-06,27.519329071044922,yago,-1,equaladd,50,only_clusters,adm,0.5,0.5,10,6,km,1.0,ctkga,ad2
