{
    "train_avg_precision": {
        "best_results": [
            0.0,
            1.0,
            0.0,
            0.0,
            1.0
        ],
        "all_results": [
            [
                0.0,
                1.0,
                0.0,
                0.0,
                1.0
            ],
            [
                0.0,
                1.0,
                0.0,
                0.0,
                0.0
            ],
            [
                0.0,
                1.0,
                0.0,
                0.0,
                0.0
            ],
            [
                0.0,
                1.0,
                0.0,
                0.0,
                0.0
            ],
            [
                0.0,
                1.0,
                0.0,
                0.0,
                0.0
            ],
            [
                0.0,
                1.0,
                0.0,
                0.0,
                0.0
            ],
            [
                0.0,
                1.0,
                0.0,
                0.0,
                0.0
            ],
            [
                0.0,
                1.0,
                0.0,
                0.0,
                0.0
            ],
            [
                0.0,
                1.0,
                0.0,
                0.0,
                0.0
            ],
            [
                0.0,
                1.0,
                0.0,
                0.0,
                0.0
            ],
            [
                0.0,
                1.0,
                0.0,
                0.0,
                0.0
            ],
            [
                0.0,
                1.0,
                0.0,
                0.0,
                0.0
            ],
            [
                0.0,
                1.0,
                0.0,
                0.0,
                0.0
            ]
        ],
        "epoches": [
            0,
            10,
            20,
            30,
            40,
            50,
            60,
            70,
            80,
            90,
            100,
            110,
            120
        ]
    },
    "train_avg_recall": {
        "best_results": [
            0.0,
            0.6993006993006993,
            0.0,
            0.0,
            0.04195804195804196
        ],
        "all_results": [
            [
                0.0,
                0.6993006993006993,
                0.0,
                0.0,
                0.04195804195804196
            ],
            [
                0.0,
                0.6983240223463687,
                0.0,
                0.0,
                0.0
            ],
            [
                0.0,
                0.6983240223463687,
                0.0,
                0.0,
                0.0
            ],
            [
                0.0,
                0.6983240223463687,
                0.0,
                0.0,
                0.0
            ],
            [
                0.0,
                0.6983240223463687,
                0.0,
                0.0,
                0.0
            ],
            [
                0.0,
                0.6983240223463687,
                0.0,
                0.0,
                0.0
            ],
            [
                0.0,
                0.6983240223463687,
                0.0,
                0.0,
                0.0
            ],
            [
                0.0,
                0.6983240223463687,
                0.0,
                0.0,
                0.0
            ],
            [
                0.0,
                0.6983240223463687,
                0.0,
                0.0,
                0.0
            ],
            [
                0.0,
                0.6983240223463687,
                0.0,
                0.0,
                0.0
            ],
            [
                0.0,
                0.6983240223463687,
                0.0,
                0.0,
                0.0
            ],
            [
                0.0,
                0.6983240223463687,
                0.0,
                0.0,
                0.0
            ],
            [
                0.0,
                0.6983240223463687,
                0.0,
                0.0,
                0.0
            ]
        ],
        "epoches": [
            0,
            10,
            20,
            30,
            40,
            50,
            60,
            70,
            80,
            90,
            100,
            110,
            120
        ]
    },
    "train_avg_f1": {
        "best_results": [
            0.0,
            0.823045267489712,
            0.0,
            0.0,
            0.08053691275167786
        ],
        "all_results": [
            [
                0.0,
                0.823045267489712,
                0.0,
                0.0,
                0.08053691275167786
            ],
            [
                0.0,
                0.8223684210526315,
                0.0,
                0.0,
                0.0
            ],
            [
                0.0,
                0.8223684210526315,
                0.0,
                0.0,
                0.0
            ],
            [
                0.0,
                0.8223684210526315,
                0.0,
                0.0,
                0.0
            ],
            [
                0.0,
                0.8223684210526315,
                0.0,
                0.0,
                0.0
            ],
            [
                0.0,
                0.8223684210526315,
                0.0,
                0.0,
                0.0
            ],
            [
                0.0,
                0.8223684210526315,
                0.0,
                0.0,
                0.0
            ],
            [
                0.0,
                0.8223684210526315,
                0.0,
                0.0,
                0.0
            ],
            [
                0.0,
                0.8223684210526315,
                0.0,
                0.0,
                0.0
            ],
            [
                0.0,
                0.8223684210526315,
                0.0,
                0.0,
                0.0
            ],
            [
                0.0,
                0.8223684210526315,
                0.0,
                0.0,
                0.0
            ],
            [
                0.0,
                0.8223684210526315,
                0.0,
                0.0,
                0.0
            ],
            [
                0.0,
                0.8223684210526315,
                0.0,
                0.0,
                0.0
            ]
        ],
        "epoches": [
            0,
            10,
            20,
            30,
            40,
            50,
            60,
            70,
            80,
            90,
            100,
            110,
            120
        ]
    },
    "train_avg_accuracy": {
        "best_results": [
            0.9134078025817871,
            0.6997206807136536,
            0.9022346138954163,
            0.924580991268158,
            0.9581005573272705
        ],
        "all_results": [
            [
                0.9134078025817871,
                0.6997206807136536,
                0.9022346138954163,
                0.924580991268158,
                0.9581005573272705
            ],
            [
                0.9134078025817871,
                0.6983240246772766,
                0.9022346138954163,
                0.924580991268158,
                0.9581005573272705
            ],
            [
                0.9134078025817871,
                0.6983240246772766,
                0.9022346138954163,
                0.924580991268158,
                0.9581005573272705
            ],
            [
                0.9134078025817871,
                0.6983240246772766,
                0.9022346138954163,
                0.924580991268158,
                0.9581005573272705
            ],
            [
                0.9134078025817871,
                0.6983240246772766,
                0.9022346138954163,
                0.924580991268158,
                0.9581005573272705
            ],
            [
                0.9134078025817871,
                0.6983240246772766,
                0.9022346138954163,
                0.924580991268158,
                0.9581005573272705
            ],
            [
                0.9134078025817871,
                0.6983240246772766,
                0.9022346138954163,
                0.924580991268158,
                0.9581005573272705
            ],
            [
                0.9134078025817871,
                0.6983240246772766,
                0.9022346138954163,
                0.924580991268158,
                0.9581005573272705
            ],
            [
                0.9134078025817871,
                0.6983240246772766,
                0.9022346138954163,
                0.924580991268158,
                0.9581005573272705
            ],
            [
                0.9134078025817871,
                0.6983240246772766,
                0.9022346138954163,
                0.924580991268158,
                0.9581005573272705
            ],
            [
                0.9134078025817871,
                0.6983240246772766,
                0.9022346138954163,
                0.924580991268158,
                0.9581005573272705
            ],
            [
                0.9134078025817871,
                0.6983240246772766,
                0.9022346138954163,
                0.924580991268158,
                0.9581005573272705
            ],
            [
                0.9134078025817871,
                0.6983240246772766,
                0.9022346138954163,
                0.924580991268158,
                0.9581005573272705
            ]
        ],
        "epoches": [
            0,
            10,
            20,
            30,
            40,
            50,
            60,
            70,
            80,
            90,
            100,
            110,
            120
        ]
    },
    "val_avg_precision": {
        "best_results": [
            0.0,
            1.0,
            0.0,
            0.0,
            1.0
        ],
        "all_results": [
            [
                0.0,
                1.0,
                0.0,
                0.0,
                1.0
            ],
            [
                0.0,
                1.0,
                0.0,
                0.0,
                0.0
            ],
            [
                0.0,
                1.0,
                0.0,
                0.0,
                0.0
            ],
            [
                0.0,
                1.0,
                0.0,
                0.0,
                0.0
            ],
            [
                0.0,
                1.0,
                0.0,
                0.0,
                0.0
            ],
            [
                0.0,
                1.0,
                0.0,
                0.0,
                0.0
            ],
            [
                0.0,
                1.0,
                0.0,
                0.0,
                0.0
            ],
            [
                0.0,
                1.0,
                0.0,
                0.0,
                0.0
            ],
            [
                0.0,
                1.0,
                0.0,
                0.0,
                0.0
            ],
            [
                0.0,
                1.0,
                0.0,
                0.0,
                0.0
            ],
            [
                0.0,
                1.0,
                0.0,
                0.0,
                0.0
            ],
            [
                0.0,
                1.0,
                0.0,
                0.0,
                0.0
            ],
            [
                0.0,
                1.0,
                0.0,
                0.0,
                0.0
            ]
        ],
        "epoches": [
            0,
            10,
            20,
            30,
            40,
            50,
            60,
            70,
            80,
            90,
            100,
            110,
            120
        ]
    },
    "val_avg_recall": {
        "best_results": [
            0.0,
            0.3723849372384937,
            0.0,
            0.0,
            0.07142857142857142
        ],
        "all_results": [
            [
                0.0,
                0.3723849372384937,
                0.0,
                0.0,
                0.07142857142857142
            ],
            [
                0.0,
                0.3723849372384937,
                0.0,
                0.0,
                0.0
            ],
            [
                0.0,
                0.3723849372384937,
                0.0,
                0.0,
                0.0
            ],
            [
                0.0,
                0.3723849372384937,
                0.0,
                0.0,
                0.0
            ],
            [
                0.0,
                0.3723849372384937,
                0.0,
                0.0,
                0.0
            ],
            [
                0.0,
                0.3723849372384937,
                0.0,
                0.0,
                0.0
            ],
            [
                0.0,
                0.3723849372384937,
                0.0,
                0.0,
                0.0
            ],
            [
                0.0,
                0.3723849372384937,
                0.0,
                0.0,
                0.0
            ],
            [
                0.0,
                0.3723849372384937,
                0.0,
                0.0,
                0.0
            ],
            [
                0.0,
                0.3723849372384937,
                0.0,
                0.0,
                0.0
            ],
            [
                0.0,
                0.3723849372384937,
                0.0,
                0.0,
                0.0
            ],
            [
                0.0,
                0.3723849372384937,
                0.0,
                0.0,
                0.0
            ],
            [
                0.0,
                0.3723849372384937,
                0.0,
                0.0,
                0.0
            ]
        ],
        "epoches": [
            0,
            10,
            20,
            30,
            40,
            50,
            60,
            70,
            80,
            90,
            100,
            110,
            120
        ]
    },
    "val_avg_f1": {
        "best_results": [
            0.0,
            0.5426829268292682,
            0.0,
            0.0,
            0.13333333333333333
        ],
        "all_results": [
            [
                0.0,
                0.5426829268292682,
                0.0,
                0.0,
                0.13333333333333333
            ],
            [
                0.0,
                0.5426829268292682,
                0.0,
                0.0,
                0.0
            ],
            [
                0.0,
                0.5426829268292682,
                0.0,
                0.0,
                0.0
            ],
            [
                0.0,
                0.5426829268292682,
                0.0,
                0.0,
                0.0
            ],
            [
                0.0,
                0.5426829268292682,
                0.0,
                0.0,
                0.0
            ],
            [
                0.0,
                0.5426829268292682,
                0.0,
                0.0,
                0.0
            ],
            [
                0.0,
                0.5426829268292682,
                0.0,
                0.0,
                0.0
            ],
            [
                0.0,
                0.5426829268292682,
                0.0,
                0.0,
                0.0
            ],
            [
                0.0,
                0.5426829268292682,
                0.0,
                0.0,
                0.0
            ],
            [
                0.0,
                0.5426829268292682,
                0.0,
                0.0,
                0.0
            ],
            [
                0.0,
                0.5426829268292682,
                0.0,
                0.0,
                0.0
            ],
            [
                0.0,
                0.5426829268292682,
                0.0,
                0.0,
                0.0
            ],
            [
                0.0,
                0.5426829268292682,
                0.0,
                0.0,
                0.0
            ]
        ],
        "epoches": [
            0,
            10,
            20,
            30,
            40,
            50,
            60,
            70,
            80,
            90,
            100,
            110,
            120
        ]
    },
    "val_avg_accuracy": {
        "best_results": [
            0.8870292901992798,
            0.3723849356174469,
            0.6569037437438965,
            0.8995816111564636,
            0.9288703203201294
        ],
        "all_results": [
            [
                0.8870292901992798,
                0.3723849356174469,
                0.6569037437438965,
                0.8995816111564636,
                0.9288703203201294
            ],
            [
                0.8870292901992798,
                0.3723849356174469,
                0.6569037437438965,
                0.8995816111564636,
                0.9288703203201294
            ],
            [
                0.8870292901992798,
                0.3723849356174469,
                0.6569037437438965,
                0.8995816111564636,
                0.9288703203201294
            ],
            [
                0.8870292901992798,
                0.3723849356174469,
                0.6569037437438965,
                0.8995816111564636,
                0.9288703203201294
            ],
            [
                0.8870292901992798,
                0.3723849356174469,
                0.6569037437438965,
                0.8995816111564636,
                0.9288703203201294
            ],
            [
                0.8870292901992798,
                0.3723849356174469,
                0.6569037437438965,
                0.8995816111564636,
                0.9288703203201294
            ],
            [
                0.8870292901992798,
                0.3723849356174469,
                0.6569037437438965,
                0.8995816111564636,
                0.9288703203201294
            ],
            [
                0.8870292901992798,
                0.3723849356174469,
                0.6569037437438965,
                0.8995816111564636,
                0.9288703203201294
            ],
            [
                0.8870292901992798,
                0.3723849356174469,
                0.6569037437438965,
                0.8995816111564636,
                0.9288703203201294
            ],
            [
                0.8870292901992798,
                0.3723849356174469,
                0.6569037437438965,
                0.8995816111564636,
                0.9288703203201294
            ],
            [
                0.8870292901992798,
                0.3723849356174469,
                0.6569037437438965,
                0.8995816111564636,
                0.9288703203201294
            ],
            [
                0.8870292901992798,
                0.3723849356174469,
                0.6569037437438965,
                0.8995816111564636,
                0.9288703203201294
            ],
            [
                0.8870292901992798,
                0.3723849356174469,
                0.6569037437438965,
                0.8995816111564636,
                0.9288703203201294
            ]
        ],
        "epoches": [
            0,
            10,
            20,
            30,
            40,
            50,
            60,
            70,
            80,
            90,
            100,
            110,
            120
        ]
    },
    "test_avg_precision": {
        "best_results": [
            0.0,
            1.0,
            0.0,
            0.0,
            0.9411764705882353
        ],
        "all_results": [
            [
                0.0,
                1.0,
                0.0,
                0.0,
                0.9411764705882353
            ],
            [
                0.0,
                1.0,
                0.0,
                0.0,
                0.0
            ],
            [
                0.0,
                1.0,
                0.0,
                0.0,
                0.0
            ],
            [
                0.0,
                1.0,
                0.0,
                0.0,
                0.0
            ],
            [
                0.0,
                1.0,
                0.0,
                0.0,
                0.0
            ],
            [
                0.0,
                1.0,
                0.0,
                0.0,
                0.0
            ],
            [
                0.0,
                1.0,
                0.0,
                0.0,
                0.0
            ],
            [
                0.0,
                1.0,
                0.0,
                0.0,
                0.0
            ],
            [
                0.0,
                1.0,
                0.0,
                0.0,
                0.0
            ],
            [
                0.0,
                1.0,
                0.0,
                0.0,
                0.0
            ],
            [
                0.0,
                1.0,
                0.0,
                0.0,
                0.0
            ],
            [
                0.0,
                1.0,
                0.0,
                0.0,
                0.0
            ],
            [
                0.0,
                1.0,
                0.0,
                0.0,
                0.0
            ]
        ],
        "epoches": [
            0,
            10,
            20,
            30,
            40,
            50,
            60,
            70,
            80,
            90,
            100,
            110,
            120
        ]
    },
    "test_avg_recall": {
        "best_results": [
            0.0,
            0.47280334728033474,
            0.0,
            0.0,
            0.07960199004975124
        ],
        "all_results": [
            [
                0.0,
                0.47280334728033474,
                0.0,
                0.0,
                0.07960199004975124
            ],
            [
                0.0,
                0.47280334728033474,
                0.0,
                0.0,
                0.0
            ],
            [
                0.0,
                0.47280334728033474,
                0.0,
                0.0,
                0.0
            ],
            [
                0.0,
                0.47280334728033474,
                0.0,
                0.0,
                0.0
            ],
            [
                0.0,
                0.47280334728033474,
                0.0,
                0.0,
                0.0
            ],
            [
                0.0,
                0.47280334728033474,
                0.0,
                0.0,
                0.0
            ],
            [
                0.0,
                0.47280334728033474,
                0.0,
                0.0,
                0.0
            ],
            [
                0.0,
                0.47280334728033474,
                0.0,
                0.0,
                0.0
            ],
            [
                0.0,
                0.47280334728033474,
                0.0,
                0.0,
                0.0
            ],
            [
                0.0,
                0.47280334728033474,
                0.0,
                0.0,
                0.0
            ],
            [
                0.0,
                0.47280334728033474,
                0.0,
                0.0,
                0.0
            ],
            [
                0.0,
                0.47280334728033474,
                0.0,
                0.0,
                0.0
            ],
            [
                0.0,
                0.47280334728033474,
                0.0,
                0.0,
                0.0
            ]
        ],
        "epoches": [
            0,
            10,
            20,
            30,
            40,
            50,
            60,
            70,
            80,
            90,
            100,
            110,
            120
        ]
    },
    "test_avg_f1": {
        "best_results": [
            0.0,
            0.6420454545454546,
            0.0,
            0.0,
            0.14678899082568805
        ],
        "all_results": [
            [
                0.0,
                0.6420454545454546,
                0.0,
                0.0,
                0.14678899082568805
            ],
            [
                0.0,
                0.6420454545454546,
                0.0,
                0.0,
                0.0
            ],
            [
                0.0,
                0.6420454545454546,
                0.0,
                0.0,
                0.0
            ],
            [
                0.0,
                0.6420454545454546,
                0.0,
                0.0,
                0.0
            ],
            [
                0.0,
                0.6420454545454546,
                0.0,
                0.0,
                0.0
            ],
            [
                0.0,
                0.6420454545454546,
                0.0,
                0.0,
                0.0
            ],
            [
                0.0,
                0.6420454545454546,
                0.0,
                0.0,
                0.0
            ],
            [
                0.0,
                0.6420454545454546,
                0.0,
                0.0,
                0.0
            ],
            [
                0.0,
                0.6420454545454546,
                0.0,
                0.0,
                0.0
            ],
            [
                0.0,
                0.6420454545454546,
                0.0,
                0.0,
                0.0
            ],
            [
                0.0,
                0.6420454545454546,
                0.0,
                0.0,
                0.0
            ],
            [
                0.0,
                0.6420454545454546,
                0.0,
                0.0,
                0.0
            ],
            [
                0.0,
                0.6420454545454546,
                0.0,
                0.0,
                0.0
            ]
        ],
        "epoches": [
            0,
            10,
            20,
            30,
            40,
            50,
            60,
            70,
            80,
            90,
            100,
            110,
            120
        ]
    },
    "test_avg_accuracy": {
        "best_results": [
            0.9121338725090027,
            0.47280335426330566,
            0.7112970948219299,
            0.9205020666122437,
            0.9288703203201294
        ],
        "all_results": [
            [
                0.9121338725090027,
                0.47280335426330566,
                0.7112970948219299,
                0.9205020666122437,
                0.9288703203201294
            ],
            [
                0.9121338725090027,
                0.47280335426330566,
                0.7112970948219299,
                0.9205020666122437,
                0.9288703203201294
            ],
            [
                0.9121338725090027,
                0.47280335426330566,
                0.7112970948219299,
                0.9205020666122437,
                0.9288703203201294
            ],
            [
                0.9121338725090027,
                0.47280335426330566,
                0.7112970948219299,
                0.9205020666122437,
                0.9288703203201294
            ],
            [
                0.9121338725090027,
                0.47280335426330566,
                0.7112970948219299,
                0.9205020666122437,
                0.9288703203201294
            ],
            [
                0.9121338725090027,
                0.47280335426330566,
                0.7112970948219299,
                0.9205020666122437,
                0.9288703203201294
            ],
            [
                0.9121338725090027,
                0.47280335426330566,
                0.7112970948219299,
                0.9205020666122437,
                0.9288703203201294
            ],
            [
                0.9121338725090027,
                0.47280335426330566,
                0.7112970948219299,
                0.9205020666122437,
                0.9288703203201294
            ],
            [
                0.9121338725090027,
                0.47280335426330566,
                0.7112970948219299,
                0.9205020666122437,
                0.9288703203201294
            ],
            [
                0.9121338725090027,
                0.47280335426330566,
                0.7112970948219299,
                0.9205020666122437,
                0.9288703203201294
            ],
            [
                0.9121338725090027,
                0.47280335426330566,
                0.7112970948219299,
                0.9205020666122437,
                0.9288703203201294
            ],
            [
                0.9121338725090027,
                0.47280335426330566,
                0.7112970948219299,
                0.9205020666122437,
                0.9288703203201294
            ],
            [
                0.9121338725090027,
                0.47280335426330566,
                0.7112970948219299,
                0.9205020666122437,
                0.9288703203201294
            ]
        ],
        "epoches": [
            0,
            10,
            20,
            30,
            40,
            50,
            60,
            70,
            80,
            90,
            100,
            110,
            120
        ]
    }
}