{
    "train_avg_precision": {
        "best_results": [
            1.0,
            1.0,
            0.0,
            1.0,
            0.0
        ],
        "all_results": [
            [
                1.0,
                1.0,
                0.0,
                1.0,
                0.0
            ],
            [
                1.0,
                0.0,
                0.0,
                0.0,
                0.0
            ],
            [
                1.0,
                0.0,
                0.0,
                0.0,
                0.0
            ],
            [
                1.0,
                0.0,
                0.0,
                0.0,
                0.0
            ],
            [
                1.0,
                0.0,
                0.0,
                0.0,
                0.0
            ],
            [
                1.0,
                0.0,
                0.0,
                0.0,
                0.0
            ],
            [
                1.0,
                0.0,
                0.0,
                0.0,
                0.0
            ],
            [
                1.0,
                0.0,
                0.0,
                0.0,
                0.0
            ],
            [
                1.0,
                0.0,
                0.0,
                0.0,
                0.0
            ],
            [
                1.0,
                0.0,
                0.0,
                0.0,
                0.0
            ],
            [
                1.0,
                0.0,
                0.0,
                0.0,
                0.0
            ],
            [
                1.0,
                0.0,
                0.0,
                0.9166666666666666,
                0.0
            ],
            [
                1.0,
                0.0,
                0.0,
                0.9907407407407407,
                0.0
            ],
            [
                1.0,
                0.0,
                0.0,
                0.9907407407407407,
                0.0
            ],
            [
                1.0,
                0.0,
                0.0,
                0.9907407407407407,
                0.0
            ],
            [
                1.0,
                0.0,
                0.0,
                0.9907407407407407,
                0.0
            ],
            [
                1.0,
                0.0,
                0.0,
                1.0,
                0.0
            ],
            [
                1.0,
                0.0,
                0.0,
                1.0,
                0.0
            ],
            [
                1.0,
                0.0,
                0.0,
                1.0,
                0.0
            ]
        ],
        "epoches": [
            0,
            10,
            20,
            30,
            40,
            50,
            60,
            70,
            80,
            90,
            100,
            110,
            120,
            130,
            140,
            150,
            160,
            170,
            180
        ]
    },
    "train_avg_recall": {
        "best_results": [
            0.7506459948320413,
            0.07881136950904392,
            0.0,
            0.14697802197802198,
            0.0
        ],
        "all_results": [
            [
                0.7506459948320413,
                0.07881136950904392,
                0.0,
                0.14697802197802198,
                0.0
            ],
            [
                0.7506459948320413,
                0.0,
                0.0,
                0.0,
                0.0
            ],
            [
                0.7506459948320413,
                0.0,
                0.0,
                0.0,
                0.0
            ],
            [
                0.7506459948320413,
                0.0,
                0.0,
                0.0,
                0.0
            ],
            [
                0.7506459948320413,
                0.0,
                0.0,
                0.0,
                0.0
            ],
            [
                0.7506459948320413,
                0.0,
                0.0,
                0.0,
                0.0
            ],
            [
                0.7506459948320413,
                0.0,
                0.0,
                0.0,
                0.0
            ],
            [
                0.7506459948320413,
                0.0,
                0.0,
                0.0,
                0.0
            ],
            [
                0.7506459948320413,
                0.0,
                0.0,
                0.0,
                0.0
            ],
            [
                0.7506459948320413,
                0.0,
                0.0,
                0.0,
                0.0
            ],
            [
                0.7506459948320413,
                0.0,
                0.0,
                0.0,
                0.0
            ],
            [
                0.7506459948320413,
                0.0,
                0.0,
                0.14644970414201183,
                0.0
            ],
            [
                0.7506459948320413,
                0.0,
                0.0,
                0.14697802197802198,
                0.0
            ],
            [
                0.7506459948320413,
                0.0,
                0.0,
                0.14498644986449866,
                0.0
            ],
            [
                0.7506459948320413,
                0.0,
                0.0,
                0.14285714285714285,
                0.0
            ],
            [
                0.7506459948320413,
                0.0,
                0.0,
                0.1422872340425532,
                0.0
            ],
            [
                0.7506459948320413,
                0.0,
                0.0,
                0.14342629482071714,
                0.0
            ],
            [
                0.7506459948320413,
                0.0,
                0.0,
                0.14342629482071714,
                0.0
            ],
            [
                0.7506459948320413,
                0.0,
                0.0,
                0.14342629482071714,
                0.0
            ]
        ],
        "epoches": [
            0,
            10,
            20,
            30,
            40,
            50,
            60,
            70,
            80,
            90,
            100,
            110,
            120,
            130,
            140,
            150,
            160,
            170,
            180
        ]
    },
    "train_avg_f1": {
        "best_results": [
            0.8575645756457565,
            0.1461077844311377,
            0.0,
            0.25598086124401914,
            0.0
        ],
        "all_results": [
            [
                0.8575645756457565,
                0.1461077844311377,
                0.0,
                0.25598086124401914,
                0.0
            ],
            [
                0.8575645756457565,
                0.0,
                0.0,
                0.0,
                0.0
            ],
            [
                0.8575645756457565,
                0.0,
                0.0,
                0.0,
                0.0
            ],
            [
                0.8575645756457565,
                0.0,
                0.0,
                0.0,
                0.0
            ],
            [
                0.8575645756457565,
                0.0,
                0.0,
                0.0,
                0.0
            ],
            [
                0.8575645756457565,
                0.0,
                0.0,
                0.0,
                0.0
            ],
            [
                0.8575645756457565,
                0.0,
                0.0,
                0.0,
                0.0
            ],
            [
                0.8575645756457565,
                0.0,
                0.0,
                0.0,
                0.0
            ],
            [
                0.8575645756457565,
                0.0,
                0.0,
                0.0,
                0.0
            ],
            [
                0.8575645756457565,
                0.0,
                0.0,
                0.0,
                0.0
            ],
            [
                0.8575645756457565,
                0.0,
                0.0,
                0.0,
                0.0
            ],
            [
                0.8575645756457565,
                0.0,
                0.0,
                0.2525510204081633,
                0.0
            ],
            [
                0.8575645756457565,
                0.0,
                0.0,
                0.25598086124401914,
                0.0
            ],
            [
                0.8575645756457565,
                0.0,
                0.0,
                0.2529550827423168,
                0.0
            ],
            [
                0.8575645756457565,
                0.0,
                0.0,
                0.24970828471411902,
                0.0
            ],
            [
                0.8575645756457565,
                0.0,
                0.0,
                0.2488372093023256,
                0.0
            ],
            [
                0.8575645756457565,
                0.0,
                0.0,
                0.2508710801393728,
                0.0
            ],
            [
                0.8575645756457565,
                0.0,
                0.0,
                0.2508710801393728,
                0.0
            ],
            [
                0.8575645756457565,
                0.0,
                0.0,
                0.2508710801393728,
                0.0
            ]
        ],
        "epoches": [
            0,
            10,
            20,
            30,
            40,
            50,
            60,
            70,
            80,
            90,
            100,
            110,
            120,
            130,
            140,
            150,
            160,
            170,
            180
        ]
    },
    "train_avg_accuracy": {
        "best_results": [
            0.7506459951400757,
            0.9211886525154114,
            0.9844961166381836,
            0.8604651093482971,
            0.9844961166381836
        ],
        "all_results": [
            [
                0.7506459951400757,
                0.9211886525154114,
                0.9844961166381836,
                0.8604651093482971,
                0.9844961166381836
            ],
            [
                0.7506459951400757,
                0.9211886525154114,
                0.9844961166381836,
                0.8604651093482971,
                0.9844961166381836
            ],
            [
                0.7506459951400757,
                0.9211886525154114,
                0.9844961166381836,
                0.8604651093482971,
                0.9844961166381836
            ],
            [
                0.7506459951400757,
                0.9211886525154114,
                0.9844961166381836,
                0.8604651093482971,
                0.9844961166381836
            ],
            [
                0.7506459951400757,
                0.9211886525154114,
                0.9844961166381836,
                0.8604651093482971,
                0.9844961166381836
            ],
            [
                0.7506459951400757,
                0.9211886525154114,
                0.9844961166381836,
                0.8604651093482971,
                0.9844961166381836
            ],
            [
                0.7506459951400757,
                0.9211886525154114,
                0.9844961166381836,
                0.8604651093482971,
                0.9844961166381836
            ],
            [
                0.7506459951400757,
                0.9211886525154114,
                0.9844961166381836,
                0.8604651093482971,
                0.9844961166381836
            ],
            [
                0.7506459951400757,
                0.9211886525154114,
                0.9844961166381836,
                0.8604651093482971,
                0.9844961166381836
            ],
            [
                0.7506459951400757,
                0.9211886525154114,
                0.9844961166381836,
                0.8604651093482971,
                0.9844961166381836
            ],
            [
                0.7506459951400757,
                0.9211886525154114,
                0.9844961166381836,
                0.8552971482276917,
                0.9844961166381836
            ],
            [
                0.7506459951400757,
                0.9211886525154114,
                0.9844961166381836,
                0.24289405345916748,
                0.9844961166381836
            ],
            [
                0.7506459951400757,
                0.9211886525154114,
                0.9844961166381836,
                0.19638243317604065,
                0.9844961166381836
            ],
            [
                0.7506459951400757,
                0.9211886525154114,
                0.9844961166381836,
                0.18346253037452698,
                0.9844961166381836
            ],
            [
                0.7506459951400757,
                0.9211886525154114,
                0.9844961166381836,
                0.16925065219402313,
                0.9844961166381836
            ],
            [
                0.7506459951400757,
                0.9211886525154114,
                0.9844961166381836,
                0.16537468135356903,
                0.9844961166381836
            ],
            [
                0.7506459951400757,
                0.9211886525154114,
                0.9844961166381836,
                0.1666666716337204,
                0.9844961166381836
            ],
            [
                0.7506459951400757,
                0.9211886525154114,
                0.9844961166381836,
                0.1666666716337204,
                0.9844961166381836
            ],
            [
                0.7506459951400757,
                0.9211886525154114,
                0.9844961166381836,
                0.1666666716337204,
                0.9844961166381836
            ]
        ],
        "epoches": [
            0,
            10,
            20,
            30,
            40,
            50,
            60,
            70,
            80,
            90,
            100,
            110,
            120,
            130,
            140,
            150,
            160,
            170,
            180
        ]
    },
    "val_avg_precision": {
        "best_results": [
            1.0,
            1.0,
            0.0,
            1.0,
            0.0
        ],
        "all_results": [
            [
                1.0,
                1.0,
                0.0,
                1.0,
                0.0
            ],
            [
                1.0,
                0.0,
                0.0,
                0.0,
                0.0
            ],
            [
                1.0,
                0.0,
                0.0,
                0.0,
                0.0
            ],
            [
                1.0,
                0.0,
                0.0,
                0.0,
                0.0
            ],
            [
                1.0,
                0.0,
                0.0,
                0.0,
                0.0
            ],
            [
                1.0,
                0.0,
                0.0,
                0.0,
                0.0
            ],
            [
                1.0,
                0.0,
                0.0,
                0.0,
                0.0
            ],
            [
                1.0,
                0.0,
                0.0,
                0.0,
                0.0
            ],
            [
                1.0,
                0.0,
                0.0,
                0.0,
                0.0
            ],
            [
                1.0,
                0.0,
                0.0,
                0.0,
                0.0
            ],
            [
                1.0,
                0.0,
                0.0,
                0.0,
                0.0
            ],
            [
                1.0,
                0.0,
                0.0,
                0.6097560975609756,
                0.0
            ],
            [
                1.0,
                0.0,
                0.0,
                0.975609756097561,
                0.0
            ],
            [
                1.0,
                0.0,
                0.0,
                0.975609756097561,
                0.0
            ],
            [
                1.0,
                0.0,
                0.0,
                0.975609756097561,
                0.0
            ],
            [
                1.0,
                0.0,
                0.0,
                0.975609756097561,
                0.0
            ],
            [
                1.0,
                0.0,
                0.0,
                0.975609756097561,
                0.0
            ],
            [
                1.0,
                0.0,
                0.0,
                0.975609756097561,
                0.0
            ],
            [
                1.0,
                0.0,
                0.0,
                0.975609756097561,
                0.0
            ]
        ],
        "epoches": [
            0,
            10,
            20,
            30,
            40,
            50,
            60,
            70,
            80,
            90,
            100,
            110,
            120,
            130,
            140,
            150,
            160,
            170,
            180
        ]
    },
    "val_avg_recall": {
        "best_results": [
            0.21235521235521235,
            0.10852713178294573,
            0.0,
            0.16129032258064516,
            0.0
        ],
        "all_results": [
            [
                0.21235521235521235,
                0.10852713178294573,
                0.0,
                0.16129032258064516,
                0.0
            ],
            [
                0.21235521235521235,
                0.0,
                0.0,
                0.0,
                0.0
            ],
            [
                0.21235521235521235,
                0.0,
                0.0,
                0.0,
                0.0
            ],
            [
                0.21235521235521235,
                0.0,
                0.0,
                0.0,
                0.0
            ],
            [
                0.21235521235521235,
                0.0,
                0.0,
                0.0,
                0.0
            ],
            [
                0.21235521235521235,
                0.0,
                0.0,
                0.0,
                0.0
            ],
            [
                0.21235521235521235,
                0.0,
                0.0,
                0.0,
                0.0
            ],
            [
                0.21235521235521235,
                0.0,
                0.0,
                0.0,
                0.0
            ],
            [
                0.21235521235521235,
                0.0,
                0.0,
                0.0,
                0.0
            ],
            [
                0.21235521235521235,
                0.0,
                0.0,
                0.0,
                0.0
            ],
            [
                0.21235521235521235,
                0.0,
                0.0,
                0.0,
                0.0
            ],
            [
                0.21235521235521235,
                0.0,
                0.0,
                0.11904761904761904,
                0.0
            ],
            [
                0.21235521235521235,
                0.0,
                0.0,
                0.16129032258064516,
                0.0
            ],
            [
                0.21235521235521235,
                0.0,
                0.0,
                0.15873015873015872,
                0.0
            ],
            [
                0.21235521235521235,
                0.0,
                0.0,
                0.15748031496062992,
                0.0
            ],
            [
                0.21235521235521235,
                0.0,
                0.0,
                0.1568627450980392,
                0.0
            ],
            [
                0.21235521235521235,
                0.0,
                0.0,
                0.1568627450980392,
                0.0
            ],
            [
                0.21235521235521235,
                0.0,
                0.0,
                0.1568627450980392,
                0.0
            ],
            [
                0.21235521235521235,
                0.0,
                0.0,
                0.1568627450980392,
                0.0
            ]
        ],
        "epoches": [
            0,
            10,
            20,
            30,
            40,
            50,
            60,
            70,
            80,
            90,
            100,
            110,
            120,
            130,
            140,
            150,
            160,
            170,
            180
        ]
    },
    "val_avg_f1": {
        "best_results": [
            0.3503184713375796,
            0.1958041958041958,
            0.0,
            0.27681660899653976,
            0.0
        ],
        "all_results": [
            [
                0.3503184713375796,
                0.1958041958041958,
                0.0,
                0.27681660899653976,
                0.0
            ],
            [
                0.3503184713375796,
                0.0,
                0.0,
                0.0,
                0.0
            ],
            [
                0.3503184713375796,
                0.0,
                0.0,
                0.0,
                0.0
            ],
            [
                0.3503184713375796,
                0.0,
                0.0,
                0.0,
                0.0
            ],
            [
                0.3503184713375796,
                0.0,
                0.0,
                0.0,
                0.0
            ],
            [
                0.3503184713375796,
                0.0,
                0.0,
                0.0,
                0.0
            ],
            [
                0.3503184713375796,
                0.0,
                0.0,
                0.0,
                0.0
            ],
            [
                0.3503184713375796,
                0.0,
                0.0,
                0.0,
                0.0
            ],
            [
                0.3503184713375796,
                0.0,
                0.0,
                0.0,
                0.0
            ],
            [
                0.3503184713375796,
                0.0,
                0.0,
                0.0,
                0.0
            ],
            [
                0.3503184713375796,
                0.0,
                0.0,
                0.0,
                0.0
            ],
            [
                0.3503184713375796,
                0.0,
                0.0,
                0.199203187250996,
                0.0
            ],
            [
                0.3503184713375796,
                0.0,
                0.0,
                0.27681660899653976,
                0.0
            ],
            [
                0.3503184713375796,
                0.0,
                0.0,
                0.27303754266211605,
                0.0
            ],
            [
                0.3503184713375796,
                0.0,
                0.0,
                0.2711864406779661,
                0.0
            ],
            [
                0.3503184713375796,
                0.0,
                0.0,
                0.27027027027027034,
                0.0
            ],
            [
                0.3503184713375796,
                0.0,
                0.0,
                0.27027027027027034,
                0.0
            ],
            [
                0.3503184713375796,
                0.0,
                0.0,
                0.27027027027027034,
                0.0
            ],
            [
                0.3503184713375796,
                0.0,
                0.0,
                0.27027027027027034,
                0.0
            ]
        ],
        "epoches": [
            0,
            10,
            20,
            30,
            40,
            50,
            60,
            70,
            80,
            90,
            100,
            110,
            120,
            130,
            140,
            150,
            160,
            170,
            180
        ]
    },
    "val_avg_accuracy": {
        "best_results": [
            0.21235521137714386,
            0.8918918967247009,
            0.6447876691818237,
            0.8416988253593445,
            0.8339768052101135
        ],
        "all_results": [
            [
                0.21235521137714386,
                0.8918918967247009,
                0.6447876691818237,
                0.8416988253593445,
                0.8339768052101135
            ],
            [
                0.21235521137714386,
                0.8918918967247009,
                0.6447876691818237,
                0.8416988253593445,
                0.8339768052101135
            ],
            [
                0.21235521137714386,
                0.8918918967247009,
                0.6447876691818237,
                0.8416988253593445,
                0.8339768052101135
            ],
            [
                0.21235521137714386,
                0.8918918967247009,
                0.6447876691818237,
                0.8416988253593445,
                0.8339768052101135
            ],
            [
                0.21235521137714386,
                0.8918918967247009,
                0.6447876691818237,
                0.8416988253593445,
                0.8339768052101135
            ],
            [
                0.21235521137714386,
                0.8918918967247009,
                0.6447876691818237,
                0.8416988253593445,
                0.8339768052101135
            ],
            [
                0.21235521137714386,
                0.8918918967247009,
                0.6447876691818237,
                0.8416988253593445,
                0.8339768052101135
            ],
            [
                0.21235521137714386,
                0.8918918967247009,
                0.6447876691818237,
                0.8416988253593445,
                0.8339768052101135
            ],
            [
                0.21235521137714386,
                0.8918918967247009,
                0.6447876691818237,
                0.8416988253593445,
                0.8339768052101135
            ],
            [
                0.21235521137714386,
                0.8918918967247009,
                0.6447876691818237,
                0.8416988253593445,
                0.8339768052101135
            ],
            [
                0.21235521137714386,
                0.8918918967247009,
                0.6447876691818237,
                0.8416988253593445,
                0.8339768052101135
            ],
            [
                0.21235521137714386,
                0.8918918967247009,
                0.6447876691818237,
                0.2239382266998291,
                0.8339768052101135
            ],
            [
                0.21235521137714386,
                0.8918918967247009,
                0.6447876691818237,
                0.19305019080638885,
                0.8339768052101135
            ],
            [
                0.21235521137714386,
                0.8918918967247009,
                0.6447876691818237,
                0.17760618031024933,
                0.8339768052101135
            ],
            [
                0.21235521137714386,
                0.8918918967247009,
                0.6447876691818237,
                0.16988417506217957,
                0.8339768052101135
            ],
            [
                0.21235521137714386,
                0.8918918967247009,
                0.6447876691818237,
                0.1660231649875641,
                0.8339768052101135
            ],
            [
                0.21235521137714386,
                0.8918918967247009,
                0.6447876691818237,
                0.1660231649875641,
                0.8339768052101135
            ],
            [
                0.21235521137714386,
                0.8918918967247009,
                0.6447876691818237,
                0.1660231649875641,
                0.8339768052101135
            ],
            [
                0.21235521137714386,
                0.8918918967247009,
                0.6447876691818237,
                0.1660231649875641,
                0.8339768052101135
            ]
        ],
        "epoches": [
            0,
            10,
            20,
            30,
            40,
            50,
            60,
            70,
            80,
            90,
            100,
            110,
            120,
            130,
            140,
            150,
            160,
            170,
            180
        ]
    },
    "test_avg_precision": {
        "best_results": [
            1.0,
            0.9,
            0.0,
            0.9041095890410958,
            0.0
        ],
        "all_results": [
            [
                1.0,
                0.9,
                0.0,
                0.9041095890410958,
                0.0
            ],
            [
                1.0,
                0.0,
                0.0,
                0.0,
                0.0
            ],
            [
                1.0,
                0.0,
                0.0,
                0.0,
                0.0
            ],
            [
                1.0,
                0.0,
                0.0,
                0.0,
                0.0
            ],
            [
                1.0,
                0.0,
                0.0,
                0.0,
                0.0
            ],
            [
                1.0,
                0.0,
                0.0,
                0.0,
                0.0
            ],
            [
                1.0,
                0.0,
                0.0,
                0.0,
                0.0
            ],
            [
                1.0,
                0.0,
                0.0,
                0.0,
                0.0
            ],
            [
                1.0,
                0.0,
                0.0,
                0.0,
                0.0
            ],
            [
                1.0,
                0.0,
                0.0,
                0.0,
                0.0
            ],
            [
                1.0,
                0.0,
                0.0,
                0.0,
                0.0
            ],
            [
                1.0,
                0.0,
                0.0,
                0.684931506849315,
                0.0
            ],
            [
                1.0,
                0.0,
                0.0,
                0.7808219178082192,
                0.0
            ],
            [
                1.0,
                0.0,
                0.0,
                0.7945205479452054,
                0.0
            ],
            [
                1.0,
                0.0,
                0.0,
                0.821917808219178,
                0.0
            ],
            [
                1.0,
                0.0,
                0.0,
                0.821917808219178,
                0.0
            ],
            [
                1.0,
                0.0,
                0.0,
                0.9041095890410958,
                0.0
            ],
            [
                1.0,
                0.0,
                0.0,
                0.9041095890410958,
                0.0
            ],
            [
                1.0,
                0.0,
                0.0,
                0.9041095890410958,
                0.0
            ]
        ],
        "epoches": [
            0,
            10,
            20,
            30,
            40,
            50,
            60,
            70,
            80,
            90,
            100,
            110,
            120,
            130,
            140,
            150,
            160,
            170,
            180
        ]
    },
    "test_avg_recall": {
        "best_results": [
            0.4844961240310077,
            0.12217194570135746,
            0.0,
            0.352112676056338,
            0.0
        ],
        "all_results": [
            [
                0.4844961240310077,
                0.12217194570135746,
                0.0,
                0.352112676056338,
                0.0
            ],
            [
                0.4844961240310077,
                0.0,
                0.0,
                0.0,
                0.0
            ],
            [
                0.4844961240310077,
                0.0,
                0.0,
                0.0,
                0.0
            ],
            [
                0.4844961240310077,
                0.0,
                0.0,
                0.0,
                0.0
            ],
            [
                0.4844961240310077,
                0.0,
                0.0,
                0.0,
                0.0
            ],
            [
                0.4844961240310077,
                0.0,
                0.0,
                0.0,
                0.0
            ],
            [
                0.4844961240310077,
                0.0,
                0.0,
                0.0,
                0.0
            ],
            [
                0.4844961240310077,
                0.0,
                0.0,
                0.0,
                0.0
            ],
            [
                0.4844961240310077,
                0.0,
                0.0,
                0.0,
                0.0
            ],
            [
                0.4844961240310077,
                0.0,
                0.0,
                0.0,
                0.0
            ],
            [
                0.4844961240310077,
                0.0,
                0.0,
                0.0,
                0.0
            ],
            [
                0.4844961240310077,
                0.0,
                0.0,
                0.352112676056338,
                0.0
            ],
            [
                0.4844961240310077,
                0.0,
                0.0,
                0.32386363636363635,
                0.0
            ],
            [
                0.4844961240310077,
                0.0,
                0.0,
                0.31351351351351353,
                0.0
            ],
            [
                0.4844961240310077,
                0.0,
                0.0,
                0.3076923076923077,
                0.0
            ],
            [
                0.4844961240310077,
                0.0,
                0.0,
                0.3015075376884422,
                0.0
            ],
            [
                0.4844961240310077,
                0.0,
                0.0,
                0.32195121951219513,
                0.0
            ],
            [
                0.4844961240310077,
                0.0,
                0.0,
                0.32195121951219513,
                0.0
            ],
            [
                0.4844961240310077,
                0.0,
                0.0,
                0.32195121951219513,
                0.0
            ]
        ],
        "epoches": [
            0,
            10,
            20,
            30,
            40,
            50,
            60,
            70,
            80,
            90,
            100,
            110,
            120,
            130,
            140,
            150,
            160,
            170,
            180
        ]
    },
    "test_avg_f1": {
        "best_results": [
            0.6527415143603132,
            0.2151394422310757,
            0.0,
            0.47482014388489213,
            0.0
        ],
        "all_results": [
            [
                0.6527415143603132,
                0.2151394422310757,
                0.0,
                0.47482014388489213,
                0.0
            ],
            [
                0.6527415143603132,
                0.0,
                0.0,
                0.0,
                0.0
            ],
            [
                0.6527415143603132,
                0.0,
                0.0,
                0.0,
                0.0
            ],
            [
                0.6527415143603132,
                0.0,
                0.0,
                0.0,
                0.0
            ],
            [
                0.6527415143603132,
                0.0,
                0.0,
                0.0,
                0.0
            ],
            [
                0.6527415143603132,
                0.0,
                0.0,
                0.0,
                0.0
            ],
            [
                0.6527415143603132,
                0.0,
                0.0,
                0.0,
                0.0
            ],
            [
                0.6527415143603132,
                0.0,
                0.0,
                0.0,
                0.0
            ],
            [
                0.6527415143603132,
                0.0,
                0.0,
                0.0,
                0.0
            ],
            [
                0.6527415143603132,
                0.0,
                0.0,
                0.0,
                0.0
            ],
            [
                0.6527415143603132,
                0.0,
                0.0,
                0.0,
                0.0
            ],
            [
                0.6527415143603132,
                0.0,
                0.0,
                0.4651162790697673,
                0.0
            ],
            [
                0.6527415143603132,
                0.0,
                0.0,
                0.45783132530120485,
                0.0
            ],
            [
                0.6527415143603132,
                0.0,
                0.0,
                0.44961240310077516,
                0.0
            ],
            [
                0.6527415143603132,
                0.0,
                0.0,
                0.4477611940298508,
                0.0
            ],
            [
                0.6527415143603132,
                0.0,
                0.0,
                0.4411764705882352,
                0.0
            ],
            [
                0.6527415143603132,
                0.0,
                0.0,
                0.47482014388489213,
                0.0
            ],
            [
                0.6527415143603132,
                0.0,
                0.0,
                0.47482014388489213,
                0.0
            ],
            [
                0.6527415143603132,
                0.0,
                0.0,
                0.47482014388489213,
                0.0
            ]
        ],
        "epoches": [
            0,
            10,
            20,
            30,
            40,
            50,
            60,
            70,
            80,
            90,
            100,
            110,
            120,
            130,
            140,
            150,
            160,
            170,
            180
        ]
    },
    "test_avg_accuracy": {
        "best_results": [
            0.4844961166381836,
            0.8837209343910217,
            0.961240291595459,
            0.7170542478561401,
            0.9224806427955627
        ],
        "all_results": [
            [
                0.4844961166381836,
                0.8837209343910217,
                0.961240291595459,
                0.7170542478561401,
                0.9224806427955627
            ],
            [
                0.4844961166381836,
                0.8837209343910217,
                0.961240291595459,
                0.7170542478561401,
                0.9224806427955627
            ],
            [
                0.4844961166381836,
                0.8837209343910217,
                0.961240291595459,
                0.7170542478561401,
                0.9224806427955627
            ],
            [
                0.4844961166381836,
                0.8837209343910217,
                0.961240291595459,
                0.7170542478561401,
                0.9224806427955627
            ],
            [
                0.4844961166381836,
                0.8837209343910217,
                0.961240291595459,
                0.7170542478561401,
                0.9224806427955627
            ],
            [
                0.4844961166381836,
                0.8837209343910217,
                0.961240291595459,
                0.7170542478561401,
                0.9224806427955627
            ],
            [
                0.4844961166381836,
                0.8837209343910217,
                0.961240291595459,
                0.7170542478561401,
                0.9224806427955627
            ],
            [
                0.4844961166381836,
                0.8837209343910217,
                0.961240291595459,
                0.7170542478561401,
                0.9224806427955627
            ],
            [
                0.4844961166381836,
                0.8837209343910217,
                0.961240291595459,
                0.7170542478561401,
                0.9224806427955627
            ],
            [
                0.4844961166381836,
                0.8837209343910217,
                0.961240291595459,
                0.7170542478561401,
                0.9224806427955627
            ],
            [
                0.4844961166381836,
                0.8837209343910217,
                0.961240291595459,
                0.7170542478561401,
                0.9224806427955627
            ],
            [
                0.4844961166381836,
                0.8837209343910217,
                0.961240291595459,
                0.5542635917663574,
                0.9224806427955627
            ],
            [
                0.4844961166381836,
                0.8837209343910217,
                0.961240291595459,
                0.4767441749572754,
                0.9224806427955627
            ],
            [
                0.4844961166381836,
                0.8837209343910217,
                0.961240291595459,
                0.44961240887641907,
                0.9224806427955627
            ],
            [
                0.4844961166381836,
                0.8837209343910217,
                0.961240291595459,
                0.42635658383369446,
                0.9224806427955627
            ],
            [
                0.4844961166381836,
                0.8837209343910217,
                0.961240291595459,
                0.41085270047187805,
                0.9224806427955627
            ],
            [
                0.4844961166381836,
                0.8837209343910217,
                0.961240291595459,
                0.43410852551460266,
                0.9224806427955627
            ],
            [
                0.4844961166381836,
                0.8837209343910217,
                0.961240291595459,
                0.43410852551460266,
                0.9224806427955627
            ],
            [
                0.4844961166381836,
                0.8837209343910217,
                0.961240291595459,
                0.43410852551460266,
                0.9224806427955627
            ]
        ],
        "epoches": [
            0,
            10,
            20,
            30,
            40,
            50,
            60,
            70,
            80,
            90,
            100,
            110,
            120,
            130,
            140,
            150,
            160,
            170,
            180
        ]
    }
}