{
    "train_avg_precision": {
        "best_results": [
            1.0,
            1.0,
            0.0,
            0.0,
            1.0
        ],
        "all_results": [
            [
                1.0,
                1.0,
                0.0,
                0.0,
                1.0
            ],
            [
                1.0,
                0.0,
                0.0,
                0.0,
                0.9827586206896551
            ],
            [
                1.0,
                0.0,
                0.0,
                0.0,
                0.0
            ],
            [
                1.0,
                0.0,
                0.0,
                0.0,
                0.0
            ],
            [
                1.0,
                0.0,
                0.0,
                0.0,
                0.0
            ],
            [
                1.0,
                0.0,
                0.0,
                0.0,
                0.0
            ],
            [
                1.0,
                0.0,
                0.0,
                0.0,
                0.0
            ],
            [
                1.0,
                0.0,
                0.0,
                0.0,
                0.0
            ],
            [
                1.0,
                0.0,
                0.0,
                0.0,
                0.0
            ],
            [
                1.0,
                0.0,
                0.0,
                0.0,
                0.0
            ]
        ],
        "epoches": [
            0,
            10,
            20,
            30,
            40,
            50,
            60,
            70,
            80,
            90
        ]
    },
    "train_avg_recall": {
        "best_results": [
            0.6372688477951636,
            0.10241820768136557,
            0.0,
            0.0,
            0.08250355618776671
        ],
        "all_results": [
            [
                0.6372688477951636,
                0.10241820768136557,
                0.0,
                0.0,
                0.08250355618776671
            ],
            [
                0.6372688477951636,
                0.0,
                0.0,
                0.0,
                0.08166189111747851
            ],
            [
                0.6372688477951636,
                0.0,
                0.0,
                0.0,
                0.0
            ],
            [
                0.6372688477951636,
                0.0,
                0.0,
                0.0,
                0.0
            ],
            [
                0.6372688477951636,
                0.0,
                0.0,
                0.0,
                0.0
            ],
            [
                0.6372688477951636,
                0.0,
                0.0,
                0.0,
                0.0
            ],
            [
                0.6372688477951636,
                0.0,
                0.0,
                0.0,
                0.0
            ],
            [
                0.6372688477951636,
                0.0,
                0.0,
                0.0,
                0.0
            ],
            [
                0.6372688477951636,
                0.0,
                0.0,
                0.0,
                0.0
            ],
            [
                0.6372688477951636,
                0.0,
                0.0,
                0.0,
                0.0
            ]
        ],
        "epoches": [
            0,
            10,
            20,
            30,
            40,
            50,
            60,
            70,
            80,
            90
        ]
    },
    "train_avg_f1": {
        "best_results": [
            0.7784535186794092,
            0.1858064516129032,
            0.0,
            0.0,
            0.152431011826544
        ],
        "all_results": [
            [
                0.7784535186794092,
                0.1858064516129032,
                0.0,
                0.0,
                0.152431011826544
            ],
            [
                0.7784535186794092,
                0.0,
                0.0,
                0.0,
                0.15079365079365079
            ],
            [
                0.7784535186794092,
                0.0,
                0.0,
                0.0,
                0.0
            ],
            [
                0.7784535186794092,
                0.0,
                0.0,
                0.0,
                0.0
            ],
            [
                0.7784535186794092,
                0.0,
                0.0,
                0.0,
                0.0
            ],
            [
                0.7784535186794092,
                0.0,
                0.0,
                0.0,
                0.0
            ],
            [
                0.7784535186794092,
                0.0,
                0.0,
                0.0,
                0.0
            ],
            [
                0.7784535186794092,
                0.0,
                0.0,
                0.0,
                0.0
            ],
            [
                0.7784535186794092,
                0.0,
                0.0,
                0.0,
                0.0
            ],
            [
                0.7784535186794092,
                0.0,
                0.0,
                0.0,
                0.0
            ]
        ],
        "epoches": [
            0,
            10,
            20,
            30,
            40,
            50,
            60,
            70,
            80,
            90
        ]
    },
    "train_avg_accuracy": {
        "best_results": [
            0.6372688412666321,
            0.8975818157196045,
            0.9118065237998962,
            0.9103840589523315,
            0.9174964427947998
        ],
        "all_results": [
            [
                0.6372688412666321,
                0.8975818157196045,
                0.9118065237998962,
                0.9103840589523315,
                0.9174964427947998
            ],
            [
                0.6372688412666321,
                0.8975818157196045,
                0.9118065237998962,
                0.9103840589523315,
                0.08677098155021667
            ],
            [
                0.6372688412666321,
                0.8975818157196045,
                0.9118065237998962,
                0.9103840589523315,
                0.9174964427947998
            ],
            [
                0.6372688412666321,
                0.8975818157196045,
                0.9118065237998962,
                0.9103840589523315,
                0.9174964427947998
            ],
            [
                0.6372688412666321,
                0.8975818157196045,
                0.9118065237998962,
                0.9103840589523315,
                0.9174964427947998
            ],
            [
                0.6372688412666321,
                0.8975818157196045,
                0.9118065237998962,
                0.9103840589523315,
                0.9174964427947998
            ],
            [
                0.6372688412666321,
                0.8975818157196045,
                0.9118065237998962,
                0.9103840589523315,
                0.9174964427947998
            ],
            [
                0.6372688412666321,
                0.8975818157196045,
                0.9118065237998962,
                0.9103840589523315,
                0.9174964427947998
            ],
            [
                0.6372688412666321,
                0.8975818157196045,
                0.9118065237998962,
                0.9103840589523315,
                0.9174964427947998
            ],
            [
                0.6372688412666321,
                0.8975818157196045,
                0.9118065237998962,
                0.9103840589523315,
                0.9174964427947998
            ]
        ],
        "epoches": [
            0,
            10,
            20,
            30,
            40,
            50,
            60,
            70,
            80,
            90
        ]
    },
    "val_avg_precision": {
        "best_results": [
            1.0,
            0.0,
            0.0,
            0.0,
            1.0
        ],
        "all_results": [
            [
                1.0,
                0.0,
                0.0,
                0.0,
                1.0
            ],
            [
                1.0,
                0.0,
                0.0,
                0.0,
                1.0
            ],
            [
                1.0,
                0.0,
                0.0,
                0.0,
                0.0
            ],
            [
                1.0,
                0.0,
                0.0,
                0.0,
                0.0
            ],
            [
                1.0,
                0.0,
                0.0,
                0.0,
                0.0
            ],
            [
                1.0,
                0.0,
                0.0,
                0.0,
                0.0
            ],
            [
                1.0,
                0.0,
                0.0,
                0.0,
                0.0
            ],
            [
                1.0,
                0.0,
                0.0,
                0.0,
                0.0
            ],
            [
                1.0,
                0.0,
                0.0,
                0.0,
                0.0
            ],
            [
                1.0,
                0.0,
                0.0,
                0.0,
                0.0
            ]
        ],
        "epoches": [
            0,
            10,
            20,
            30,
            40,
            50,
            60,
            70,
            80,
            90
        ]
    },
    "val_avg_recall": {
        "best_results": [
            0.5148936170212766,
            0.0,
            0.0,
            0.0,
            0.405982905982906
        ],
        "all_results": [
            [
                0.5148936170212766,
                0.0,
                0.0,
                0.0,
                0.405982905982906
            ],
            [
                0.5148936170212766,
                0.0,
                0.0,
                0.0,
                0.405982905982906
            ],
            [
                0.5148936170212766,
                0.0,
                0.0,
                0.0,
                0.0
            ],
            [
                0.5148936170212766,
                0.0,
                0.0,
                0.0,
                0.0
            ],
            [
                0.5148936170212766,
                0.0,
                0.0,
                0.0,
                0.0
            ],
            [
                0.5148936170212766,
                0.0,
                0.0,
                0.0,
                0.0
            ],
            [
                0.5148936170212766,
                0.0,
                0.0,
                0.0,
                0.0
            ],
            [
                0.5148936170212766,
                0.0,
                0.0,
                0.0,
                0.0
            ],
            [
                0.5148936170212766,
                0.0,
                0.0,
                0.0,
                0.0
            ],
            [
                0.5148936170212766,
                0.0,
                0.0,
                0.0,
                0.0
            ]
        ],
        "epoches": [
            0,
            10,
            20,
            30,
            40,
            50,
            60,
            70,
            80,
            90
        ]
    },
    "val_avg_f1": {
        "best_results": [
            0.6797752808988764,
            0.0,
            0.0,
            0.0,
            0.5775075987841946
        ],
        "all_results": [
            [
                0.6797752808988764,
                0.0,
                0.0,
                0.0,
                0.5775075987841946
            ],
            [
                0.6797752808988764,
                0.0,
                0.0,
                0.0,
                0.5775075987841946
            ],
            [
                0.6797752808988764,
                0.0,
                0.0,
                0.0,
                0.0
            ],
            [
                0.6797752808988764,
                0.0,
                0.0,
                0.0,
                0.0
            ],
            [
                0.6797752808988764,
                0.0,
                0.0,
                0.0,
                0.0
            ],
            [
                0.6797752808988764,
                0.0,
                0.0,
                0.0,
                0.0
            ],
            [
                0.6797752808988764,
                0.0,
                0.0,
                0.0,
                0.0
            ],
            [
                0.6797752808988764,
                0.0,
                0.0,
                0.0,
                0.0
            ],
            [
                0.6797752808988764,
                0.0,
                0.0,
                0.0,
                0.0
            ],
            [
                0.6797752808988764,
                0.0,
                0.0,
                0.0,
                0.0
            ]
        ],
        "epoches": [
            0,
            10,
            20,
            30,
            40,
            50,
            60,
            70,
            80,
            90
        ]
    },
    "val_avg_accuracy": {
        "best_results": [
            0.5148935914039612,
            1.0,
            1.0,
            0.9191489219665527,
            0.5957446694374084
        ],
        "all_results": [
            [
                0.5148935914039612,
                1.0,
                1.0,
                0.9191489219665527,
                0.5957446694374084
            ],
            [
                0.5148935914039612,
                1.0,
                1.0,
                0.9191489219665527,
                0.40851062536239624
            ],
            [
                0.5148935914039612,
                1.0,
                1.0,
                0.9191489219665527,
                0.5957446694374084
            ],
            [
                0.5148935914039612,
                1.0,
                1.0,
                0.9191489219665527,
                0.5957446694374084
            ],
            [
                0.5148935914039612,
                1.0,
                1.0,
                0.9191489219665527,
                0.5957446694374084
            ],
            [
                0.5148935914039612,
                1.0,
                1.0,
                0.9191489219665527,
                0.5957446694374084
            ],
            [
                0.5148935914039612,
                1.0,
                1.0,
                0.9191489219665527,
                0.5957446694374084
            ],
            [
                0.5148935914039612,
                1.0,
                1.0,
                0.9191489219665527,
                0.5957446694374084
            ],
            [
                0.5148935914039612,
                1.0,
                1.0,
                0.9191489219665527,
                0.5957446694374084
            ],
            [
                0.5148935914039612,
                1.0,
                1.0,
                0.9191489219665527,
                0.5957446694374084
            ]
        ],
        "epoches": [
            0,
            10,
            20,
            30,
            40,
            50,
            60,
            70,
            80,
            90
        ]
    },
    "test_avg_precision": {
        "best_results": [
            1.0,
            0.9166666666666666,
            0.0,
            0.0,
            0.6964285714285714
        ],
        "all_results": [
            [
                1.0,
                0.9166666666666666,
                0.0,
                0.0,
                0.6964285714285714
            ],
            [
                1.0,
                0.0,
                0.0,
                0.0,
                0.625
            ],
            [
                1.0,
                0.0,
                0.0,
                0.0,
                0.0
            ],
            [
                1.0,
                0.0,
                0.0,
                0.0,
                0.0
            ],
            [
                1.0,
                0.0,
                0.0,
                0.0,
                0.0
            ],
            [
                1.0,
                0.0,
                0.0,
                0.0,
                0.0
            ],
            [
                1.0,
                0.0,
                0.0,
                0.0,
                0.0
            ],
            [
                1.0,
                0.0,
                0.0,
                0.0,
                0.0
            ],
            [
                1.0,
                0.0,
                0.0,
                0.0,
                0.0
            ],
            [
                1.0,
                0.0,
                0.0,
                0.0,
                0.0
            ]
        ],
        "epoches": [
            0,
            10,
            20,
            30,
            40,
            50,
            60,
            70,
            80,
            90
        ]
    },
    "test_avg_recall": {
        "best_results": [
            0.5077720207253886,
            0.11398963730569948,
            0.0,
            0.0,
            0.2023121387283237
        ],
        "all_results": [
            [
                0.5077720207253886,
                0.11398963730569948,
                0.0,
                0.0,
                0.2023121387283237
            ],
            [
                0.502127659574468,
                0.0,
                0.0,
                0.0,
                0.2023121387283237
            ],
            [
                0.502127659574468,
                0.0,
                0.0,
                0.0,
                0.0
            ],
            [
                0.502127659574468,
                0.0,
                0.0,
                0.0,
                0.0
            ],
            [
                0.502127659574468,
                0.0,
                0.0,
                0.0,
                0.0
            ],
            [
                0.502127659574468,
                0.0,
                0.0,
                0.0,
                0.0
            ],
            [
                0.502127659574468,
                0.0,
                0.0,
                0.0,
                0.0
            ],
            [
                0.502127659574468,
                0.0,
                0.0,
                0.0,
                0.0
            ],
            [
                0.502127659574468,
                0.0,
                0.0,
                0.0,
                0.0
            ],
            [
                0.502127659574468,
                0.0,
                0.0,
                0.0,
                0.0
            ]
        ],
        "epoches": [
            0,
            10,
            20,
            30,
            40,
            50,
            60,
            70,
            80,
            90
        ]
    },
    "test_avg_f1": {
        "best_results": [
            0.668555240793201,
            0.20276497695852533,
            0.0,
            0.0,
            0.3132530120481927
        ],
        "all_results": [
            [
                0.668555240793201,
                0.20276497695852533,
                0.0,
                0.0,
                0.3132530120481927
            ],
            [
                0.668555240793201,
                0.0,
                0.0,
                0.0,
                0.3056768558951965
            ],
            [
                0.668555240793201,
                0.0,
                0.0,
                0.0,
                0.0
            ],
            [
                0.668555240793201,
                0.0,
                0.0,
                0.0,
                0.0
            ],
            [
                0.668555240793201,
                0.0,
                0.0,
                0.0,
                0.0
            ],
            [
                0.668555240793201,
                0.0,
                0.0,
                0.0,
                0.0
            ],
            [
                0.668555240793201,
                0.0,
                0.0,
                0.0,
                0.0
            ],
            [
                0.668555240793201,
                0.0,
                0.0,
                0.0,
                0.0
            ],
            [
                0.668555240793201,
                0.0,
                0.0,
                0.0,
                0.0
            ],
            [
                0.668555240793201,
                0.0,
                0.0,
                0.0,
                0.0
            ]
        ],
        "epoches": [
            0,
            10,
            20,
            30,
            40,
            50,
            60,
            70,
            80,
            90
        ]
    },
    "test_avg_accuracy": {
        "best_results": [
            0.5106382966041565,
            0.8978723287582397,
            0.9702127575874329,
            0.8723404407501221,
            0.7617021203041077
        ],
        "all_results": [
            [
                0.5106382966041565,
                0.8978723287582397,
                0.9702127575874329,
                0.8723404407501221,
                0.7617021203041077
            ],
            [
                0.5021276473999023,
                0.8978723287582397,
                0.9702127575874329,
                0.8723404407501221,
                0.3234042525291443
            ],
            [
                0.5021276473999023,
                0.8978723287582397,
                0.9702127575874329,
                0.8723404407501221,
                0.7617021203041077
            ],
            [
                0.5021276473999023,
                0.8978723287582397,
                0.9702127575874329,
                0.8723404407501221,
                0.7617021203041077
            ],
            [
                0.5021276473999023,
                0.8978723287582397,
                0.9702127575874329,
                0.8723404407501221,
                0.7617021203041077
            ],
            [
                0.5021276473999023,
                0.8978723287582397,
                0.9702127575874329,
                0.8723404407501221,
                0.7617021203041077
            ],
            [
                0.5021276473999023,
                0.8978723287582397,
                0.9702127575874329,
                0.8723404407501221,
                0.7617021203041077
            ],
            [
                0.5021276473999023,
                0.8978723287582397,
                0.9702127575874329,
                0.8723404407501221,
                0.7617021203041077
            ],
            [
                0.5021276473999023,
                0.8978723287582397,
                0.9702127575874329,
                0.8723404407501221,
                0.7617021203041077
            ],
            [
                0.5021276473999023,
                0.8978723287582397,
                0.9702127575874329,
                0.8723404407501221,
                0.7617021203041077
            ]
        ],
        "epoches": [
            0,
            10,
            20,
            30,
            40,
            50,
            60,
            70,
            80,
            90
        ]
    }
}