0,1604,1093,510,583,1673,522,1331,1112,381,1470
1287,1182,1183,1184,1185,1314,1315,1448,1582,1583,694,696,697,698,699,700,701,703,704,705,1344,707,708,1221,709,712,713,715,1109,718,719,1233,722,723,1108,725,1235,1236,728,726,730,731,732,733,1238,1620,736,737,738,739,1621,741,743,744,745,746,747,748,749,1651,1526,1527,1528
256,1313,420,1343,1286,742,1234,1619,1080,1081,1371,1342,735
5,133,1038,404,1556,1307,157,40,169,170,180,181,438,183,188,195,1605,198,325,453,1354,336,210,83,1492,214,992,231,365,496,375,251,1406
1036,1677,1553,1555,1560,542,294,1066,300,1457,182,1464,1215,1217,1096,1615,219,999,1384,1519,1009,245,373,246
449,649,9,458,1485,467,405,22,282,1567,1056,33,1568,1571,224,101,306,1458,1398
676,996,1158,487,1642,1034,1071,1106,531,1332,1461,1046,474,1439
1410,1350,455,1641,557,463,1487,1042,1404,475,1500
1057,1666,1251,609,1127,457,1161,494,1522,1335,473,442,540
1440,482,521,1674,523,1037,1011,1465,1502,479
1664,477,450,1250,1065,1482,1258,1401,1405,1407
516,1638,1322,490,1393,1394,1397,1462,503,1403,1279
512,1475,1318,1063,1640,1483,1357,1614,1336,1213
1219,1635,1637,495,1135,1169,1649,1402,604,1501
1411,1636,1321,491,1643,1139,1460,1333,1396,1499
546,1095,1257,1002,1329,1459,1140,1395,1142,1566
480,1248,1121,451,1672,1486,1359,1008,1166,1044
576,549,678,1338,493,1261,1554,1491,1146,575
1249,1602,1477,1671,1353,1298,1113,445,1118,543
1152,481,452,1511,1323,1134,1552,565,1302,1598
483,164,134,199,167,554,12,172,1263,1648,1361,239,175,143,145,313,189,158
192,97,162,65,193,1125,194,197,200,1400,1675,177,1299,341,408,186,123,1214
1632,640,1509,585,1259,1164,1580,1631,559,1039,533,1559,1144,637,1311
545,1058,1514,1578,1163,237,1419,1300,501,535,249,247,252,669,607
1670,329,526,18,150,343,151,152,30,1504,354,995,551,1130,45,1647,243
1601,258,323,26,1381,262,79,1264,1265,1295,184,1466,1275
547,163,358,1479,1133,1645,240,1616,1362,403,117,406,31
32,1409,478,1383,264,298,1355,50,274,1045,376,1662
1668,1669,646,1607,138,1610,534,1304,1049,986,990,287,228,1382,39,1010,308,1272,511
1505,1282,991,390,230,296,265,1644,49,344,154,1468,1247
416,1408,131,1092,1254,1510,268,461,464,562,52,1399,1306,1115,191
1153,515,529,530,422,1319,1320,297,1067,1068,1324,305,1334,56,1337,444,317,1472,1216,1606,1609,337,338,470,601,989,1120,1123,1252,355,1128,1256,361,1385,1260,1262,368,1147,1148,1661
321,66,1667,260,1476,528,466,348,1052,1053,286,118,568,1145,378,507,638
67,584,267,1550,1679,1305,1116,541,548,1061,1444,1126,424,1516,1138,1012
196,1481,1356,76,206,1363,1596,419,1060,292,363,1328,241,242,1274,1660
1551,1043,662,1303,536,664,1048,1438,1463,1339,326,1478,77,988,1379,109,1518,1137,374,1143,1021
1160,137,1676,141,142,280,415,161,316,1597,1351,1352,471,349,1634,1639,103,1392,121,253
1443,1124,1157,1572,1608,204,1132,1358,111,339,1364,440,1150,1503
1154,388,1220,391,1099,1612,532,1301,1561,288,997,1512,429,1266,1276,1469,1151
993,1218,386,1281,1413,263,1548,303,399,1171,1047,1271,1498,1051,284,1277
226,567,614,1418,1004,1549,508,595,119,1269,629,1495,632,345,1366,443,572
1600,579,392,1129,1003,1360,499,502,1273,1467
153,387,1380,1603,1159,330,1613,1327,1330,435,185
421,648,1546,1131,409,525,1007,1365,1593,122
544,1059,1001,1097,587,1515,1168,1296,1490,149,987,1565
641,673,1507,1506,680,681,1387,671,688,1172,670,1599
514,1285,1681,1050,1054,1055,1310,1064,682,555,1073,690,563,434,1079,1340,1231,469,598,605,1508,618,1267,1268,634,382
1312,642,552,1517,1646,653,398,685,1074,691,1018,1019,1023
1473,1156,1574,519,328,1386,527,656,369,1521,1525
1283,611,677,639,1520,1650,498,659,693,437,1369,1149,383
610,1414,460,1581,654,1069,1523,1078,665,413
675,1412,1062,1575,631,684,689,465,596,309,628,500,1496,1497,1309
201,588,590,1680,1494,1017,666,571,1308,447
384,513,1474,227,356,580,1122,1480,1547,1006,430,407
322,619,1611,396,1678,1102,497,1493,1016,315
1441,1442,1570,324,998,423,1576,489,1033,1005,1040,340,1557,347
