0,1604,1093,510,583,1673,522,1331,1112,381,1470
257,129,2,6,393,1035,17,21,278,27,160,290,41,432,58,60,190,62,63,74,209,82,84,87,107,114,377,1278,1663
256,1665,130,4,7,135,10,11,269,15,16,271,146,19,20,272,23,25,155,35,295,428,44,302,47,304,431,178,436,53,310,312,57,314,59,318,319,68,456,73,203,205,78,80,211,213,215,89,90,92,221,94,351,96,95,994,225,99,353,357,102,359,105,106,235,108,236,364,1255,113,115,116,250,127,254,255
1601,258,323,26,1381,262,79,1264,1265,1295,184,1466,1275
530,279,281,1319,1320,1324,301,1334,56,1337,1472,1606,1609,337,338,1123,1252,1256,1262,1661
321,66,1667,260,1476,528,466,348,1052,1053,286,118,568,1145,378,507,638
67,584,267,1550,1103,1679,1305,1116,541,1117,1444,1253,548,1061,424,1516
992,1605,325,1038,336,496,83,404,1492,1556,183,1307,1406
1160,139,1676,280,285,159,161,291,441,1597,1351,1352,202,471,1634,1639,104,1392,121,253
1443,1124,1157,1572,1608,204,1132,1358,111,339,1364,440,1150,1503
153,387,421,330,525,1613,1007,435,1365,1593
384,513,1122,227,356,580,1474,1480,1547,430,1006,407
322,619,396,1611,1102,1678,497,1493,1016,315
1121,1249,1477,549,1261,1298,1554,445,1118,543
1411,1321,1643,1393,1139,1396,1333,1397,1499,446
480,1248,451,1672,1257,1166,1359,1008,1486,1044
1410,1636,1318,455,1258,1322,1552,1460,1404,1279
1664,1250,484,1671,1511,1641,1323,463,1042,1405
1350,1640,1353,557,1302,1142,475,1500,1598,575
1635,1475,1637,1407,1169,1649,1395,1465,1402,479
1152,516,1638,490,1134,1487,1394,1462,503,1113,1403
546,1502,521,495,1329,1459,1336,1401,1213,1566
1376,1539,900,1348,1224,905,906,910,1390,1433,1626,1627,892,1373,1374
965,966,967,968,969,970,971,972,973,974,975,1032,1435,1436,1391,1455,1211
