0,1604,1093,510,583,1673,522,1331,1112,381,1470
1664,1,1639,1640,202,1260,368,338,441,1661
160,129,2,1320,232,106,41,107,393,1262,114,62
1410,3,431
1153,4,134,7,394,140,141,147,20,280,155,28,35,166,168,301,46,178,181,1336,60,61,336,231,235,367,116
40,5
81,6
8,1036,1677,1553,1555,660,1560,156,542,289,294,550,1066,300,1457,1464,1215,1217,1096,1615,88,219,999,1384,1519,1009,245,246,373,120,124,126
649,9,405,22,282,1567,1056,1568,33,1571,306,1458,449,458,1485,467,224,101,1398
200,10,312
11,565,38
372,12,357
992,492,13
1278,14
142,15,530,19,152,285,297,171,1324,47,51,1337,187,332,212,470,1250,361,1385,364,247,506,251,127,255
16,27
17,211,174
225,45,18,244,503,1279
21,133,183
210,23
389,1672,333,1046,24,1405,94
104,25
1601,258,323,26,1381,262,79,1264,1295,1265,184,1466,1275
1035,29
1258,1397,30
256,234,1643,271,1298,1554,604,93,350,31
32,1409,478,1383,264,298,1355,50,274,1045,376,1662
34,1411,1636,100,1666,203,1134
36,135,1322,490,85,53
91,37
228,1669,1382,646,39,1607,1610,511,308,1272,1049,287
1665,165,105,42,1038,1114,1406
43,108,428,269,1461,150,1402,479
1257,44,1333,1598
48,74,180
1505,1282,390,230,296,265,154,1644,49,344,991,1468,1247
416,1408,131,1092,1254,1510,268,461,464,562,52,1399,1306,1115,191
450,1641,523,1486,1332,54,217,351
1321,55,71
1120,1472,1606,422,1483,1487,1552,1392,1460,56,1465
57,188
58,63
1139,1394,59,1403
64,128,266,299,276,436,278,1663
65,1642,1475,491
321,66,1667,1476,260,1052,528,466,118,568,1145,378,507,348,1053,638,286
267,1550,1679,1173,1305,541,1444,548,1061,424,67,584,1103,1116,1117,1253,1126,1516,1138,1012
68,1318,233,395,493,1649,401,215,249,319
1594,69
70,1042,222
487,72,1482,557,1261,1011,505
73,1123,305
1057,75,1501
419,196,1060,292,1481,363,76,1356,206,1328,241,242,1363,1274,1660,1596
644,645,1551,400,275,1043,662,1303,536,664,1048,1438,1463,1339,1478,326,586,77,597,988,352,1379,612,109,1518,1137,1143,636,1021
1609,130,78,529
1152,80,380,167
170,82
83,84,365
448,290,325,1255,1319,169,362,113,404,438,214,86,87
89,177
1440,90,1251,1335
359,455,1142,1401,92
1352,95,159
96,115
97,194,1638,457,143,189
98,1602,549,1127,1674,302,304,475,543
99,259,331,175,1302,1213,445
1161,540,102
161,291,103,360,139,1325,366,208,371,253,316,349
402,236,110,1071
1443,1124,1157,1572,1608,1132,204,1358,111,339,1364,440,1150,1503
1154,388,391,532,1301,1561,288,566,1469,1220,1099,1612,593,218,606,997,1512,616,112,1266,1276,125,1151
547,163,358,1479,1133,1645,1616,240,1362,403,117,406
386,392,1171,1047,1051,284,567,311,443,1600,579,581,582,1360,595,1366,1495,345,223,226,614,1003,238,629,502,119,632,1271,1277
121,415
1603,648,1546,1131,1330,409,122
1121,237,145,411,123
355,132
136,601
137,471
1668,138,1010,534,1304,986,990
144,1219
146,477,1063
608,1569,385,1280,1094,1000,650,1484,270,1326,176,1297,148,564,1270
544,1059,1097,1001,1515,587,1296,1168,1490,149,987,1565
1504,354,995,1670,551,329,1130,526,1647,243,343,151
153,387,1380,421,330,525,1007,435,1365,1593
157,207
193,417,158,1511
162,186,213
379,164
1113,172,221,334
179,317,173
185,1327,1613,1159
994,190
192,483,197,408,554,1263,1648,1361,341,1400,313,1214
195,1556,1492,1307,1597
496,1354,198
652,1044,205,199
1312,1018,201,618,447,1517,690,563,434,469,571,634,1019,605,1599
432,209,377
216,1329,517,1095
220,444,1334
227,580,1611,619,1102,430,1493,407
1299,1675,1125,239
248,1659,277,375
640,545,1058,585,1514,1419,559,533,501,1559,250,637,1311
1632,1509,1578,1163,1580,1164,607,1039,561,1300,535,1144,669,1631
1002,1166,254,1439
1249,257,1635,425,283
546,539,261
993,1281,1413,263,1129,1549,399,1269,1273,1498,572
272,1637,295
281,279
320,293,1573,327,553,524,1136,1617,468,1595,1471
1218,1418,1548,303,499,1467
1671,495,335,307,1491,314
482,459,1169,310,1404
384,513,1474,356,1547,396,1006,315
1395,1140,318
1441,1570,324,1033,1040,340
337,1067,1148
353,1353,1065,1359,1396,342,439,442,1499
1442,998,423,1576,489,1005,1557,347
370,1459,1566,463
677,653,1650,1523,1369,1017
1581,654,659,1494,666,1308,1149
1283,1414,398,1646,1520
484,1323,397,1135,1407
480,410
488,412
576,418
420,452,678,1146,494,474,1106,1338
426,427,1350
1500,446
1034,451
456,627
675,1412,1062,1575,689,465,631,1496,1497,1309
481,1477
1480,497,1122,1678
512,515,516,521,1037,1502
609,676,1008,1522,989
1473,1156,1574,1386,656,1521,1525
1313,742,701,1371,699,1183
711,1447,1232,695,1080,702
1314,696,697,700,705,1221,722,1109,1238,1621,728,737,738,743,745,748,749,1651,1526
1344,1185,1582,1527,733
1184,698,708
704,1343,716,720,735
768,769,771,772,773,1288,779,780,1420,782,783,784,1682,1562,1186,1189,1191,1110,1622,1240,1241,1242,1389,751,752,753,754,756,757,759,761,764,765
770,1187,1188,1222,775,778,1421,758,760,762,1083,763
781,774
1345,776,777,1530,767
1190,1449,755,1239,1529,766
1248,1216,1128,1160,1068,1357,1393,1462,1147,1118
1256,1252
1614,1351
1634,1676,1605
