1026,800,802,36,804,805,806,1192,808,809,1195,1196,1197,1198,810,811,812,813,814,815,695,702,706,1347,1222,717,721,90,99,234,1533,1534,1535
5,133,1038,404,1556,1307,157,40,169,170,180,181,438,183,188,195,1605,325,198,453,1354,336,210,83,1492,214,992,231,365,496,375,251,1406
1670,329,526,18,150,343,151,152,30,1504,354,995,551,1130,45,1647,243
547,163,358,1479,1133,1645,240,1616,1362,403,117,406,31
32,1409,478,1383,264,298,1355,50,274,1045,376,1662
1505,1282,991,390,230,296,265,1644,49,344,154,1468,1247
192,65,194,193,197,1299,341,408,158,97,162,1263,1648,177,1400,313,186,123,1214
321,66,1667,260,1476,528,466,348,1052,1053,286,118,568,1145,378,507,638
196,1481,1356,76,206,1363,1596,419,1060,292,363,1328,241,242,1274,1660
1160,137,1676,142,280,159,291,441,316,1597,1351,1352,202,349,1634,1639,104,103,1392,121
577,1154,1220,1099,1612,593,1301,1561,997,1512,429,112,1266,566,1276,1469,1151
1217,1096,1384,1560,1036,1677,1615,1009,1457,1553,1555,1464,120,1215
1603,387,421,648,330,1131,525,1330,435,1593,122
1280,385,1094,650,1484,589,270,1297,148,608,1569,229,1000,1326,176,564,1270
544,1059,1001,1097,587,1515,1168,1296,1490,149,987,1565
153,1380,1159,409,1546,1613,1007,1327,1365,185
1163,1419,1300,535,669,607,545,1058,1514,1578,237,244,501,247,249,252
674,1114,362,492,1325,366,371,276,277,1594,1659
1153,515,394,279,1319,1320,1067,1324,1068,305,1334,1337,1472,1216,1606,1609,989,1120,1123,1252,1128,361,1256,360,1260,1262,368,1147,1148,1661
1441,1442,1570,324,998,423,1576,489,1033,1005,1040,340,1557,347
1473,1156,1574,519,328,1386,527,656,369,1521,1525
352,1379,1478,1518,1551,1043,1463,1048,1339,1303,1438
1440,450,1477,1065,1034,1482,1674,439,506,477,1118,445
1411,1258,1323,1643,1139,1396,1333,1142,1460,446
512,451,1671,1353,1261,1037,1554,1405,1044,1501
1251,452,517,1063,1483,1338,493,1614,1402,604
576,1666,1095,457,1161,523,1135,1491,1140,1335,1146
480,1664,482,1250,459,1486,1008,1169,1401,1407
1410,1318,1350,1640,1641,463,1487,1042,1336,1404
1219,678,1127,1672,495,1359,1461,473,1502,543
1249,1602,516,1302,1462,475,1113,1403,1598,1279
1248,1057,1121,1257,1357,1166,1649,1011,1465,479
481,1635,1636,1637,1134,1552,1394,1298,1395,1500
1152,1638,1511,1321,490,491,1322,1393,565,1397,1499
