0,1604,1093,510,583,1673,522,1331,1112,381,1470
161,417,515,484,1482,1324,1261,207,16,305,530,220,477
261,104,136,361,1323,428,142,19,51,470,56,25,1594,316,285
1153,139,140,397,1038,1552,20,155,158,166,422,1319,1320,178,179,57,317,1597,193,83,95,1511,235,366,116
1120,103,360,42,208,371,375,28,61,415
96,1634,231,40,108,492,48,336,1392,84,181,280,1659,157,1406
1286,1287,1160,539,1619,1182,1183,1184,1185,1313,1314,676,1315,1448,43,1582,1583,1461,694,1620,696,697,698,699,700,701,1081,703,1342,705,1344,708,709,1221,712,713,715,718,719,1233,722,723,1234,725,726,1109,728,1236,730,731,732,733,1238,1371,736,737,738,739,1621,741,742,743,744,745,746,747,748,749,1385,1522,1651,1526,1527,1528
529,1556,150,1063,426,1334,1337,187,444,1219,1606,72,1352,78,996,487,1260,1135,505,251
512,521,1676,1037,144,146,1566,1407,1447,1067,695,1465,1472,711,1351,73,1483,337,212,601,1502,479,488,1011,1402,1147,1148,1661,127
448,992,471,170,74,173,174,113,404,214,87,438
130,456,1609,332,269,368,338,211,441,506
1158,531,412,1068,1080,1082,702,1343,704,1216,706,707,710,714,716,717,1100,720,721,1232,1235,724,1108,1237,727,729,734,735,609,740,1388,750
355,3,132,1252,427,301,367,147,279,281
1248,38,7,11,1357,431,47,1008,1393,1460,565,1462,1336,1118
8,1036,1677,1553,1555,1560,542,289,1066,300,1457,1464,1215,1217,1096,1615,219,999,1384,1519,1009,120,124,126
224,1056,1568,9,1567,1458,467,306,405,1439
449,33,1571,101,649,1002,458,1485,1166,1398,22,282,254
1671,200,10,335,18,1491,152,225,1250,45,495,307,244,503,312,314,1279
65,481,1475,1477,357,1639,1642,491,12,372,1500,989,446
516,394,334,15,1113,221,30,168,59,1258,172,1394,1139,1397,250,1403
34,1411,1636,1602,1666,100,1672,1674,333,1134,1046,247,24,475
1664,98,389,549,1127,203,302,304,1405,94,543
1601,258,323,26,1381,262,79,1264,1265,1295,184,1466,1275
256,234,1643,271,1298,1554,604,93,350,31
32,1505,1440,1251,1282,478,1383,264,265,298,50,1142,1335,344,1401,90,1662,991
1409,390,455,296,230,359,1355,1644,92,49,274,1045,376,154,1468,1247
135,1042,410,162,36,1065,1322,171,53,439,186,442,70,1353,1359,85,213,342,1499,222,480,353,1640,490,1396
576,259,517,1095,331,1302,216,91,418,99,37,175,1329,1395,1140,1213,318,445
1668,1669,646,1607,138,1610,534,1304,1049,986,990,287,228,1382,39,1010,308,1272,511
1152,71,167,1321,1257,44,80,1333,55,380,1598
416,1408,131,1092,1254,1510,268,461,464,562,52,1399,1306,1115,191
450,194,134,457,523,1486,143,272,217,351,97,1637,1638,295,1641,1332,54,60,189
321,66,1667,260,1476,528,466,348,1052,1053,286,118,568,1145,378,507,638
67,584,267,1550,1679,1103,1173,1305,541,548,1444,1253,1126,424,1516,1012
68,1318,233,395,493,401,1649,215,249,319
1057,482,102,1161,75,459,1169,310,1404,540,1501
652,1044,419,292,1060,1328,1596,196,199,1481,76,205,206,1356,1363,363,241,242,1274,1660
1551,275,1043,662,1303,536,664,1048,1438,1463,1339,326,1478,988,1379,612,1518,1137,1143,636,1021
257,1249,1635,164,1121,425,123,237,177,145,379,411,89,283
1157,1034,402,1443,1572,1071,440,451,1608,204,1358,339,1364,1503,1124,1132,236,110,111,1150
577,1154,1220,391,1099,1612,1301,1561,606,288,997,1512,112,1266,1276,1469,1151
547,163,358,1479,1133,1645,240,1616,1362,403,117,406
1281,386,1413,1549,1171,1047,1051,567,572,579,1366,119,345,1498,993,226,614,238,1269,1271,1273,1277
1600,582,1003,1004,1360,595,629,1495,346,284,311
1218,581,1129,1418,1548,303,399,499,632,1467
153,387,421,648,330,1007,1330,435,1365,1593
1603,1380,1159,1546,1131,409,1613,525,1327,185,122
544,1059,1001,1097,587,1515,1168,1296,1490,149,987,1565
1504,354,995,1670,551,329,1130,526,1647,243,343,151
192,197,1675,1361,1299,341,408,483,1125,554,239,1263,1648,1400,313,1214
641,673,1507,1506,680,681,1387,1581,688,1172,670,671
675,1412,1062,1575,631,684,1497,689,465,1267,596,309,628,500,1496,1079,1309,382
514,1018,1285,1680,1050,1054,1055,1310,1064,682,555,1073,690,563,434,1340,1231,469,598,605,1508,618,1268,634,1019,1023
1312,642,552,1517,653,398,685,1681,1074,691
1473,1156,1574,519,328,1386,527,656,369,1521,1525
1283,611,677,639,1520,1650,498,659,693,437,1369,1149,383
610,1414,460,1069,654,1646,1523,1078,665,413
447,201,588,590,1494,1017,666,571,1308,1599
227,580,1480,619,1102,1678,430,497,1493,407,1016,315
384,513,1474,322,356,1122,1547,1611,396,1006
640,545,1058,585,1514,1259,1419,1039,533,1559,1144,252,1311
1632,1509,669,1578,1163,1164,1580,1631,559,1300,535,637,607
1441,1442,1570,324,998,423,1576,489,1033,1005,1040,340,1557,347
420,452,678,1338,494,474,1106,473,1146,575
