387,134,902,8,1031,1036,1040,1297,1049,546,807,424,828,191,1601,1219,1092,331,79,339,608,99,1381,118,1148,253,126
130,136,9,650,1293,271,1051,927,934,423,552,935,1062,1458,309,572,449,326,71,1227,1485,596,218,1502,227,1507,1637,1137,1143
897,1410,262,139,268,141,1038,15,16,786,19,276,277,664,281,26,27,28,410,1440,418,38,297,172,300,177,178,51,436,316,62,64,65,453,198,838,837,87,471,349,94,1120,1248,1250,1121,100,1252,103,104,235,1264,1393,1649,887
517,390,270,526,153,37,1576,41,1323,52,693,451,1095,1101,212,987,485,110,1138
1157,649,1161,782,916,1183,1567,293,553,1072,1207,1080,67,1475,716,1230,592,1619,730,616,758,1018,636
1556,540,548,557,559,1457,1467,189,1090,583,458,1483,1488,1489,601,486,1128,496,884,630,510,127
905,523,893,1300,24,1305,161,801,550,176,308,568,185,442,1596,197,711,1224,1610,206,463,348,1373,222,1639,1661,1662,511
707,357,1446,1447,1160,1479,1528,1099,1103,1327,1583,1205,503,1112,1433,539
0,131,515,135,11,145,1298,1045,150,415,1059,420,35,296,298,55,312,56,314,59,446,192,196,200,456,204,333,461,1359,80,1363,83,470,859,220,221,1249,481,995,1636,360,490,237,367,241,1139,1400,249,381,1407
417,1602,325,1257,173,242,179,1395,116,478
397,1308,291,1317,39,302,1332,575,202,1612,332,1361,1362,211,1122,614,359,1256,364,748,240,629,247
1,1282,1443,426,171,1616,917,119,506,604
7,393,142,404,23,1566,295,168,425,40,431,48,181,54,1336,69,329,207,214,1113,95,230,1255,106,1392,1397,1406
3,1320,394,170,336,368,1653,1462,89,93
128,992,280,105,74,208,1394,278,248,1598
1472,5,169,266,781,61,409,1114,1403,285
1671,12,1044,154,31,32,544,34,166,1465,1477,199,215,97,361,366,371,125,255
322,36,1065,1674,1295,272,338,822,25,124
416,33,1660,260,391,1225,522,1358,851,1623,440,1276
162,292,1476,203,1615,400,239,20,1334,1053
288,1284,1542,551,43,273,536,794,284,1341
1346,1288,1547,816,817,562,566,567,315,831
610,579,619,1039,1360,595,1461,597,599,606
899,1412,396,1549,623,1041,370,657,403,631
672,928,1420,1553,926,1047,920,666,925,414
937,938,429,690,691,692,1557,434,1048,1469
705,1510,712,457,1070,694,1559,184,700,447
1577,714,459,1097,1421,1102,465,725,1084,1085
1156,1512,1168,1105,469,1110,1591,476,732,733
257,133,138,1676,274,543,421,46,47,1594,448,85,213,88,217,225,231,1261,1396,1398,123,1405
1634,1350,1262,113,530,438,379,317,158,351
1605,1322,10,1260,45,365,250,344,186,479
1409,834,422,140,798,18,441,1597,30,1279
1280,389,524,269,908,146,1057,49,1330,310,695,1474,330,467,1123,356,492,1525,1145
1094,328,1482,1226,306,1170,564,1335,1272,1275
258,450,164,586,428,372,1333,534,1500,1534,1215
1318,1383,1351,1449,1385,75,1486,1424,727,1115
1665,482,163,1673,1132,1644,1265,50,1491,1213
384,513,641,898,773,901,519,1034,1328,1522,1652,632,1529
676,776,1678,911,430,1169,914,53,1494,701
582,201,1503,618,78,494,1073,337,346,1599
1217,993,1349,1067,1004,111,753,1269,1273,1626
1216,193,320,66,1508,576,228,392,1422,112,915,789,1401,187,508,1277
1316,1162,1106,1109,990,986,1116,1149,542,1471
1058,388,677,70,1672,1423,406,151,662,607
1382,1000,1066,1645,686,1007,1493,1655,313,1439
1664,516,909,528,1429,279,411,156,1607,1352,1353,1355,76,1375,1251,1380,1640,236,108,243,886
98,1606,73,395,1134,1296,820,340,342,283
353,525,1518,60,721,376,1593,1404,380,159
1536,1670,646,652,1046,152,930,547,1324,815,182,444,1096,587,1118,354,483,996,1253,358,871,1127,1001,879,497,1140,1142
896,419,1060,101,335,660,1301,507,91,1663
549,998,1254,1609,589,749,1647,1648,1425,401,1331,1459,565,343,92
1379,1635,261,1573,455,1511,167,491,1643,307
739,900,1348,102,489,906,1166,341,1527,797
1444,997,554,234,1356,684,362,1595,1309,1374
1575,1384,1131,1071,1399,120,569,1402,443,1470
477,609,648,464,1329,210,468,1173,22,1501
512,640,581,1414,1546,683,718,593,117,1497
318,1445,1194,556,1582,1524,1337,698,252,1438
321,1218,1220,1126,999,1481,1002,1130,1552,1012,1565
1504,678,903,1513,1326,1487,888,122,350,1151
385,1441,1027,1668,194,611,487,149,728,155,254
256,1569,1154,1411,1033,875,143,1270,989,1247
352,289,355,1061,742,615,584,1490,1303,541
1313,1613,1135,1136,1009,1263,1011,1365,378,988
1408,129,2,644,4,6,137,1035,14,1042,147,21,405,795,160,290,165,427,299,1325,174,301,432,1460,180,183,57,58,63,81,82,209,84,86,121,994,1258,107,114,115,377,1278
96,1638,1319,44,205,13,17,251,190,991
1088,1056,1667,1221,1125,521,1129,1642,1150,1052,1310
1604,1574,1003,1515,1675,399,345,188,638,287
1153,1669,1679,148,1572,1578,555,1199,689,1214,704,1608,347,1627,475,1516,1005,1266,1523,633,1021
407,195,294,1006,304,913,498,1299,791,1657
1539,1292,144,275,659,1685,921,538,923,1182,1586,702,710,723,1499,622,627,373,1144
229,613,1480,1454,1107,793,282,219,924,922
1152,1666,265,1419,1306,1307,1321,305,435,1466,445,1357,1364,480,1641,1008,244,375,1659
1603,132,1223,233,334,495,1302,157,29,319
1024,772,1541,645,1555,788,533,918,919,1560,408,1311,1571,1617,1631,1632,1013,892,637
929,673,931,932,936,1163,1677,703,573,1343
327,1164,462,1550,594,856,885,1368,474,735
1184,504,1259,1519,1554,1108,1237,1078,1176,1208
865,706,1159,1548,719,656,1521,1492,535,90,669
1505,933,1068,1580,493,433,755,1654,412,862
259,1285,910,1054,286,545,1570,303,1339,323,68,454,77,216,1376,484,1390,501,505,1274,1147
1473,1442,1124,1093,263,1063,1037,1010,1141,1146
1281,770,771,775,777,780,783,529,1191,1338,1600,1646,238,752,1651,499,1656,1017,1019
224,226,1540,745,1611,1231,1171,1172,1177,223
