1031,8,522,1169,149,279,797,547,1059,1578,686,1071,1457,1093,1610,987,1376,995,633
449,1571,646,488,586,1485,1517,303,464,1136,1010,564,53,22,634,891,1567
1248,163,90,998,487,1094,1574,1674,1306,910,49,466,1361,442,380,1375
900,135,143,1297,931,677,1446,426,304,954,457,1358,592,341,219,99,1000,1263,1523,118,378
960,1305,936,1352,1497,1007,1135,862,1264,1327,1359,1617,1654,1049,153,122,730
128,2,4,133,6,5,17,404,21,278,23,664,795,160,165,1320,40,44,180,183,1597,63,195,1223,329,209,86,87,1114,481,107,495,1392,114,115,1397,248,121,251
512,865,1600,707,1123,1090,808,1002,1338,1678,1583,468,884,1525,695,282,575
1538,553,874,1535,1068,1624,782,1631,594,627,1368,412,1183
256,352,1668,1540,1157,1253,9,1129,523,1675,1613,1679,530,1141,791,1626,247
480,1,34,1604,1125,1481,202,218,508,511
521,1296,161,292,937,182,316,454,331,1363,1374,1505,1382,1127,871,493,241,501,886,1655
353,1607,1001,203,1324,108,467,212,343,249
422,1511,10,906,557,302,176,1331,565,1151
1664,1666,3,1669,137,1035,268,781,140,142,786,19,147,1429,543,33,431,51,441,58,59,1603,837,325,838,453,456,74,208,210,89,477,478,96,1639,371,377,1406
992,290,231,911,367,83,1462,30,1598,95
1472,1634,1325,301,141,81,82,436,409,57
64,1641,170,299,1262,943,113,1394,280,28
994,68,262,1321,12,305,18,123,893,1566
129,131,1606,169,106,297,266,46,1466,1403
896,1542,277,25,32,1065,443,322,76,332,1612,1627,991,483,739,358,1645,376,124
930,1411,162,39,1608,903,584,364,204,1148
1414,615,648,1547,271,1039,659,660,533,534,916,117
932,37,682,555,1328,1168,1555,408,793,925
1184,706,67,581,458,429,719,689,1591,1339
1058,1508,1259,1133,1619,1013,1213,1180,605,607
801,1252,168,1385,173,1393,1460,1333,438,244,349,446
1601,421,134,38,265,138,1138,951,1373,445
1602,354,1318,198,298,171,1260,47,179,26
225,1380,1477,100,103,237,206,1139,820,479
1216,0,545,644,484,41,233,1355,1483,300,589,1643,1644,1518,24,798
1384,1226,1132,1101,526,1648,1011,1272,1146,253
897,258,1057,420,450,1410,1351,1350,1609,1323,333,1486,52,1336,603,1404,1628
1153,482,1379,929,65,7,822,1657,91,190
1470,296,490,428,80,1653,1302,88,154,158
448,1442,492,205,177,1594,375,186,956,1279
1250,35,260,549,199,1257,16,496,1492,151,1593,1663
196,104,587,1615,335,272,312,1401,220,1215
66,98,678,905,1487,207,1425,1044,215,56
1408,1473,1121,328,1258,394,1419,525,178,1491,242,60,61,1407
1440,418,295,11,139,1649,372,1046,221,93
471,132,167,393,1659,405,887,1307,29,1278
1665,1319,13,1038,1042,116,276,54,84,1113
1476,902,999,459,1390,399,1362,148,917,1463,604,1149,542
933,1317,1515,240,1685,629,1303,185,1308,62
1280,513,130,261,519,776,397,653,1330,1529,1309
1282,293,684,944,308,662,536,1465,1310,671
705,1443,69,461,465,692,725,1686,1048,345
224,993,1316,1061,486,997,614,1489,1107,346
1507,1572,1003,1004,494,1520,1526,505,1658,1599
320,1217,323,70,1575,1543,391,234,1126,652,1194,1582,1276,698,507,828,254,1471
1218,1027,1444,236,1116,112,1490,1043,373,252
385,387,908,1056,683,815,1348,73,1488,1115,1247,608,97,1130,1131,1134,1524,1270,1275
1152,194,485,263,239,497,145,1493,1400,381
417,1479,807,875,879,1045,1334,379,444,351
192,390,1383,489,269,1140,406,1501,222,159
197,1224,77,14,749,1301,1335,601,347,1500,125
640,1249,611,455,1449,79,401,146,1459,317
1504,1441,75,1676,1005,435,727,1112,1145,1147
288,964,228,1637,1062,552,78,1300,596,150,1469,1150,1503
1122,1251,1670,619,110,309,1399,250,1052,958
1536,20,152,410,155,285,415,164,42,427,172,45,181,314,834,1474,200,1357,336,214,470,94,1638,230,360,361,235,491,365,368,1396,1405
1060,356,901,463,1616,400,1298,307,85,92
576,546,1219,355,1353,748,909,15,50,1662
416,1120,193,1635,544,424,366,1423,55,27
1377,1605,1255,105,174,48,281,506,859,510
636,257,1159,650,1040,1173,540,669,1063,1576,451,1356,597,989,990,1513,1514,1652,1660
101,934,423,1161,568,1550,1299,120,126,127
318,961,1475,1124,357,102,649,1422,789,344,286
1033,1519,1329,1170,1556,1364,1142,503,1499,1629
514,579,580,1034,588,620,111,1680,562,1527,1656,1341
641,1544,638,1041,657,628,630,663,665,1342
704,709,681,696,1366,1047,184,1561,187,701
1378,226,1478,201,728,722,726,216,1054,223
771,1413,773,775,1480,745,777,1067,267,238
1415,780,1069,783,273,315,819,1494,283,284
1088,326,330,1420,1070,847,1073,1495,1051,829
1089,1102,1104,337,1105,885,1590,374,1496,350
384,1156,904,396,1110,888,1498,1117,1630,1119
1632,1510,1162,915,1205,407,920,1177,1181,413
1633,1281,935,1227,1516,430,947,1240,1210,957
963,1285,1673,1421,1294,1012,469,1014,474,447
1677,498,499,500,502,1017,1530,1019,1021,1022
1546,144,1553,1557,1560,1433,927,1569,693,1099,593,721,339,851,227,1636,1640,245,632,1144
1313,742,1611,1293,1166,1137,1106,1108,1109,986
327,1095,583,616,1295,306,310,538,1467,156,157,1534
1570,1036,1037,1454,1647,1009,1265,243,1402,988
259,1092,1349,517,1381,425,1482,334,1552,913,432,274,1438
1409,294,1008,1424,340,213,1623,217,475,319
289,515,1220,676,291,36,166,255,1322,270,1522,1395,411,348,541,31
516,1256,1225,1229,1326,1261,1006,1214,1565,1118
1154,898,996,1541,389,1254,1439,1642,395,528,338,1458,1332,342,1661,287
321,1667,419,524,211,1398,572,1053,1502,191
1671,1528,136,554,359,1672,119,440,1274,1596
1539,1221,582,1096,1128,1066,1164,1103,1199,1554
1573,550,559,569,1586,1365,313,1018,1595,892
962,1155,388,637,518,1241,392,1484,1292,656,1072,1584,1521,1207,1337,573,702,1277
800,679,1163,622,758,439,504,1434,923,1564
