0,1604,1093,510,583,1673,522,1331,1112,381,1470
161,1,515,453,426,1034,202,139,266,205,364,208,371,85,213,152,89,255
160,129,290,2,257,1255,393,41,107,432,17,82,114,377,58,62,63
16,35,3,20,25,27
4,325,6,231,137,336,81,471,121,415
5,13,174,46,14,180,183,29
145,164,7,11,397,158
10,18,28,36,169,305,64,69,335,214,96,102,103,105,106,236,1008,113,115
379,134,167,123,59,12
147,132,166,394,172,60,15
136,140,141,142,51,19,116,87,61
992,248,40,170,365,207,48,83,84,21,404,23,277
1405,389,1046,1672,24,333,94
144,272,279,281,411,30,417,295,297,427,301,431,441,198,73,75,332,334,357,1002,237,366,244,250,253,127
1056,33,1458,1571,1398,282,1485
34,1411,1636,100,70,1666,203,1134
80,370,372,38,44,143
65,367,71,168,380,47
450,1641,523,1486,1332,54,217,351
97,162,402,55,410,171
66,1667,1476,118,568,1145,378,507,1052,1053,638
67,1444,1516,1550,1103,1679,1012,1305
68,1318,233,395,493,401,1649,215,249,319
130,451,484,459,491,78,463,506
1601,1265,1295,1381,1466,1275,79
1440,1251,359,455,1142,1335,1401,90,92
98,1602,549,1127,1674,302,304,475,543
289,999,1384,1677,1615,1457,1553,1560,542,1215
648,409,1131,525,1330,435,1593,122
1668,1382,646,138,1010,534,986,990
1380,421,153,1546,330,1007
1153,261,280,412,285,159,291,422,1319,1320,1067,1324,173,178,181,1334,316,317,1472,448,1351,1352,337,338,470,220,1120,1639,1256,361,235,1260,1262,1392,1148,1661
209,211,165,456,1035,1278
193,1125,199,200,239,1648,177,1361
1603,387,1365,1159,185,1613,1327
192,194,197,1675,1263,1299,1400,189,1214
994,278,1038,1114,1659,190,1406
1060,292,1481,1356,206,1328,1363,1274,1660,1596
225,517,1095,1329,222,1395,1140,216,221,318
384,1474,227,580,396,1006,1678,497
1504,995,243,1670,1130,1647
1509,1578,1039,561,1300,535,1144,252,607
1505,1282,1247,390,265,1644,991
1665,627,436,362,299,1663
1441,423,1576,489,314,347,1005
320,1136,1617,1573,1595,524,1471
513,322,1122,356,407,1480,1547
353,1353,1065,1359,1396,342,439,442,1499
1124,1572,1608,1132,1358,440,1150,1503
480,481,482,512,457,490,495,503,477
1409,1045,478,1383,1355,1662
544,1296,1490,1001,1515,1565
1616,1362,547,1133,1479,1645
896,897,898,1376,1348,903,1224,1225,906,1226,908,909,910,1657,893,1374,1375
930,1317,934,935,1227,1293,917,927
960,1377,1543,1544,1229,943,947,1686,951,956,1628
1456,981,982,983,984,985,1212,1437
1042,1439,1161,1403,1598,1487
1057,1475,1606,1336,1465,1118
1113,1460,1640,1321,1258,1322
1216,1121,1491,1637,1404,1501
1552,1393,1123,1139,1511,1500
1219,1333,1642,1483,1166,1135
1152,1249,1250,1477,1671,1323
1169,1410,1635,1459,1357,1566
1394,1252,1397,1638,1462,1279
