0,128,130,2,129,1669,4,5,6,7,393,11,1035,13,14,15,16,17,276,21,278,405,152,25,280,795,28,29,30,32,160,290,35,291,165,166,39,44,1325,172,301,436,441,62,63,64,190,325,329,202,76,77,208,209,84,213,86,89,609,98,121,106,107,364,1261,114,115,630,119,377,1403,255
770,1527,1029,1030,1548,275,1431,1432,538,542,1314,552,42,810,1450,560,694,705,835,588,1360,599,1367,1498,738,1507,488,1517,238,878,879,880,881,882,1268,757,502,1655,634,763,383
257,8,526,143,145,149,283,50,1459,52,565,1470,88,94,1504,994,1635,998,1139,1274,1404
771,391,9,269,273,666,164,1196,826,572,447,322,1619,595,217,1369,875,1516,1003
1291,1420,270,403,1171,533,156,1181,556,1070,1074,1203,53,708,1608,1231,848,1615,1237,598,727,1368,1371,610,1508,868,870,232,110,750,761,1276,639
136,265,776,268,142,19,151,415,34,1443,38,171,299,186,191,192,197,203,1612,204,206,1230,212,85,342,215,1247,480,225,103,1385,235
321,33,101,199,330,683,1330,51,499,1458,1495,569,187,989
385,451,1678,1425,1306,350,1570,1379,37,1446,1383,1578,1006,1647,1011,1012,118,1270
1027,1157,775,649,1421,1550,1046,1560,1561,1059,547,677,1572,1063,41,1194,1071,828,1214,1611,1613,109,1273,636,1150
134,524,1422,1429,90,348,1569,995,1381,294,1382,1384,1640,300,49,243,820
1289,1163,782,271,1555,1048,793,1180,1056,1573,293,1192,1066,1328,182,823,1463,1471,320,67,719,1116,1631,224,1632,1124,1253,1002,1519,1523,245,1148
1673,138,1036,1040,146,148,1176,408,1567,1184,1571,548,815,689,310,1337,1595,189,1215,452,73,458,75,990,1136,1524,1143,1147
258,1282,996,1604,233,1353,123,492,1134,1423,1649,1331,470,1499,95
1280,99,1668,484,358,1670,1642,239,1297,1361,247
1162,1034,780,529,657,676,423,1575,430,1073,692,185,315,1341,1216,1600,1220,1356,718,465,346,223,997,1129,1004,748,111,251,1522,1144,507,508,638
521,1679,1173,791,1303,1049,1052,797,541,1062,309,1099,593,730,988,1118,352,608,493,112,1009,1652,373
193,834,516,1223,137,266,781,274,211,1300,231,490,366,1392,113,183,1598,1663
1414,646,650,1305,282,1053,1058,1445,429,306,568,1339,1217,195,198,586,1490,341,622,117,252
256,1170,147,153,1313,1057,1574,305,1093,461,986,611,1126,1127,1128,234,1135,1007,1266,1141,122
581,550,1000,1481,1096,1513,1648,339,660,1140,1299,1301,125,1502
1472,132,1350,167,1676,1262,367,244,277,1397,664,409,285,1597,1406
1664,1605,262,296,139,397,1491,1402,316,1566,479
1120,1473,1665,1603,1255,491,141,1010,1298,596,1492,534,1659,1500,351
576,1410,1219,331,144,721,1457,1616,1145,1054
1442,450,420,517,1094,1095,1352,1486,177,1265,1142,1467
1088,773,1221,1415,1222,201,652,1102,1039,1104,1489,1107,1557,218,413,1117,494,1137,1534
1666,515,711,779,1067,1483,334,337,1302,216,1401,253
259,1092,485,838,615,606,1132,1037,1644,1488,1365,1653,1272,222
1251,228,582,1639,1131,1327,240,400,564,822,1662
260,1159,523,1308,1309,1310,684,308,1476,1480,462,614,230,237,378,241,1399,249,250,254
512,1411,454,236,557,1005,303,1358,497,1556,1493
1536,1153,483,1638,1322,530,242,1462,567,347
1634,359,1641,1482,410,1394,379,281,1114,1307,446
448,1121,640,1252,1320,314,525,1038,335,432,1487,1594,380,317
387,1351,1609,1546,333,463,1295,1112,991,418,807,426,1329,1332,1465,1405,318,1279
449,356,1607,1033,1485,1296,338,435,440,319
477,545,354,1479,392,1675,332,1326,406,1021
704,706,1610,1323,656,1168,1521,659,662,345
1602,1477,584,522,395,1674,1357,349,1596,1249,546,1250,421,549,1334,444,1661,1407
801,355,1380,644,1447,1065,1324,1518,1359,1363,1398,1335,1400,1565,607
1408,1152,1552,1424,1438,1440,1321,445,1475,455,1113,478,1248,357,1258,1393,1138,371,1396,376
1601,360,424,456,1419,1449,365,1264,1042,1395,411,438,1466,1115
1409,394,401,789,543,417,1318,1319,422,425,427,428,431,1460,1333,1336,1606,471,1123,361,368,375,506
513,1667,580,1060,390,583,1412,498,372,629,604,1503
1441,482,1154,1636,419,645,1672,1257,1169,1151,1501,511
416,544,389,1254,1130,1515,1364,503,1593,442,381
