1,7,10,11,13,15,16,20,24,25,35,36,37,38,44,47,48,51,53,54,55,59,61,64,68,71,73,75,78,80,81,90,92,94,95,96,98,99,102,105,106,108,113,116,128,1665,130,135,146,155,165,178,203,211,213,215,216,217,222,225,1255,233,234,235,236,250,254,255,259,261,266,269,271,272,283,295,302,304,310,312,314,318,319,342,350,351,353,357,359,364,372,426,428,431,456,994
257,129,2,6,393,1035,17,21,278,27,160,290,41,432,58,60,62,190,63,74,209,82,84,87,107,114,377,1278,1663
5,133,1038,404,1556,1307,169,170,180,188,1605,198,453,325,336,83,1492,992,231,365,496,251,1406
232,174,207,46,14,208,248,187,28,29
1601,258,323,26,1381,262,79,1264,1265,1295,184,1466,1275
547,163,358,1479,1133,1645,240,1616,1362,403,117,406,31
192,65,194,193,197,1299,341,408,158,97,162,1263,1648,177,1400,313,186,123,1214
321,66,1667,260,1476,528,466,348,1052,1053,286,118,568,1145,378,507,638
67,584,267,1550,1679,1305,541,1117,1444,1061,548,1126,424,1516,1138,1012
1160,137,139,1676,141,142,280,539,415,159,161,291,316,1597,1351,1352,1634,1639,104,1392
1443,1124,1157,1572,1608,204,1132,1358,111,339,1364,440,1150,1503
153,1380,648,1546,1131,525,1593,1330,409,122
132,166,136,168,171,173,367,147,179,212,220
1603,387,421,1159,330,1613,1007,1327,435,1365,185
384,513,1474,227,356,580,1480,1547,1611,430,1006,407
530,279,281,1319,1320,297,427,1324,305,1334,1337,1472,1606,1609,337,989,1128,1256,1148,1661
322,1122,619,396,1102,1678,497,1493,1016,315
417,418,420,389,425,395,397,401,402,379,410,411,380
996,1671,1127,1034,1486,1401,1146,445,1118,479
1321,490,1323,1643,1393,1139,1333,1142,1499,446,1279
450,1065,1257,459,1482,1674,1166,1359,604,477
1638,1487,463,1394,1042,1332,1302,1462,475,1598
1318,1002,493,474,1554,1011,1046,1465,1338,575
480,1121,1248,1477,549,1672,1261,1008,1298,1044
1249,1602,1411,484,1635,1258,1642,1460,1113,543
576,1057,1664,1251,1475,487,1095,1357,495,505
1152,1410,1636,1511,1353,1322,491,1641,1396,1397
512,1250,1637,1169,1649,1395,1405,1402,1501,1407
546,1350,1640,557,1329,1459,1336,1404,1213,1566
896,897,898,899,900,901,902,903,904,905,906,907,908,909,910,911,912,913,1684,1433,1590,1538,1539,1091,1348,1349,1540,1224,1225,1226,1626,1627,1373,1374,1375,1376,1390,1657,891,892,893,894,895
