0,1604,1093,510,583,1673,522,1331,1112,381,1470
257,129,2,6,393,1035,17,21,278,27,160,290,41,432,58,60,190,62,63,74,209,82,84,87,107,114,377,1278,1663
992,5,325,453,231,1605,1038,251,496,1492,1556,1307,1406
128,1665,130,261,7,266,11,10,13,269,15,16,271,146,272,24,25,35,36,165,38,295,1255,428,44,302,47,48,304,178,51,431,53,54,55,310,314,59,61,318,319,64,68,456,73,75,203,80,213,342,216,90,92,222,351,94,95,994,225,98,99,350,102,353,357,105,106,233,108,234,236,364,113,116,250,254
1601,258,323,26,1381,262,79,1264,1265,1295,184,1466,1275
321,66,1667,260,1476,528,466,348,1052,1053,286,118,568,1145,378,507,638
67,584,267,1550,1679,1305,541,1117,1444,1061,548,1126,424,1516,1138,1012
1160,137,139,1676,141,142,280,539,159,415,161,291,316,1597,1351,1352,1634,1639,104,1392
1443,1124,1157,1572,1608,204,1132,1358,111,339,1364,440,1150,1503
1154,1220,388,391,1099,1612,1301,1561,997,616,1512,112,1266,566,1276,1469,1151
132,166,136,168,171,173,367,147,179,212,220
1603,387,421,1159,330,1613,1007,1327,435,1365,185
384,513,1474,227,356,580,1480,1547,1611,430,1006,407
530,279,281,1319,1320,297,427,1324,305,1334,1337,1472,1606,1609,337,989,1256,1128,1148,1661
322,1122,619,396,1102,1678,497,1493,1016,315
417,418,420,389,425,395,397,401,402,379,410,411,380
996,1671,1127,1034,1486,1401,1146,445,1118,479
1321,490,1323,1643,1393,1139,1333,1142,1499,446,1279
450,1065,1257,459,1482,1674,1166,1359,604,477
1638,1487,463,1394,1042,1332,1302,1462,475,1598
1318,1002,493,474,1554,1011,1046,1465,1338,575
480,1121,1248,1477,549,1672,1261,1008,1298,1044
1249,1602,1411,484,1635,1258,1642,1460,1113,543
576,1057,1664,1251,1475,487,1095,1357,495,505
1152,1410,1636,1511,1353,1322,491,1641,1396,1397
512,1250,1637,1169,1649,1395,1405,1402,1501,1407
546,1350,1640,557,1329,1459,1336,1404,1213,1566
1376,1539,900,1348,1224,905,906,910,1390,1433,1626,1627,892,1373,1374
965,966,967,968,969,970,971,972,973,974,975,1032,1435,1436,1391,1455,1211
