385,1285,8,524,1037,146,1554,557,693,187,1475,1093,1352,467,1247,739,1513,1524,1270,1398,1528
1282,1669,136,9,1034,1675,791,1303,542,292,423,1458,451,70,1480,1609,78,335,1616,727,343,345,352,1505,1251,997,102,1637,1001,1515,493,879,112,1652,1655,636,1149
10,1169,1297,1301,151,287,33,162,171,188,321,453,71,1481,1363,728,604,353,99,1254,1008,241,1527,249,125,511
1409,132,139,12,18,786,157,1440,422,1319,168,1320,1336,1466,448,1223,1607,470,1260,375
1121,834,36,1477,1318,1350,1605,16,274,338,1396,213,501,1497,250,155,220,1534
1660,1215,98,419,503,871,1257,1296,316,342,24,441,124,1150,191
32,1666,1411,101,517,582,646,1253,1662,341,182,26,1661,1470
225,34,1249,516,1601,1602,1671,27,203,235,395,748,1324,244,88,123
512,1673,1164,144,538,286,1570,548,37,1582,559,53,569,698,1595,576,592,1106,986,91,1501,608,609,357,110,1136,122,127
544,1536,1154,1379,549,39,1128,300,1644,1166,271,304,308,1300,156,540,1214
1408,1664,258,1676,525,1423,149,1306,798,1438,801,47,1329,1459,1335,312,186,445,318,859,355,1635,1511,875,1264,1653,1400,380,253
257,387,1092,73,138,331,143,49,1331,148,1272,1593,1467,1439
648,908,910,1553,147,1556,1063,302,305,185,828,66,322,1095,1499,92,1376,998,1523,1143
1024,771,900,1539,1030,1286,392,892,905,1160,1039,912,275,788,1555,539,1563,1182,1183,1569,1571,293,1062,1575,552,553,556,1583,309,566,1463,573,703,704,1343,67,452,1611,1617,723,1108,597,1237,1373,990,735,1631,1632,1507,1512,1514,1259,1516,750,882,245,1273,508
480,161,289,1056,68,134,1094,586,1007,400,656,1521,1663,340,117,1623,1339,1407
577,418,1130,75,492,77,270,1226,1326,1525,695,1305,1148,1566
641,898,773,1159,904,1415,780,1420,1677,529,1299,1433,1051,1052,797,1309,671,1310,1572,1061,294,1194,684,430,686,1073,434,694,567,1590,701,579,581,1349,1479,459,588,1104,465,1107,1109,726,1494,1495,90,474,218,477,1503,993,226,614,620,238,1390,1646,497,628,507,1021
1540,1549,1530,1043,535,1047,1048,1050,1054,1067,1069,1074,570,571,1084,1088,1600,1091,580,1099,1102,593,1105,595,1619,1621,598,599,1110,1626,603,1117,610,619,1133,622,111,631,639,1156,645,1162,1167,659,1171,1684,1174,663,1177,666,1186,163,676,1188,1196,1197,1203,1204,1206,184,189,708,712,1231,722,725,219,223,224,738,229,232,1269,761,763,1277,254,1281,775,267,783,789,790,794,1311,1314,803,810,824,826,315,1346,327,839,1354,1360,849,853,1366,1369,346,1371,370,374,889,894,895,384,1412,901,902,1414,1418,907,396,1421,1422,911,402,403,408,413,1448,433,1478,462,1489,1496,486,1004,498,499,500,1522,1526,1016,1018,1019,1022
1157,903,1161,1550,1679,662,1053,1060,426,1066,307,1332,320,1613,1358,1361,851,347,988,1125,1005,494,239,886,119,252
1280,1476,1382,1672,1674,333,1359,176,1487,1395,564,1429,120,1275,989
1027,1668,1546,909,660,545,1057,1313,1446,1578,683,1327,1338,323,326,454,1096,1103,1365,217,222,1375,742,615,999,1126,243,1141,888,1145,378,126
130,260,391,397,528,530,407,1184,1443,689,313,1220,197,1221,584,332,339,227,359,487,1642,1645,1657,1276,1151
131,995,390,1639,1323,269,1357,463,1010,435,279,154,444,479
450,259,1059,1381,456,1033,1419,1036,1261,1483,1486,1612,145,1266,1337,1274,987
513,647,776,650,523,1529,406,541,547,692,440,443,1216,193,1604,1608,201,337,1362,1493,476,1122,1003,240,1137,247,1401,1405,638
1667,652,1425,533,1176,416,1199,1217,194,1473,1348,489,236,749,1011,373,1399,633,1402,1278
899,1548,654,782,1172,673,811,1198,1078,1599,585,719,464,210,594,1368,1519,885,758,1014,504
521,1678,399,1046,1565,677,1576,303,306,1205,823,1488,466,212,1502,1124,1129,1009,1144,637
1538,611,388,1080,1445,1547,716,1230,1072,1168,1557,216,730,282,891,575
256,519,1031,1040,913,1173,1560,1180,1058,1444,1573,1574,682,555,429,1586,1471,707,1356,1627,348,1116,350,1508,485,616,234,618,1002,1006,1263,1012,1656
640,1441,1380,1447,1065,458,1295,1648,822,344,283
1218,678,550,1000,1384,554,1643,815,1328,1615,1647,629,568,1049,1308
