0,1604,1093,510,583,1673,522,1331,1112,381,1470
1,211
129,2
1120,3
81,4
5,183
6,231
7,431
8,1036,1677,1553,1555,660,1560,156,542,294,550,1066,300,1457,182,1464,1215,1217,1096,1615,88,219,999,1384,1009,245,246,373,120,124
1056,224,449,1571,33,101,9,458,1485,306,467,1458,405,1398,22,282,1567
200,10,312
11,565,38
372,12,357
13,190
29,14
250,15
16,25
17,114
225,45,18,244,503,1279
19,87
20,285
115,21
105,46,23
389,1672,333,1046,24,1405,94
1601,323,26,1381,262,79,1264,1295,1265,1466,1275
27,1659
248,41,1035,28
1258,1397,30
256,234,1643,271,1554,1298,604,93,350,31
32,1409,478,1383,264,298,1355,50,274,1045,376,1662
1666,1411,100,34,1636,203,1134
232,35
36,135,1322,490,53
91,37
228,1669,646,1382,39,1607,1610,511,308,1272,1049,287
40,133
42,165
43,108,428,269,1461,150,1402,479
1257,44,1333,1598
1336,47
48,157
1505,1282,390,230,296,265,154,1644,49,344,991,1468,1247
51,139
416,1408,1092,1254,1510,268,461,464,52,1399,1306,1115,191
450,1641,523,1486,1332,54,217,351
1321,55,71
56,1153
104,57
1028,849,850,851,1204,852,853,855,856,627
1417,626
62,422
1088,854
1139,1394,59,1403
60,134
61,103
170,63
64,436
65,1642,491,1475
321,66,1667,1476,260,1052,528,466,118,568,1145,378,507,348,1053,638,286
67,1444,1061,1253,584,424,267,1516,1550,1679,1103,1138,1117,1173,1305,541
68,1318,233,395,493,1649,401,215,249,319
69,253
70,1042,222
73,1123,305
448,74
1057,75,1501
419,196,292,1060,1481,1356,76,1328,241,242,1363,1274,1660,1596
1609,130,529,78
1152,80,380,167
82,188
83,365
1392,84,1406
1640,85
277,86
89,164
1440,90,1251,1335
359,455,1142,1401,92
1352,95,159
96,214,375
97,194,1638,457,143,189
98,1602,549,1127,1674,302,304,475,543
1161,540,102
106,266
209,107
236,110,1071
1443,1124,1572,1608,1132,1358,111,339,1364,440,1150,1503
113,492
116,140
547,163,358,1479,1133,1645,1616,240,1362,403,117,406
386,392,1171,1047,1051,284,567,443,1600,579,582,1360,595,345,1498,223,993,614,1003,629,119,1273,1277
121,471
387,648,409,1131,525,1330,1593,122
1121,237,145,411,123
288,1154,388,997,1220,391,1512,1099,1612,1266,532,1301,566,1561,1276,606,1151
1147,127
128,180
355,132
136,427
137,415
360,141
1594,142
144,1063
146,1219,477
147,367
544,1001,587,1515,1296,1168,1490,149,987,1565
152,1250
421,330,1613,1007,1327,435,1365,153
178,155
193,417,158,1511
161,1324
162,186,213
1597,166
168,394
280,169
171,1661,1606
1113,172,221,334
179,317,173
276,174
608,1569,1280,1094,1000,650,1484,270,1326,176,1297,564,1270
177,379
181,438
1603,1380,1159,1546,185
771,187,766
192,483,1400,197,1263,1648,1299,408
195,1639
1307,198
652,1044,205,199
441,202
1278,207
208,371,1325
1425,210,803,820
1128,212
216,1329,517,1095
220,444,1334
1320,235
1125,554,1675,239,1361,341,313,1214
1504,354,995,1670,329,1130,526,1647,243,343
1664,247
251,404
1632,640,1509,1164,1631,559,1039,561,533,252,669,1311
1002,1166,254,1439
364,255
1249,257,1635,425,283
259,331,1302,1213,445
994,261
272,1637,295
281,279
297,332
456,299,989,1663
301,366
1671,495,335,307,1491,314
482,459,1169,310,1404
393,316
1395,1140,318
1441,1570,324,1033,1040,340
336,325
1573,327,524,1136,1617,1595,1471
337,1067,1148
368,338,1260
353,1065,1353,1359,1396,342,439,442,1499
1442,998,1576,489,1005,347
349,453
1480,1122,1611,356
361,1319
432,377
484,1323,397,1135,1407
1413,1129,1549,399,1495
1034,451,402
480,410
576,418
426,1350,1410
1477,446
1412,1062,1575,465,1497
1256,470
481,1500
487,1482,1261,1011,505
496,1492
1058,1514,1419,1578,501
506,996
512,1483
530,515
516,1605
521,1037,1502
1552,546
1338,1106,1146,575
1216,601
674,781
1344,1185,738,1221,748,749,1582,1621,1109,1527,728,733
1184,698,708
1313,701,742,1183
702,1447
1192,787
1024,1194,1422,1584,788,789,1563,797
1424,801,1223,807
1200,817
1289,823
832,833,1027,1586,828
992,1472
1008,1460
1038,1255
1248,1357,1393,1462,1118
1252,1262
1337,1449
1354,1556
1465,1487
1634,1676
