515,260,255,528,1042,274,152,30,31,421,166,316,193,1477,1353,1610,333,221,351,608,99,1636,355,103,361,366,244,376,124,1663
129,2,5,262,6,7,11,17,276,21,278,23,160,35,167,1319,1320,40,41,44,46,48,432,54,1462,56,1466,58,188,445,446,62,63,198,81,82,83,210,471,89,1500,121,1638,105,490,107,492,377,113,114,115,248,249,380,253
781,149,662,1046,1557,538,156,1567,1446,1063,1580,308,564,1216,72,467,987,1000,1001,748,1147
774,775,1163,1164,1166,1040,275,533,1183,288,1061,423,553,1067,175,1072,559,1463,1080,1338,1469,573,575,702,1221,716,717,592,337,340,1109,988,998,109,755,245,1021
1442,996,582,1352,554,302,1358,1678,148,501,118,629,1044,1497,541
513,386,130,1157,650,1034,396,529,1561,34,676,1575,1066,430,693,567,440,704,451,454,1608,1609,202,206,1102,78,465,466,596,477,226,1122,619,1263,368,1522,1271,506
1033,1161,523,1419,1037,270,271,540,294,1447,1449,300,556,1326,1327,1328,1330,320,323,1219,711,1097,330,589,1103,721,1112,348,990,991,997,1126,1127,1384,494,1648,373,1146
0,1379,1254,1482,1674,268,1484,1007,242,243,1554,1365,664,122,1275,191
547,389,1510,102,489,1258,649,1296,176,88
1570,484,1131,1359,400,1297,562,1302,344,94
128,1410,4,516,132,133,141,15,19,20,277,280,281,155,28,29,285,418,162,164,165,168,169,436,180,183,60,61,1598,64,325,74,334,335,80,209,86,1255,232,360,108,1392,116,250
1282,3,134,263,390,1323,525,1597,222,479
290,1634,393,173,84,405,404,87,1336,1114
994,354,71,455,12,1397,22,1527,728,190
1280,256,644,8,1642,1675,332,1457,150,185,1214,542
1412,645,264,1260,378,240,218,251,701,1503
449,1668,1060,392,267,1485,631,247,286,607
1504,66,196,505,526,304,1298,1300,1273,510
1251,1443,1670,1481,1513,1516,1362,1299,1143,1468
1152,648,394,269,411,424,425,1458,565,199,331,85,216,1249,482,995,1511,1639,1641
224,98,228,68,1640,1065,138,177,1331,350
289,1092,9,1676,524,530,532,1332,535,153
1409,1,10,395,543,416,291,39,299,171,441,1601,322,1607,459,211,604,101,104,1257,1256,364
1666,1250,36,453,1515,410,151,25,90,349
65,258,1569,1279,1351,1128,1546,1465,496,212,372,1213,24,57,1501,159
131,261,426,428,13,272,1393,145,1459,1247
1304,97,357,422,1673,401,499,184,1278,319
1474,1603,1252,1475,1350,1318,1295,1495,1307,1405
388,1669,1672,660,406,1305,287,32,33,307,51,55,444,321,324,1479,456,205,1616,611,1261,125,1661
419,1604,100,646,1264,18,1334,507,220,638
266,142,549,38,1321,174,179,70,461,208,338,214,215,1499,992,353,483,358,106,371,379,1407
96,1153,1408,139,367,1615,431,92,375,279
1120,195,295,409,491,16,1394,1593,123,95
161,194,1476,522,47,470,1113,1402,475,478
135,154,1324,1134,79,442,312,26,1596,317
768,769,772,773,1288,765,779,780,1517,782,1682,1494,1309,1439
1313,42,1548,783,784,1043,563,309,311,571
1314,579,581,613,363,1549,593,1047,347,574
1344,641,679,681,399,1562,634,666,1050,639
682,1360,690,434,692,437,1051,700,699,1599
1600,201,714,204,718,1369,730,219,1054,447
737,1064,1129,1099,1070,1137,1622,1110,1371,1055
742,743,1385,745,749,1646,238,750,751,1151
1186,1218,1189,1191,1389,1165,752,1650,1177,1180
1220,1414,753,754,1651,756,757,498,759,761
1420,1005,1680,1681,1238,1240,1241,1242,1019,764
514,1283,1413,776,777,1418,273,1310,293,43,1461,326,469,223,738,227,1387,1003,239,1267,1268,502,1017,767
614,587,1547,111,595,628,600,636,1053,1311
1312,1056,672,398,402,403,665,1498,382,383
1345,675,677,684,685,1071,1523,691,696,697
1062,1133,1361,1073,722,1075,1171,1079,1530,1181
257,450,225,1602,1606,1671,200,427,45,1486,1552,1139,1492,1333,91
356,37,231,1130,362,1645,14,186,283,1404
27,158,1262,147,181,601,314,1659,1406,415
448,546,1411,1605,69,137,170,1035,365,336
417,387,1637,235,652,1169,49,1396,93,511
1248,359,1643,1357,1519,1647,1265,1274,989,1662
1665,397,1038,143,163,301,1460,438,1467,327,1612,1490,1491,1121,1635,237,1270,503,381
1472,544,172,1325,140,495,213,439,1594,157
1440,259,136,73,1487,463,305,1142,217,59
481,385,230,297,1644,76,207,178,1403,1470
1441,329,1322,1649,50,1395,1335,1401,1115,1118
384,1281,391,1356,429,686,1529,52,1493,1621,119,313,284
705,580,1285,1677,110,497,1496,345,315,572
993,1124,1125,500,1141,1366,1526,1269,1276,1052
352,1571,1156,1478,519,1512,112,633,306,341,597,1303,53,566,443,1144,1150
1382,1159,1036,1168,1617,1010,1173,182,1048,986
640,706,67,1160,656,1521,1364,534,630,1595,539,1148,669,1471
674,1383,999,1002,1611,1132,1550,1679,1006,1618
265,1556,408,296,1337,189,1093,1480,1355,75,343,1381,487,616,233,1518,1009,1138,1266
1473,1154,1057,1444,1059,1094,527,1008,1045,1215
328,584,568,458,236,1135,1363,435,407,1560
1667,1095,1578,1613,1553,339,1398,1272,1660,1565
1505,1123,517,678,551,197,521,583,1566,1386,241,1170,1329,1012,1011,1306,1502
512,1354,77,1614,493,369,370,146,1049,318
1664,1380,488,1140,117,310,1399,342,1438,127
771,1400,1162,654,1039,659,1559,536,537,1185,1058,548,1105,1116,1632,126,1253,1136,504,1018,252,637,766
192,1576,457,585,460,695,698,187,1149,1343
609,612,733,618,735,1525,1176,120,605,1631
576,480,1184,1507,292,1573,552,298,203,653,1551,1524,1117,1464,1145,1277,254
234,683,557,1520,689,1106,1301,246,374,569
1217,1506,545,708,420,550,1514,303,474,1555,632,282,1308
1568,1572,1509,1574,1096,1104,561,1107,1108,1013
770,1155,518,1286,778,1421,655,1175,1182,1187,1188,1581,1582,1081,1082,1083,703,452,1222,586,719,464,720,723,468,725,1239,758,760,762,763
1190,1483,1068,1101,144,1232,627,1339,412,606
