0,1604,1093,510,583,1673,522,1331,1112,381,1470
1,130,3,35,104,78,57,27
2,517,7,521,1034,523,11,12,13,1035,16,17,1042,1037,20,1044,1046,24,28,30,1057,34,36,37,38,41,44,45,53,54,55,59,60,62,63,65,70,71,73,75,80,85,86,89,91,94,99,100,105,106,107,114,115,123,1663,128,129,139,150,152,160,165,171,173,174,178,187,190,193,209,211,212,220,1255,235,236,237,244,1278,255,261,278,290,297,299,305,307,310,312,314,318,357,367,372,377,379,380,389,394,397,410,417,418,426,427,428,431,456,1011
4,69,325,6,231,137,336,81,51,471,121,61,25,415
5,133,40,170,74,365,48,83,84,21,23,157,375
992,994,1605,453,169,1325,1038,496,1556,277,1492,214,248,1307,1406
164,132,167,168,172,143,15,147,158
166,136,140,141,142,19,116,87,155
224,449,1056,1571,101,1485,1458,22,1398,282,1567
1601,258,323,26,1381,262,79,1264,1265,1295,184,1466,1275
256,234,1643,271,1298,1554,604,93,350,31
1472,1216,1661,1606,1319,1320,1609,1256,1067,1639,1324,1262,1334,56,1337,316,989
321,1667,1476,1052,1145,507,348,1053,638
67,1444,584,424,267,1516,1550,1679,1173,1305
68,1318,233,395,493,401,1649,215,249,319
1060,1481,1356,76,1328,1274,1660,1596
98,1602,549,1127,1674,302,304,475,543
1603,1380,648,330,1131,108,525,1546,1330,409,122
547,163,358,1479,1133,110,1645,240,1616,1362,403,117,406
1443,1124,1157,1572,1608,204,1132,1358,111,339,1364,440,1150,1503
153,387,421,1159,1613,1007,1327,1593,435,1365,185,127
1668,1382,138,1010,308,534,1272,986
257,259,295,301,269,144,272,146,279,281,283,254
1634,1351,1160,1352,202,1676,1392,181,280,441,1594,1597,253
192,483,197,408,1263,1648,1299,1400
289,1217,550,1384,1677,1615,1457,1553,1555,1560
320,1573,293,327,553,524,556,1136,1617,468,538,1595,1471
513,1480,1547,1611,619,430,1102,1493,407,315
1441,1442,1570,324,998,423,1576,489,1033,1005,1040,340,1557,347
512,482,515,484,516,487,490,491,495,503,505,506
1431,1029,1030,878,879,880,881,882,1655,1432
1121,1666,1063,1672,1483,1166,1486,1402
1248,1219,1257,1482,1642,1135,1332,1118
1249,1123,1671,1258,1323,1459,1140,1491
1638,1134,1487,1394,1302,1403,1500,1598
1410,1350,1511,1640,1641,1329,1139,1404
1664,1250,1636,1637,1477,1395,1333,1407
1411,1321,1322,1552,1393,1460,1397,1462,1279
