545,1570,1667,100,1220,102,1254,8,1383,1511,331,1483,1010,467,1331,373,189,1438
484,70,9,457,1615,466,1042,212,1458,151,380,350
1025,771,11,1163,1547,1039,659,1301,1561,538,1182,799,800,1567,420,804,552,1192,1195,556,812,1581,569,703,1343,577,706,452,585,1099,1611,593,1617,1108,1109,728,219,988,735,1631,1632,1507,612,229,1126,1513,1259,1136,1141,120,1273,125
1223,1128,73,1033,1351,1676,463,18,1139,1335
256,640,1155,518,1168,1297,1298,1172,22,408,665,1560,672,289,1184,1313,423,551,300,689,1595,1214,67,1103,1361,341,986,997,999,1384,618,750,239,1519,1266,1652,1143
1282,131,644,1546,1275,1296,660,149,24,416,302,323,327,455,1352,333,461,342,88,1112,606,480,225,353,1001,1257,240,1395,1147,1404
1664,135,1169,154,26,549,1460,60,61,1472,1602,71,75,1484,1121,1250,1635,1131,1261,1398,1399,1407
523,789,1049,31,1660,1057,1447,305,182,1093,1094,1613,340,987,482,489,1011,1142,249,1146,636,1278
130,1413,1669,391,406,33,1443,567,55,704,1479,203,332,218,615,508,238,506,1276
1248,66,99,36,37,101,519,1000,1219,1380,459,1648,1265,339,52,1400,90,1565
512,386,514,1528,653,398,1551,1678,402,1048,798,1439,673,1572,1575,42,43,303,690,693,1078,311,1461,705,1218,326,201,1360,465,1616,1496,474,346,1116,1498,226,739,619,1004,110,111,1137,500,629,1526,1015,1144,251,382,383
97,163,228,357,387,803,296,1381,1636,1643,237,49,1012,53,1662
138,1419,397,1044,1440,801,177,50,178,435,186,1605,1353,1357,79,94,1249,361,1260,1393,1401,1402,123,1405,1279
1408,65,1474,1321,394,1322,108,141,145,85,215,1113
68,1252,1598,139,491,1132,1491,283,93,478
1059,584,1515,77,1133,1645,112,1040,403,532,118,185,604,351
227,324,1637,136,1608,458,1034,236,1642,78,1358,1679,242,662,1337,378,1052,607
262,1670,1675,1164,399,272,1300,1578,559,1327,187,1480,1481,1359,91,348,1118,1125,487,1512,494,1647,1151
259,390,1160,1423,400,401,1424,539,411,1065,1323,557,711,587,343,1115,92,222,98,1130,1258,1644,1135,1008,1009,1649,1145,254
647,1161,782,783,144,275,787,1174,412,540,670,1183,288,1058,1445,294,1574,1576,553,1194,560,561,1338,1339,1469,1215,1478,583,586,464,721,1233,1107,1488,730,609,1123,485,1509,109,622,1006,755,374,758,1023
513,388,775,1159,1421,1550,1553,1555,1311,1056,293,677,1062,1191,1573,683,308,309,1221,454,1097,718,592,1365,1493,603,477,224,1505,234,493,1517,243,1523,117,634,510
1412,392,396,1677,529,1302,1176,1060,678,1446,430,1071,1466,571,582,204,1503,993,745,1263,502,119,633,1021,638,127
1247,611,1477,646,1138,501,1046,440,1305,122,1502,287
517,524,1036,1422,146,155,1441,1442,1067,306,1459,1473,451,1095,1482,337,1379,1002,126
1475,1092,197,998,1063,1350,1037,143,148,1556,791,1272
576,1251,645,1096,1673,497,1106,1149,246,507,1464,443,156,1117,990
159,1318,807,270,1552,1396,470,1336,1148,319
192,1501,292,358,298,1674,268,748,271,304,241,1007,1170,1328,1362,1363,669
1668,1672,650,267,1295,1173,1053,417,1571,1444,550,1476,210,596,1497,1499,1253,742,1382,1129,505
1549,527,1043,1557,534,535,1047,1051,541,1054,1569,547,1061,1070,572,1600,579,581,588,1102,595,602,605,610,614,617,620,624,628,632,643,1162,1680,657,1681,1171,1177,671,1186,681,1196,685,1197,1198,696,697,698,701,702,1216,1217,714,719,1231,726,727,1240,1241,732,733,223,741,743,1267,1268,1271,761,1277,1281,1283,1285,264,776,1288,780,273,1299,790,794,284,1308,1310,1312,802,805,806,809,810,811,813,815,1341,1346,1347,1356,1364,345,1370,363,1414,1415,1418,413,1468,447,468,469,1494,473,1506,488,1003,1520,498,1524,1014,1527,1529,1533,1534
1026,655,656,1303,537,808,1068,814,1463,573,1222,460,717,1101,1230,597,725,1110,1367,601,352,1386,1514,1516,369,1521,245,1013,504,1535
1504,1607,1671,511,269,526,1134,528,1596,543
1606,648,1640,1324,589,274,1045,503,1593,381,991
