0,1604,1093,510,583,1673,522,1331,1112,381,1470
1,130,3,35,104,78,57,27
96,2,106,432,209,377,58,63
4,69,325,6,231,137,336,81,51,471,121,61,25,415
5,133,40,170,74,365,48,83,84,21,23,157,375
38,7,297,11,12,627,212,1278
289,550,294,1384,8,1036,1615,660,156,542
1056,449,1571,9,458,649,467,405,22,1398,282
10,45,173,18,211,85,152,314
290,165,105,393,42,13,17,113
195,169,492,14,207,404,1492,29
128,456,364,16,307,20,28,255
166,136,140,141,142,19,116,87,155
1057,389,1034,523,236,402,1011,150,1046,24,411,220,94
1601,258,323,26,1381,262,79,1264,1265,1295,184,1466,1275
425,394,235,59,179,89,379,30
34,428,237,397,1042,54,312,410
417,418,37,123,1037,244,91,60
1668,228,1382,646,39,287,138,1610,308,534,511
160,129,41,107,114,115,86,62
71,1035,44,47,80,431,55,380
64,103,266,299,139,174,46,278
448,422,360,361,1609,1262,56,316,317
65,193,261,357,426,370,372,1663
321,66,1476,260,528,466,118,348,286
67,548,424,584,267,569,603,541
68,1318,233,395,493,401,1649,215,249,319
517,102,73,521,75,305,310,318
1255,427,367,178,82,187,190,95
97,162,134,143,145,186,189,158
98,1602,549,1127,1674,302,304,475,543
153,387,421,1159,648,330,409,108,525,1131,1007,1330,435,185,122
1443,1124,1157,1572,1608,204,1132,1358,111,339,1364,440,1150,1503
1603,1380,1546,1613,1327,1365,1593,127
257,259,295,301,269,144,272,146,279,281,283,254
608,385,1569,1280,229,650,589,270,148
1325,210,180,277,183,248,251,1406
192,483,197,554,239,341,408,313
384,513,322,227,356,580,1480,1547,396,1611,1006,1678,1493,407,1016
451,1155,518,1479,1645,240,433,1362,1524,406
1060,1356,1328,242,1363,1274,1660,1596
353,355,1353,1065,331,333,334,335,1359,1396,342,439,442,1499,351
1216,1472,1067,1068,332,470,1148,1661
488,368,337,338,529,601,444,412
1667,568,1145,378,507,1052,1053,638
480,481,450,457,463,445,446,479
1253,1061,454,1162,1516,1550,1103,1173,1116,1117
512,482,515,484,516,487,490,491,495,503,505,506
1539,1349,905,1390,913,1433,1627,892,1373
930,1317,934,935,1227,1293,917,927
1456,981,982,983,984,985,1212,1437
1120,1153,1252,1319,1128,1256,1260,989
1217,999,1096,1066,1009,1170,1553,1215
1444,1126,1513,1679,1138,1012,1141,1305
1250,1123,1095,1261,1134,1135,1140,1213
1152,1249,1257,1258,1321,1139,1113,1118
1248,1121,1636,1640,1641,1500,1566,1279
1125,1675,1263,1648,1361,1299,1400,1214
1410,1350,1161,1322,1323,1332,1402,1407
1411,1329,1522,1395,1302,1404,1405,1439
1635,1637,1638,1671,1642,1552,1333,1598
1664,1666,1357,1393,1394,1397,1336,1403
