257,129,2,6,393,1035,17,21,278,27,160,290,41,432,58,60,62,190,63,74,209,82,84,87,107,114,377,1278,1663
4,7,10,11,15,16,19,20,23,25,35,36,37,44,47,51,53,55,57,59,61,68,71,73,75,78,80,85,89,90,92,93,94,95,96,98,99,100,102,105,106,108,113,115,116,127,128,1665,130,135,140,146,155,165,178,203,205,211,213,215,221,225,1255,233,235,236,250,254,255,256,261,266,269,271,272,283,295,302,304,310,312,314,318,319,342,350,351,353,357,359,364,428,431,436,456,994
1601,258,323,26,1381,262,79,1264,1265,1295,184,1466,1275
547,163,358,1479,1133,1645,240,1616,1362,403,117,406,31
530,279,281,1319,1320,1324,301,1334,56,1337,1472,1606,1609,337,338,1123,1252,1256,1262,1661
192,65,194,193,197,200,1675,1299,341,408,97,162,1125,177,1400,186,123,1214
321,66,1667,260,1476,528,466,348,1052,1053,286,118,568,1145,378,507,638
67,584,267,1550,1103,1679,1305,1116,541,1117,1444,1253,548,1061,424,1516
992,1605,325,1038,336,496,83,404,1492,1556,183,1307,1406
1160,139,1676,280,285,159,161,291,441,1597,1351,1352,202,471,1634,1639,104,1392,121,253
1443,1124,1157,1572,1608,204,1132,1358,111,339,1364,440,1150,1503
1600,579,1360,595,1366,1495,119,345,346,226,614,1003,1004,238,629,567,443,508
1603,1380,185,1159,648,1546,1131,1327,1330,409,122
153,387,421,330,525,1613,1007,435,1365,1593
384,513,1122,227,356,580,1474,1480,1547,430,1006,407
322,619,396,1611,1102,1678,497,1493,1016,315
1121,1249,1477,549,1261,1298,1554,445,1118,543
1411,1321,1643,1393,1139,1396,1333,1397,1499,446
480,1248,451,1672,1257,1166,1359,1008,1486,1044
1410,1636,1318,455,1258,1322,1552,1460,1404,1279
1664,1250,484,1671,1511,1641,1323,463,1042,1405
1350,1640,1353,557,1302,1142,475,1500,1598,575
1635,1475,1637,1407,1169,1649,1395,1465,1402,479
1152,516,1638,490,1134,1487,1394,1462,503,1113,1403
546,1502,521,495,1329,1459,1336,1401,1213,1566
708,1343,1286,719,703,723,725,698,1371,735
896,897,898,899,900,901,902,903,904,905,906,907,908,909,910,911,912,913,1684,1433,1590,1538,1539,1091,1348,1349,1540,1224,1225,1226,1626,1627,1373,1374,1375,1376,1390,1657,891,892,893,894,895
