1664,1,1639,1640,202,1260,368,338,441,1661
160,2,1320,41,106,107,393,1262,114,62
1410,3,431
1153,4,134,7,394,140,141,147,20,280,155,28,35,166,168,301,46,178,181,1336,60,61,336,231,235,367,116
40,5
81,6
8,1036,1677,1553,1555,660,1560,156,542,289,294,550,1066,300,1457,1215,1217,1096,1615,88,999,1384,1009,373,124
1056,224,1571,101,9,458,1485,1458,306,467,405,1398,282
200,10,312
11,565,38
372,12,357
992,492,13
1278,14
142,15,530,19,152,285,297,171,1324,47,51,1337,187,332,212,470,1250,361,364,247,506,251,255
16,27
17,211,174
225,45,18,244,503,1279
21,133,183
210,23
389,1672,333,1046,24,1405,94
104,25
1601,258,26,323,1381,262,1295,1264,1265,1466,1275
1035,29
1258,1397,30
256,234,1643,271,1298,1554,604,93,350,31
32,1409,478,1383,298,1355,274,1045,376,1662
34,1411,1666,100,1636,203,1134
36,135,1322,490,85,53
91,37
1669,1382,1607,646,39,1610,308,1272,1049,511
43,108,428,269,1461,150,1402,479
1257,44,1333,1598
48,74,180
1505,1282,390,230,296,265,1644,49,344,991,1247
1408,131,1092,1510,1254,268,461,464,52,1399,1306,1115,191
450,1641,523,1486,1332,54,217,351
1321,55,71
1120,1472,422,1606,1483,1487,1392,1552,1460,56,1465
57,188
58,63
1403,1394,59,1139
64,128,266,299,276,436,278,1663
65,1642,491,1475
321,66,1667,1476,260,528,118,348,568,1145,378,507,1052,1053,638
67,1444,1061,1253,584,424,1516,1550,1679,1103,1138,1012,1173,1305,1116,541
68,1318,233,395,493,1649,401,215,249,319
1594,69
70,1042,222
73,1123,305
1057,75,1501
1660,419,1060,196,1481,1356,76,206,1328,241,242,1363,1274,1596
1609,130,529,78
1152,80,380,167
170,82
83,84,365
448,290,325,1255,1319,113,404,214,86,87,438
89,177
1440,90,1251,1335
359,455,1142,1401,92
1352,95,159
96,115
97,194,1638,457,143,189
98,1602,549,1127,1674,302,304,475,543
1161,540,102
161,291,103,360,139,1325,366,208,371,253,316,349
1443,1124,1572,1608,1132,204,1358,111,1364,440,1150,1503
1154,1220,997,388,391,1512,1099,1612,112,1266,1301,1276,125,606,1151
121,415
1603,648,1546,1131,1330,409,122
1121,237,145,411,123
355,132
136,601
137,471
144,1219
146,477,1063
544,1059,1001,587,1515,1296,1168,1490,149,1565
153,387,1380,421,330,525,1007,435,1365,1593
157,207
193,417,158,1511
162,186,213
379,164
1665,165,1038,1114,1406
1113,172,221,334
179,317,173
185,1327,1613,1159
994,190
192,483,197,554,1263,1648,1361,341,1400,1214
195,1492,1556,1307,1597
652,1044,205,199
432,209,377
216,1329,517,1095
220,444,1334
1299,1675,1125,239
1504,354,995,1670,329,1130,526,1647,243,343
248,1659,277,375
1002,1166,254,1439
1249,257,1635,425,283
259,331,1302,1213,445
546,539,261
272,1637,295
281,279
1671,495,335,307,1491,314
482,459,1169,310,1404
1395,1140,318
320,1573,327,553,524,1136,1617,1595,1471
337,1067,1148
1033,1570,1441,340
1353,1065,1359,1396,342,442,1499
1442,998,423,1576,1005,347
1474,1547,356,1006
370,1459,1566,463
1604,1093,510,1673,522,1331,1112,381,1470
484,1323,397,1135,1407
677,1414,1646,1523,1017
480,410
576,418
1146,420,1106,1338
426,427,1350
1102,1611,1493,430
1500,446
1034,451
456,627
1412,1062,1575,465,1497
481,1477
1480,497,1122,1678
1482,557,1261,1011,505
512,515,516,521,1037,1502
1008,1522,676
1080,1447,695,711
703,1619,1182,719
704,735,1343
1024,788
795,789,1422,1223
1424,801
1425,820
1090,884
885,886,1031
1656,1205,887
1539,899,900,905,1373
1224,893
896,1225,897,1657
909,903
1226,1374,906
1376,908,910
929,931,932,1541,936,918,919,1208
928,1542,937,938,1591,920,925,926
1292,1454,914,1685,921,922,923,924
934,935,1227,1293,927
930,1316,933,915,916,1207
1317,917
1248,1216,1128,1357,1393,1462,1147,1118
1256,1252
1634,1676,1605
