0,1473,774,1033,656,1521,1554,148,630,319
1,776,1675,544,1060,298,188,1608,202,587,1362,597,604,1503,487,1514,1515,1263,378
131,7,1607,265,461,1138,1363,279,1401,989
1414,8,524,1170,793,282,156,288,1059,1576,554,683,1194,557,308,1469,320,576,1474,457,589,212,1492,988,607,356,997,1648,1012,117,1524
258,1282,516,1410,9,10,523,1674,1296,1042,150,26,159,416,161,34,1458,1335,191,1353,1613,343,98,1379,871,1001,1130,1007,1008,380
608,1440,644,1350,200,11,334,1134,177,178,1594,349
1120,353,1664,837,262,1318,168,1638,140,12,1459,503,345,1404
1411,1159,1036,20,1439,801,1570,1578,1330,435,65,1475,68,330,459,721,339,341,1143,1505,493,631,505,1151
1024,770,1286,649,267,1163,1550,1039,1040,788,533,22,1561,538,1180,1182,287,1567,1569,674,676,1061,556,559,189,1343,704,1216,583,718,1103,723,1107,346,477,606,735,1117,1631,1632,868,613,870,1124,488,1126,1259,1004,109,622,750,1136,881,1519,1522,1144,763,636
512,996,357,1093,138,1424,1490,23,1145,1306,1053
1280,1672,153,25,419,1444,440,316,322,196,1604,456,584,1481,332,1612,1616,85,1623,475,483,1257,1642,124,1661
1668,521,1034,1420,399,403,1301,408,1051,32,1572,53,315,580,197,708,1220,78,1366,614,1382,111
1536,389,1419,401,152,283,35,678,1322,171,55,60,1596,193,206,1121,1249,355,1252,230,1254,1264
526,1044,38,167,427,1333,317,194,94,479,1504,1253,1511,235,875,241,1649,250,1275
513,130,1412,1679,791,1052,41,1326,692,443,326,1493,727,218,1122,227,1652,1273,1277,254
514,1027,1029,1030,529,1557,1047,536,1048,539,1062,42,1069,1070,561,1074,571,572,1088,577,579,1099,588,1102,1105,595,1619,1109,598,599,1110,1116,610,615,1128,620,1137,1655,633,639,1160,650,652,1168,659,1171,666,669,1181,1184,1192,1196,686,689,1203,694,184,1213,705,1222,714,1231,1237,732,223,738,232,1268,1269,758,761,769,773,775,1288,1289,780,273,275,787,284,1314,810,309,823,826,828,1344,835,324,846,1360,851,1369,878,879,370,882,383,384,1415,1421,402,406,1431,413,1450,447,452,1479,462,464,465,469,473,1498,1509,1516,1517,498,502
192,485,294,1285,300,1644,143,1488,49,1265,1011,340,1045,1142,1399,1400,222
1408,1546,1676,149,534,1429,1438,292,807,1447,426,50,52,1332,1467,323,838,455,1483,1115,987,92,93,1500,1635,1380,1639,1385,1258,1395,1402,1147
390,1038,530,277,151,421,296,565,182,56,1477,76,344,991,100,108,1518,1393,123
1441,66,1667,1446,1383,1131,1643,269,1425,467,820,1365,310,1046,511
1547,660,1556,662,1176,665,1560,1565,1054,289,1571,548,1445,423,555,1323,1582,1072,1457,1463,1080,1338,575,1471,1600,1218,67,1611,716,1617,468,986,1508,245,120,122,1021
1409,261,522,139,145,147,1305,418,1442,1320,1321,1449,1466,454,75,80,1499,859,1123
385,1153,646,1037,1422,1169,146,789,303,176,1331,1465,187,1470,1092,331,333,342,1112,90,998,1000,1384,1653,1270,1407
392,272,1300,1309,677,1575,1071,195,348,224,99,611,1009,1266,1140,252,125,1660,1149
1161,407,1311,1313,547,1573,1066,815,1199,1328,1337,1214,703,451,1096,1480,347,1501,990,739,228,101,742,999,1129,1005,112,1528,1659
480,546,163,420,581,102,1476,684,429,494,1166,1647,1678,306,1523,564,118
256,640,517,1173,1049,797,1057,1063,1583,305,568,569,698,707,1094,1095,482,489,1513,110,496,499,373,1146,127
1281,771,136,1162,396,1549,1677,783,657,1299,1303,1177,541,542,1310,1058,1443,552,430,1073,1341,1217,1221,327,201,458,1104,593,1489,725,1371,1502,352,993,1507,1637,486,619,749,238,1133,628,629,757,119,632,634,507,508
1671,1423,400,528,274,1298,417,164,1351,203,204,1355,1361,338,596,728,217,1497,1251,1636,1381,1640,1645,239,1135,501,375,381,1662,1663
1056,645,550,313,1157,1534,638,1006,271,592,798,1106,1553,1527,185,1308,510,1118
1336,387,1566,425,234,1482,492,1609,1329,1272,446,351
449,545,706,1219,648,586,779,1002,1485,1327,1398,1495,1595,730,1339,253,286
1291,1164,1548,1555,1432,1183,293,1190,560,702,1230,848,594,1108,1367,1368,862,1389,880,1654,504
