0,1665,1604,1093,102,583,1673,522,75,1331,381,510
1,130,1572,1157,1608,236,364,110,78,1358,211
128,129,2,4,6,266,17,276,21,278,23,160,290,165,41,1325,48,432,436,58,1594,64,74,81,82,209,84,86,1114,96,1255,105,362,107,366,114,371,377,1659
257,1282,3,390,1035,140,13,269,15,272,19,20,154,155,35,38,295,296,44,47,431,49,178,54,55,312,57,59,60,1468,68,69,71,80,213,87,215,89,90,217,92,221,344,991,95,1505,351,225,994,357,230,359,1247,233,1644,108,116,372,250,1278
133,5,404,28,40,169,170,46,51,180,181,438,188,61,195,453,1605,198,1354,207,210,1492,214,992,232,365,496,375,248,251,1406
164,1125,134,167,12,1648,145,177,1361,123
1409,135,264,16,274,1045,25,27,32,36,298,50,307,53,314,1355,85,342,478,353,1383,376,1662,255
417,1601,258,323,1381,262,79,1264,184,26
547,163,358,1479,1133,1645,240,1616,1362,403,117,406,31
34,1380,70,1159,1546,395,397,1613,1327,401,410,222
1668,1669,646,1607,138,1610,534,1304,1049,986,990,287,228,1382,39,1010,308,1272,511
355,1606,1319,361,301,1262,279,56,281,317
321,66,1667,260,1476,528,466,348,1052,1053,286,118,568,1145,378,507,638
67,1444,548,1126,424,584,267,1550,603,541
318,261,73,426,627,216,1112,127,1470,1663
352,612,326,586,109,77,1551,597,1048,1438
325,231,1038,174,336,83,1556,183,1307,157
550,1464,1036,1677,300,1519,1615,1457,1553,660,373,88,219,542
544,98,587,1515,302,304,1168,149,1565,350
1603,100,166,330,171,203,1007,1365,185,122
1160,136,137,139,1676,141,280,539,285,159,161,291,173,316,1597,1351,1352,202,471,1634,1639,104,1392,121
1443,1124,204,1132,111,339,1364,440,1150,1503
1217,999,1096,1384,1066,1009,1555,1560,120,1215
192,194,199,200,1675,143,1299,341,483,172,239,1263,1400,186,189,1214
324,1033,144,1040,146,340,1557,347,1441,1442,1570,998,423,1576,489,1005
168,425,367,1295,1265,147,379,411,1466,1275,380
608,385,1280,650,1484,589,270,1297,148,1270,254
153,387,1063,648,1131,525,1166,1298,435,1593
577,1154,388,391,1099,1612,593,532,1561,218,606,997,1512,1266,566,1276,1151
1463,1379,1478,1518,1303,1137,1043,275,1143,1339,988,1021
1472,1252,422,360,297,394,427,332,1320,470
1120,1153,1256,1609,1128,1068,1324,305,1334,1337
1122,356,1480,619,1611,430,1006,497,402,315
1161,1037,1169,1042,1011,1395,439,1404,1501,1279
1152,1664,516,446,1672,457,1353,1359,1502,480,481,1321,493,1460,565,1396,503,442,1598
482,1410,517,455,505,1140,1465,540,445,1566
450,1635,484,523,495,463,1394,1139,1462,479
1602,451,996,549,487,1127,1034,1261,1046,1405
454,1162,1679,1103,1173,1305,1116,1117,1061,1253,1513,1516,1138,1012,1141,569
1411,1643,652,557,1134,1071,1044,506,475,543
1121,1249,1475,1257,1258,491,1008,1333,1113,1118
546,1251,1477,1095,1065,1642,1135,1332,1142,1213
576,1440,1350,1318,1552,1302,1335,1401,1402,1500
1289,823,1199,816,1425,1426,820,822,1623,825
840,841,842,843,844,845,846,847,848,1290,1291,1427,1428,1452,1688
1057,1666,1636,1637,1640,1641,1674,1487,1329,1649
1248,1638,1323,1357,1393,1491,1397,1336,1403,1407
