1,2,3,4,5,6,7,1035,13,14,17,20,21,23,29,546,548,40,41,44,46,48,51,54,58,59,62,63,64,69,73,74,81,82,594,84,86,87,89,96,616,106,107,114,115,627,121,128,129,133,141,146,160,674,165,170,172,174,180,183,1213,190,208,209,211,1235,232,235,248,255,266,276,277,278,290,828,832,833,834,836,325,329,362,364,1389,377,432,436,449,1485,994
1536,642,1027,1158,1286,531,1050,1451,1074,694,315,827,1340,830,831,835,837,710,838,839,462,1234,723,1236,1621,598,1111,1243,737,753,1653,631
675,1157,713,716,591,1585,1586,630,1304,793,829
1667,1220,8,331,1483,467,1438,545,1570,100,102,1254,1383,1511,1010,1331,373,189
484,70,9,457,1615,466,1042,212,1458,151,380,350
256,1168,1297,1298,1172,22,408,665,1560,1184,289,1313,689,1595,1214,1103,1361,986,997,999,1384,618,750,1519,1266,1652,1143
323,131,455,1352,327,1546,1296,660,149,342,24,88,480,353,1257,302,1404
66,1219,519,459,339,90,1565,1248,99,36,37,101,1380,1000,1648,1265,52,1400
512,386,201,1551,1360,402,346,1498,673,739,1575,43,619,1004,303,111
97,163,387,228,357,803,296,1381,1636,1643,237,49,1012,53,1662
704,1413,1669,391,615,203,332,508,238,55,567,218,1276
1059,584,1515,1133,77,1645,112,1040,403,532,118,185,604,351
324,136,1608,1034,458,78,1358,1679,662,1052,607,227,1637,1642,236,242,1337,378
1670,262,1512,1675,494,1327,272,1359,1647,91,348,1118,1151
384,320,98,707,1470,282,684,1425,1489,692,822,1623,184,1018,286
1156,649,1309,1055,676,1069,1583,1073,1203,820,1080,1471,599,600,1124,486,1522,1269,1016,1017,252,766
1185,1175,773,682,1420,749,816,1072,1651,691,1525,695,824,826,700,575
514,1678,1048,1439,1572,693,1078,311,1461,1218,326,1616,465,1496,474,1116,226,110,1137,500,629,1528,251
198,231,169,299,428,205,1038,113,1462,280,410,1659,1406
1505,388,1062,1159,775,493,1421,1553,1523,117,1365,510
706,1507,1547,1611,1581,703,1617,1301,120,1561,538,988,125,1567
611,287,1477,646,1138,501,1046,440,1305,122,1502,1247
1161,787,275,150,153,990,1183,1251,294,1574,1006,176,1464,124,126,1215
1153,1665,515,137,405,1307,795,285,291,173,1325,441,448,1603,200,456,1354,336,1492,214,471,490,370,244,1403
1475,1092,197,998,1063,1350,1037,143,148,1556,791,1272
1152,1482,781,664,216,992,1120,1634,995,230,1319,1255,1639,1641,427,1262,1392,181,376
1093,1094,523,1613,1049,987,1057,482,1447,305,1011,182,249,1146,1660,1278
1125,487,1480,1481,1578,1164,559,399,1300,187
1674,268,271,1170,669,292,298,304,1328,188,192,195,196,1362,1363,1501,358,748,1007,241
1412,582,396,204,1677,529,1302,1176,1503,993,1060,1446,1071,1263,1466,1021
417,1571,1382,550,742,267,1295,210,596,1173,1499
1411,260,261,516,389,1033,525,409,283,1566,415,425,426,1067,431,1333,438,312,314,334,337,338,1495,217,730,347,475,478,479,481,359,360,491,1005,366,368,499,1397,247,1274,253
1606,263,648,265,269,270,589,274,1045,279,991,1640,1324,503,1593,381
288,1058,1122,521,1609,506,1332,1112,1338,1147,636,1469
544,1473,1252,1127,295,297,1128,1355,1644,1306,789,1594,989
485,1607,424,1095,1002,1488,306,566,1142,1339
321,322,483,996,1250,1410,1001,1612,307,564,1491,343
1408,1676,1552,542,1440,1320,1322,1329,310,1336,446,318,453,1223,1357,470,365,1518,1139,1396,1401,1405,1407
1113,801,1604,1066,1490,1334,1398,313,1275,445
1249,1409,644,807,1321,1130,1258,557,1423,1649,1460,344,316,319
1154,1602,1479,583,1131,461,406,1399,317,1150
385,1449,330,463,1009,1554,565,1467,540,511
416,1441,1504,517,395,435,1145,411,444,1661
1280,549,711,1323,1036,587,1486,397,333,1596
1474,354,1318,1638,1351,335,1424,401,340,1270
1472,1666,390,1353,522,1260,528,1008,1393,1044,439,349,375
608,1442,418,1610,526,1487,400,1169,1395,372,442
1121,1671,524,1261,1422,560,1330,1459,1335,606
1664,1635,1123,1605,1478,394,1419,1132,1134,374,1402,1115,1148,1598,1279
1282,1443,1379,1445,1160,1576,1065,1484,1326,1135,530,1140
1024,1508,1193,536,555,797,1582,433,1618,788,792,637
1668,1476,1444,1253,1672,1129,650,505,1497,1053
