1280,1,130,451,611,1661,1669,291,8,1481,1642,332,205,1457,150,185,125,287
129,2,516,5,6,7,11,141,17,19,276,21,278,23,28,160,35,165,40,41,44,46,48,432,438,1462,58,188,1597,1470,62,63,327,82,83,210,471,1499,1500,1634,105,490,107,492,377,113,114,115,503,121,1403,253
1442,996,582,1352,554,302,1358,1678,148,501,118,629,1044,1497,541
1570,483,549,358,648,1353,1065,1131,1484,269,366,1007,243,244,1593,122
224,1249,98,1320,1640,424,333,177,411,350
0,99,228,1254,1482,268,242,1365,664,191
1152,1092,1128,9,425,394,524,1641,1295,1458,1331,532,530,342,535,1460,153
289,259,199,73,331,1487,305,1332,1142,217
1380,390,59,525,463,1649,499,372,310,1115
1440,1441,1410,1351,1323,1495,1336,1335,1118,479
257,1475,1252,200,1130,1354,12,1486,370,627,212,1492,1333,22,728,1307,159
450,994,357,422,37,427,401,1397,1527,184
1474,1603,1350,1673,362,1546,1645,1552,1304,1278
1408,128,4,132,133,137,393,1035,397,143,147,20,277,404,405,280,281,285,29,161,290,418,169,170,172,301,173,436,180,181,183,439,60,61,1598,64,193,325,74,334,335,80,209,336,81,84,207,86,87,1114,475,478,355,1255,232,360,108,1262,1392,1394,116,248,1402,123,1407
194,38,1321,522,1615,47,16,470,1113,95
1409,1666,260,395,1042,151,410,543,416,171,299,321,1601,324,453,1607,456,459,90,221,349,1250,1636,101,359,104,1257,1264,124,1663
388,646,1479,1672,1261,18,660,406,55,220
1411,266,157,544,162,1319,1322,178,54,1466,208,1247,481,1638,230,1644,495,1393,1139
1569,258,65,131,1318,496,1213,24,57,1501
1665,163,262,295,1511,139,491,1038,565,445
1120,97,225,249,45,1459,89,91,1404,319
261,426,428,13,140,272,145,1465,1405,1279
1121,385,136,329,168,76,237,50,1395,1467,381
1282,356,1671,365,14,601,314,283,1406,415
134,263,1612,79,1490,1270,312,26,190,222
448,1602,1635,195,1605,1606,546,1491,1401,1659
768,769,772,773,1288,765,779,780,1517,782,1682,1494,1309,1439
1313,42,1549,783,784,1043,563,309,311,571
1314,579,581,613,363,1548,593,1047,347,574
1344,641,679,681,399,1562,634,666,1050,639
682,1360,690,434,692,437,699,700,1054,1599
1600,201,714,204,718,1369,730,219,1055,447
737,1064,1051,1129,1099,1070,1137,1622,1110,1371
742,743,745,1389,1646,749,238,750,751,1151
1186,1218,1189,1191,1385,1165,752,1650,1177,1180
1220,1414,753,754,1651,756,757,498,759,761
1420,1005,1680,1681,1238,1240,1241,1242,1019,764
514,1283,1413,776,777,1418,273,1310,293,43,1461,326,469,223,738,227,1387,1003,239,1267,1268,502,1017,767
614,587,111,595,628,600,1498,636,1053,1311
1056,1312,672,1547,398,402,403,665,382,383
1345,675,677,1062,684,685,1523,691,696,697
1133,1071,1361,722,1073,1075,1171,1079,1530,1181
417,387,649,235,1325,1519,400,1169,49,1396,93
482,995,68,344,138,1676,1296,562,85,216
547,484,1637,389,102,176,1265,1297,88,94
353,1639,489,1258,528,338,179,274,1302,379
515,103,361,1643,1359,213,152,1274,316,30
608,1379,1510,166,1674,1647,1554,1275,1662,255
384,1281,391,1356,429,686,1529,52,1493,1621,119,313,284
705,580,1285,1677,110,497,1496,345,315,572
993,1124,1125,500,1141,1366,1526,1269,1276,1052
352,1571,1156,1478,519,1512,112,633,306,341,597,1303,53,566,443,1144,1150
1382,1159,1036,1168,1617,1010,1173,182,1048,986
32,33,36,510,39,10,1515,1675,304,307,1334,1143,1305,444,604,25
256,1504,66,644,645,196,264,526,1300,1273
288,775,423,1163,1611,109,175,592,1618,275,755,533,1338,1469,575
640,999,1160,1002,1132,1006,1166,1364,1148,1471
674,706,67,1383,1550,656,534,539,669,1183
1061,1221,1679,1072,1521,1109,630,1080,1595,988
135,142,15,279,409,154,27,155,158,164,297,174,431,442,186,1596,317,1594,1476,69,70,198,461,214,215,92,992,96,231,106,1134,367,371,375,250,380
1472,1153,354,3,71,455,167,1324,56,446
1419,1037,1045,1327,1328,1330,1219,1094,1095,1097,75,1613,1363,1112,990,991,1127,1000,1009,1398,1660
1446,711,1063,330,523,589,271,721,373,1560
1664,1505,517,197,551,583,521,678,1566,241,1011,1012,1140,1399,1306,1502
512,77,493,1614,1329,1170,146,117,318,127
548,695,654,1040,659,1559,536,537,766,1343
192,1576,457,585,460,1525,120,698,187,1021
376,1477,421,487,296,265,233,1355,236,652,1610,1138,408,31,1565,351
1248,1093,1357,1135,989,1266,1556,1272,189,511
576,480,1184,1507,292,1573,552,298,203,653,1551,1524,1117,1464,1145,1277,254
234,683,557,1520,689,1106,1301,246,374,569
322,34,1412,1256,1609,619,364,211,567,441,506,1271
1443,1608,202,1034,78,368,596,440,218,701
513,386,676,1157,650,396,430,529,1522,1561
704,1670,454,1260,206,240,1362,693,378,251
1122,226,1575,1066,1102,1263,465,466,477,1503
449,1251,1604,419,100,542,1513,1516,1214,1616,1298,51,1299,507,1468,638
1668,1060,392,267,1485,631,505,247,286,607
997,1126,488,1384,1386,1067,781,1326,1103,494,337,369,1557,149,1146,348,573,702
320,323,294,1447,1033,300,556,270,1648,540
1216,1123,1001,1147,662,1046,1049,987,1438,1567
72,1161,1449,1580,748,467,308,564,538,156
1217,1506,545,708,420,550,1514,303,474,1555,632,282,1308
1568,1572,1509,1574,1096,1104,561,1107,1108,1013
1473,1154,1444,328,584,458,1578,1518,527,339,407,568,1337,343
1057,1667,1059,1381,616,1480,1008,1553,435,1215
770,1155,518,1286,778,1421,655,1175,1182,1187,1188,1581,1582,1081,1082,1083,703,452,1222,586,719,464,720,723,468,725,1239,758,760,762,763
774,1190,1483,1068,1101,144,1232,1339,412,606
771,1400,1162,1149,553,716,717,340,1116,605,733,735,1631,609,612,1253,618,1136,245,504,1018,252,637,126
1632,1185,1058,998,1164,559,1039,1105,1463,1176
