1379,1510,1484,1135,1359,1297,1554,242,243,1365,562,1275,189
289,1570,1093,233,1482,1355,1332,1302,1272,191
484,1254,199,296,1674,331,1131,268,1258,1007,1296,1458,1331,1556,94
1408,1440,3,132,355,516,295,1252,1605,1115,108,365,1594,59
1472,481,38,7,1671,44,366,80,1394,83,1405,214,279,285,222,158,375
1441,1505,1123,37,987,10,11,493,463,340,373,662,24,1465,1402,475
33,1034,1515,1612,335,307,567,121,506,188,604
1419,147,1046,1049,1305,415,36,1318,39,1322,171,47,308,439,316,60,1602,76,207,217,95,608,1250,361,237,1407
65,1635,164,69,1063,1354,496,370,470,601,410,155,253
258,259,134,522,140,397,274,283,1566,418,1321,305,178,1459,564,186,193,194,195,71,455,73,711,1351,92,991,1649,1142,123
1025,1158,647,1528,1423,785,786,531,790,791,663,792,794,670,798,799,673,1193,1069,1078,1084,1086,1342,1346,709,710,72,590,1619,727,732,476,1119,739,1652,1014,1016,1532,1022,1023
546,707,583,1192,1164,77,1422,144,787,788,789,538,1470
130,419,1219,1604,1446,1000,1097,1609,523,1673,78,271,1295,1170,503,1147,156,1335
512,646,395,1037,146,1327,1329,1330,318,1603,324,327,330,1615,1499,990,1127,1261,499,1011,117,127
544,321,161,1282,1380,263,1607,143,1487,721,1395,149,1495,1112,1401,606
1024,774,1415,1041,660,1172,406,1531,1304,793,1557,1563,796,413,797,1438,1567,1445,1190,1194,1580,559,1328,1583,1584,440,184,573,1085,1216,1606,1479,712,1608,1101,1616,467,473,346,603,1386,1259,620,1004,622,369,1015,507,508,638
1280,388,1669,1672,8,652,150,287,1661,1457,55,185,1481,332,1357,205,220,989,1248,611,1642,125,511
1410,131,390,426,1323,428,525,728,272,1393,22,1527,1336,1247
994,261,200,12,13,145,1492,1333,1397,479
224,98,547,482,389,1640,1065,648,138,136,489,50,411,312,1467,381,350
1121,228,102,1676,269,79,177,1490,216,26
1249,995,68,1639,424,329,176,1491,85,88
1409,1666,260,1042,31,416,421,299,1601,1477,1353,1610,459,333,90,349,221,351,99,1636,101,1257,376,124,1663
514,1283,1413,776,1418,1547,398,273,402,403,1171,665,1053,1310,1311,1056,672,1312,675,677,1062,293,684,685,1071,1073,1079,696,697,326,587,1361,595,469,1498,223,738,227,614,1003,1387,1133,239,111,1523,628,1267,1268,1017,636,382,383
257,450,1411,1511,427,45,1486,1645,1552,1139,565,91,190
384,1281,1285,391,1677,1052,284,429,52,313,580,1356,1621,1493,345,993,1124,1125,110,1141,119,1529,1276
1571,1156,1478,1382,1159,519,112,306,1173,341,1048,986,443,1144,1150
352,1512,1036,1168,1617,1010,597,182,1303,53,633,566
198,262,394,89,1638,167,1319,1320,1641,54,56,249,1466,380,445,446
256,644,645,264,1675,526,1298,1299,1300,542,304,1468,66,196,1504,1251,1516,1143,1273,510
706,67,674,999,1611,1006,1618,1364,1595,539,1471
640,1383,1160,1002,1132,1550,1679,656,1521,534,630,1148,669
1476,70,135,461,338,215,154,353,483,549,358,1324,1134,179,1593,442,379,1596,317
1473,1154,1059,75,236,1008,1553,1009,1363,1045
1560,1565,1057,1578,435,568,1337,1215,1094,1095,328,584,458,339,343,1381,1518,1398,1660
1667,1444,487,1480,616,1613,527,1266,1138,407,408
97,1474,1475,357,422,1350,1546,401,1307,319
775,1163,1166,1040,1183,288,1061,1072,1463,1080,1338,1469,575,1221,592,468,1109,988,998,109,755,1021
1442,996,582,1352,554,302,1358,1678,148,501,118,629,1044,1497,541
771,1400,1162,1039,659,1149,1559,1176,537,1185,1058,548,1576,695,187,1343,192,457,1116,605,735,1632,1631,612,1253,618,1136,1525,504,1018,252,637,126
1120,1665,1152,163,425,139,491,1644,1038,1460
1092,517,551,521,241,532,1012,1140,535,153,1306,1502,1399
159,1569,1128,1130,372,212,1213,1404,1501,1279
576,653,1551,1106,1301,1117,1184,292,1573,683,557,1520,1524,1464,1145,1277,254
513,226,1443,1670,218,650,1066,1260,206,240,465,1362,378,1503
1122,386,1412,1157,454,1575,1263,1522,693,1271,1561,701
1033,1161,270,540,294,1447,1449,300,556,1326,320,323,1103,348,997,1126,1384,494,1648,1146
1217,1506,420,1572,1574,1509,1096,1514,1555,1107,1108,1013,1308
770,1155,518,1286,1421,655,1175,1182,1581,1081,1082,1083,1339,703,452,586,719,464,720,723
