0,318,517,510,583,1673,522,216,381,1470
1,130,515,996,1609,202,364,78,529,530,211,441,506
129,2,165,41,42,17,183,58,316,62
355,3,132,427,367,147,279,281
64,4,6,231,169,81,436,28
5,133,40,210,21,277,23,248
7,71,297,1321,167,80,55,380
289,550,294,1384,8,1036,1615,660,156,542
1056,449,649,458,9,1458,467,405,22,1398,282
480,162,200,186,10,213,312,410
481,69,38,11,1262,47,565,446
992,1152,994,1035,14,1038,1008,1278
168,394,172,334,15,250,59,221
161,453,104,16,214,25,188,57
448,140,142,178,19,116,87,155
35,360,141,366,208,20,470,1113
1664,389,1674,333,247,24,475,1405,94,543
1250,166,1671,1640,335,495,307,1491,85,152,314,27,255
235,1676,301,173,179,285,317,30
256,234,1643,271,1298,1554,604,93,350,31
34,100,36,70,135,1636,171,203,222
576,418,1410,37,198,1350,426,91,1487,496,1492,1465,1307,253
1668,228,1382,646,39,287,138,1610,308,534,511
291,1477,422,134,136,361,44,60,1336,56,539,1500,349,1598
325,74,46,48,336,180,1114,157
160,290,1252,393,107,139,209,114,51,86,63
159,450,1128,523,212,54,217,989,95,351
103,232,207,181,438,280,121,61
321,66,1476,260,528,466,118,348,286
67,1253,1061,1516,1103,1679,1173,1116,1117
1248,68,484,233,395,397,1357,1135,401,1649,1462,215
102,73,1161,75,1385,305,337,1337,540,1501,127
164,1605,123,237,177,411,89,379
96,105,106,266,432,113,115,377
97,194,1634,1121,1637,1638,295,1320,457,1258,143,272,145,1397,189
98,1602,549,1127,1672,302,304,1046
451,1572,1443,1608,204,236,110,111,402,339,440,1503
128,137,299,174,276,278,471,415
608,229,1326,176,1297,564,1404,1439
1665,195,261,1642,1552,1556,372,1663
199,456,652,205,1260,1645,368,1616,338,403,1362,406
384,513,322,227,356,580,1474,1547,396,1611,1678,1493,407,315
319,1318,1323,493,1393,249,1118,1407
1256,1325,1392,1394,1139,371,1403,1406
1667,568,1145,378,507,1052,1053,638
1122,1480,619,430,1006,1102,497,1016
1380,1159,1546,1131,1327,1330,435,1365
1440,1251,1335,1142,1302,1401,1213,445
487,1482,557,1261,1264,1265,1011,1275
512,1441,1442,1570,1576,1483,1557,1502
1219,998,1063,1033,521,1037,1005,1040
896,897,1376,1348,1224,1225,906,908,909,910,1374,1375
930,1317,934,935,1227,1293,914,917,927
965,966,1032,969,971,972,973,974,975
967,968,970,1391,1455,1435,1211,1436
1463,1137,1043,1013,1143,1048,988,1021
1220,997,1512,1612,1266,1276,1469,1151
1217,999,1096,1066,1009,1170,1553,1215
1444,1126,1513,1550,1138,1012,1141,1305
1124,1157,1034,1132,1358,1071,1364,1150
1353,1322,1065,1134,1359,1042,1396,1499
1604,1093,1095,1329,1331,1140,1395,1112
1120,1153,1472,1319,1160,1257,1333,1597
1125,1675,1263,1648,1361,1299,1400,1214
1606,1639,1352,1641,1351,1324,1486,1332
1481,1356,1328,1363,1334,1660,1661,1596
