1,1026,800,802,804,805,806,1534,808,41,809,1195,1196,1197,1198,810,811,812,813,814,815,188,1347,210,1533,1278,1535
3,136,13,207,16,217,475,161,994,355,167,1321,427,47,1395,56,380,190
481,357,38,7,1128,1477,11,12,431,212,372,565,1500,446
1671,200,10,335,18,1491,152,225,1250,45,495,307,244,503,312,314,1279
516,334,15,470,1113,221,30,1256,59,1258,172,1394,1139,1397,250,1403
448,1472,140,1262,142,178,19,116,87,155,316
1152,1153,394,1038,20,281,422,166,1320,1319,301,179,54,57,317,1597,69,455,1487,80,83,95,1252,235,366
1664,1666,1411,389,1672,203,333,1046,24,94,34,100,1636,1134,247,1405
453,456,1353,202,332,338,25,220,349,543,104,299,368,51,1396,506,1663
256,234,1643,271,1298,1554,604,93,350,31
32,1409,478,1383,264,298,1355,50,274,1045,376,1662
132,393,208,214,279,92,285,1120,35,359,168,360,365,1460,375,1594
36,70,135,1640,490,171,1322,1042,85,53,222
395,269,401,150,410,162,1318,43,428,1461,186,319,68,213,215,479,480,233,108,493,1649,249,1402
257,1249,1635,164,425,1257,44,283,177,1333,89,379,1598
1505,1282,991,390,230,296,265,1644,49,344,154,1468,1247
1248,193,417,1637,134,295,1511,1357,272,1393,1462,158,60,1118
65,546,1475,261,1642,491,463,1552,370,1459,1566
321,66,1667,260,1476,528,466,348,1052,1053,286,118,568,1145,378,507,638
195,71,1676,141,90,159,1639,297,1641,557,1329,310,1142,1336,1401,1404,318
1057,1410,1123,1350,73,426,75,305,1337,1501
196,1481,1356,76,206,1363,1596,419,1060,292,363,1328,241,242,1274,1660
130,515,199,1609,652,205,78,529,530,1044
1634,231,139,492,1392,84,181,280,1659,253,1406
194,457,397,143,145,411,97,1121,484,1638,1323,237,1135,123,189,1407
577,1154,1220,391,1099,1612,593,1301,1561,606,997,1512,112,1266,1276,1469,1151
547,163,358,1479,1133,1645,240,1616,1362,403,117,406
387,1670,1159,648,1546,525,526,151,409,153,421,551,1327,1330,435,185,1593,1603,329,330,1613,1365,343,1504,354,995,1380,1130,1131,1647,1007,243,122
1219,324,1033,144,1040,146,340,1557,347,477,1441,1442,1570,998,423,1063,1576,489,1005
1665,1605,198,1354,496,147,627,1492,216,1307,351
544,1059,1001,1097,587,1515,1168,1296,1490,149,987,1565
451,1352,1034,1674,1482,1359,402,342,1251,996,487,1260,1261,251,304,1008,1334,505,187
192,197,1675,1361,1299,341,408,483,1125,554,239,1263,1648,1400,313,1214
1217,1464,1384,1066,1036,1677,1615,1009,1457,1553,1555,245,1560,1215
1473,1156,1574,328,1386,527,656,369,1521,659
1447,488,1351,711,1067,1614,337,695,601,1148,702
353,450,1602,549,1065,459,1324,1486,1332,444
385,1569,1094,1000,1002,1484,1166,1326,1297,1270,1439
1440,1606,1095,1011,1140,1556,1335,1465,412,1661
1463,1379,1478,1518,1551,1043,597,1303,1339,988,1438
1025,1346,1223,1422,1423,787,789,790,791,794,1499,797,798,799,1192,1194,1652
