0,1604,1093,510,583,1673,522,1331,1112,381,1470
1,36,135,10,211,307,85,53,222,1663
256,1665,257,2,3,261,7,266,11,269,271,278,27,35,37,299,428,44,432,178,51,436,55,57,314,59,60,61,318,63,64,456,74,205,78,81,82,342,87,216,217,90,92,93,351,353,359,106,108,364,116,372,377,250,255
992,325,5,133,40,1605,1038,210,180,404,1556,183,1307,157
134,1675,12,143,145,1361,164,167,239,1263,177,1648,1400,123,189,1214
290,165,105,393,42,1035,13,17,21,190
98,100,70,203,302,304,94,24,1278,350
1601,258,418,323,1381,262,26,79,1264,1265,1295,184,1466,1275
453,169,170,496,188,181,214,438,28,1406
547,163,358,1479,1133,1645,240,1616,1362,403,117,406,31
160,129,1255,41,107,209,114,115,86,62
355,1606,360,361,1385,301,279,56,281,317
192,65,483,197,199,554,1299,341,408,313
321,66,1667,260,1476,528,466,348,1052,1053,286,118,568,1145,378,507,638
67,548,424,584,267,1550,1012,569,603,541
291,103,137,139,141,1392,471,280,121,415
1443,1124,1157,1572,1608,204,1132,1358,111,402,339,1364,440,1150,1503
387,185,421,1159,648,330,171,409,525,1007,435,153,122
168,425,367,147,212,379,411,1306,1115,380
1603,1380,166,1546,1131,1613,1327,1330,1365,1593
384,513,322,227,356,580,619,396,1102,1493,407,1016
515,488,1068,337,305,529,530,601,444,412
517,455,490,493,1008,1460,439,442,540,445
1152,1602,516,1671,1672,457,1487,1298,1439,481,546,1321,491,1643,565,503,1404,1405,446
480,576,450,484,1257,523,463,495,1598,479
1664,451,549,487,652,1042,505,475,604,543
454,1162,1679,1103,1173,1305,1116,1117,1444,1061,1253,1126,1513,1516,1138,1141
1127,1161,1034,1261,494,1071,1011,1044,1046,1338
896,897,903,1225,906,908,909,910,913,893
930,1317,934,935,936,1293,915,916,917,927
1688,1456,1689,981,982,983,984,985,1212,1437
1120,1123,1256,1609,1128,1067,1260,1147,1148,989
1057,1251,1095,1065,1674,1134,1554,1140,1465,1213
1248,1121,1250,1635,1249,1258,1135,1113,1118,1279
1323,1357,1393,1394,1139,1333,1397,1336,1403,1407
1410,1411,1353,1322,1359,1329,1395,1396,1142,1462
1472,1153,1252,1319,1320,1324,1262,1334,1337,1661
1440,1477,1350,1318,1642,1332,1302,1335,1401,1402
1666,1636,1637,1638,1640,1641,1552,1649,1500,1566
