0,1604,1093,510,583,1673,522,1331,1112,381,1470
1,36,70,10,211,53,85,24,94,222
64,96,2,266,106,432,113,436,58,63
3,6,1255,140,81,178,19,116,87,155
4,71,299,235,44,15,51,278,55,61
992,5,133,40,1354,210,180,183,1307,1406
69,38,7,74,11,82,84,23,1278,95
289,550,294,8,999,1384,300,1009,660,182,88,126,156,542
65,134,1675,12,143,145,1361,164,1125,167,1263,1648,177,1400,123,189
290,165,105,393,42,13,48,17,21,190
232,174,207,46,14,208,248,187,28,29
128,35,456,364,16,20,25,27,57,255
1670,329,526,18,150,343,151,152,30,1504,354,995,551,1130,45,1647,243
1601,258,323,26,1381,262,79,1264,1265,1295,184,1466,1275
547,163,358,1479,1133,1645,240,1616,1362,403,117,406,31
32,1409,478,1383,264,298,1355,50,274,1045,376,1662
1668,1669,646,1607,138,1610,534,1304,1049,986,990,287,228,1382,39,1010,308,1272,511
160,129,41,107,209,114,115,86,377,62
357,261,295,47,272,370,372,217,60,351
1505,1282,991,390,230,296,265,1644,49,344,154,1468,1247
416,1408,131,1092,1254,1510,268,461,464,562,52,1399,1306,1115,191
355,422,360,361,301,1262,279,56,281,317
225,257,59,1035,431,80,627,89,283,221
321,66,1667,260,1476,528,466,348,1052,1053,286,118,568,1145,378,507,638
67,1444,1253,1061,1126,1516,1103,1679,1138,1012,1173,1116,1117
353,98,100,68,203,302,304,342,90,92
259,99,73,75,144,146,310,216,318,127
196,1481,1356,76,206,1363,1596,419,1060,292,363,1328,241,242,1274,1660
644,645,326,586,77,400,275,597,662,1463,664
256,1665,130,994,234,236,205,110,78,271,428,250,93,350,1663
1605,453,198,169,170,1038,496,83,1556,181,214,438,188
291,103,137,139,141,471,280,121,349,415
448,161,104,142,1392,253,539,316,285,159
135,233,108,269,307,213,215,312,314,319
1379,612,109,1518,1551,374,1303,1339,636,1438
1443,1124,1157,1572,1608,204,1132,1358,111,339,1364,440,1150,1503
153,387,421,648,330,409,525,1593,435,185,122
132,166,136,168,171,173,367,147,179,212,220
544,1059,1001,1097,587,1515,1168,1296,1490,149,987,1565
195,325,231,365,336,404,1492,375,251,157
192,483,197,554,239,1299,341,408,313,1214
1217,1096,1066,1036,1170,373,245,246,219,1215
1632,1311,1445,1509,1514,1259,1618,1300,1144,1631
674,1114,362,492,1325,366,371,276,277,1594,1659
320,327,331,524,333,334,335,1617,468,538,293,1573,553,556,1136,1595,1471
1319,297,394,427,332,368,305,338,470,444
1441,1442,1570,324,998,423,1576,489,1033,1005,1040,340,1557,347
417,418,420,389,425,395,397,401,402,379,410,411,380
451,549,487,652,557,439,505,506,475,543
516,517,457,1491,540,1405,481,546,484,1511,1321,1322,491,493,565,503,442,445,446
480,576,450,1152,455,490,523,463,495,479
512,452,521,459,494,1522,473,474,604,477
1024,1422,785,786,788,789,790,791,793,1531,796,797
1025,1223,1192,1193,1194,792,794,1084,1085,1086
795,1346,1423,1584,787,1652,1563,1532,798,799
1120,1153,1123,1252,1128,1256,1320,1067,1260,989
993,1218,1413,1129,1003,1004,1171,1047,1273,1051
1664,1602,1666,1636,996,1672,1674,1643,1649,1554
1219,1063,1034,1002,1037,1166,1071,1169,1044,1338
1603,1380,1159,1546,1131,1613,1327,1007,1330,1365
1248,1121,1249,1257,1258,1008,1139,1113,1118,1279
1057,1095,1127,1161,1065,1483,1261,1011,1140,1213
1250,1251,1475,1477,1134,1042,1142,1046,1462,1500
1635,1637,1638,1671,1640,1641,1642,1135,1460,1566
1411,1353,1614,1359,1329,1298,1395,1396,1404,1439
1440,1410,1350,1318,1552,1332,1302,1335,1401,1402
1323,1357,1393,1394,1333,1397,1336,1403,1598,1407
