0,257,258,387,3,132,644,134,390,393,138,139,12,397,140,14,1296,400,145,19,1038,795,27,29,157,31,418,35,421,422,295,167,304,1458,179,308,439,312,59,316,196,71,200,73,205,206,80,213,215,89,92,93,98,228,101,1255,235,492,237,1264,241,116,1398,249,123,1407
1,130,1412,1157,580,136,1609,1678,78,989,226,291,1443,677,227,1523,1524,55,378
1664,1153,128,129,2,4,5,6,133,17,404,21,277,23,278,405,28,160,290,165,40,41,170,301,174,48,432,180,57,58,62,63,448,64,190,325,456,74,336,81,82,209,84,338,86,87,220,103,232,1256,106,107,362,490,1392,113,114,115,377,379,1663
385,259,131,262,7,8,1419,143,18,147,20,1305,158,30,1059,164,163,38,296,1324,302,305,50,1332,56,317,1601,65,1477,69,70,198,461,79,212,247,94,608,355,102,108,236,365,375
66,994,9,1644,207,240,1363,88,217,415
1441,1093,1061,135,10,1610,91,16,1265,24,987,380,319
517,37,122,1033,11,340,662,1402,155,1660
321,263,329,1353,13,1166,22,1495,350,96,1380,1128,1395,52,54,1401
1603,68,1094,395,76,1037,15,1299,597,95,354,1132,557,1261,47,1399,376,60,318
224,97,100,358,1512,1001,1672,335,121,25
353,36,1095,39,361,75,45,1329,1554,26
32,1474,1318,104,1065,46,51,85,61,255
33,34,1057,1604,364,1170,307,1173,1335,313
801,803,807,649,43,1519,1424,596,1174,634
1473,1223,1354,332,1676,211,471,152,601,1307,225,1639,44,1262,367,370,181,314
162,356,549,298,1518,49,1553,566,1306,1565
1479,1160,203,204,1328,403,341,53,406,539
992,1665,1152,453,202,210,371,83,310,441,1500
1280,323,327,270,1302,90,1499,990,351,1570,357,998,1578,1326,1011,372,373,1150,127
513,1221,587,267,1040,1297,1301,480,1056,99,1251,1062,1514,309,503,440,381,1151
105,266,1035,1325,495,436,276,248,1114,1597
673,681,1581,110,655,111,1070,1360,1107,569,1149
611,420,292,234,156,117,1365,1527,347,1052
137,173,1491,1045,438,183,409,1659,124,221
1406,168,169,172,141,142,334,208,1044,1598
1442,1381,176,146,499,1140,1331,1556,1337,223
1478,646,265,330,489,1135,1615,339,148,411
544,161,1282,1475,233,1355,1358,721,149,1272,1145,1467,606,216
322,676,1607,1192,342,343,150,151,1501,254
1555,153,154,159,1058,166,1447,171,177,178,182,185,186,191,193,194,195,197,454,199,344,1247,1647,242,1012,1141,1275
256,388,1384,300,272,306,1593,187,701,1118
269,1039,1557,1109,986,988,1438,1631,1632,1129,1194,618,1259,622,750,1136
1281,1415,1575,521,1611,1516,273,402,1529,1439
993,1122,742,201,1133,1681,1266,1308,733,1310
515,1671,297,333,368,244,1397,214,1113,222
1504,1250,1319,359,218,1482,1465,250,349,1661
577,460,1230,1488,1110,1367,1496,1507,485,229,552,1513,1517,560,497,500,1461,502
1552,279,280,478,1120,1505,1634,230,231,360,1641,1130,299,366,1457,1394,1403,1213
546,1576,303,1330,245,374,534,246,538,1215
1635,260,261,1067,1323,1483,526,565,281,410
576,419,1667,389,1219,264,1547,1484,1295,568,1274,443,477
417,1511,1063,394,427,781,431,401,1333,470
1253,1606,1574,408,554,459,1005,1613,1106,1400,665,1595
1508,1289,555,1165,1582,1200,1201,433,817,563,818,823
668,682,1425,1202,819,820,821,1269,536,1562,1179,1180,766,1087
700,486,651,1420,749,1682,599,600,763,1020,414
816,1105,1426,691,692,822,1623,824,825,826
1188,1450,1199,1104,1489,1651,1075,757,1203,1599
483,1350,678,424,683,1486,1649,1142,444,540
1408,711,648,425,455,525,564,1492,1594,1115
1440,450,484,1605,457,426,1139,1460,445,511
1252,491,493,463,435,1459,1336,442,475,1566
1472,481,516,1670,522,1515,479,1359,496,664,1405,446,1279
1154,451,1636,584,650,529,1393,501,1466,543
1668,1125,1669,1034,1071,465,1138,567,506,1503
1217,1218,1608,1099,1103,1168,1043,603,1053,1117,1311,1184,1572,999,1386,1004,1339,510
640,1410,1643,589,1134,1487,528,530,604,542
1248,1249,1600,1092,1066,1036,1327,1522,695,1214
1602,1379,1481,1675,1612,1645,1677,1679,1648,787
1121,1638,1258,1322,1260,1009,1042,1046,1462,991
995,1476,1254,1257,1131,1008,1169,1362,1049,1596
1409,1666,1411,996,1351,1320,1321,1357,1490,1396
1060,1382,1352,1449,1642,1674,1334,1404,1468,1662
