0,1604,1093,510,583,1673,522,1331,1112,381,1470
1664,1,1639,1640,202,1260,368,338,441,1661
160,129,2,1320,393,232,41,106,107,1262,114,62
1410,3,431
1153,4,134,7,394,140,141,147,20,280,155,28,35,166,168,301,46,178,181,1336,60,61,336,231,235,367,116
40,5
81,6
8,1036,1677,1553,1555,660,1560,156,542,289,294,550,1066,300,1457,1464,1215,1217,1096,1615,88,219,999,1384,1009,245,246,373,120,124
1056,224,449,1571,33,101,9,458,1485,1458,306,467,405,1398,22,282,1567
200,10,312
11,565,38
372,12,357
992,492,13
1278,14
142,15,530,19,152,285,297,171,1324,47,51,1337,187,332,212,470,1250,361,364,247,506,251,255
16,27
17,211,174
225,45,18,244,503,1279
21,133,183
210,23
389,1672,333,1046,24,1405,94
104,25
1601,258,323,26,1381,262,1295,1264,1265,1466,1275
1035,29
1258,1397,30
256,234,1643,271,1298,1554,604,93,350,31
32,1409,478,1383,264,298,1355,50,274,1045,376,1662
34,1411,1666,100,1636,203,1134
36,135,1322,490,53,85
91,37
228,1669,1382,646,39,1607,1610,511,308,1272,1049,287
1665,165,1038,1114,1406
43,108,428,269,1461,150,1402,479
1257,44,1333,1598
48,74,180
1505,1282,991,390,230,296,265,1644,49,344,154,1468,1247
450,1641,523,1486,1332,54,217,351
1321,55,71
1120,1472,1606,422,1483,1487,1552,1392,1460,56,1465
57,188
58,63
1139,1394,59,1403
64,128,266,299,276,436,278,1663
65,1642,1475,491
321,66,1667,1476,260,1052,528,466,118,568,1145,378,507,348,1053,638,286
67,1444,1061,1253,584,424,267,1516,1550,1103,1679,1138,1012,1173,1117,1305,1116,541
68,1318,233,395,493,401,1649,215,249,319
1594,69
70,1042,222
73,1123,305
1057,75,1501
419,196,292,1060,1481,363,76,1356,206,1328,241,242,1363,1274,1660,1596
644,645,1551,400,275,1043,662,1303,664,1048,1438,1463,1339,326,1478,586,77,597,988,352,1379,1518,1143,636,1021
1609,130,529,78
1152,80,380,167
170,82
83,84,365
448,290,325,1255,1319,169,362,113,404,438,214,86,87
89,177
1440,90,1251,1335
359,455,1142,1401,92
1352,95,159
96,115
97,194,1638,457,143,189
98,1602,549,1127,1674,302,304,475,543
1161,540,102
161,291,103,360,139,1325,366,208,371,253,316,349
402,236,110,1071
1443,1124,1572,1608,1132,204,1358,111,1364,440,1150,1503
1154,388,391,532,1301,1561,288,566,1469,1220,1099,1612,593,606,997,1512,112,1266,1276,125,1151
547,163,358,1479,1133,1645,1616,240,1362,403,117,406
386,392,1171,1047,1051,284,567,443,1600,579,582,1360,595,1495,345,223,226,614,1003,238,629,119,1271,1277
121,415
1603,648,1546,1131,1330,409,122
1121,237,145,411,123
355,132
136,601
137,471
144,1219
146,477,1063
608,1569,385,1280,1094,1000,650,1484,1326,270,176,1297,148,564,1270
544,1059,1001,587,1515,1296,1168,1490,149,1565
1504,354,995,1670,329,1130,526,1647,243,343
153,387,1380,421,330,525,1007,435,1365,1593
157,207
417,193,158,1511
162,186,213
379,164
1113,172,221,334
179,317,173
185,1327,1613,1159
994,190
192,483,1400,197,554,1263,1648,1361,341,408,313,1214
195,1492,1556,1307,1597
496,1354,198
652,1044,205,199
1312,1018,201,618,447,1517,563,469,634,1599
432,209,377
216,1329,517,1095
220,444,1334
1299,1675,1125,239
248,1659,277,375
640,1058,1514,1419,559,501,533,1559,250,637,1311
1002,1166,254,1439
1249,257,1635,425,283
259,331,1302,1213,445
546,539,261
993,1413,263,1129,1549,399,1273,1498,572
272,1637,295
281,279
320,1573,327,553,524,1136,1617,1595,1471
1671,335,495,307,1491,314
514,1285,1681,1310,671,1054,673,1055,552,681,682,555,684,685,1073,691,309,693,1231,596,611,1508,498,500
482,459,1169,310,1404
1395,1140,318
1441,1570,324,1033,1040,340
337,1067,1148
353,1065,1353,1359,1396,342,439,442,1499
1442,998,423,1576,489,1005,1557,347
1474,1547,356,1006
370,1459,1566,463
484,1323,397,1135,1407
480,410
488,412
576,418
420,678,1146,1338,1106,474
426,427,1350
1500,446
1034,451
1412,1062,1575,465,1497
481,1477
1480,497,1122,1678
1482,1261,557,1011,505
512,515,516,521,1037,1502
1632,1509,1578,1163,1164,607,561,1300,535,1631
1581,659,1494,1308,1149
1008,1522,676
1080,1447,711,695
1184,698,708
704,735,1343
1186,773,1191,1288,1420,780,782,783,1682,757,1110,761,1562
770,1083,1421,775
1024,788
795,789,1422,1223
1424,801,803,807
1289,1200,1201,818,817,823
1425,820
1450,1199,816,1426,1203,822,1623,824,825,826
1202,819,821,1087
1248,1216,1128,1160,1068,1357,1393,1462,1147,1118
1256,1252
1614,1351
1634,1676,1605
