0,1351,296,263,781,462,1458,499,1140,344
1,1412,1034,1675,523,529,284,1052,291,1062,309,567,189,451,202,332,77,1615,466,1122,1256,364,498,506,638
129,2,4,6,14,400,17,530,795,27,160,418,421,425,427,180,183,58,317,63,1602,1477,334,81,82,209,84,88,96,1249,231,359,105,106,107,1393,114,115,1396,248,1406
1666,3,167,200,522,250,432,1466,1395,314
1634,516,5,230,299,277,1462,1402,59,30
608,194,7,71,1138,19,55,503,1403,1500
1254,1673,1389,1103,1106,1012,1143,1272,986,156
1350,1094,1161,10,204,342,1046,24,987,1057,358,487,1447,489,1574,246,122,1150
1145,132,1609,394,11,1419,401,147,212,1045,1112,1307,29,1123,1638,1258,1460,1465,1598
1152,90,328,1353,12,143,283,372,1594,123
1408,261,233,490,1132,13,301,93,54,1597
480,162,1607,199,397,1134,15,338,1333,281
1411,133,393,266,268,141,142,16,405,280,410,28,168,683,172,1325,45,51,179,436,438,57,448,1601,64,69,325,711,207,336,471,1120,360,361,235,367,1392,368,1394,244,1397
323,260,1674,525,1552,18,1042,340,411,1635,426,1131,177,50,1332,1279
137,139,145,20,21,404,279,23,417,165,295,1320,424,40,44,173,46,428,181,56,441,61,1605,329,205,83,86,1114,121,1511,365,495,113,1139,377
545,420,550,1382,1096,684,1550,559,822,348
1664,1409,803,135,171,47,1169,52,25,540
257,258,395,1428,789,26,155,1565,1439,1464,1593,66,196,68,587,1355,1616,339,217,477,102,1398,118,1661,1662,255
483,1575,457,1612,271,1265,1523,440,510,31
32,419,996,455,330,524,1330,1490,373,381
256,1505,34,33,1384,1065,234,616,236,239,475,511
97,1154,676,646,493,528,1297,1522,439,1305,126,286
1125,1126,351,1261,1008,1334,1274,1275,1660,1247
515,389,650,270,152,35,187,444,1596,321,322,1610,331,76,206,1362,349,995,1524,380
1250,131,36,1479,300,526,1326,240,222,543
1092,517,1676,1424,1488,606,482,485,37,615,807,1639,749,1647,1011,1459,636
161,1604,38,1352,91,461,241,1044,215,379
544,513,641,163,1413,39,136,652,1200,1494
1475,677,678,584,41,333,1040,1361,307,191
352,579,772,1509,773,780,111,1105,856,1303,1048
324,1414,620,783,1168,561,623,627,628,597,1502
1346,1478,619,1039,1107,1108,1109,790,374,1047,1177
1216,1218,1284,1222,655,687,816,1618,1562,725,150,536,794,701,1311
1056,1251,293,1446,1611,811,1549,459,653,665,443
388,581,326,1480,429,686,1071,657,1073,1461,633,1341,1310,831
227,1124,1637,1514,251,500,1273,507,508,1215
993,1217,201,1129,1642,1003,1648,435,1496,1021
1248,1410,484,262,1640,48,178,92,253,415
192,225,1282,259,1546,80,176,49,1363,149
355,1636,1323,302,1135,1009,376,1499,158,991
320,611,357,1670,583,1295,1263,210,660,407,505,1471
618,1643,1645,1678,1554,53,1302,1399,1306,1277
289,450,390,1001,1486,1423,305,343,312,60
128,992,1603,422,169,74,276,278,1336,62
704,577,833,732,1572,1669,669,1061,521,346,399,1328,690,1018,252,797
1313,67,1444,548,742,458,721,146,1172,662,1623,1337
274,157,1322,1331,442,188,1473,70,211,1364,85,1497,220,94,1504,1121,491,366,242,371,501,124
1280,547,228,631,1608,1019,203,430,465,629,247,315,1149,1503
193,1130,269,79,820,310,1335,186,1566,159
1536,140,1038,664,409,1318,1319,1321,170,174,431,445,87,89,221,478,481,994,1252,103,1262,116,375
1442,1379,1380,98,1487,1136,1296,1298,1115,1438
387,838,1672,1356,1422,272,341,416,99,1000,1578,237,1264,689,1010,243,308,1653
1472,1153,100,453,297,108,492,1357,470,254
512,1093,1512,586,1036,1037,748,1518,144,1299,467,1049,1146
801,834,104,456,138,1515,1260,213,1405,479
1668,1253,1223,1095,1257,1481,112,1142,1118,1183
1476,837,645,582,1485,1365,154,350,1570,549,1063,1641,554,1137,117,120
195,1671,392,589,1166,1613,497,564,1493,151,604
354,164,1407,298,1324,208,1649,565,214,1113,285,1470,1663
1059,292,319,166,1644,306,1300,406,568,287
1304,769,1160,813,1104,1489,370,692,1110,1014,184,1654,539,413
710,1415,1288,714,845,1680,562,437,696,827
864,452,1069,862,1557,1430,473,860,861,734
867,1347,486,745,1102,494,1520,754,632,863
865,774,1286,1513,362,1101,723,468,1683,1588,1429,858,1372,1469,735
866,1190,1068,569,786,1587,857,859,1182,1343
640,353,265,1147,337,534,535,216,1401,1659
1027,1159,391,1164,1555,408,1180,1192,695,1463,573,706,1099,593,1116,1266,245,1276,509
288,679,1289,1484,782,703,659,1013,504,412,637,1054,1631
1632,1088,1285,733,649,682,1163,702,1162,693,603,1213,1534
674,356,1606,998,844,304,316,249,1404,1501
1443,1060,1157,1667,1127,267,1170,1053,1117,989
1184,1219,999,327,1005,557,1617,1173,1561,1338,1214,575
997,294,555,1358,1359,1553,347,698,1339,1151,607
1441,1569,1381,1383,1449,1580,1007,719,1425,1400
