0,1604,1093,510,583,1673,522,1331,1112,381,1470
1665,129,2,6,7,393,1035,17,21,278,160,290,295,41,432,58,62,63,209,82,215,216,217,95,351,107,114,377,1278
128,257,130,259,3,261,4,135,10,11,266,140,15,16,272,144,19,20,146,23,24,25,27,283,155,36,38,426,299,44,47,48,307,53,310,55,312,57,318,319,190,68,70,456,73,74,75,203,81,211,84,85,342,87,213,90,91,92,94,222,96,994,99,357,102,1255,233,106,235,108,364,113,115,116,250,1663
547,163,358,1479,1133,1645,240,1616,1362,403,117,406,31
1038,404,1556,1307,40,169,181,183,188,195,1605,198,325,336,210,83,1492,992,231,365,375,251,1406
416,1408,131,1092,1254,1510,268,461,464,562,52,1399,1306,1115,191
1153,530,281,1319,1320,427,1324,1067,1334,56,1337,1472,1606,1609,337,1256,360,368,1147,1661
321,66,1667,260,1476,528,466,348,1052,1053,286,118,568,1145,378,507,638
67,584,267,1550,1103,1679,1173,1305,541,1444,1061,1126,548,424,1516,1138
1160,1676,539,285,415,159,161,316,1597,1351,1352,202,471,349,1634,1639,104,103,1392,121
1443,1124,1157,1572,1608,204,1132,1358,111,339,1364,440,1150,1503
153,387,648,330,1131,525,1330,435,1593,122
1603,1380,421,185,1159,1546,1613,1007,1327,1365,409
384,513,322,1122,356,1474,1547,396,1611,1006
1441,1442,1570,324,998,423,1576,489,1033,1005,1040,340,1557,347
451,1672,1257,1482,459,1166,1359,1008,604,445
1410,1638,1511,455,1134,463,1487,1042,1460,475,1404
1250,1318,1640,1258,1357,1169,1649,1336,1465,479
1152,481,1411,1350,1641,557,1393,565,1403,1500
482,1475,678,1095,1671,1353,543,493,1338,1407
1248,1121,484,517,1063,1483,1261,1298,1554,1044
516,490,1322,1552,1394,1396,1397,1462,503,1113,1279
1249,1602,1321,491,1643,1139,1302,506,1499,1598
1664,1636,1323,495,1011,1459,1333,1142,1405,1501
1635,1637,1502,521,1037,1329,1395,1401,1213,1566
1088,865,866,867,864,851,1587,1588,1429,859,861
1537,868,869,870,871,872,873,874,875,876,877,1589,1624,1625
