480,162,200,10,410,213,312,186
256,234,1643,271,1298,1554,604,93,350,31
32,1409,1383,264,298,1355,1662,50,274,1045,376,478
576,418,1410,37,1350,198,426,1487,1307,496,1492,1465,91,253
1505,1247,1282,230,390,296,265,1644,49,344,154,1468,991
416,1408,131,1092,1254,1510,268,461,464,562,52,1399,1306,1115,191
1,130,515,996,1609,202,364,78,529,530,211,441,506
544,1059,1001,1097,587,1515,1168,1296,1490,149,987,1565
1504,354,995,1670,551,329,1130,526,1647,243,343,151
1216,452,420,678,1146,1417,1338,494,601,1106,473,474,575
0,318,1470,517,583,1673,522,216,381,510
1604,1093,1095,1329,1395,1140,1331,1112
1255,1659,362,13,365,83,404,84,1594,251,29,190
167,71,1321,7,297,80,55,380
170,332,492,431,82,1460,375,187
992,1152,994,1035,1038,14,1008,1278
289,294,550,8,1384,1036,1615,660,156,542
300,1677,245,182,246,88,373,219
1217,999,1096,1066,1553,1170,1009,1215
1464,1519,124,1457,1555,1560,120,126
1056,449,9,649,458,1458,467,405,22,1398,282
224,33,1568,1571,101,1485,306,1567
1336,291,1477,422,134,136,361,44,60,56,539,1500,349,1598
481,69,38,11,1262,47,565,446
1472,1153,1120,1319,1160,1257,1333,1597
65,193,417,546,357,1475,1511,1354,491,12,158
1665,195,261,1642,1552,1556,372,1663
129,2,165,41,42,17,183,58,316,62
448,140,142,178,19,116,87,155
133,5,40,210,21,277,23,248
1601,258,323,1381,262,72,79,1295,1466,184,505,26
487,1482,557,1261,1264,1265,1011,1275
1668,228,646,39,1382,138,1610,511,308,534,287
1304,1669,1607,1010,1272,1049,986,990
257,225,1249,1635,425,45,18,244,1461,503,1402,283
1279,516,43,428,269,108,150,479
159,450,1128,523,212,54,217,989,95,351
1606,1639,1351,1641,1352,1324,1486,1332
128,137,299,174,276,278,471,415
168,394,172,334,15,250,59,221
35,360,141,366,208,20,470,1113
103,232,207,181,438,280,121,61
1256,1325,1392,1394,371,1139,1403,1406
321,66,260,1476,528,466,118,348,286
1667,568,1145,378,507,1052,1053,638
67,1061,1253,1162,1516,1103,1679,1173,1116,1117
548,454,584,424,267,569,603,541
1444,1126,1513,1550,1138,1012,1141,1305
1248,484,68,233,395,1357,397,1135,401,1649,1462,215
319,1318,1323,493,1393,249,1118,1407
102,73,1161,75,1385,305,337,1337,540,1501,127
1057,674,1123,1067,626,627,1147,1148
419,196,292,1060,363,76,206,241,242,220,1274,444
1660,1481,1356,1328,1363,1334,1596,1661
1379,644,645,326,586,77,1518,1551,400,275,597,1303,1339,636,1438
352,612,1478,536,109,662,374,664
1137,1043,1013,1143,1463,1048,988,1021
1250,166,1671,1640,495,335,307,1491,85,152,314,27,255
161,453,104,16,214,25,188,57
259,99,359,455,331,175,463,370,1459,90,92,1566
1440,1251,1213,1142,1335,1302,1401,445
97,194,1121,1634,1637,1638,295,1320,457,1258,143,272,145,1397,189
164,1605,123,237,177,411,89,379
235,1676,301,173,179,317,285,30
1664,389,1674,333,247,24,475,1405,94,543
98,1602,549,1127,1672,302,304,1046
451,1443,1572,1608,204,236,110,111,402,339,440,1503
1124,1157,1034,1132,1358,1071,1364,1150
577,1154,388,391,593,532,1301,566,1561,218,606
288,615,616,1099,429,112,624,125
1220,997,1512,1612,1266,1276,1469,1151
199,456,652,205,1260,1645,368,1616,338,403,1362,406
547,163,358,1479,1133,240,1044,117
1600,1281,386,1495,263,392,399,303,1360,1366,663,1498,284
579,567,581,582,311,1273,443,572
226,1413,614,238,595,345,346,223
993,1218,1284,1129,1418,1171,1047,1051
1549,623,499,629,502,119,632,508
1003,1004,1548,1269,1271,1467,1277,1022
153,1603,387,421,185,648,330,525,1613,1007,1593,409,122
1380,1159,1546,1131,1327,1330,435,1365
160,290,1252,393,107,139,209,114,51,86,63
96,105,106,266,432,113,115,377
325,74,46,48,336,180,1114,157
64,4,6,231,169,81,436,28
355,132,3,427,367,147,279,281
385,482,1569,650,459,1484,589,270,310,254
1280,1094,1000,1002,1166,1169,148,1270
608,229,1326,176,1297,564,1404,1439
192,483,197,554,239,341,408,313
1125,1675,1263,1648,1361,1299,1400,1214
514,519,552,1415,555,558,527,1680,1681,563,537,1020,1023
578,588,590,592,1041,570,571,574
594,596,602,598,599,600,1050,605
610,611,617,618,620,621,628,1558
641,642,643,647,631,634,1055,639
651,653,654,655,656,657,658,1054
1062,659,661,665,666,667,668,670
672,673,675,677,1574,679,680,671
1575,1064,1069,1070,1073,1074,1075,1078
681,682,684,685,686,687,688,1079
1156,1098,1581,1165,1167,1107,1149,1119
201,689,690,691,692,693,273,1599
1231,1650,1172,1174,1175,1177,1179,1181
328,398,369,1267,309,413,382,383
1312,1268,1340,1368,1341,1308,1309,1310
1473,1506,1283,1507,1489,1494,1496,1497
460,465,434,437,469,472,1369,447
1018,1285,1178,1014,1015,1017,1370,1180
1508,1386,1387,1517,1520,1521,1523,1525
1412,486,1414,1646,498,500,1019,476
384,513,322,227,580,356,1474,1547,396,1611,1678,1493,407,315
1122,1480,619,430,1102,1006,497,1016
640,545,1632,1445,669,637,1514,559,533,535,509,414
1058,1577,585,1163,1164,1039,561,1559
1578,1580,1631,1618,1300,501,635,607
1509,1259,1419,1076,1077,1144,252,1311
320,293,327,553,524,556,1136,531,468,538,573,1471
1573,1158,488,1068,1614,1617,1595,412
324,423,489,144,146,340,347,477
1219,998,1063,521,1033,1037,1005,1040
512,1441,1442,1570,1576,1483,1557,1502
34,36,100,70,135,1636,171,203,222
353,1666,1411,490,53,342,439,442
1353,1065,1322,1134,1359,1042,1396,1499
1155,485,518,613,520,1446,683,1579,462,591,1488,1524,504,633
609,676,1101,622,560,433,625,630
1416,1230,1104,1105,1522,1072,1367,1176
