0,896,15,411,157,798,1057,42,298,435,820,1331,1593,319,193,1219,1606,1610,331,1612,461,335,213,727,1623,354,1135,1393,1653,252,893
384,1,1281,396,1677,403,1052,1439,429,1199,1494,1122,227,997,1637,1006,498,1269,638
194,546,7,1132,1424,145,401,913,1500,478
512,545,517,485,1542,8,937,1130,1482,525,1488,1459,1398,1402,1375
1153,516,261,263,9,138,265,905,909,911,1042,1302,1440,1660,296,1321,1323,1458,56,185,186,1466,1473,450,1474,455,328,1357,1486,1497,355,356,1266,1139,887,1400,1145,124
1152,1536,134,12,400,24,154,159,32,929,420,686,68,1351,467,1112,351,484,501
1666,1669,1671,139,526,16,272,274,530,406,281,26,31,421,1320,178,1330,442,1601,196,1220,1479,330,76,1118,479,1504,1249,1251,233,236,879,1138,244
544,33,1248,838,395,748,1134,1423,305,18,1363,1649,443
256,385,1425,1045,797,1565,34,676,1065,304,1596,62,191,1607,1358,1615,1616,340,596,344,220,477,1254,1127,1639,1648,1270,1655,1276,1661,1662
130,388,136,776,1675,143,1679,542,1059,36,37,41,59,195,1604,584,202,332,1362,339,1626,348,240,1265,378
416,419,1667,1668,871,1449,522,1481,589,49,212,341,215,568,1657
1463,258,1635,197,294,427,496,50,1298,1492,245,373,503,892,991
771,649,1161,1547,1678,1039,1168,1299,917,1685,1054,1058,1061,678,935,1317,938,1066,53,566,1591,313,1471,1217,67,1229,464,989,615,110,622,1527
66,451,1539,549,1570,1407,1322,683,1036,1044,693,1173,151,1524,122,125,511
646,1293,1301,1303,927,695,189,322,70,1487,728,225,739,1379,1382,494,1007,1525,1528,634
1034,529,1559,1562,541,551,553,1069,558,1070,1074,1078,1079,1592,570,572,574,577,580,71,588,595,598,599,603,605,1629,111,1651,628,632,1656,1658,647,1162,1163,655,1167,1171,1684,1174,1175,1176,1177,666,671,672,673,1186,675,680,1197,690,1203,692,1204,1206,184,1209,700,1213,1216,712,201,713,717,725,726,1240,1241,238,750,1271,761,773,780,273,794,284,1309,1314,803,1316,810,814,817,819,825,826,832,1346,1347,326,1360,849,853,856,350,1378,872,889,894,386,1413,1420,413,414,939,940,941,945,948,949,952,953,955,957,958,447,1480,462,1495,473,1510,488,1520,499,502,1014,1016,1526
1090,73,1385,75,459,77,1483,1136,884,1335,1144,1305,1147,1373,1438
514,519,1544,777,399,1051,800,1443,300,1584,947,1334,188,711,78,469,597,1493,345,346,476,614,616,1129,1514,1003,1004,497
1410,1411,1546,1295,286,1056,161,932,1576,1578,302,1454,310,1467,1352,79,594,1499,1376,353,995,1380,1125,1259,1515,1643,1518,636
1027,906,270,656,1169,1553,789,537,282,1049,1571,1444,677,426,1326,1332,954,187,828,1218,1099,593,90,347,475,990,1374,224,1505,234,493,1005,1137,1521,631
1157,902,775,1421,1422,1297,1048,283,925,289,547,550,303,306,308,444,582,1096,1104,466,474,91,1116,607,99,228,101,1126,1000,1640,1002,1517,1390,1652,508,126
576,1441,1349,1511,1226,1552,565,1429,92,253,222,445
97,1154,1285,1573,999,1159,1194,523,1613,1647,1010,243,564,149,1365,1143,987
144,660,533,1561,1313,933,934,1063,1583,1337,1088,707,1221,327,458,1356,592,851,102,742,112,1523,120,127
1166,1296,1554,148,1556,540,1183,1574,423,698,449,1094,1224,1485,1103,1490,1109,343,986,352,489,1001,1645,117,630
513,1642,1529,1263,465,119,1396,247,1273,218,1150,1503
1541,1164,1037,146,412,1569,931,559,1457,1475,1095,1101,721,1617,216,357,1383,1141,1142
1543,392,1672,650,1673,815,1008,309,886,156,1277,1151
1156,653,1680,657,402,659,915,1041,662,407,1047,1300,1433,1530,1180,1557,1310,1686,1184,674,1447,682,1067,684,430,944,689,562,1073,696,1084,701,1085,1341,704,705,1599,579,1600,457,1102,337,722,1621,223,993,610,1384,619,1133,753,1013,1018,1021
1280,321,481,1092,229,454,586,749,910,1361,1306,604,1534
1472,418,807,456,875,237,431,372,438,1404,1279
644,268,1170,669,287,1319,1324,557,1333,1465,569,1339,1215,1225,1353,333,1501,1513,239,1395,1401
1540,267,908,269,271,665,1567,1572,1582,1327,1338,1595,573,575,1348,583,1106,468,1368,730,1128,1146,510
648,904,275,1555,1560,793,538,1308,288,548,1446,813,942,433,1586,950,1590,827,1469,1227,1228,1611,718,591,1619,1624,1631,1632,486,1512,874,1519,629
1538,772,645,1414,782,1311,293,808,1328,561,960,581,715,1489,1239,862,613,1509,1516,758,1654,504,891,637,1535
320,900,1476,1062,1031,652,1009,1011,1108,1149,791,633,988,1053,1214,1399
1155,518,1160,1289,1550,783,919,539,1575,555,1072,823,1080,706,716,1110,1117,480,1508,507
