257,8,526,1424,1169,283,50,1459,52,565,1335,1470,1487,1504,994,1635,998,108,1518,1264,1139,1274,1404
1154,260,9,1674,1295,18,1042,662,161,34,419,1447,302,307,435,1334,440,1593,444,1610,203,1357,1616,1364,345,607,97,225,1380,1254,1515,1138,376,1021,126,1151
256,10,1170,147,1683,22,153,540,1057,1313,1574,305,1093,461,467,857,986,91,611,742,1126,1127,489,234,1128,1007,1135,1266,1141,505,122
65,837,487,616,457,1511,304,176,786,1008,1362,1045,24,475
1671,150,26,1439,546,803,38,678,47,200,1355,213,859,353,1260,1275,380,1661,511
265,269,32,544,418,424,1065,60,1596,1602,1477,71,1607,1363,1497,349,483,241,501,249
33,321,101,199,330,683,1330,51,499,1458,1495,569,187,989
385,1570,451,1379,37,1446,1383,1578,1006,1647,1678,1425,1011,1012,118,1270,1306,350
1027,1157,775,649,1421,1550,1046,1560,1561,547,1059,677,1572,1063,41,1194,1071,828,1214,1611,1613,109,1273,636,1150
1549,1039,1557,1047,1559,1562,539,1051,1061,43,1069,561,562,1088,579,1102,1104,1618,1107,1108,1109,1110,603,1117,620,623,1137,628,1654,632,120,633,641,1160,652,653,655,1680,1177,674,163,686,687,1200,696,1213,702,1221,710,1222,201,714,725,218,219,733,734,227,739,745,754,1284,773,1285,1288,790,798,811,813,816,817,827,1347,324,327,845,1366,860,861,862,863,867,374,1415,402,1430,413,437,1461,443,1478,459,1489,469,1496,473,1509,486,999,1512,494,1520,500,1014,1016,1017,1019,1534
517,134,524,1422,400,1429,1569,1442,420,294,300,1327,49,177,564,820,822,1467,450,582,1094,1095,1352,1486,90,348,995,228,1251,1381,1382,1384,1639,1640,1131,240,1265,243,1142,1662
1024,509,1289,1163,1164,782,271,787,788,1172,1555,1048,793,1180,669,286,1056,293,1573,1192,682,1066,559,1328,1587,1588,182,695,823,1463,1464,573,1471,320,67,719,1116,1631,224,1632,866,612,229,1124,1253,618,1002,1519,1523,245,1148,637,127
1280,1668,1669,1670,391,1297,156,322,196,68,1612,1615,1361,342,1247,99,484,358,1642,1003,1261,239,247,1276
98,130,1060,1636,70,1672,395,332,1296,596,85,406,567,629,191
583,73,1067,1483,77,1101,303,1358,337,253
1677,399,1553,407,184,188,1218,587,78,1494,732,993,1122,1505,1637,1133,1263,631,1529
448,1249,1408,1601,1252,478,455,426,1258,80,1332,438,318,1407
258,1282,996,1604,233,297,1353,492,333,1134,1423,1649,1331,470,1499,123,95
769,514,1413,1034,267,780,1162,529,657,536,1304,794,284,676,423,1575,430,1073,692,693,185,315,701,1341,831,1216,1600,1346,1220,326,1356,718,465,1105,851,474,346,223,997,1129,619,748,749,1004,111,251,370,1522,1144,507,508,638
521,1679,1173,791,1303,1049,1052,797,541,1062,309,1099,593,730,988,1118,352,608,493,112,1009,1652,373
646,1414,650,1305,282,1053,1058,1445,429,306,568,1339,1217,195,198,586,1490,341,622,117,252
1153,132,1638,167,1255,425,1319,496,1298,124,1597,446
581,550,1000,1096,1481,1513,1648,339,660,1140,1299,1301,125,1502
1664,1605,262,296,139,397,1491,1402,316,1566,479
263,1257,1115,525,1457,1395,148,1428,217,411
388,1673,1036,1040,408,1176,154,1567,1184,1571,548,815,689,310,566,1337,1595,189,1215,452,458,597,990,1136,1524,246,1143,1147
289,449,482,545,357,549,706,1475,1546,1485,1168,721,212,1398,155,510,1183
576,640,1152,1667,197,1033,1130,1359,1465,1466,987
416,513,704,580,645,1412,1479,202,1675,498,1503
323,1444,554,1547,1166,1103,1617,210,601,1146,1660
1441,259,1092,485,838,615,1219,1132,1037,1644,1488,1365,1653,1272,222,606
1476,614,1159,1480,523,684,462,308,1399,378,1308,1309,254,1310
1018,1474,292,1125,1623,1001,1643,589,1582,1645,272,466,1044,343,344,698,287
772,774,1286,535,412,1182,288,1190,679,555,1068,1580,690,439,1469,703,1343,577,833,1484,592,723,856,858,1372,735,362,1514,758,504
392,648,1161,783,1554,1149,665,1576,553,1199,1072,1583,1080,313,1338,575,707,716,1106,864,1259,1013,1277
