0,318,1410,259,1604,1093,1350,522,75,331,1302,216,1501,1329,1395,510
128,129,2,325,44,81,82,180,248,188
64,4,360,137,106,266,1325,208,371,436,61
5,6,133,105,1035,1262,114,115,276,86,23,795
481,357,38,7,1128,1477,1606,11,12,431,212,372,565,1500,446
135,200,10,397,213,410,480,162,36,484,490,1322,1323,1135,53,312,186,1407
1605,362,314,365,14,627,1114,27,29,1598
168,1256,394,172,334,15,367,147,470,1113,250,221
1248,1602,332,269,1324,207,16,368,247,543
225,1250,516,1258,45,18,244,1397,503,152,30,1279
161,361,1321,427,428,142,47,19,1499,316
1152,1153,164,69,1252,1319,1038,1487,83,20,253,95
1666,1411,389,70,1672,203,333,1042,1046,24,94,222,34,100,1636,1134,1405
1664,195,1671,711,71,1676,141,1357,1148,25,159,1639,1640,297,1333,310,1336,1594,1404
256,234,1643,271,1298,1554,604,93,350,31
35,166,134,167,59,140,366,379,116,1139,89,155,1597
576,1440,450,1251,37,1637,523,1486,1335,217,91,351
448,992,40,169,74,170,46,174,113,404,214,471,87,438
96,1634,231,108,492,48,1392,84,181,280,1659,60,157,1406
104,1353,136,299,177,1393,51,307,1396,1460,56,220
1408,131,262,1295,1306,416,557,52,1466,1601,323,1092,1482,461,1115,1381,1254,487,1261,1264,1265,1011,1399,505,1275
193,455,272,90,92,158,417,418,295,359,1511,1641,1332,54,1142,1401
1183,1221,1161,716,718,719,1582,55,1527,728,698,701,1343
65,546,1475,261,1642,491,463,1552,370,1459,1566
68,1318,233,395,493,401,1649,215,249,319
1472,482,1447,1351,73,521,1067,495,337,695,601,1147,989,1502
257,194,457,143,145,411,283,97,1249,1121,1635,1638,425,237,123,189
353,102,1257,1065,171,459,335,1491,1556,1402,479
1443,1124,1157,1572,1608,204,1132,1358,111,339,1364,440,1150,1503
153,387,648,330,1131,525,1330,435,1593,122
355,132,1320,235,173,301,179,279,281,285,317
544,1059,1001,1097,587,1515,1168,1296,1490,149,987,1565
549,1352,1260,304,150,1334,1337,442,251,444,540
1504,354,995,1670,551,329,1130,526,1647,243,343,151
1603,1380,421,185,1159,1546,1613,1007,1327,1365,409
192,197,1675,1361,1299,341,408,483,1125,554,239,1263,1648,1400,313,1214
515,196,1060,1481,1356,1328,242,1363,1044,1274,1660,1596
1541,1542,1292,915,916,1685,918,919,920,921,922,923,924,925,926,928,929,931,932,933,1316,936,937,938,1454,1207,1208,1591
1348,934,903,935,906,1227,1293,914,1374,927
