1,515,1034,236,205,110,208,1008
96,432,2,115,58,106
16,35,3,20,25,27
4,325,6,231,137,336,81,471,121,415
5,13,174,46,14,180,183,29
80,7,55,71,167,44
289,294,8,1384,1615,1009,660,126,156,542
449,467,405,1398,649,458,9
272,85,213,135,152,10
65,38,134,11,12,158
379,281,168,425,427,15
64,128,17,113,105,266
18,244,30,89,45,334
136,140,141,142,51,19,116,87,61
248,210,133,277,21,40,365
224,33,306,101,22,282
48,404,23,74,251,157
1405,389,1046,1672,24,333,94
453,214,364,28,366,255
256,234,1643,271,1298,1554,604,93,350,31
32,1409,50,274,264,298
34,1411,1636,100,70,1666,203,1134
426,305,36,53,73,1002
160,129,114,41,107,62
290,86,393,42,377,63
43,108,428,269,1461,150,1402,479
97,162,164,166,171,172,143,47,145,60
49,390,230,296,265,991,1247
450,1641,523,1486,1332,54,217,351
1472,1153,1639,1160,56,1661
355,371,104,57,349,301
283,402,372,279,123,410,59
321,66,1476,260,528,466,348,1145,1052,1053,638
67,1117,1173,1516,1116,1103
68,1318,233,395,493,401,1649,215,249,319
82,103,69,1255,169,139
144,146,102,75,254,127
419,196,1060,292,1481,76,206,1328,1274,1660
400,1021,644,645,326,586,77
512,482,451,130,490,459,78,495,503,506,477
992,83,84,375,170,207
373,245,88,219,120,1677
1440,1251,359,455,1142,1335,1401,90,92
368,159,422,470,1068,95
98,1602,549,1127,1674,302,304,475,543
352,612,374,636,109,1551
112,624,566,1612,125,1469
240,547,163,403,358,117
1667,118,568,378,507,286
435,185,421,1159,153,122
124,1555,550,182,246,300
132,394,397,367,370,147,250,380
1668,1669,228,646,534,138,287
1296,1490,149,1515,587,1565
995,1670,151,1130,343,1647
1505,1282,1468,344,154,1644
1392,178,361,235,155,285
161,247,441,202,188,335
209,211,165,456,1035,1278
179,360,317,539,1260,173
193,194,200,1675,239,1648,177,313,186,189,1214
448,291,181,438,280,316
674,994,195,1659,187,1038
276,278,232,1114,492,190,1406
192,483,197,341,408,554
257,198,297,332,253,431
1361,1299,1125,199,1400,1263
225,517,1095,1329,222,1395,1140,216,221,318
577,388,391,1512,593,532,1301,1561,218
337,338,261,412,444,220
226,614,1418,346,238,223
497,1474,227,356,619,430
417,418,357,295,411,237
241,242,1363,363,1356,1596
1504,354,243,551,329,526
1665,627,436,362,299,1663
579,581,582,345,303,595,567,1273,443,572,311
1441,1442,307,312,1576,314
324,340,310,423,489,347
1603,387,648,330,1131,409,525,1007,1593
339,1572,1364,440,1608,1358
353,1353,1065,1359,1396,342,439,442,1499
1045,478,1383,376,1355,1662
1616,1362,1133,406,1479,1645
420,452,678,1338,494,474,1106,473,1146,575
1679,1444,1305,424,1513,569
480,481,484,457,491,463
1136,1617,468,1573,538,1595
496,1492,1594,1354,1307,1325
1681,514,519,1525,1415,537,527
576,546,516,996,521,652,529,530,565,540,989
544,1168,1059,1097,987,1001
545,561,585,1163,607,559
1569,1297,564,650,1484,1326
704,1313,721,1183,701,735
800,1026,804,808,812,814,1534,1535
801,802,803,805,806,807
809,810,811,813,815,1424
1347,1195,1196,1197,1198,1533
1010,1607,1272,1049,986,990
1137,1043,1013,1143,1048,988
1266,1220,997,1099,1276,1151
1040,1570,1557,998,1033,1005
1457,1553,1464,999,1560,1519
1138,1012,1061,1253,1126,1550
1217,1170,1096,1066,1036,1215
1250,1123,1042,1394,1279,1135
1475,1459,1044,1491,1511,1501
1281,1218,1171,1413,1047,1051
1120,1148,1256,1337,1067,1324
1439,1322,1483,1404,1502,1071
1664,1566,1640,1609,1101,1614
1152,1113,1139,1252,1671,1128,1257
1248,1121,1249,1321,1258,1118
1320,1334,1319,1352,1262,1351
1264,1601,1265,1381,1275,1295
1506,1283,1507,1494,1496,1497
1379,1438,1463,1339,1303,1518
1393,1350,1336,1323,1598,1407
1330,1380,1365,1546,1613,1327
1460,1333,1397,1462,1403,1357
1552,1635,1637,1606,1638,1642
