0,1604,1093,102,583,510,1161,522,1673,1331,1112,540,381,1470
1032,1435,1436,1455,432,1211,956,965,966,967,968,969,970,971,972,973,974,975,1628,1391
448,1472,3,1319,136,361,1160,140,539,1597
1152,1477,1606,7,332,80,1500,1120,481,167,297,47,431,1336,380,446
135,10,395,397,401,410,162,36,1318,1322,1323,53,312,186,319,68,200,213,215,480,484,233,490,493,1135,1649,249,1407
65,1410,195,1350,1351,11,141,1357,212,1566,159,546,1123,1639,488,1128,1459,1142
134,12,269,1552,16,530,161,549,1324,45,565,1335,56,59,317,455,1492,470,1113,475,222,994,355,1393,1139,372,1401,1405,1279
515,15,20,281,28,157,35,291,1325,46,174,48,179,180,1594,316,64,453,456,207,208,336,220,221,349,992,1255,103,491,365,371,116,250
132,137,142,19,214,278,280,1114,96,1634,168,170,301,367,1392,436,438,60
1475,357,1447,711,1067,337,695,24,1148,989,702
130,451,1251,1256,202,1642,368,51,211,1334,25,506,444
1601,258,323,26,1381,262,79,1264,1265,1295,184,1466,1275
544,1059,1001,1643,1298,1490,93,987,1565,31
224,33,1056,1571,449,1439,1485,1166,282,1567
576,193,450,523,1486,272,217,91,158,351,417,418,37,1637,295,1511,1641,1332,54
1153,516,394,139,1038,83,92,415,95,375,1252,1320,42,235,178,1394,1462,503,1403
164,71,1257,1321,44,1008,177,1460,1333,55,89,379,1598
321,66,1667,260,1476,528,466,348,1052,1053,286,118,568,1145,378,507,638
67,584,267,1550,1679,1173,1305,1116,541,1117,1444,548,424,1516,1138,1012
1440,98,389,73,1674,171,236,1676,305,1556,1465,1402,1661,1118,479
1057,517,1095,75,1329,1395,1140,216,1501,318
1250,166,1671,1640,335,495,307,1491,85,152,314
133,471,87,279,155,285,231,360,169,299,108,172,366,1262,181,1659,1406
1443,1124,1157,1572,1608,204,1132,1358,111,339,1364,440,1150,1503
1154,1220,1099,1612,1301,1561,1469,288,997,615,1512,112,1266,566,1276,125,1151
1603,1380,421,185,1159,1546,1613,1007,1327,1365,409
513,227,1480,1547,619,1611,430,1102,1493,407,1016,315
384,322,1122,356,580,1474,396,1006,1678,497
1409,1383,1353,1065,1355,1359,1396,1045,376,1499,1662
419,1060,1481,1356,1328,1363,1044,1274,1660,1596
1216,482,1219,1063,1483,1037,1169,1147,1404,1502
898,1539,901,905,1226,910,911,1433,1626,1627,1373,1374,1375,1376,1390,892,893
