0,1604,1093,510,583,1673,522,1331,1112,381,1470
1665,130,3,132,389,135,140,13,781,1424,272,278,410,795,417,1447,168,425,1449,299,428,302,178,307,436,54,312,57,59,190,319,68,456,74,205,207,211,85,213,216,217,220,221,94,95,353,994,105,233,113,250,379,254,1663
133,5,1038,1556,1307,40,170,180,181,438,183,1605,325,336,83,1492,214,992,231,365,496,375,1406
1536,418,1027,834,1223,395,283,1425,820,1653,24,411
547,163,358,1479,1133,1645,240,1616,1362,403,117,406,31
416,1408,131,1092,1254,1510,268,461,464,562,52,1399,1306,1115,191
192,65,194,193,197,1299,341,408,158,97,162,1263,1648,177,1400,313,186,123,1214
321,66,1667,260,1476,528,466,348,1052,1053,286,118,568,1145,378,507,638
67,584,267,1550,1103,1679,1173,1305,541,1444,1061,548,424,1516,1138,1012
1160,137,1676,142,280,159,291,441,316,1597,1351,1352,202,349,1634,1639,104,103,1392,121
1443,1124,1157,1572,1608,204,1132,1358,111,339,1364,440,1150,1503
577,1154,1220,1099,1612,593,1301,1561,997,1512,429,112,1266,566,1276,1469,1151
1603,387,421,648,330,1131,525,1330,435,1593,122
153,1380,1159,409,1546,1613,1007,1327,1365,185
674,1114,362,492,1325,366,371,276,277,1594,1659
515,394,279,1319,1320,1324,305,1334,1337,1472,1606,1609,1120,1252,360,361,1128,1260,368,1661
320,327,331,524,333,334,335,1617,468,538,293,1573,553,556,1136,1595,1471
1475,1002,557,1329,1459,442,540,1213,1566,575
1411,1258,1323,1643,1139,1396,1333,1142,1460,446
512,451,1671,1353,1261,1037,1554,1405,1044,1501
576,1666,1095,457,1161,523,1135,1491,1140,1335,1146
480,1664,482,1250,459,1486,1008,1169,1401,1407
1410,1318,1350,1640,1641,463,1487,1042,1336,1404
1249,1602,516,1302,1462,475,1113,1403,1598,1279
1248,1057,1121,1257,1357,1166,1649,1011,1465,479
481,1635,1636,1637,1134,1552,1394,1298,1395,1500
1152,1638,1511,1321,490,491,1322,1393,565,1397,1499
1089,1090,1031,1656,849,853,1244,889,1453,887,883,1204,1205,1206,884,885,886,888,890
