0,1,2,3,4,5,515,8,10,11,1035,13,14,15,16,17,18,19,20,21,23,25,26,29,30,31,32,35,1060,38,40,41,44,45,46,47,48,51,54,55,58,61,62,63,64,65,68,69,71,73,74,75,76,77,80,81,82,84,85,86,87,88,89,90,91,92,96,99,100,103,106,107,113,114,115,116,627,121,123,124,125,128,129,130,131,132,134,135,138,139,140,141,147,152,153,155,160,674,165,1192,170,177,180,182,183,190,196,199,200,203,206,209,211,214,1253,1255,232,1256,248,1275,255,262,263,266,268,269,272,274,787,278,279,281,282,795,290,291,297,298,299,300,1325,302,306,307,308,309,312,313,317,319,322,329,354,355,364,374,375,377,379,380,381,385,387,389,390,394,395,397,406,411,412,417,421,424,426,428,432,433,440,441,442,444,1472,450,456,457,468,475,478,479,992,994
1152,1410,1411,6,7,521,1033,525,142,1552,401,530,1044,415,418,546,1319,296,1449,1322,427,301,431,1460,56,57,1336,59,1597,446,1470,455,1223,1483,207,1491,220,477,1500,95,608,1120,1121,1501,484,1502,1634,231,360,361,490,1638,1134,367,495,1392,1394,371,1518,1397,1402,1403,1404
611,1476,1061,1095,9,1002,649,1194,1611,1519,1458,1173,1339,1567
1153,1441,1258,1676,463,176,400,50,1487,22,1145,445
646,391,648,1159,1162,1675,1678,527,1040,1425,532,1276,662,24,541,286,1309,1311,1313,163,1572,820,187,321,582,1616,1361,1364,1623,1506,1507,742,243,507,252,1021,510
803,1059,37,358,1094,1219,1220,1351,1379,1667,557,559,117,341,470,217,1183
1536,514,518,1528,1529,531,1555,1047,536,538,1050,1051,1055,551,43,1069,1070,1073,1074,1080,572,581,1099,588,78,593,1618,1621,598,599,600,1111,603,1632,610,612,1124,110,1651,628,1653,631,119,633,642,1155,1158,1673,653,657,659,1176,1177,671,1185,681,682,1193,1196,690,691,1203,694,700,702,705,710,1231,1234,723,1236,219,1243,733,737,739,745,238,753,251,766,773,1286,264,776,273,792,794,816,311,824,826,315,827,1340,830,831,1341,1346,835,837,326,838,839,1360,370,386,1414,1418,1420,1421,413,1451,430,1461,1468,447,462,469,1494,1496,474,1498,489,494,498,500,1014,1015,1016,1017
1668,645,524,1303,292,677,1444,1447,1574,1065,1071,305,689,53,1464,988,348,352,996,1254,487,1382,239,1523,378
67,1571,1126,583,616,1511,1006,1136,369,660,1595,127
256,1554,1305,156,1327,304,822,718,1490,83,1636,1128,1001,236,1647,240,1399,249,508
323,1320,1130,1644,1649,1395,564,1396,1405,376,93,543
1463,706,548,1063,1513,1386,1259,109,749,1617,146,245,1525,695,1557,569,636
1024,1161,1547,1551,1168,1170,788,407,791,1560,1561,539,669,550,423,1575,683,811,1581,1198,443,704,451,1475,454,1096,1480,459,716,589,210,467,1106,1365,1116,357,111,112,1524,1652,1018
1670,392,1164,399,1553,408,540,1184,545,1057,676,678,1446,576,1221,1358,1359,466,997,1129,1263,1648,1009,1266,1522,118,246,1277,1151
1027,1156,519,1160,1163,1549,1550,1039,656,275,793,420,1445,553,555,1582,1583,1586,698,703,320,833,1343,707,452,1471,1478,327,585,1103,1493,728,120,735,480,1508,622,750,497,1521,755,1141,630,632,634,637
614,552,1439,1274,204,684,1613,1615,185,122,1149,126,1310
133,137,393,1300,285,166,174,448,325,198,202,205,208,594,1492,1115,481,362,365,366,496,506
384,388,1157,1285,1669,136,267,780,1677,402,403,1172,1304,537,284,1056,547,692,693,184,571,701,829,1216,449,834,579,1218,1600,1485,1489,596,726,1495,473,605,990,223,607,1117,1247,1125,486,743,1637,618,619,1133,1137,499,1269,502,1143,1273
224,257,517,422,998,1383,1576,237,1135,148,310,604,1215
513,1281,775,650,1034,396,1679,1171,150,1053,287,1058,429,1214,1217,584,201,1356,461,465,595,216,346,1503,993,226,1251,234,1003,1004,1516,1012,638
1665,516,781,270,1038,1298,404,1301,409,410,1307,295,169,425,172,1326,438,188,1213,1598,194,1603,1605,1484,336,471,1114,347,483,1641,235,491,1005,1132,1659
258,259,260,261,271,419,1661,435,324,1481,1363,597,1252,229,230,233,1642,1008,241,242,247,253,254
288,1280,482,485,554,1488,721,1556,373,1146,283,797,1469
1671,1299,1045,1046,1049,1565,1593,1474,464,339,340,342,343,349,606,351,353,356,1515,1643,368,372,1272
512,771,1527,522,523,526,655,528,529,534,1175,542,1182,544,673,675,549,556,560,1585,566,567,568,1078,575,580,836,713,586,587,1230,591,592,1107,1109,1367,601,1631,609,488,492,493,501,629,503,504,758,1013,511
1546,1566,1578,1594,1596,1601,1602,1604,1606,1607,1608,1610,1612,1635,1639,1640,1645,1662,1663,1664,1666,1672,1674,1278,1279,1282,1295,1296,1297,1302,1306,1318,1321,1323,1324,1328,1329,1330,1331,1332,1333,1334,1338,1352,1353,1355,1357,1362,1380,1381,1389,1393,1398,1400,1401,1407,1408,1409,1413,1419,1422,1423,1438,1440,1442,1457,1459,1462,1465,1466,1467,1473,1477,1479,1482,1486,1497,1499,1504,1505,1512,1514,1534
