545,1570,1667,100,1220,102,1254,8,1383,1511,331,1483,1010,467,1331,373,189,1438
321,34,483,1604,291,313,521,10,1066,1490,307,211,1334,568,153,1661
131,644,1546,1275,1296,660,149,789,24,1404,31,302,323,327,455,1352,340,342,88,606,480,353,489,1257,1142,1147,636
1248,66,99,36,37,101,519,1000,1219,1380,459,1648,1265,339,52,1400,90,1565
387,395,279,161,162,163,803,296,49,53,1596,335,97,228,357,1381,1636,1643,237,1134,1012,1662,511
1408,389,394,266,140,141,15,16,145,530,19,20,409,281,410,28,285,35,167,168,1321,1322,1319,172,44,46,47,48,1325,299,179,180,301,439,312,448,65,1474,194,453,198,208,80,83,169,85,215,1113,220,349,221,356,103,104,231,106,235,108,1262,367,368,1394,116,1397,1403,1406
0,128,2,129,4,5,137,139,1038,17,276,277,405,23,21,278,283,160,290,432,436,183,58,1597,1598,62,63,68,325,209,1491,214,93,478,96,994,1252,232,491,1132,107,114,115,248,377
1059,584,1515,77,1133,1645,112,1040,403,532,118,185,604,351
1161,275,787,412,670,1183,294,1574,553,1194,561,1215,464,721,1107,1509,109,622,1006,755,758,1023
646,1046,407,1305,287,419,39,440,444,195,196,1477,1502,1247,608,354,611,1138,501,122
144,540,1058,1445,1576,1067,560,1338,451,1478,583,1482,1488,337,730,1123,485,627,374
576,1251,645,1096,1673,497,1106,1149,246,507,1464,443,156,1117,990
1666,515,260,648,274,1045,25,166,38,426,1324,174,1593,1606,199,456,76,589,89,991,359,1640,503,381,255
416,225,1282,1607,9,1001,333,461,1615,240,528,1458,1042,151,1150,543
1280,32,70,265,1610,457,652,1395,566,442
1504,484,1671,269,526,466,212,1112,380,350
577,804,552,1547,1163,556,812,703,569,1343
706,1192,1513,1195,1099,1039,1108,1109,1561,1182
385,1153,1665,133,134,14,270,1552,147,418,807,1320,297,425,173,310,445,1603,995,1127,244,1270,1148
1318,362,490,492,13,1264,370,27,252,1663
1601,674,261,328,1354,427,428,499,1492,1495,253
450,1223,263,12,463,18,565,344,1306,1467
1336,1351,1128,73,1676,525,1326,470,1335,216
159,1033,1641,1307,1139,1396,1333,475,1566,319
546,1156,676,649,1457,1297,1266,1652,533,1525,1143,282,1595,797,286
256,640,672,1155,518,1519,1298,22,408,665
1313,449,289,423,551,554,1485,1166,695,575
1184,1124,300,1103,1168,1361,1522,1172,986,1214
67,997,999,1384,618,750,239,689,341,1560
1,130,1669,406,542,33,1443,171,55,567,188,322,1479,1609,332,218,1122,615,238,506,508
704,1413,391,41,203,1612,429,372,150,1276
512,386,514,1528,653,398,402,1048,798,1439
673,42,43,1551,303,690,1461,1078,693,311
705,1218,226,1572,326,201,346,465,1496,474
739,1575,619,110,111,500,629,1498,251,1116
1004,1678,1360,1137,1616,1526,1015,1144,382,383
258,3,516,6,7,1401,393,1274,280,795,1659,29,164,165,40,45,181,438,57,59,317,190,446,193,69,200,329,82,86,471,1114,1120,481,355,230,105,495,1392,1393,113,375,121,250,379,1405
1410,422,170,1035,74,81,84,404,87,1500
544,1249,1409,257,1638,295,138,79,54,186
1440,801,1605,522,1260,397,336,178,435,1044,50,1462,1402,123
1152,64,132,421,1419,205,334,207,142,1594
664,157,158,415,431,56,1353,1484,1357,213,479,992,1250,1635,360,1261,366,1399,1279
1664,1121,26,549,135,177,154,60,61,1407
1472,1602,71,361,75,1169,338,51,376,94
1131,365,371,1460,1398,152,314,316,30,191
580,324,1637,1256,1608,202,136,364,1642,1358,247,441,378,1052
227,458,1034,236,78,1679,242,662,1337,607
262,1670,487,1164,187,494,399,1359,272,1327,91,348,1151
1125,1480,1481,1578,1675,1512,559,1647,1300,1118
1411,259,390,1255,1639,781,1423,496,400,401,1135,1649,343,92,95
98,711,1160,1644,557,1424,539,411,222,254
1634,1065,1130,587,1323,1258,1008,1009,1145,1115
513,388,293,677,1159,775,1573,1221,683,1097,1421,1550,1517,1523,308,1493,1365
1056,224,454,718,592,1553,309,603,477,1311
1505,1062,1191,234,493,1555,243,117,634,510
1412,1060,582,678,392,745,1446,396,204,1071,1263,529,1176,1466,1021,1503
993,1677,430,119,1302,502,633,571,638,127
517,155,1005,1614,524,306,146,1459,1465,347,126
1473,1092,197,998,1063,1095,1036,1037,1422,1272
1441,1442,1475,1379,1350,1002,143,148,1556,791
482,1093,1447,233,330,523,1355,1613,1486,1518,305,1329,1330,564,182,249,1146,1660
1057,1094,1449,1487,1554,1011,1278,1049,987,318
192,1154,996,424,268,206,1007,989,176,1328,241,1332,1363,1140,217,124,1501
292,358,1674,298,748,271,304,1362,1170,669
417,1476,550,742,650,267,1295,210,596,1173,505
1571,1444,1668,1253,1382,1672,1129,1497,1499,1053
1283,535,264,776,780,527,273,1299,534,1527
1281,802,547,805,284,790,1529,794,1308,541
1285,806,809,810,811,813,815,572,1533,1310
1312,579,581,1288,588,1549,595,345,602,605
610,614,617,363,620,624,1043,628,1557,1341
1346,643,681,685,657,632,1051,1468,413,671
1347,1061,1162,1070,1102,1171,1494,1047,696,1054
1569,714,1356,719,697,1177,698,701,702,447
1600,1216,1186,1217,1196,1197,1198,1231,468,1364
1506,1414,469,726,727,1240,473,732,733,223
741,1415,1003,1520,1267,1268,1014,1271,1241,1277
743,488,1418,1680,1681,498,1524,761,1370,1534
288,609,647,586,782,783,655,1174,1339,1469
808,460,717,814,656,1233,1463,537,1303,573
352,1026,1222,1514,1068,1101,597,725,1367,601
1386,1516,1230,369,1521,245,1110,1013,504,1535
1025,771,11,659,1301,538,799,800,1567,420,1611,1617,1631,1632,229,1126,1259,1136,1141,120,1273,125
1507,452,612,585,1581,593,728,219,988,735
