0,1331,583,1673,522,381,510
368,1,338,1439
128,209,2,456,58,63
46,3,14,1255
81,137,4,471
113,106,5,157
336,69,325,6,121,231,415
11,7,38,1663
449,1458,306,1398,649,458,9
399,10,85,663
627,212,12,446
994,29,28,13,190
360,211,470,15
16,161,202,188
17,183,105,187,174
18,244,45,503
1598,1642,19,1606
51,20,181,438,280,139,141
248,210,133,277,21,40
467,1485,405,22
170,251,180,23
1405,389,1046,1672,24,333,94
25,27,214,57
225,89,44,30,1279
1298,93,350,31
32,1409,50,298
224,33,282,101
34,203,100,70
35,371,364,255
36,53,135,490,1322
1641,91,37,351
1610,228,308,39
160,41,129,62
393,42,74,165
108,43,428,269
80,1665,332,47
48,83,84,365,207
344,49,265,1247
52,1092,1510,1399
450,1332,54,217,523,1486
177,55,71,1337
159,1153,422,1352,56,1324,95
168,59,172,221
208,116,61,103
528,321,66,260,638
67,1444,1173,1103
1649,68,1318,233,395,493
73,409,75,102
419,196,206,76
529,130,515,78
1264,1265,1275,79
992,82,453,1038
114,107,290,86
1475,1500,87,1511
455,1251,359,90,92
96,377,115,432
97,194,1638,457,189,143
98,1602,549,1674,302
104,136,235,253
352,612,109,1303
402,451,1034,236,110,1071
339,1124,440,1503,204,111
112,616,1301,429
117,403,1133,406
568,378,1052,118
1418,629,582,119
120,1677,373,550
1593,122,1330,1007
1121,145,123,411,237
289,1555,124,294
1519,660,126,542
171,254,222,127
416,1408,131,1306,1115,268,191
291,132,285,316
372,357,134,167,379
1668,1669,1382,646,534,138,511
1552,140,1637,1566
144,146,1219,1063,477
179,147,173,1350
1296,987,1565,149
1402,1461,150,479
153,1603,435,421
154,1282,1644,991
480,162,213,410
240,547,163,358
417,444,205,166
169,195,349,366
176,1297,1326,1569
245,182,246,219,300,1036
185,1546,1131,1613
192,197,341,408
200,193,514,199
1120,1556,198,1354,1307
249,401,215,319
1329,1395,1140,517,1095,216,318
593,218,1220,532
384,1493,247,250,220
1474,227,356,430
1505,390,230,296,1468
232,436,276,1278
256,1554,234,1643,604,271
1361,554,483,239
1328,242,1660,1274
1504,243,526,343
252,1509,1311,1631
257,1249,1635,425,283
1601,258,323,262,1466
576,546,491,261
264,274,1355,376
385,650,564,270
272,305,281,295,297,279,301
592,273,1107,1181
1114,299,1406,278
466,1667,348,286
1049,986,287,1607
288,1612,606,615
320,293,327,553,1471
304,475,543,1127
307,1491,1671,314,495,335
1169,482,310,459,1404
1400,313,1675,1648
1480,497,315,407
1040,1033,317,998
347,324,340,423
644,645,326,1463,586,1339,636
648,330,387,525
442,1499,334,1359
337,1067,1148,1403
1353,439,342,353
355,1396,1065,394,380,367
1013,374,1021,1518
404,375,1594,1659,492
577,1154,388,391,1512,1276,1151
484,1407,1323,397,1135
640,509,533,535
418,426,427,431
448,441,1597,1605
443,572,1413,502
1116,1061,454,1117
478,1045,1662,1383
481,565,540,989
489,1442,1441,1005
496,626,1492,1351
1618,1300,501,1580
506,530,652,996
1145,507,1476,1053
536,662,664,1478
1136,1617,538,1595
545,1058,1163,1164,669,607
585,1419,559,561
579,581,1366,567
681,571,628,1581
1168,1490,587,1515
1144,1514,1632,637
665,639,677,1073
674,1676,1634,1639
738,739,748,1583
1024,787,788,789,1422
1584,793,1194,1563,797
1424,801,803,807
1088,1028,850,1204,854,855,856
849,851,852,853
1048,1043,988,1143
1130,995,1670,1647
1561,1266,1099,997
1096,1009,1457,999
1000,1094,1484,1270
1016,1611,1678,1006
1008,1042,1044,1037
1521,1386,1018,1414
1498,1277,1022,1271
1129,1051,1171,1549
1363,1060,1596,1356
1217,1066,1553,1215
1112,1604,1093,1470
1113,1357,1462,1393
1299,1125,1214,1263
1138,1253,1126,1679
1608,1572,1132,1150
1666,1411,1636,1134
1440,1401,1142,1335
1443,1364,1157,1358
1159,1380,1365,1327
1250,1252,1257,1256,1321,1258,1166
1216,1336,1333,1334
1640,1459,1260,1661
1320,1392,1325,1262
1616,1362,1645,1479
1384,1560,1464,1615
1417,1394,1397,1410
1465,1483,1501,1502
