0,1093,510,1095,583,522,1331,1112,381,1470
1,130,1443,1572,1157,1609,202,364,78,1358,211,441,1503
128,129,3,393,266,1035,1403,404,278,157,160,290,164,299,44,46,48,177,432,180,436,59,1598,63,64,325,74,207,336,209,83,86,89,96,1252,105,106,107,362,365,492,251,1257,1394,114,115,377,379
1472,4,137,170,1139,84,1333,471,121,415
1152,5,17,277,21,23,167,1321,41,169,1460,55,183,58,332,80,81,231,1008,113,248,380
7,1038,431,174,82,212,1594,187,1500,446
516,10,139,15,18,20,28,30,35,168,172,45,1325,51,312,57,1597,61,200,334,208,221,991,1247,225,103,104,360,1258,235,1262,366,371,244,503,250,1279
481,357,38,1511,1128,11,12,372,565,1332
193,1477,134,13,14,463,276,29,1566,232,190,370,1459,375,1659,60,1278
132,135,136,141,142,16,147,279,152,281,25,27,291,36,1065,1322,427,173,179,53,439,442,317,1353,1359,342,470,214,1499,353,1250,355,1256,490,367,1396
1505,1319,1160,140,19,116,87,285,316,349
1601,258,323,26,1381,262,395,79,1264,1295,1649,184,1466
256,1263,1648,271,1299,313,604,93,350,31
1409,1475,264,1355,274,1045,478,32,1637,1383,298,1642,50,1142,376,1662
34,1411,1636,1380,1603,330,1131,1134,1330,122
1668,1669,646,1607,138,1610,534,1304,1049,986,990,287,228,1382,39,1010,308,1272,511
1120,418,259,1639,1357,47,1393,1302,1336,1306
1282,390,230,296,265,49,1397,344,154,1468
417,450,1641,523,1486,54,217,989,158,351
159,1153,195,422,198,56,1307,253,95,1663
65,546,1251,295,455,491,272,1552,1335,90
321,66,1667,260,1476,528,466,348,1052,1053,286,118,568,1145,378,507,638
67,1253,1061,1516,1103,1679,1138,1012,1173,1305,1116,1117
68,1640,233,493,401,1491,215,249,1275,319
1666,185,100,70,203,1613,1007,1365,1593,222
1057,1123,1604,1673,75,1329,1395,1140,1337,1147
515,196,1060,456,76,1328,530,220,1334,444,1660,1596
352,612,326,586,109,77,1551,597,1048,1438
453,1318,1671,495,335,1265,307,85,314,255
289,550,1036,1677,1519,1615,1457,1553,245,182,246,1464,88,156
97,194,1121,1638,359,457,143,1401,92,189
98,549,389,1130,302,1647,304,475,1405,543
482,102,1482,459,557,1166,1261,1169,1011,310,1404
992,994,1634,186,1323,428,108,1135,1402,1407
451,1034,1616,402,403,1044,1362,406,163,996,236,1133,110,1071,240,117,506
1124,1608,1132,204,111,529,339,1364,440,1150
1217,999,1096,1384,1066,1009,1555,1560,120,1215
1440,257,1249,1635,425,237,283,145,411,123
1280,385,1410,1569,261,1350,426,650,589,270,1487,148,1465
153,387,421,166,1159,648,1546,171,525,1327,1042,435,409
448,1320,361,394,1644,301,155,178,1113,539
608,229,1094,1000,1484,1326,176,1297,564,1270
192,197,1675,1361,1298,1554,341,408,483,1125,234,554,1643,239,1400,1661,1214
547,358,1479,199,652,205,1260,1645,368,338
577,1154,388,391,1099,1612,593,532,1561,218,606,997,1512,1266,566,1276,1151
384,513,322,1122,356,580,1474,1547,396,1006
1570,1219,998,1063,1033,1037,1005,1040,347,1502
1379,645,1518,1137,1143,662,1463,664,1339,1303,1021
1289,823,1199,816,1425,1426,820,822,1623,825
840,841,842,843,844,845,846,847,848,1290,1291,1427,1428,1452,1688
