0,1604,1093,510,583,1673,522,1331,1112,381,1470
1249,994,68,136,200,13,237,496,177,530,1393,1492,221,1663
768,769,771,772,773,776,777,1288,779,780,1420,782,783,784,1529,1682,402,1562,1186,1189,1191,1345,1622,1110,1240,1241,1242,1389,751,752,753,754,756,757,759,761,1530,764,765,766,767
3,516,394,139,140,166,422,42,178,179,1462,57,59,60,1597,193,1120,1252,1638,235,1394,116,503,1403
1153,69,7,1320,334,83,147,1307,1500,253,95
8,1036,1677,1553,1555,1560,156,550,1066,1457,182,1464,1215,1217,1096,1615,999,1384,1519,1009,373,246,245,124
449,649,9,458,1485,467,405,22,282,1567,1056,33,1568,1571,224,101,306,1458,1398
515,1671,10,16,401,25,410,411,30,417,162,1318,1324,305,307,312,186,187,319,1477,207,335,85,91,480,1121,97,1635,225,1248,1250,1258,1008,249
65,546,195,261,1639,1128,297,1640,11,141,1357,1459,372,1336,159
134,395,12,142,1552,145,18,19,279,281,155,301,1460,1594,317,446,89,491,366,1139,379,1397,244,250,123,1279
164,1511,1319,1038,431,463,1487,20,565,215,283,158
1664,389,70,1672,333,1042,220,94,1046,247,24,1334,444,1405,222
258,387,262,1159,648,1546,525,1295,409,26,153,421,1327,1330,435,184,185,1593,1466,1601,323,1603,330,1613,79,1365,1380,1381,1131,1007,1264,1265,122,1275
192,197,271,1298,341,408,93,31,483,554,1643,1263,1648,1400,313,1214
32,1409,478,1383,264,298,1355,50,274,1045,376,1662
1666,1411,135,34,36,1065,1322,53,439,442,1353,203,1359,342,1499,353,1636,100,490,1134,1396
512,521,1676,1037,1556,1566,37,425,1067,171,695,1465,189,1472,194,1475,1606,1351,711,73,1483,1614,337,212,601,989,1502,1118,357,488,236,495,1649,1147,1148,1661,127
1668,1669,646,1607,138,1610,534,1304,1049,986,990,287,228,1382,39,1010,308,1272,511
484,479,43,108,269,397,428,1135,1323,1461,150,1402,1407
1152,71,167,1321,1257,427,44,80,1333,55,380,1598
1505,1282,991,390,230,296,265,1644,49,344,154,1468,1247
416,1408,131,1092,1254,1510,268,461,464,562,52,1399,1306,1115,191
523,272,1440,295,1332,54,1335,450,455,1486,217,90,92,351,1251,1637,359,1641,1142,1401
321,66,1667,260,1476,528,466,348,1052,1053,286,118,568,1145,378,507,638
67,584,267,1550,1679,1173,1305,541,1117,548,1253,1061,1126,424,1444,1516
72,1161,1482,459,1166,1169,540,1439,482,102,487,1002,557,1261,1011,310,505,1404,254
1410,259,517,1302,1057,426,175,1329,1213,318,445,1350,1095,331,75,216,1501,99,1395,1140
1674,652,1044,543,419,292,549,1060,302,304,1328,1596,1602,196,199,1481,76,205,206,1356,1363,475,98,1127,363,241,242,1274,1660
645,1551,1043,662,1303,664,1048,1438,1463,1339,1478,586,77,988,1379,1518,1137,374,1143,636,1021
576,1216,704,708,1146,1352,457,1338,575,721,1491,1108,735,1184,420,1080,1337,698,1343
1443,1124,1157,1572,1608,204,1132,1358,111,339,1364,440,1150,1503
547,163,358,1479,1133,1645,240,1616,1362,403,117,406
1219,324,1033,144,1040,146,340,1557,347,477,1441,1442,1570,998,423,1063,1576,489,1005
544,1059,1001,1097,587,1515,1168,1296,1490,149,987,1565
1504,354,995,1670,551,329,1130,526,1647,243,343,151
256,1125,234,1675,239,1361,1554,1299,604,350
545,1058,1514,1163,1419,1578,559,1300,501,252,669,607
320,1573,293,327,553,524,556,1136,1617,468,538,1595,1471
675,1412,1062,1575,684,465,689,628,500,309,631,1496,1497,596,1309
384,513,322,1122,356,580,1474,1547,396,1006
1506,1156,677,1574,328,1386,656,369,1521,1149
1312,1283,1285,1064,1520,1073,1650,1267,1268,1079,1054,1055,1310,383
1281,386,1413,1549,399,1171,1047,1498,1051,993,1269,567,1273,1271,572,1277
1218,581,582,392,1129,1418,1548,499,502,1467
1344,1160,748,717,494,1106,1621,1527,728,539,701
1286,1182,1183,1313,1185,1314,1582,1071,696,697,1082,699,700,1081,703,705,706,1221,714,718,719,722,723,1109,1238,725,730,1371,733,737,738,742,743,745,1385,749,750,1651,1526
