0,1331,583,1673,522,381,510
368,1,338,1439
128,209,2,456,58,63
46,3,14,1255
81,137,4,471
113,106,5,157
336,69,325,6,121,231,415
11,7,38,1663
449,1458,306,1398,649,458,9
627,212,12,446
994,29,28,13,190
360,211,470,15
16,161,202,188
17,183,105,187,174
18,244,45,503
1598,1642,19,1606
51,20,181,438,280,139,141
248,210,133,277,21,40
467,1485,405,22
170,251,180,23
1405,389,1046,1672,24,333,94
25,27,214,57
184,26,1381,1295
225,89,44,30,1279
1298,93,350,31
32,1409,50,298
224,33,282,101
34,203,100,70
35,371,364,255
36,53,135,490,1322
1641,91,37,351
1610,228,308,39
160,41,129,62
393,42,74,165
108,43,428,269
80,1665,332,47
48,83,84,365,207
344,49,265,1247
1092,1399,1510,52
464,562,461,1254
450,1332,54,217,523,1486
177,55,71,1337
159,1153,422,1352,56,1324,95
168,59,172,221
65,463,60,1385
208,116,61,103
64,266,1035,362
528,321,66,260,638
67,1444,1173,1103
1649,68,1318,233,395,493
557,1011,487,72,505,1482,1261
73,409,75,102
419,196,206,76
400,275,77,597
529,130,515,78
1264,1265,1275,79
992,82,453,1038
114,107,290,86
1475,1500,87,1511
455,1251,359,90,92
96,377,115,432
97,194,1638,457,189,143
98,1602,549,1674,302
99,259,1302,331,445,1213,175
104,136,235,253
352,612,109,1303
402,451,1034,236,110,1071
339,1124,440,1503,204,111
112,616,1301,429
1616,1362,1645,1479
117,403,1133,406
568,378,1052,118
1418,629,582,119
120,373,1677,550
126,660,542,1519
1593,122,1330,1007
1121,145,123,411,237
289,1555,124,294
171,254,222,127
416,1408,131,1306,1115,268,191
291,132,285,316
372,357,134,167,379
1668,1669,1382,646,534,138,511
1552,140,1637,1566
1472,1460,1477,1319,1160,142,1487
144,146,1219,1063,477
179,147,173,1350
1296,987,1565,149
1402,1461,150,479
354,551,151,329,152
153,1603,435,421
154,1282,1644,991
361,178,539,155
186,164,158,370
480,162,213,410
240,547,163,358
417,444,205,166
169,195,349,366
176,1297,1326,1569
1096,1009,1457,999
245,182,246,219,300,1036
185,1546,1131,1613
192,197,341,408
200,193,514,199
1120,1556,198,1354,1307
249,401,215,319
1329,1395,1140,517,1095,216,318
593,218,1220,532
384,1493,247,250,220
226,1467,614,223
1474,227,356,430
1505,390,230,296,1468
232,436,276,1278
256,1554,234,1643,604,271
1361,554,483,239
1648,313,1675,1400
241,363,292,1481
1328,242,1660,1274
1504,243,526,343
1632,1514,1144,637
252,1509,1311,1631
257,1249,1635,425,283
1601,258,323,262,1466
576,546,491,261
264,274,1355,376
1061,1116,1117,454
1513,1516,1012,1550
424,1305,548,569
385,650,564,270
272,305,281,295,297,279,301
552,537,527,519
672,600,1075,686
679,1165,1070,1175,1177
592,273,1107,1181
1114,299,1406,278
595,311,345,1273,284,303
466,1667,348,286
1049,986,287,1607
320,293,327,553,1471
304,475,543,1127
307,1491,1671,314,495,335
689,675,309,1062
1169,482,310,459,1404
312,1570,1576,1557
1480,497,315,407
1040,1033,317,998
513,322,396,580
347,324,340,423
644,645,326,1463,586,1339,636
648,330,387,525
442,1499,334,1359
337,1067,1148,1403
1113,1393,1357,1462
1353,439,342,353
355,1396,1065,394,380,367
1013,374,1021,1518
404,375,1594,1659,492
596,631,1079,684,382
1073,665,677,639
611,634,659,1055
484,1407,1323,397,1135
488,512,412,601
501,1618,1580,1300
418,426,427,431
1106,420,452,678,1338,494
1064,685,1054,693
498,434,1019,1017,1387
690,691,653,1650
448,441,1597,1605
443,572,1413,502
465,1507,469,1369,1497,460,447
1573,468,524,556
478,1045,1662,1383
481,565,540,989
489,1442,1441,1005
506,530,652,996
1145,507,1476,1053
536,662,664,1478
1136,1617,538,1595
544,1001,1097,1059
545,1058,1163,1164,669,607
585,1419,559,561
579,581,1366,567
681,571,628,1581
1168,1490,587,1515
619,1122,1547,1102
674,1676,1634,1639
704,1184,708,698,1343
1108,742,699,701,1183
1232,1447,711,695,716,702
1344,737,745,733
728,705,1314,743
1185,722,696,697,700
749,1651,1621,1238
703,723,725,730,718,719
1345,776,777,1530,767
768,769,772,773,1389
1288,779,780,782
784,751,771,783
752,753,1682,754
1186,1562,1189,1191
756,757,1110,759
1240,761,1420,1241
1242,764,765,1622
760,770,778,758
1187,1188,1222,775
1083,762,763,1421
1529,755,781,766
1449,1190,774,1239
1048,1043,988,1143
1272,1304,1010,990
993,1218,1548,1047
1130,995,1670,1647
1561,1266,1099,997
1000,1094,1484,1270
1008,1042,1044,1037
1521,1386,1018,1414
1129,1051,1171,1549
1056,1568,1571,1567
1248,1057,1068,1101,1118
1363,1060,1596,1356
1217,1066,1553,1215
1112,1604,1093,1470
1299,1125,1214,1263
1138,1253,1126,1679
1608,1572,1132,1150
1666,1411,1636,1134
1137,1379,1438,1551
1440,1401,1142,1335
1443,1364,1157,1358
1159,1380,1365,1327
1250,1252,1257,1256,1321,1258,1166
1216,1336,1333,1334
1640,1459,1260,1661
1320,1392,1325,1262
1267,1308,1309,1310
1384,1560,1464,1615
1465,1483,1501,1502
1664,1609,1522,1614
