0,387,1422,1300,533,789,917,1048,1433,546,1570,1574,1324,686,1326,1583,306,310,313,698,449,451,1221,1099,1363,1365,348,1501,862,1502,224,1379,1253,1382,616,1009,243,1011,1147
384,1,514,1030,776,1547,653,1550,1041,1553,403,788,916,1686,1047,536,1687,925,1309,1310,552,937,554,684,430,1207,952,1591,572,1599,963,968,1611,717,1104,977,466,1495,728,1112,346,1122,1000,1129,1514,1003,1004,1133,111,1520,882,499,628,1269
418,7,1223,11,172,173,492,875,913,147,1491,603,93,1598
1093,391,8,871,1355,652,1261,494,1647,1616,1522,596,1652,350
256,1152,517,1285,9,906,270,1173,1053,798,420,1576,302,432,1458,693,188,960,323,1096,474,1374,608,101,373,888,634,1534
259,260,143,272,145,21,167,1322,951,1601,1219,68,838,463,467,85,91,479,480,1120,1649,1142,376,124,1279
1414,519,775,1545,1421,783,1171,22,662,408,790,1180,1564,1054,1182,1567,673,548,1317,808,555,1535,1328,1586,1078,1469,1471,581,969,1229,976,721,978,595,980,1108,1110,1234,856,1619,1626,865,1508,1259,1524,885,758,1021,127
1536,366,528,1594,1334,281,26,123,60,61
1671,1429,151,33,163,50,178,1470,575,1215,194,73,586,589,1487,217,90,1118,995,996,103,233,237,1134,1138,1653,1400,1403
1668,1670,136,544,34,1443,1071,956,1481,202,970,1615,349,1503,483,356,1642,1645,1008,119
902,903,1159,1424,1306,161,933,678,1446,1575,41,1454,53,1596,189,576,1609,212,1627,1257,749,1648,500,886,249,507,1407
1376,828,1094,1673,1578,1052,239,1040,49,149,1399,636,797,254,1439
1408,545,292,134,263,1126,905,1258,108,176,1552,274,51,1298,1460,1398,1565,510
353,1410,355,1123,1573,198,998,1511,1488,1170,52,568,1566
640,138,1419,1044,534,279,1405,1438,289,549,177,1459,55,319,1350,1353,1357,207,338,225,482,1121,100,1252,1505,1131,493,1393,1139,118,247,893
512,1546,1039,1168,1301,1176,1056,1313,1058,682,429,303,1199,954,187,1213,958,703,62,1217,1226,719,1116,607,1632,1515,1516,1266,117,631,120,1402,1277,1151
704,66,130,196,1282,359,1640,1610,459,397,1523,1141,1435,1308,1150
513,1273,399,1303,944,1332,1604,69,711,339,1493,342,345,218,352,993,997,614,999,110,1263,112,497,761,378
1024,1541,518,1542,1034,1548,1549,1562,1051,1069,1070,1584,1073,571,1084,1088,579,580,71,588,1102,1105,1107,1621,599,92,605,610,619,626,1658,1149,638,1155,1156,650,1162,658,1177,671,681,692,701,709,201,714,1230,720,725,726,731,1245,1246,735,226,227,738,741,232,745,750,753,1271,771,773,1288,780,273,793,800,1342,831,1343,833,326,327,867,374,386,1420,914,922,413,1447,938,946,947,950,439,1463,447,966,1478,979,469,1494,473,476,1507,498,1527,1529
1113,1442,395,76,1037,910,1593,927,185,892,381,222,191
1637,1062,967,1256,1677,78,1679,240,465,1362,309,629,250,1628
1504,99,611,676,454,135,1220,1539,79,1335,475,540,157
929,197,550,1225,461,1293,1327,1657,182,88,1401,988
1440,1664,450,265,331,431,400,1330,1331,887,1500,220,94,95
257,258,644,262,522,1423,1169,406,1302,1049,1441,557,559,1338,443,1479,1224,340,344,730,990,97,485,1381,1383,1644,1007,1145,1146
417,98,1059,1251,1571,1254,615,1127,649,523,300,1613,1265,1490,308,442
1444,261,102,293,1352,1033,1066,1385,1517,148,153,252,1375
1281,898,1154,388,396,1678,1685,1046,541,423,320,457,1103,1364,343,1248,1001,1006,1519,1137,1012,1270,1143,125
1635,1349,140,1486,1333,601,1404,253,318,159
288,321,1445,1095,1164,909,1518,146,501,633,1466,1467,1148,1214
1280,900,901,1540,1669,521,1161,150,294,1473,707,328,1359,593,1361,341,987,223,1249,241,1010
1411,1380,1606,807,1065,1674,748,206,1166,1264,1395,1045,152,316,445,1662
1672,524,1296,530,1560,416,1184,677,426,1194,689,1457,1474,1476,1612,1358,597,228,236,1276,511
385,1153,1027,646,1031,1297,1557,1561,815,304,1216,582,971,1485,462,851,1496,739,742,1384,234,1528
1633,1497,1582,1521,660,468,245,949,1465,1018,1117,702
645,392,267,1554,1299,1555,669,1183,932,1061,934,935,1063,1572,683,1205,1218,585,1227,1356,592,1489,1106,1109,986,347,989,1631,486,1128,1002,1005,1390,1654,1272,505
1600,706,1368,1316,774,1190,1163,1072,1233,594,691,659,755,915,1617,504,573,1311
