0,192,131,1636,1257,10,11,45,47,80,241,1298,1359,1363,470,55,26,381
130,136,9,650,1293,271,1051,927,934,423,552,935,1062,1458,309,572,449,326,71,1227,1485,596,218,1502,227,1507,1637,1137,1143
1302,281,1306,1307,1659,29,417,546,303,305,1597,319,1472,837,1350,1223,336,231,233,1641,492,366,367,368,1392,371,375,1403
416,33,1660,260,1476,391,1225,522,1358,851,1334,1623,440,1276,1053
1540,1542,1547,1549,1039,529,1041,1553,1557,1047,536,1048,1559,551,1577,43,1070,562,566,567,1591,1084,1085,1600,579,1097,1611,1102,1105,595,597,1110,599,606,610,619,1646,623,1651,631,1656,1156,1168,657,1171,1172,1177,666,672,1191,690,691,692,694,184,700,705,712,714,1231,725,732,733,223,224,226,745,238,752,1281,770,771,1284,775,1288,777,780,783,273,794,284,288,816,817,1338,315,1341,831,1346,1360,370,899,1412,396,1420,1421,403,920,925,414,926,928,937,938,429,434,1461,1469,447,457,459,465,469,476,1510,1512,499,1017,1019
1280,524,269,908,146,1170,49,306,1330,564,1335,1474,1094,330,1226,1482,356,1272,1275
384,513,641,898,773,901,519,776,1034,1529,1678,911,1169,914,676,1067,430,1328,1073,53,701,1599,1217,1349,582,201,78,337,1494,346,1626,1503,993,618,1004,494,111,753,1522,1652,1269,632,1273
905,523,1300,150,1305,154,159,161,801,164,176,308,60,1596,197,711,1224,1610,463,348,1373,222,110,511
392,1162,1422,915,789,1277,542,1316,187,1471,320,193,66,576,1216,1106,1109,986,1116,990,228,1508,112,1401,508,1149
1157,649,1161,782,916,1183,1567,293,553,1072,1207,1080,67,1475,716,1230,592,1619,730,616,758,1018,636
1152,257,258,163,68,259,1666,265,1321,1419,77,1357,1008,1466,435,244,250,445
388,1672,1423,406,151,662,1439,1058,677,1066,686,313,70,1493,607,1382,1000,1645,1007,1655
98,1251,1352,73,1640,395,1134,1296,243,340,820,342,886,1593,283
1379,549,998,1511,1573,1609,1643,589,749,1647,1648,401,1425,1331,1459,565,343,92
1527,900,906,1166,1309,797,1444,1575,554,684,1071,569,443,1595,1470,1348,1356,341,1374,739,997,102,1384,489,234,362,1131,1399,120,1402
1665,266,397,781,530,404,409,285,295,181,1594,317,1598,1114,351,1634,748,1132,1644,113,1394,1406
512,640,581,1414,1445,1194,683,1546,718,1582,593,1524,117,1173,1497,698,252,1438
1601,387,1092,1219,134,1031,1381,331,1040,1148,118,1049,828,253,191
903,1552,1565,678,1326,321,1218,1220,1481,1487,350,1504,1126,999,1513,1002,1130,1012,888,122,1151
256,1154,1411,1668,1033,143,1303,541,289,1313,1569,1061,584,1613,1490,1365,988,352,355,742,615,1135,1136,1009,1263,1011,378,254
1667,521,1675,399,1150,1052,1310,287,1056,1574,167,168,172,177,178,182,185,186,188,1088,1604,1221,345,1125,1129,1642,1003,1515,638
1408,1159,394,1147,1038,656,1297,1042,277,669,798,1054,1057,1319,173,1325,179,438,312,314,446,448,834,325,456,204,721,1364,1492,216,859,220,221,478,480,225,481,865,1252,360,490,1262,495,1521,242,1397,249,379,1405,1279
1376,1442,1570,485,486,1093,1285,458,491,1037,910,1390,496,1010,501,505,1339,189
1153,195,196,1669,294,1608,791,1516,304,913,498,1299,1523,407
1539,1292,275,659,1685,921,538,923,793,282,924,922,1182,1454,1586,702,710,1480,1107,723,219,1499,229,613,622,627,373,1144
917,1308,1443,1317,426,302,1332,575,332,1612,1616,1361,1362,1122,614,359,235,237,239,240,629,247
1024,772,645,1541,1163,1164,1677,1550,1554,1555,788,533,918,919,408,1176,1560,1311,1184,673,929,931,932,1571,936,1078,1208,573,703,1343,323,327,462,1617,594,1108,1237,856,1368,474,735,1631,1632,1259,1519,885,1013,504,892,637
1536,354,547,1060,358,871,1096,1001,1670,652,815,497,1140,1046,1142,1118,1663
389,390,1160,1528,400,1433,539,1446,1447,1327,1583,1205,707,1479,1099,1103,1112,357,365,372,503,376,380
1505,418,419,420,706,933,1068,493,1548,719,1580,433,755,1654,535,412,862
1556,1566,1576,1602,1605,1615,1115,1120,1121,1635,1123,1124,1638,1127,1128,1639,1649,1138,1139,1141,1653,1145,1146,1661,1662,1671,1674,1676,1215,1248,1249,1250,1253,1254,1258,1260,1261,1264,1265,1274,1282,1295,1301,1318,1320,1322,1323,1324,1333,1336,1351,1353,1355,1380,1383,1385,1393,1395,1396,1398,1400,1404,1407,1409,1410,1424,1429,1440,1449,1457,1460,1462,1465,1467,1473,1477,1483,1486,1488,1489,1491,1500,1518,1525,1534
