0,1440,164,261,422,295,1482,491,1038,207,431,82,83,375,506,445,190
1,769,1285,1415,1160,1288,782,1680,1557,1430,1304,539,1180,413,547,1059,423,682,813,430,1069,562,1587,692,437,693,1588,184,696,827,188,573,1088,1347,710,714,845,1102,1104,1489,1110,473,218,603,860,861,734,862,480,863,866,867,486,745,494,1520,1137,370,754,1014,1654,632,1534
1120,1665,7,172,401,274,1300,1492,1336,1500
130,322,260,70,1479,202,1261,239,18,85,406,247,1334,254,1503
1410,1666,418,546,38,424,1065,171,173,47,442,1602,1477,71,456,213,1113,220,604,354,1250,230,104,242,371,501,511
263,1033,138,525,526,400,1169,1429,411,297,300,50,52,564,565,1470,319,200,1609,205,470,88,859,221,1504,994,1384,233,1130,1640,492,1260,240,1139,1274,1275
199,1607,203,683,1515,1008,786,51,1042,1138,569,349,126
1153,132,167,1319,425,74,496,84,1659,1597,446
1664,131,262,522,1402,801,421,296,1321,298,1324,432,314,1605,334,79,1491,93,479,1121,360,365,368,1393,1396,503,250,1405
1166,1170,1683,408,1305,287,292,306,568,195,452,198,1352,857,91,222,608,864,1379,1125,1513,234,1132,493,1266,1524,1141
774,1286,1182,288,1190,1068,1469,1343,703,1484,1101,723,468,858,1372,735,865,362,504
1221,8,1576,716,1518,1103,656,144,1106,1457,474,1595
1248,159,1123,9,1115,269,1487,1458,310,1465,1307,95
1350,1094,1161,10,204,342,1046,24,987,1057,358,487,1447,489,1574,246,122,1150
1408,394,139,1419,11,145,147,279,283,155,1566,1320,40,428,1335,186,1466,193,212,1638,1511,1145
1472,1601,100,328,1258,12,397,15,1460,1333,281
1536,1152,162,803,484,453,90,1353,108,1357,1134,338,1395,1045,1112,1594,123,540
257,1044,149,26,158,161,1323,302,1326,1663,1331,196,68,1604,461,217,1497,355,1649,241,1398,376,379,124,1407
1443,1667,1157,1127,457,267,1613,271,440,1117,510,31
482,419,674,37,485,1383,330,1580,749,1007,1647,719,1490,1330,1011,373,636
517,524,1424,1425,32,1441,1569,807,304,316,1092,455,844,1488,606,356,1381,996,615,1639,998,1400,249,381
256,1154,646,528,1297,286,33,34,676,439,475,351,1247,1505,97,1126,616,236,1644,1522,1660
513,1412,1034,523,1675,529,284,1052,544,163,1062,39,309,567,189,451,1608,332,77,1615,466,1122,498,638
1475,584,1612,333,1040,1361,989,1053,483,1060,677,678,1575,41,1265,307,1523,191
1216,1346,1284,773,1478,772,1549,1039,1168,1105,1107,1108,627,856
1056,1251,293,1446,536,1611,780,1519,150,1303,1048,794,701
352,224,1218,1414,1677,783,597,665,1502,223
653,655,790,1047,1177,1562,1311,811,687,816,561,443,579,324,1222,459,1618,1109,725,469,739,1509,619,620,111,623,628,374,1016,1017
993,1637,326,776,1480,1003,429,657,435,507,1021,1310,831
514,1529,1679,1051,43,686,1071,1073,1461,1341,201,1496,227,1129,633,500,1273,251,508
1217,388,581,1124,1514,1642,815,1648,1308,1215
192,225,1282,259,1636,1546,1135,80,49,176,1009,1363,1499,991
1670,1678,1295,1554,660,1302,407,1306,53,1471,320,583,210,611,357,618,1643,1645,1263,1399,505,1277
289,450,390,1001,1486,1423,305,1364,343,312,60,94
258,66,587,395,1355,1616,339,1428,789,1565,477,1439,102,118,1464,1593,1661,1662
389,1671,392,650,270,151,187,444,1596,321,1610,331,76,589,206,1362,1493,995,497,380
1280,641,1413,136,652,402,403,791,1200,580,596,1494,1366,228,1133,1652,629,631,378,1019,1149
640,265,1676,143,1552,1298,1438,1449,1459,820,1606,340,216,1635,1131,372,1401,1404,1279
1442,323,1380,98,1674,1296,177,337,535,1147,1501
387,838,1672,1356,1422,272,341,416,99,1000,1578,237,1264,689,1010,243,308,1653
512,449,1570,549,837,1095,197,582,554,1257,1485,467,1365,1142,153,350,1183
185,1668,645,1476,101,1093,1481,586,1253,748,1036,112,1299,117,182,120,1049,1118
986,1254,1146,1512,1673,1037,1389,1583,1012,1143,1272,282
1474,1223,1063,462,1327,1136,1140,534,344,154,1467,1148,1278
1024,1027,637,1159,1289,1162,1163,1164,1421,649,787,1555,793,412,1054,798,679,1192,1463,695,828,1213,702,1099,593,1116,733,1631,1632,1013,245,1276,509
1184,1219,999,555,1005,557,1617,1173,1561,1338,347,1214,575
997,294,327,1358,1359,1553,698,1339,1151,607
