0,1470,510
1,1260
96,2
1472,3
169,4
113,5,183
81,6,231
7,431
8,1009
9,449,1398
200,10,312
11,565,38
372,12,357
393,13
1278,14
250,15
16,25
17,165
18,244
19,87
1256,20
40,21
1485,22
210,23
24,1672
26,1295
104,57,27
28,61,103
994,29
1258,1397,30
350,31
1056,33
34,100,1134
35,453,470
1322,36,53
418,37
990,39
41,62
1257,44
45,1279
170,1659,46
1336,47
48,180,157
49,991,1247
50,1355
51,291,139
52,268
217,54
1321,55,71
56,1153
209,58,106
59,1403
60,134
64,436
65,1642
466,66
67,1253,1103
68,1318
69,1605
70,1042,222
73,1337
74,133
1057,75,1501
241,76
586,77
1609,78
323,79,1275
80,380
992,82
83,365
84,207
1640,171,85
107,86
88,1217
89,164
90,1335
576,91
1440,92,455
1643,93
1405,94,389
1352,95
97,143
98,475,1674
1161,540,102
105,290
108,269
644,109,1143
1034,110
1572,111
112,997,1151
114,115
116,349
1362,117
1053,118
1171,119
120,1066
121,137
648,122,387
145,123,237
124,1036
1266,125
1457,126
1385,1147,127
128,336,325
160,129
529,130
562,131
281,132,279
490,135
136,1160
138,1668
448,140
316,141
142,1406
144,146,477
147,1252,367
1297,148
1515,149
1130,151
152,1250
153,1593
178,155
1560,156
158,1511
187,159
161,188
162,213,410
240,163
307,166,495
1152,167
168,394,360
172,516,334
179,173
276,174
176,1569
177,379
1392,181,1262
185,1327
480,186
194,189
190,1255
416,1408,191
192,197
193,417
195,1351
242,196
1307,198
1044,199
202,211,364
1666,203
204,1124
652,205
1481,206
208,371
1128,212,989
214,366
1649,215
216,1140
218,1276
219,1215
220,1334
1113,221
225,503
227,1678
650,229,1094
1282,230
233,493
256,234
1320,235,285
236,1071
1051,238
1125,239
243,1647
245,1519
1664,247
249,401
251,404
1578,252,501
1492,253
254,1439
1325,255
425,283,257
1264,258
1667,260
1465,261,1487
1601,262
1273,263
296,265
266,299,278
267,1117
1554,271
272,1637,295
273,1107
274,1662
1114,277
280,438
282,1571
1052,286
1010,287
288,615
1096,289
292,1596
320,293
1553,294
1120,297
298,1383
300,550
301,317
304,302
993,303
305,1123
1458,306
986,308
309,1062
482,1404,310
313,1214
314,1491
1329,517,318
395,319
321,507,638
384,322
664,326
1573,327
1504,329
330,1613
331,1302
332,1606
333,1046
335,1671
337,1148
368,338
1608,339
1040,340
1675,341
342,1359
1670,343
344,1644
346,1467
347,1557
1476,348
1332,351
352,1438
353,1499,1065
355,427
1611,356
547,358
1251,359
361,1319
362,1035
369,1574
370,1459
373,1615
492,375
376,1045
432,377
528,378
1331,381
385,1270
1154,388
1505,390
1099,391
392,1269
396,1493
1323,397
400,536
402,451
403,1479
649,405
1616,406
1480,407
408,1299
409,1603
1121,411
412,1068
1069,413
415,471
1363,419
420,678
1365,421
1324,422
489,423
424,1513
426,1350,1410
429,1469
1122,430
433,1230
435,1159
440,1364
456,441
442,1396
443,629
444,1661
445,1213
1500,446
1641,450
1162,1141,454
457,1638
458,467
1169,459
1092,461
1104,462
1566,463
464,1254
465,1412
538,468
473,1106
474,1146
1409,478
1402,479
481,1477
1361,483
484,1135,1407
491,1475
496,674
497,1474
498,1054,1055
1129,499
504,1524
505,1011,1261
506,996
1218,508
640,509
1669,646,511
512,1483
530,515
521,1037,1502
522,1093
523,1486
524,556
1131,525
995,526
1058,533
1610,534
1163,535
539,1597
541,1679
1677,542
1602,543
544,1059
545,1559
1552,546,1639
548,1126
549,1127
552,1285
554,1263
1482,557
1419,559,1311
560,1488
564,1326
1512,566
1281,567
568,1145
570,1167
1018,571,605
1338,575
579,1047
581,1495
1604,583
584,1173
1490,587
1000,589
592,1070
593,1220
1360,595
1298,604
1301,606
1580,607
608,1280
609,1522
610,1231
1339,612
613,1367
1277,614
616,1561
619,1006
1284,623
627,1556
689,628
630,1446
632,1004
1379,636
1164,637
1013,645
653,677
656,665
659,1149
1555,660
1021,662
676,1101
695,711
704,707
705,1221
706,714,750
1184,708
1313,709
716,1447
1619,719
1080,727
730,1182
732,1583
733,1109
772,751
773,782
781,1190
787,795,1192
788,789,1422
792,1423
793,1563
794,798
797,1223
801,807
1424,803
1196,813,1197
1534,815
1425,820
1289,823
833,828
834,829
1536,838
1204,853
1624,870
882,1030,879
1090,884
885,886,1031
1244,1453
889,890,883
888,1205
1089,887
1656,1206
987,1565
988,1463
1576,998
1384,999
1002,1166
1441,1005
1330,1007
1008,1460
1012,1516
1473,1019,1521
1586,1027
1033,1570
1594,1038
1048,1303
1049,1607
1328,1060
1444,1061
1219,1063
1395,1095
1547,1102
1112,1673
1306,1115
1116,1550
1248,1393,1118
1132,1358
1133,1645
1136,1617
1137,1518
1305,1138
1394,1139
1401,1142
1150,1503
1443,1157
1168,1296
1193,1346
1249,1635
1514,1259
1265,1381
1272,1382
1274,1660
1333,1598
1357,1462
1546,1380
1510,1399
1400,1648
1411,1636
1507,1414
1489,1415
1595,1471
1634,1676
