0,1470,1093,1604,583,1673,522,1331,1112,381,510
1,2,3,4,6,7,10,11,1035,13,15,16,17,19,20,21,23,24,25,27,34,35,36,37,38,41,42,43,44,47,48,51,53,54,55,57,58,59,60,61,62,63,64,68,69,70,71,72,73,74,75,78,80,81,82,84,85,86,87,89,90,91,92,93,94,95,96,98,99,100,102,105,106,107,108,110,113,114,115,116,627,127,128,129,130,1663,1665,135,140,144,146,155,160,165,178,190,203,205,209,211,213,215,216,217,221,222,225,1255,233,234,235,236,250,254,255,256,257,1278,259,261,266,269,271,272,278,283,290,295,299,302,304,307,310,312,314,318,319,342,350,351,353,357,359,364,370,372,377,393,426,428,431,432,436,456,994
5,133,1038,404,1556,1307,157,40,169,170,180,181,438,183,188,195,325,198,453,1605,1354,336,210,83,1492,214,992,231,365,496,375,251,1406
8,1036,1677,1553,1170,1555,660,1560,156,542,289,294,550,1066,300,1457,182,1464,1215,1217,1096,1615,88,219,999,1384,1519,1009,245,246,373,120,124,126
9,649,405,22,282,1567,1056,33,1568,1571,306,1458,449,458,1485,467,224,101,1398
134,1675,12,143,145,1299,408,158,162,164,167,554,172,175,177,313,186,189,1214,192,65,193,194,197,199,200,1361,341,97,483,1125,239,1263,1648,1400,123
232,46,174,14,207,208,248,187,28,29
1504,354,995,1670,551,329,1130,45,526,1647,18,243,343,150,151,152,30
1601,258,323,1381,262,79,1264,1265,1295,1466,184,26,1275
163,547,358,1479,1133,1645,240,1616,1362,403,117,406,31
32,1409,1383,264,298,1355,1662,50,274,1045,376,478
1668,1669,646,138,534,1304,1049,287,39,308,1607,1610,986,990,228,1382,1010,1272,511
1505,1247,1282,230,390,296,265,1644,49,344,154,1468,991
416,1408,131,1092,1254,1510,268,461,464,562,52,1399,1306,1115,191
1153,515,1417,394,529,530,279,281,412,422,1319,1320,297,427,1067,301,1068,1324,305,1334,56,1337,444,317,1216,1472,1606,1609,332,337,338,470,601,989,1120,355,1123,1252,360,361,488,1128,1256,1260,1262,1385,368,1147,1148,1661
321,66,1667,260,1476,638,1052,528,466,118,568,1145,378,507,348,1053,286
1162,267,1550,1679,1173,1305,541,548,1061,1444,424,569,67,454,584,1103,603,1116,1117,1253,1126,1513,1516,1138,1012,1141
1660,419,196,292,1060,1481,363,76,1356,206,1328,241,242,1363,1274,1596
644,645,1551,400,275,1043,662,1303,664,536,1048,1438,1463,1339,326,1478,586,77,597,988,352,1379,612,109,1518,1137,1013,374,1143,636,1021
1160,137,139,1676,141,142,280,539,285,415,159,161,291,441,316,1597,448,1351,1352,202,471,349,1634,103,104,1639,1392,626,121,253
1443,1124,1157,1572,1608,204,1132,1358,111,339,1364,440,1150,1503
1154,388,391,532,1301,1561,288,429,566,1469,577,1220,1099,1612,593,218,606,997,615,616,1512,112,624,1266,1276,125,1151
1281,386,1284,1273,1413,263,392,1418,1548,1549,399,1171,663,1047,1051,284,303,567,311,443,572,1467,1600,1218,579,581,582,1360,595,1366,1495,345,346,1498,223,993,226,614,1129,1003,1004,238,623,499,629,502,119,632,1269,1271,508,1277,1022
387,1159,648,1546,525,409,153,421,1327,1330,435,185,1593,1603,330,1613,1365,1380,1131,1007,122
132,166,136,168,171,173,367,147,179,212,220
608,385,1280,1569,229,1094,1000,650,1484,589,270,1326,176,1297,148,564,1270
544,1059,1001,1097,587,1515,1168,1296,1490,149,987,1565
514,519,527,1041,1558,537,1050,1054,1055,1062,1574,552,1064,1575,555,1069,558,1070,1581,1073,1074,563,1075,1078,1079,570,571,574,1599,578,1098,588,590,592,594,1107,596,598,599,600,602,605,1119,610,611,617,618,620,621,1646,1650,628,631,634,1149,639,641,642,643,1156,647,651,653,654,655,656,657,658,659,1165,661,1167,1172,1174,665,666,667,668,1175,670,671,672,673,1177,675,1179,677,1181,679,680,681,682,684,685,686,687,688,689,690,691,692,693,201,1231,1267,1268,1283,1285,1680,1681,273,1308,1309,1310,1312,1178,1180,309,1340,1341,328,1368,1369,1370,1386,1387,369,382,383,1412,1414,1415,398,413,434,437,447,1473,460,465,1489,469,1494,472,1496,1497,476,1506,1507,1508,486,1517,1520,1521,498,1523,500,1525,1014,1015,1017,1018,1019,1020,1023
384,513,1547,396,1678,407,430,315,322,1474,580,1480,1611,1102,1493,1122,227,356,619,1006,497,1016
640,509,1163,1164,1419,1039,1300,533,535,1559,669,414,1311,545,1058,1445,1577,1578,1580,559,561,1076,1077,585,1618,607,1631,1632,1509,1514,1259,237,244,501,247,1144,249,635,252,637
674,362,492,1325,366,371,276,277,1594,1114,1659
320,293,1573,327,553,331,524,333,334,335,556,1136,1617,468,538,1595,1471
1441,1442,1570,324,998,423,1576,489,1033,1005,1040,340,1557,347
417,418,420,389,425,395,397,401,402,411,410,379,380
1155,518,520,1416,1176,1446,683,1579,560,433,1072,462,591,1104,1105,1230,1488,1367,485,613,622,625,1524,630,504,633
512,516,517,521,1034,523,1037,1552,1042,531,1044,1554,1046,540,1566,543,1057,546,549,1063,1065,557,1071,565,573,1598,575,576,1602,1095,1101,1614,1106,1113,604,1118,609,1121,1635,1636,1637,1638,1127,1640,1641,1642,1643,1134,1135,1649,1139,1140,1142,1146,1152,1664,1666,1158,1671,1672,1161,1674,652,1166,1169,676,678,1213,1219,1248,1249,1250,1251,1257,1258,1261,1279,1298,1302,1318,1321,1322,1323,1329,1332,1333,1335,1336,1338,1350,1353,1357,1359,1393,1394,1395,1396,1397,1401,1402,1403,1404,1405,1407,1410,1411,1439,1440,1459,1460,1461,1462,439,1465,442,445,446,450,451,452,1475,1477,455,457,1482,459,1483,1486,463,1487,1491,473,474,475,1499,477,1500,479,480,481,482,1501,484,996,1502,487,1511,490,491,1002,493,494,495,1008,1522,1011,503,505,506
