0,1474,1223,296,1063,1327,1136,1140,344,154,1467
1,130,322,513,1479,1608,202,462,85,406,1503,1261,239,1334,247,184,188
1029,1030,1548,275,1431,1432,1314,1450,560,705,835,588,727,599,868,488,878,879,880,881,882,757,1655,1659
1409,132,140,268,1307,168,45,431,1336,441,446,318,200,1609,336,471,1120,353,481,503
3,7,781,277,280,664,410,167,172,436,57,1597,1603,74,1114,231,365,367,1392,116,1397,1403,1406
65,385,9,786,1429,1495,1384,1640,683,1008,1138,51,499,1458,1270,569,126
1152,1638,328,394,11,12,1419,147,212,1045,1145,1594,283
260,1674,525,143,1296,18,1298,1042,411,1442,426,298,1324,177,50,1332,565,1470,323,1352,340,215,91,1635,1380,1379,1131,372
608,1666,71,295,297,492,19,1139,470,1500
1153,38,1511,40,1320,139,428,79,145,20,1402,254
257,390,1423,26,289,1326,305,1331,312,60,450,196,68,1486,1364,343,217,1497,94,1001,1398,124
1602,1477,334,400,88,27,1249,418,421,359,105,425,427,1393,179,1396,317
1667,1040,1053,31,1060,677,678,307,440,191,584,457,1612,1613,333,1361,483,1127,1265,1523
1441,1569,1092,356,996,455,998,1639,1381,1424,1488,1400,249,316,606
33,34,1505,1154,1126,1644,1297,1522,1660,286,1247
1443,1475,1157,1575,41,267,271,989,1117,510
1282,259,1546,149,161,176,49,192,1604,461,80,1363,1499,991,225,1636,1135,1649,241,1009,379
1411,133,409,92,417,1634,1318,170,174,1262,1394,244,181,54,1462,56,59
1669,521,399,146,662,797,669,1313,1572,1061,1445,1444,1194,1199,1328,1337,704,458,335,721,1623,732,990,1259,1004,1006,1525,1144,252
131,138,1044,158,543,801,1323,300,302,1663,1473,70,222,355,1515,491,240,376,1405,1407
1504,1351,73,1641,1483,1487,1169,1335,1465,1274
389,1671,392,650,1166,270,1170,151,187,444,1596,321,195,1610,331,76,589,206,1362,1493,995,497,380
1664,1605,261,262,1038,207,82,1491,1566,479,1440,1123,164,1329,445,190
1408,1472,100,453,90,1353,1258,108,1357,1395,1460,279,1112,1466,123
387,838,1672,1356,1422,272,341,416,99,1000,1578,237,1264,689,1010,243,308,1653
1668,1476,645,1093,1481,586,1036,1299,1049,1118,101,1253,748,112,117,182,120,185
1600,1573,648,553,1582,464,1072,1521,1367,1080,127
134,454,1128,1033,1449,1067,1482,1676,622,337,1459,1141,216,1401,1147
352,1216,1218,1251,1414,1446,1611,780,1168,1105,597,150,1048,1502
512,449,837,197,582,1095,1485,467,1365,153,350,1183,1570,549,1257,554,1142
1024,391,649,1163,1164,1421,787,659,1555,793,412,798,1192,695,823,1463,702,1099,593,1116,1631,1632,245
1184,294,557,1358,1005,1359,1617,347,607,698,1339,1151,575
1220,1096,1547,1550,1560,1176,988,541,1309,1567,545,1058,1571,1508,550,1382,1066,684,313
1219,997,327,999,555,1553,1173,1561,1338,1214
1217,1124,581,388,1514,1642,815,1648,1308,1215
1670,1471,1643,1678,1295,1263,1554,1302,407,1306,1277,1399
993,776,1480,1003,429,1071,1679,1073,435,1273,508,1021,1310
