0,1409,450,259,1411,262,1350,455,1351,525,1486,79,212,102,491,236,1260,1393,1459
518,8,649,267,524,144,1040,1297,1300,155,417,545,423,1063,1067,1457,1473,66,1483,1488,337,210,596,91,1248,99,1251,101,485,1511,1519,497,1525
257,134,807,73,297,1676,14,1614,1009,18,310,1405,319
513,1062,552,43,561,577,588,1102,1108,602,610,617,624,1137,632,1144,634,643,657,671,1186,1195,1196,1197,1198,698,702,705,1221,714,1231,726,1240,1241,218,735,229,741,743,745,758,1288,780,800,802,804,805,806,809,810,811,812,813,815,309,1341,1343,1347,332,1370,412,1461,452,468,1494,1496,1507,1509,488,1513,1517,498,500,502,1526,1533,1534
1634,1255,1639,781,1038,431,213,664,57,1500,95
1472,801,135,361,587,400,401,1424,1044,565,1460,123,61,222
1026,782,783,1174,808,1068,814,560,1222,460,717,1101,1230,1233,725,1110,1367,601,609,1535
1408,3,132,516,1605,200,12,1115,1440,355,1252,295,365,1139,1594,59,446
1474,644,390,9,1296,1363,31,98,1318,1065,1644,241,1458,308,1398,439,312,1407
1092,357,10,463,1490,372,373,24,153,122,475,1404
1441,37,1061,1093,517,1033,1610,11,1265,340,662,1402,987,1660
1666,1410,1154,648,138,1674,268,397,15,1046,1049,154,26,36,1322,426,171,45,47,177,1462,186,1596,60,445,711,71,457,76,1121,353,1636,484,1257,1134,249,1662,511
1145,1282,1166,149,22,544,161,52,54,1467,321,1475,1607,1353,1355,1358,721,1495,1112,216,1501,350,606,1380,1128,233,1007,1395,1272,1401,254
1060,645,1668,1669,264,650,1677,465,1468,1214
33,1670,1642,1034,1612,529,150,567,506,188,1503
483,1125,424,1066,1515,748,1645,543,1138,313,604,381,287
1312,1506,647,1162,670,1549,1070,527,655,569,755,1014,790,1177,794,1182,703
672,1313,1156,1124,1191,519,1006,1423,1107,1652,1493,791,348,1023
673,739,775,42,110,1551,1360,111,238,1078,1528,1149,798
1025,1346,579,732,681,447,363,1581,685,1421,628,469,727,761,1498,251,572,799
224,162,356,549,1512,1001,298,1672,1518,49,1553,566,1306,1565
131,387,263,269,143,1169,418,305,178,50,564,442,191,193,75,1357,1487,94,235,1131,1008,1649,1396,1142,247
1184,1217,1218,605,999,1608,1096,1160,204,1520,1328,1043,53,539,1117,1311
1161,1168,403,1303,1053,1572,550,429,689,1339,1479,1099,203,1103,593,341,219,352,487,1386,1004,120,633,510
1443,1412,582,136,1609,1678,1071,1523,1524,989,607
1641,427,108,496,1552,1492,470,56,317,93,1279
67,1571,1444,1253,1005,1550,494,239,467,1464,1595
192,546,408,1478,1606,554,459,1613,1106,660,1400,665
1216,1183,535,1414,1126,1574,245,534,1463,1143,1273,1116,1054,1567
1280,395,1037,270,1554,1299,1302,1570,1578,557,1326,1329,318,1603,68,1094,1095,597,1499,990,351,998,1132,1261,1011,1399,1150,127
640,185,100,451,1382,166,1379,1675,1679,528,501,1048,1497,540
97,385,389,70,584,1481,1352,302,1648,530,182,342,1270,1278
1164,1422,787,789,1560,676,1573,1192,1338,575,326,583,719,1361,730,1002,109,1522,1013,1146
421,1638,1258,139,140,274,1042,1336,92,1566,159
512,646,265,1047,282,411,289,1569,551,1576,1330,1215,324,330,1615,339,489,1135,112,118
1281,993,1122,614,1415,521,1133,508,1680,1171,1267,1268,407,1529,1051,1276,1277
1283,742,1575,1418,1611,620,619,1521,273,595,402,119,697,474,571,1308,733,1439
514,201,1516,656,1681,1266,1015,1364,1271,1310
706,1673,1097,1356,1485,466,1365,1052,156,611,997,1446,1000,234,252,1527,1147,1148
1505,1442,1383,328,458,331,1010,1331,1556,146,499,1021
416,1123,1381,1449,1482,1546,176,1140,1337,223
608,1601,163,1059,1477,198,1419,1324,461,147,1332,1305
1249,1476,678,294,683,589,335,1359,307,1334,151,444,542
256,1058,388,454,1384,300,272,1555,1141,701
197,1447,1647,306,242,1012,344,1593,1275,1118,1247
322,1602,1254,358,1640,1036,1362,435,343,217,415
771,1155,1163,399,1039,275,659,533,1172,1557,537,1561,797,286,1438,288,1445,1194,559,690,573,1469,585,718,464,1109,986,988,1631,1632,612,1129,618,1259,622,750,1136,504
386,1413,1285,391,392,776,1159,396,532,1176,284,430,693,704,1480,1617,345,1502,1637,1003,1263,629,638
576,1219,1604,1667,1547,1484,1295,1170,1173,477,1057,419,1335,568,1274,443
