0,1604,1093,510,583,1673,522,1331,1112,381,1470
1543,1544,1686,939,940,941,942,944,945,947,948,949,950,1592,1209,952,953,954,955,957,958,959,960,1228,1229,1629,1378,1658
3,136,13,207,16,217,475,161,994,355,167,1321,427,47,1395,56,380,190
5,1035,277,27,29,415,290,40,170,1325,174,48,432,436,438,325,336,471,103,1255,105
481,357,38,7,1128,1477,11,12,431,212,372,565,1500,446
1671,200,10,335,18,1491,152,225,1250,45,495,307,244,503,312,314,1279
516,334,15,470,1113,221,30,1256,59,1258,172,1394,1139,1397,250,1403
448,1472,140,1262,142,178,19,116,87,155,316
1152,1153,394,1038,20,281,422,166,1320,1319,301,179,54,57,1597,317,69,455,1487,80,83,95,1252,235,366
1664,1666,1411,389,1672,203,333,1046,24,94,34,100,1636,1134,247,1405
453,456,1353,202,332,338,25,220,349,543,104,299,368,51,1396,506,1663
1601,258,323,26,1381,262,79,1264,1265,1295,184,1466,1275
256,234,1643,271,1298,1554,604,93,350,31
132,393,208,214,279,92,285,1120,35,359,168,360,365,1460,375,1594
36,70,135,1640,490,171,1322,1042,85,53,222
257,1249,1635,164,425,1257,44,283,177,1333,89,379,1598
416,1408,131,1092,1254,1510,268,461,464,562,52,1399,1306,1115,191
1248,193,417,1637,134,295,1511,1357,272,1393,1462,158,60,1118
321,66,1667,260,1476,528,466,348,1052,1053,286,118,568,1145,378,507,638
67,584,267,1550,1679,1305,1116,541,1117,1444,1253,548,1061,424,1516,1138
195,71,1676,141,90,159,1639,297,1641,557,1329,310,1142,1336,1401,1404,318
1057,1410,1123,1350,73,426,75,305,1337,1501
130,515,199,1609,652,205,78,529,530,1044
1634,231,139,492,1392,84,181,280,1659,253,1406
194,457,397,143,145,411,97,1121,484,1638,1323,237,1135,123,189,1407
1443,1124,1157,1572,1608,204,1132,1358,111,339,1364,440,1150,1503
577,1154,1220,391,1099,1612,593,1301,1561,606,997,1512,112,1266,1276,1469,1151
547,163,358,1479,1133,1645,240,1616,1362,403,117,406
451,1352,1034,1674,1482,1359,402,342,1251,996,487,1260,1261,251,304,1008,1334,505,187
384,513,1474,227,356,580,1480,1547,1611,430,1006,407
1670,1159,648,1546,525,409,421,1327,1330,435,1593,1603,1613,1365,343,1504,995,1380,1130,1131,1647,1007,243
353,450,1602,549,1065,459,1324,1486,1332,444
1440,1606,1095,1011,1140,1556,1335,1465,412,1661
640,1419,1039,1300,1559,473,474,669,607,1311,545,1058,420,678,1514,501
896,929,932,1542,937,1225,1293,1454,916,1207,1657,893,927
1541,915,1685,917,919,925,931,1316,933,934,935,936,1317,938,1591,1348,1224,1226,1227
