0,1604,1093,510,583,1673,522,1331,1112,381,1470
1,36,70,10,211,53,85,24,94,222
64,96,2,266,106,432,113,436,58,63
3,6,1255,140,81,178,19,116,87,155
69,38,7,74,11,82,84,23,1278,95
289,550,294,8,999,1384,300,1009,660,182,88,126,156,542
290,165,105,393,42,13,48,17,21,190
128,35,456,364,16,20,25,27,57,255
1601,258,323,26,1381,262,79,1264,1265,1295,184,1466,1275
160,129,41,107,209,114,115,86,377,62
416,1408,131,1092,1254,1510,268,461,464,562,52,1399,1306,1115,191
355,422,360,361,301,1262,279,56,281,317
225,257,59,1035,431,80,627,89,283,221
321,66,1667,260,1476,528,466,348,1052,1053,286,118,568,1145,378,507,638
67,1444,1253,1061,1126,1516,1103,1679,1138,1012,1173,1116,1117
353,98,100,68,203,302,304,342,90,92
259,99,73,75,144,146,310,216,318,127
256,1665,130,994,234,236,205,110,78,271,428,250,93,350,1663
291,103,137,139,141,471,280,121,349,415
135,233,108,269,307,213,215,312,314,319
1443,1124,1157,1572,1608,204,1132,1358,111,339,1364,440,1150,1503
153,387,421,648,330,409,525,1593,435,185,122
132,166,136,168,171,173,367,147,179,212,220
195,325,231,365,336,404,1492,375,251,157
192,483,197,554,239,1299,341,408,313,1214
384,513,322,227,356,580,619,396,430,1493,407,315
1319,297,394,427,332,368,305,338,470,444
451,549,487,652,557,439,505,506,475,543
516,517,457,1491,540,1405,481,546,484,1511,1321,1322,491,493,565,503,442,445,446
480,576,450,1152,455,490,523,463,495,479
896,1376,1348,1349,1225,1390,1433,1373,1374,1375
961,962,963,964,1633,1210,1294,1434,1564,1630
1120,1153,1123,1252,1128,1256,1320,1067,1260,989
1664,1602,1666,1636,996,1672,1674,1643,1649,1554
1219,1063,1034,1002,1037,1166,1071,1169,1044,1338
1603,1380,1159,1546,1131,1613,1327,1007,1330,1365
1248,1121,1249,1257,1258,1008,1139,1113,1118,1279
1057,1095,1127,1161,1065,1483,1261,1011,1140,1213
1250,1251,1475,1477,1134,1042,1142,1046,1462,1500
1635,1637,1638,1671,1640,1641,1642,1135,1460,1566
1440,1410,1350,1318,1552,1332,1302,1335,1401,1402
1323,1357,1393,1394,1333,1397,1336,1403,1598,1407
