97,322,930,483,677,454,8,970,76,77,1297,1457,150,1593,25
32,1113,354,1250,515,1477,35,1671,168,104,10,255,367,1044,1334,217,444,511
1547,1293,1550,271,1168,1678,146,149,22,927,1571,932,188,1365,730,987,1124,487,1133,117,630,1013,1144,636,254,127
649,1673,652,148,1567,548,37,1338,575,457,1483,1106,986,474,92,1123,1519,1652,1658
392,1161,1677,144,1560,1561,282,288,1572,935,62,1471,458,342,1626,347,1116,615,1640,494,1136,1657,1277
960,865,583,1224,1352,1164,1356,1006,1328,1458,403,660,755,90,1595,541,958
257,1667,263,1033,523,530,1048,155,411,540,1053,545,1063,310,185,318,1093,1094,1613,463,1488,91,357,485,1010,886,1270,1018
1154,291,359,1528,1256,202,1274,748,1612,364,211,440,218,956,1503
0,1666,387,1045,1442,951,576,1473,328,73,333,1616,88,225,353,1380,616,361,496
258,644,1566,910,334,176,1425,207,862,1534
1411,1639,1511,103,489,461,14,432,122,798
1408,1441,1449,1131,1357,1424,1653,565,1429,1404
162,1570,1379,229,1384,1513,1194,234,524,493,1326,559,749,243,1467,252,990
256,161,1348,517,1031,9,908,686,1556,286
1505,1159,1095,1578,1497,1101,1301,1465,954,1148
390,266,911,786,19,20,276,278,285,1438,290,165,170,436,1462,57,58,59,1603,325,329,1359,208,209,210,84,1114,93,95,231,107,495,114,121,506
1664,1320,1130,11,12,431,438,887,154,159
131,377,268,1038,1392,305,404,183,409,1598
1152,929,1605,7,455,1321,147,820,213,375
1472,1319,1641,393,943,115,405,54,471,280
137,1036,269,15,400,18,151,664,157,422,425,1322,172,181,822,55,312,441,314,60,61,1350,456,335,338,470,220,1120,96,1258,235,492,1645,879,1008,242,1396,1397,376,1407
64,417,1602,297,106,1262,336,1393,214,152
544,1479,905,270,1169,1363,406,279,24,153,1662
1056,224,676,101,68,134,1643,1454,49,125
1376,1059,102,1353,1257,143,1007,1649,26,319
640,897,1674,1306,34,1573,1071,435,182,443,191,1355,596,603,94,991,98,1524,1655
33,163,1253,298,683,909,302,1615,1423,467
1318,490,171,366,47,1296,1042,307,1460,244,50,51,1330,281,1398,1565,190
1504,801,38,1065,233,206,79,145,85,1336
896,1668,678,39,358,330,1261,526,1327,368,1247
739,1060,36,389,587,395,16,1435,1596,415
196,549,199,1225,331,1331,373,1623,56,124
1474,1251,135,41,203,204,1679,689,851,568
1543,1515,1137,1554,1149,249,250,1308,1661,126
512,1092,1542,294,937,906,1385,1487,241,178,797,1374,1439
1475,1127,1226,75,1419,1066,52,534,118,1046
66,99,1669,550,391,236,1260,1358,1295,1617,341,1141,1276,893
1476,1609,1610,239,112,564,53,503,1049,381
673,771,1508,1445,1160,1000,650,1259,1005,1647,594,275,1619,533,632,539,796
293,1512,808,1162,553,555,1455,566,189,702
706,1218,1163,1099,1227,1555,1078,1213,1368,1176
1600,67,707,971,1516,1611,593,1586,1559,1117
1088,321,898,1184,1058,1541,70,1574,267,1421,272,721,597,629,120,633,1150
416,1220,356,742,1514,1039,306,1395,1173,1118
1633,1314,1284,773,518,777,529,273,1686,1495,536,537,1017,1016
1032,1549,826,817,825,311,1337,538,794,284
1346,579,326,71,839,845,1294,1496,827,831
617,620,1517,846,1070,595,1364,856,346,861
1386,1582,623,656,1073,369,402,628,631,634
682,938,1391,687,1105,914,1521,688,944,666
705,963,1413,447,1107,1526,952,184,698,703
965,710,711,201,713,459,973,1527,1436,1085
1447,974,465,722,725,728,731,733,1630,1119
1632,1217,226,1155,1448,1129,1171,1177,1180,1182
232,488,1004,753,754,499,500,1656,1530,988
1,130,513,1157,902,1041,662,936,684,174,967,1608,1362,1493,1628,240,497,119,505
1282,1604,136,586,397,78,475,1309,542,223
961,546,296,13,1264,1302,344,253,379,1629
608,194,259,420,421,198,1607,1351,528,1139
1665,292,1383,108,1307,1329,1459,1140,1112,1115
1281,1544,1433,1310,1443,552,554,304,315,320,580,327,719,469,726,228,1637,1390,508
1316,614,619,110,111,1043,374,599,1529,638
384,396,653,1102,399,657,915,1557,407,1341
69,1478,581,776,1034,780,588,815,1303,572
352,1317,1480,337,917,1047,345,378,156,671
1003,1132,1599,430,1199,1269,1366,1273,1051,1183
704,931,1507,227,1062,966,219,947,694,1339
993,1122,1221,1414,968,1067,1263,1520,1266,1021
1153,522,525,1298,1403,31,179,1333,1597,1223,1248,994,355,995,1638,365,372,123,510
65,1634,516,453,521,427,1325,401,1500,317
996,260,200,491,177,274,1594,215,186,1502
164,230,875,80,1491,1142,1401,859,445,543
1410,132,133,265,139,141,277,1305,27,29,1057,418,1406,807,295,557,301,1335,1470,446,448,193,834,195,838,83,89,349,478,479,351,1121,1377,221,484,1252,100,481,237,113,116,1275,1278
992,1536,167,169,299,781,142,1394,371,410
166,1255,360,158,138,45,48,1659,1405,30
128,1409,129,3,4,1400,1035,17,23,795,28,160,40,42,1323,44,46,63,81,82,1635,105,248,251
1440,2,837,6,74,1663,180,86,87,1279
192,1601,5,262,394,1324,173,21,1466,222
482,450,1090,1027,1576,1546,1402,627,884,1525,212,695,216,1145,1146,1492,1469
611,1381,197,1002,300,1486,1143,313,828,669
1444,934,423,584,1126,1642,205,589,1040,1265,309,1627,604
289,1061,1606,871,903,426,466,1523,343,287
1280,1672,332,1052,1166,308,1332,247,442,380
1539,900,1125,901,775,451,1382,1001,1522,1299,1012,1399,1463,477,350,607
933,1254,1446,1670,486,1128,429,1489,245,892
1216,480,1660,419,261,646,1575,1481,1648,1361,340,501,569,1499,348,1501,1375
1096,1675,1485,1135,1009,1170,1553,1300,989,1214
385,323,1349,424,140,428,1676,1552,913,727,1147,316
1249,1219,1482,1037,1518,1134,1138,1654,1272,1373
1313,1215,388,997,998,999,1229,1103,1685,1109,1151
449,1636,1540,582,1644,1011,339,791,601,507
1285,1286,1422,782,1172,789,412,1569,804,1195,1068,1583,1072,693,950,1211,1108,468,1631,618,885,504,637
969,715,1228,972,975,592,1490,723,1564,606
