1,515,1034,236,205,110,208,1008
96,432,2,115,58,106
16,35,3,20,25,27
4,325,6,231,137,336,81,471,121,415
5,13,174,46,14,180,183,29
80,7,55,71,167,44
289,294,8,1384,1615,1009,660,126,156,542
272,85,213,135,152,10
65,38,134,11,12,158
379,281,168,425,427,15
64,128,17,113,105,266
18,244,30,89,45,334
136,140,141,142,51,19,116,87,61
248,210,133,277,21,40,365
48,404,23,74,251,157
1405,389,1046,1672,24,333,94
258,323,26,262,184,1466,79
453,214,364,28,366,255
256,234,1643,271,1298,1554,604,93,350,31
34,1411,1636,100,70,1666,203,1134
426,305,36,53,73,1002
160,129,114,41,107,62
97,162,164,166,171,172,143,47,145,60
49,390,230,296,265,991,1247
450,1641,523,1486,1332,54,217,351
1472,1153,1639,1160,56,1661
355,371,104,57,349,301
283,402,372,279,123,410,59
321,66,1476,260,528,466,348,1145,1052,1053,638
67,1117,1173,1516,1116,1103
68,1318,233,395,493,401,1649,215,249,319
82,103,69,1255,169,139
144,146,102,75,254,127
419,196,1060,292,1481,76,206,1328,1274,1660
400,1021,644,645,326,586,77
512,482,451,130,490,459,78,495,503,506,477
992,83,84,375,170,207
373,245,88,219,120,1677
1440,1251,359,455,1142,1335,1401,90,92
368,159,422,470,1068,95
98,1602,549,1127,1674,302,304,475,543
1443,1124,1157,1132,204,111,1150,1503
240,547,163,403,358,117
1667,118,568,378,507,286
435,185,421,1159,153,122
132,394,397,367,370,147,250,380
1296,1490,149,1515,587,1565
995,1670,151,1130,343,1647
1392,178,361,235,155,285
161,247,441,202,188,335
209,211,165,456,1035,1278
179,360,317,539,1260,173
193,194,200,1675,239,1648,177,313,186,189,1214
448,291,181,438,280,316
276,278,232,1114,492,190,1406
192,483,197,341,408,554
257,198,297,332,253,431
1361,1299,1125,199,1400,1263
225,517,1095,1329,222,1395,1140,216,221,318
337,338,261,412,444,220
226,614,1418,346,238,223
497,1474,227,356,619,430
417,418,357,295,411,237
320,293,327,553,524,556,1471
1665,627,436,362,299,1663
1441,1442,307,312,1576,314
384,513,322,580,1611,396,1678,1493,407,315
1603,387,648,330,1131,409,525,1007,1593
339,1572,1364,440,1608,1358
1045,478,1383,376,1355,1662
1616,1362,1133,406,1479,1645
1679,1444,1305,424,1513,569
480,481,484,457,491,463
496,1492,1594,1354,1307,1325
576,546,516,996,521,652,529,530,565,540,989
704,1313,721,1183,701,735
1091,1540,901,902,907,911,1684,1626,894,895
897,898,903,1224,906,1226,908,909,910,1657,893
896,1376,1348,1225,1374,1375
1538,1539,900,1349,904,905,912,913,1627,1373
899,1390,1590,1433,891,892
1010,1607,1272,1049,986,990
993,1269,1129,1003,1004,1549
1266,1220,997,1099,1276,1151
1040,1570,1557,998,1033,1005
1122,1016,1480,1102,1547,1006
1138,1012,1061,1253,1126,1550
1217,1170,1096,1066,1036,1215
1057,1169,1161,1147,1037,1385
1250,1123,1042,1394,1279,1135
1475,1459,1044,1491,1511,1501
1120,1148,1256,1337,1067,1324
1439,1322,1483,1404,1502,1071
1152,1113,1139,1252,1671,1128,1257
1248,1121,1249,1321,1258,1118
1320,1334,1319,1352,1262,1351
1264,1601,1265,1381,1275,1295
1379,1438,1463,1339,1303,1518
1393,1350,1336,1323,1598,1407
1330,1380,1365,1546,1613,1327
1460,1333,1397,1462,1403,1357
1552,1635,1637,1606,1638,1642
