0,1470,1093,1604,583,1673,522,1331,1112,381,510
1152,167,7,297,332,431,80,380
8,1036,1677,1553,1170,1555,660,1560,156,542,289,294,550,1066,300,1457,182,1464,1215,1217,1096,1615,88,219,999,1384,1519,1009,245,246,373,120,124,126
9,649,405,22,282,1567,1056,33,1568,1571,306,1458,449,458,1485,467,224,101,1398
516,172,334,15,1113,250,221
225,45,18,244,503,1279
1472,178,19,116,87,155
389,1672,333,1046,24,1405,94
1601,258,323,1381,262,79,1264,1265,1295,1466,184,26,1275
256,234,1643,271,1298,1554,604,93,350,31
32,1409,1383,264,298,1355,1662,50,274,1045,376,478
34,1411,100,1636,1666,203,1134
1668,1669,646,138,534,1304,1049,287,39,308,1607,1610,986,990,228,1382,1010,1272,511
43,428,108,269,1461,150,1402,479
1505,1247,1282,230,390,296,265,1644,49,344,154,1468,991
416,1408,131,1092,1254,1510,268,461,464,562,52,1399,1306,1115,191
450,1641,523,1486,1332,54,217,351
321,66,1667,260,1476,638,1052,528,466,118,568,1145,378,507,348,1053,286
1162,267,1550,1679,1173,1305,541,548,1061,1444,424,569,67,454,584,1103,603,1116,1117,1253,1126,1513,1516,1138,1012,1141
68,1318,233,395,493,401,1649,215,249,319
487,72,1482,557,1261,1011,505
1660,419,196,292,1060,1481,363,76,1356,206,1328,241,242,1363,1274,1596
644,645,1551,400,275,1043,662,1303,664,536,1048,1438,1463,1339,326,1478,586,77,597,988,352,1379,612,109,1518,1137,1013,374,1143,636,1021
1440,1251,455,359,1142,1335,1401,90,92
97,194,1638,457,143,189
98,1602,549,1127,1674,302,304,475,543
259,99,331,175,1302,1213,445
451,1034,236,110,1071,402
1443,1124,1157,1572,1608,204,1132,1358,111,339,1364,440,1150,1503
1154,388,391,532,1301,1561,288,429,566,1469,577,1220,1099,1612,593,218,606,997,615,616,1512,112,624,1266,1276,125,1151
163,547,358,1479,1133,1645,240,1616,1362,403,117,406
1281,386,1284,1273,1413,263,392,1418,1548,1549,399,1171,663,1047,1051,284,303,567,311,443,572,1467,1600,1218,579,581,582,1360,595,1366,1495,345,346,1498,223,993,226,614,1129,1003,1004,238,623,499,629,502,119,632,1269,1271,508,1277,1022
387,1159,648,1546,525,409,153,421,1327,1330,435,185,1593,1603,330,1613,1365,1380,1131,1007,122
355,132,427,301,279,281
1219,1063,1614,144,146,477
168,394,173,367,179,147,317
608,385,1280,1569,229,1094,1000,650,1484,589,270,1326,176,1297,148,564,1270
544,1059,1001,1097,587,1515,1168,1296,1490,149,987,1565
1504,354,995,1670,551,329,1130,526,1647,243,343,151
1250,166,1671,335,495,307,1491,152,314
192,483,1400,197,1125,554,1675,239,1263,1361,1648,1299,341,408,313,1214
514,519,527,1041,1558,537,1050,1054,1055,1062,1574,552,1064,1575,555,1069,558,1070,1581,1073,1074,563,1075,1078,1079,570,571,574,1599,578,1098,588,590,592,594,1107,596,598,599,600,602,605,1119,610,611,617,618,620,621,1646,1650,628,631,634,1149,639,641,642,643,1156,647,651,653,654,655,656,657,658,659,1165,661,1167,1172,1174,665,666,667,668,1175,670,671,672,673,1177,675,1179,677,1181,679,680,681,682,684,685,686,687,688,689,690,691,692,693,201,1231,1267,1268,1283,1285,1680,1681,273,1308,1309,1310,1312,1178,1180,309,1340,1341,328,1368,1369,1370,1386,1387,369,382,383,1412,1414,1415,398,413,434,437,447,1473,460,465,1489,469,1494,472,1496,1497,476,1506,1507,1508,486,1517,1520,1521,498,1523,500,1525,1014,1015,1017,1018,1019,1020,1023
517,1095,1329,1395,1140,216,318
384,513,1547,396,1678,407,430,315,322,1474,580,1480,1611,1102,1493,1122,227,356,619,1006,497,1016
640,509,1163,1164,1419,1039,1300,533,535,1559,669,414,1311,545,1058,1445,1577,1578,1580,559,561,1076,1077,585,1618,607,1631,1632,1509,1514,1259,501,1144,635,252,637
257,1249,1635,425,1008,1460,283
320,293,1573,327,553,524,556,1136,1617,468,538,1595,1471
1441,1442,1570,324,998,423,1576,489,1033,1005,1040,340,1557,347
353,1065,1353,1359,1396,342,439,442,1499
452,420,678,1146,1338,494,1106,473,474,575
1155,518,520,1416,1176,1446,683,1579,560,433,1072,462,591,1104,1105,1230,1488,1367,485,613,622,625,1524,630,504,633
