0,1419,13,1429,1441,546,292,432,1329,1459,1470,576,194,198,838,75,88,479,353,1383,1639,489,1131,108,496,1404,253
1152,65,929,455,521,1641,11,147,372,820,1500,543
1664,1320,1321,1130,139,140,12,431,1140,438,887,159
260,262,394,18,1042,418,1318,171,1324,173,177,1336,1466,192,1602,200,335,470,222,1120,994,1635,1255,361,490,875,366,244,1396,1397,1405,1279
263,1033,909,406,24,26,155,544,33,545,1056,937,182,443,316,318,1219,68,1479,1226,1615,467,91,1127,1649,1143,125
640,1296,145,25,801,930,1060,39,298,47,50,51,1331,1593,322,196,454,76,206,94,1247,1504,97,1260,368,124
1377,1634,516,132,453,1325,1262,664,27,1597,1278
1153,1666,355,1350,1566,1638,1357,1645,179,1403,1045,1142,151,1594,186,123,510,31
1032,1549,529,1559,537,539,548,566,1078,1085,71,595,599,606,617,618,1132,623,631,1160,1171,1172,1176,666,1182,673,1195,687,688,694,1211,189,703,710,711,713,715,723,731,733,232,753,754,1266,1269,1273,1284,1286,275,794,796,1314,804,817,311,825,826,827,831,1346,839,845,846,856,861,1386,1391,369,402,914,1436,1445,1447,1448,938,1455,952,965,966,968,969,971,972,973,974,975,1512,1016
416,161,162,229,1228,1101,1648,1170,403,755,1301,950,1492,1556,601,188,1501
354,1250,549,1477,199,526,242,822,1334,312,1113,444,190
1,898,136,395,524,1439,34,419,554,1458,572,191,321,1604,202,211,218,1626,480,359,119,1528,1274
197,7,79,146,1491,1302,1249,1442,611,1449,1258,749,435,1653,1335,317
352,1540,1125,9,1675,523,1679,530,791,247
256,1668,1253,1157,1481,1129,1613,1141,508,511
906,10,422,557,302,176,565,1607,331,1363,1374,1505,1382,871,1511,493,241,501,886,1655,1151
259,1349,1224,1676,77,14,1005,913,1112,347
32,483,1411,739,358,903,584,1608,277,440,1627,1148
1414,1547,1039,1168,271,1555,660,533,534,1180,1184,1058,932,37,682,555,429,1328,689,1339,1213,67,581,458,719,1619,1508,615,1259,1133,1013,117
134,265,138,417,421,38,807,951,445,1601,1115,1373,225,1380,103,1385,237,1134,879,1138,379,1139,1275
1216,644,1384,41,233,1355,300,1483,1518,1643,1644,1011,1272,1146,798
1410,1605,80,154,859,164,230,105,42,491,1323,365,48,1460,1333,446
1094,1674,910,1361,466,1306,90,1375,1248,163,998,487,1574,49,442,380
897,482,258,420,450,1057,1351,1379,333,1486,52,1657,603
66,98,678,905,1257,1487,1425,1044,56,1663
1408,1121,1473,1440,328,525,178,1046,60,1407
902,399,148,1685,917,1303,1308,542,933,1317,1463,185,62,1476,459,1362,604,999,1515,1390,240,629,1149
1507,1316,1003,653,494,461,465,725,345,346,1599
993,705,1282,1572,997,513,684,397,1529,1310
1443,1061,486,261,1004,944,1520,1489,1686,1465
1280,224,293,1330,1107,308,1526,1048,1658,1309
1027,1543,391,652,1043,1444,1575,1194,1582,698,828,1471,320,1217,1218,323,70,1490,1116,1126,234,236,112,252,373,507,1276,254
385,387,1348,73,908,1488,1493,608,485,683,239,815,497,1524,1270,1400,381
1122,1251,1637,1670,1062,110,1300,150,1399,1052,1469,1150,1503
1474,356,901,1353,748,463,400,1423,1298,307,1616,85,92,1662
900,135,143,1297,931,677,1446,426,304,954,457,1358,592,341,219,99,1000,1263,1523,118,378
1159,1576,1513,1161,650,1356,1550,1652,597,1173,120,636,669,990,127
257,451,101,934,423,1063,1514,1040,540,1299,568,1660,989,126
961,1475,1124,357,102,649,1422,1519,1364,789,503,344,1499,1629,286
1632,1495,771,773,1413,1285,1673,1162,1227,1516,1294,1070,1527,1496,1177,1530,1117,216
384,1088,1478,775,1034,1067,267,1677,1421,330,1012,1047,1051,1021
704,1281,1633,350,223,1544,777,780,588,1073,1105,1041,337,1366,1017,1630,1119
396,657,273,915,407,1561,284,935,430,947,184,315,1341,447,579,580,963,326,1480,201,1102,722,469,726,728,474,226,620,111,499,628,885,630,374,1656,500,638
960,1352,1359,1617,153,1497,1305,730,1049,862,936,1007,1135,1264,1327,1654,122
1569,742,1640,1099,1611,1293,632,144,593,1106,1108,1557,693,1560,1433,986,1144
1313,227,1636,1546,1166,721,1553,339,1137,1109,245,851,927
583,327,1647,1009,306,243,1265,538,156,1402,1467,988
1570,1095,616,1036,1037,1454,1295,310,157,1534
896,1542,1065,207,272,215,376,1401,991,1215
1409,1092,517,334,1424,1552,274,340,213,1623,217,475,1438,1381,294,1008,319
1220,1225,1229,270,411,348,541,1565,1118,289,676,1322,1261,1006,1326,1522,1395,1214
512,865,1600,707,1123,808,1002,282,782,1583,1678,468,1338,575
1154,1667,1541,389,1671,1672,528,338,342,1053,1502,287,996,1254,1642,1332,1398,1596,1661
1539,1164,1554,1573,550,1066,1199,559,1586,313,569,1595,1221,582,1096,1103,1365,1128,1018,892
1155,388,518,392,1163,656,1072,1521,504,1337,1564,637,702,1277
