1,130,515,996,1609,202,364,78,529,530,211,1044,441
448,3,365,142,46,48,207,83,84,1114
291,4,103,139,51,19,61,87,28,349
325,5,133,40,210,21,277,23,248,183
481,6,231,7,169,47,336,81,431,446
289,550,294,1384,8,300,1519,1615,660,182,1464,88,156,542
69,136,10,395,332,539,1634,422,1318,297,44,1649,1460,1333,56,249,1598
65,193,1475,11,12,1552,158,417,546,357,38,1511,1642,491,372,565,187,1278,1663
1638,170,492,13,14,82,404,375,29,190
35,168,360,394,1640,15,20,470,250,59
225,1605,200,45,401,18,244,503,312,319
1666,389,70,1672,203,333,342,24,1499,94,222,353,34,100,1636,439,442
453,135,147,213,214,410,27,480,162,36,1322,490,173,367,179,53,186,317,255
1121,164,123,237,334,145,411,89,379,30
256,234,1643,271,1298,1554,604,93,350,31
576,1665,418,195,37,198,426,463,370,253,1213,351
1668,1669,646,1607,138,1610,534,1304,1049,986,990,287,228,1382,39,1010,308,1272,511
484,455,359,43,108,397,428,90,92,479
355,71,427,172,177,1397,55,281,279,221
1472,516,1252,166,104,335,495,307,85,152,57,314,316,1597
97,194,257,134,425,457,143,1393,283,60,189
132,393,209,86,1113,160,290,1255,1321,1258,107,1262,432,114,377,63
321,66,1667,260,1476,528,466,348,1052,1053,286,118,568,1145,378,507,638
1153,68,1160,1257,233,1676,493,1008,215,1279
1152,159,1637,167,1128,295,269,1135,80,272,212,1461,150,380,95
1379,612,1478,109,374,1463,1338,1339,636,1438
1443,1124,1157,1572,1608,204,1132,1358,111,339,1364,440,1150,1503
1671,361,235,140,301,366,178,116,155,285
1479,456,1616,338,403,1362,406,547,163,358,1260,1133,1645,240,368,117
1560,1457,1553,1555,245,246,373,120,124,126
137,141,208,371,181,438,471,280,121,415
153,387,421,648,330,409,525,1593,435,185,122
1219,324,1033,144,1040,146,340,1557,347,477,1441,1442,1570,998,423,1063,1576,489,1005
1280,385,1094,650,1484,589,270,1297,148,608,1569,229,1000,1326,176,564,1270
1635,299,1357,174,276,278,1594,1659,157,1406
1411,1353,1065,171,1134,1359,1042,1396,1046,1405
192,197,1675,1361,1299,341,408,483,1125,554,239,1263,1648,1400,313,1214
1217,999,1096,1066,1036,1677,1009,1170,219,1215
992,1249,1248,994,362,1035,1038,1462,251,1118
1409,1381,1383,1355,1295,1264,1265,1045,376,1275
644,452,420,645,678,494,1518,400,473,474,575
1474,1122,1480,1547,1611,1006,1102,1678,497,1016
1683,1429,1430,857,858,859,860,1372,861,862,864,865,866,867,863,1587,1588,1654
1664,1602,1059,1127,1001,1674,1168,1490,987,1565
1161,1002,1483,1482,1261,1166,1169,1011,1404,1439
1603,1380,1159,1546,1131,1613,1327,1007,1330,1365
1060,1481,1356,1328,1363,1334,1274,1660,1661,1596
1250,1319,1256,1320,1325,1392,1394,1139,1491,1403
1440,1251,1352,1323,1324,1142,1335,1401,1402,1407
1410,1350,1639,1641,1486,1459,1332,1302,1307,1566
