0,1093,198,583,522,381,1307,253,510,1663
1,456,1609,202,364,1260,338,211,1362,441
129,2,133,6,137,393,277,21,23,290,165,41,169,432,177,1333,183,58,59,1598,63,336,81,209,210,86,471,89,96,231,1257,105,106,107,113,114,115,379,1394,1139,248,121,1403
128,3,4,266,139,140,141,142,19,276,278,280,155,28,157,170,299,46,174,178,51,436,181,438,448,64,207,82,83,84,87,1114,1249,1252,492,365,1008,116,1659,1406
1605,38,7,297,11,332,1323,431,565,1278
550,1464,8,1036,1677,1519,1615,1457,1553,373,246,88,219,156
1056,449,1571,9,458,649,1002,1485,467,405,22,1398,1439
480,1505,162,186,10,213,1397,312,410,1247
132,136,12,279,281,539,291,1325,316,1597,61,65,208,349,355,357,103,361,1642,491,1262,371,372
1152,69,71,1035,13,14,1038,80,29,375,992,994,167,1321,55,1594,187,380,190
1282,516,390,265,394,15,18,147,20,152,154,30,35,296,168,172,45,49,57,1468,453,200,334,214,470,344,1113,221,991,225,1250,230,1256,104,1258,1644,366,367,244,503,250,1279
161,389,70,1672,171,333,1042,24,188,1405
258,323,68,233,490,1322,1353,1264,1396,215,249,26,1499,319
1640,1355,495,335,307,1491,85,314,27,255
192,197,271,1298,341,408,93,31,483,554,1643,1263,1648,1400,313,1214
32,1409,478,1383,264,1671,298,50,274,1045,376,1662
34,1411,1636,100,1666,203,1134,1046,222,94
1601,353,36,1381,135,401,1265,53,342,442
576,418,450,37,1641,523,1486,1332,54,91
395,428,43,108,269,1649,1461,150,1402,479
159,1153,195,422,1352,1676,47,212,56,95
1472,1255,232,74,362,48,1392,180,404,251
481,546,1410,446,261,134,1606,426,463,370,1465,60,1566
1289,1425,1426,1450,1199,1200,816,1201,1203,1202,817,818,823,824,825,819,820,821,822,826,1087,1623
321,66,1667,260,1476,528,466,348,1052,1053,286,118,568,1145,378,507,638
67,1253,1061,1516,1103,1679,1138,1012,1173,1305,1116,1117
515,196,199,76,205,206,652,1356,1044,1596,1060,1328,1334,444,1660,1661
130,547,163,358,1479,1133,78,1645,240,368,529,403,1616,117,406
1318,262,1065,493,79,1295,1359,439,184,1466,1275
1440,1665,1331,1302,1335,1112,1401,90,1213,1399
97,194,484,1638,457,397,143,1135,189,1407
451,996,1572,1608,204,236,110,1358,402,339,440,506
1443,1124,1157,1034,1132,1071,111,1364,1150,1503
1217,999,1096,1384,1066,1009,1555,1560,120,1215
1603,1380,185,1159,648,1546,1131,1327,1330,409,122
257,1121,1635,425,237,283,145,411,1460,123
1057,1123,1161,337,305,1395,1140,1492,1147,127
512,1441,1442,324,423,1576,489,521,1037,144,146,340,477,1502
1280,385,1094,650,1484,589,270,1297,148,608,1569,229,1000,1261,1326,176,1011,564,1270
153,387,421,330,525,1613,1007,435,1365,1593
193,417,1637,1319,295,1511,272,217,158,351
1475,360,1320,1160,235,301,173,179,285,317
577,1154,388,391,1099,1612,593,532,1561,218,606,997,1512,1266,566,1276,1151
419,292,1481,363,241,242,530,1363,1274,220
256,1125,234,1675,239,1361,1554,1299,604,350
1415,620,592,1489,1107,1075,599,600,1179,1119
644,326,536,1518,400,275,662,1303,664,1048
1602,1059,1127,1001,1674,302,304,1168,1296,987
384,513,322,1122,356,1474,1547,396,1611,1006
1570,1219,998,1063,1033,1483,1005,1040,1557,347
1120,1248,1634,1477,1128,427,1459,1462,1500,989
1350,1351,1324,1357,1487,1552,1393,1336,1337,1118
