0,1,2,3,4,5,515,8,10,11,1035,13,14,15,16,17,18,19,20,21,23,25,26,29,30,31,32,35,1060,38,40,41,44,45,46,47,48,51,54,55,58,61,62,63,64,65,68,69,71,73,74,75,76,77,80,81,82,84,85,86,87,89,90,91,92,96,99,100,103,107,113,114,115,116,627,121,123,124,125,128,129,130,131,132,134,135,138,139,140,141,147,152,153,155,160,165,1192,170,177,180,182,183,190,196,199,200,203,206,209,211,214,1253,1255,232,1256,248,1275,255,262,263,266,268,269,272,274,787,278,279,281,282,795,290,291,297,298,299,300,1325,302,306,307,309,312,313,317,319,322,329,354,355,364,374,377,379,380,381,385,387,389,390,395,397,406,411,412,417,421,424,428,432,440,441,442,444,1472,450,456,457,478,479,992,994
1120,1121,1634,6,301,142,207,1392,1394,56,1500,477,95
7,455,1518,495,1134,1491,59,1597,1470,415
1476,1095,9,649,1611,337,1173,1567,611,1123,1061,1002,1067,1194,1519,1458,1339,318
12,143,145,276,405,277,151,280,27,28,157,158,543,162,164,167,168,1320,173,178,179,436,181,564,314,186,193,323,453,334,213,215,93,221,94,222,359,105,1130,108,1644,1649,1395,244,1396,376,250,1405,1406
640,644,1037,400,1169,1424,149,22,416,801,36,1066,176,49,50,1335,445,191,192,1350,333,463,1487,1112,1113,225,228,102,1384,1262,1139,1142,1270,505,1147
33,34,1154,1062,1127,1615,1138,218,1149,1439
803,1219,37,358,1351,1667,557,341,470,217
66,1444,39,1000,332,239,305,689,1523,60
1088,535,1417,810,1580,1200,817,626,851,854,1559,1019,509
641,770,1028,1284,1167,1181,679,1448,1197,686,1204,570,1086,1344,712,849,850,852,853,855,856,738,1510,617,620,623,751,752,1268,1271,1022,383
772,1188,709,42,1517,687,663,666,763,1342
386,837,489,1673,1451,1196,474,1618,1203,469,1653,536,1016,826,1017
1185,514,653,1231,1360,657,498,1555,659,500,1073,119,633,538,315,831
1248,1153,1441,1258,1676,1264,1140,52,1145,987
996,1574,1254,1447,1065,1071,789,53,1464,378
1152,418,231,296,360,371,1460,57,1403,220
1571,67,1126,583,616,1511,1006,1136,369,660,1048,986,1595,127
576,1057,1093,1446,70,1670,265,118,246,1660,540
1379,1059,1220,1094,1609,559,79,117,344,1183
256,718,1554,1490,83,1305,156,1118,1250,1128,1001,236,1647,240,304,1399
257,517,1036,1166,148,422,1576,310,1215,197,711,335,604,991,224,97,995,101,998,1383,748,237,1261,1007,1135
1474,1671,1046,342,664,1049,154,349,606,159,353,98,1249,356,1515,1643,439,1272,1593
161,1636,104,171,1327,338,1042,822,249,508
706,548,1386,1259,109,749,146,245,1525,695
1024,357,550,1480,1161,459,683,112,788,1561,443
614,122,552,684,204,1613,185,1274,126,1310
1217,775,584,201,650,1356,461,595,150,346,1503,993,1251,1003,1004,1012,638
321,163,1572,1162,1675,820,187,252,286,1311
448,481,325,166,205,174,365,208,1300,1492,1115,285
1603,516,169,172,781,1298,438,471,409,1114
483,295,1641,491,1132,1005,270,1326,336,1484,347,1301,1659,188,1213
1665,194,1605,425,235,1038,404,410,1307,1598
1346,612,681,682,1421,816,273,690,691,1496,1080,219
1216,1218,458,267,652,1485,345,1308,350,990,1247,1122,227,615,1269,502,1273
258,259,260,229,230,261,1252,233,1642,241,1363,253,254
419,324,1481,271,1008,242,435,597,247,1661
1313,541,582,742,1678,1040,243,507,1309,510
1221,392,1164,1359,399,1553,466,408,1184,289,545,676,1573,294,1648,565,1277,1151
352,292,645,677,487,1382,1668,524,348,1303,988
1058,1257,1034,1516,1679,1171,316,1052,1053,1214
320,1027,420,1478,553,555,1549,793,698,703
1536,1632,1124,326,838,1099,430,462,1621,1047,1498
1570,1092,330,1131,331,1260,1358,719,1265,1010
368,464,339,372,340,1045,343,1299,1565,351
446,1223,361,490,427,367,1552,401,1404,1502
384,1056,1443,1637,618,619,403,596,499,693
704,1475,1575,423,811,1652,791,1018,1116,669
608,546,484,521,1033,1449,525,431,530,1501
1569,997,678,999,1129,1263,1009,1266,1011,1522
1157,1125,1669,1133,1137,1172,1143,1117,1495,701
1410,1411,1638,1319,1322,1483,1044,1397,1336,1402
1408,1409,1664,1666,1413,1672,1546,1419,1674,1295,1296,1297,1423,1438,1566,1440,1442,1318,1321,1662,1663,1329,1457,1459,1331,1332,1333,1462,1465,1594,1467,1596,1601,1602,1473,1604,1477,1606,1607,1608,1353,1482,1355,1610,1357,1612,1479,1486,1497,1499,1504,1505,1635,1380,1381,1639,1512,1514,1645,1393,1401,1278,1407
1578,1389,1422,1328,1330,1362,1302,1338,1534,1279
1282,1352,1640,1323,1324,1306,1334,1398,1400,1466
