0,387,1422,1300,533,789,917,1048,1433,546,1570,1574,1324,686,1326,1583,306,310,313,698,449,451,1221,1099,1363,1365,348,1501,862,1502,224,1379,1253,1382,616,1009,243,1011,1147
384,1,514,1030,776,1547,653,1550,1041,1553,403,788,916,1686,1047,536,1687,925,1309,1310,552,937,554,684,430,1207,952,1591,572,1599,963,968,1611,717,1104,977,466,1495,728,1112,346,1122,1000,1129,1514,1003,1004,1133,111,1520,882,499,628,1269
2,3,4,5,6,7,515,10,11,12,13,14,15,16,17,18,19,20,1556,23,24,28,29,30,31,34,35,36,39,40,42,44,45,46,47,48,55,58,59,63,64,65,1603,1607,74,587,77,79,81,82,85,86,87,1035,89,90,91,1114,1629,95,96,611,1638,103,104,1639,106,107,108,1132,1641,113,114,115,116,627,118,119,121,122,1659,1660,126,128,129,1665,131,133,134,135,136,137,138,140,141,1676,143,152,154,156,158,159,160,165,169,170,179,180,183,190,202,203,205,206,207,208,209,213,216,220,221,225,229,230,1255,235,1262,248,251,1278,255,260,263,266,269,272,274,786,276,277,278,279,281,795,1307,287,288,289,290,292,295,297,299,1325,305,307,822,312,314,316,317,319,321,323,325,837,838,329,330,331,334,335,337,859,361,364,1392,1394,371,884,375,887,377,893,1406,896,393,905,911,404,405,409,410,411,412,415,419,421,422,424,428,431,943,433,435,436,438,440,444,445,448,961,450,453,454,456,463,467,1492,470,471,475,477,479,480,992,482,483,994,485,487,489,490,491,493,495,496,501,506
1093,391,8,871,1355,652,1261,494,1647,1616,1522,596,1652,350
256,1152,517,1285,9,906,270,798,420,302,432,1458,693,960,1096,474,1374,608,101,373,888,634,1534
33,233,586,237,1487,50,1138,21,1429,151,217,1403,1118
1414,519,775,1545,1421,783,1171,22,662,408,790,1180,1564,1054,1182,1567,673,548,1317,808,555,1535,1328,1586,1078,1469,1471,581,969,1229,976,721,978,595,980,1108,1110,1234,856,1619,1626,865,1508,1259,1524,885,758,1021,127
395,1037,910,25,26,927,32,1442,38,51,56,185,1593,60,61,191,68,73,76,1113,222,892,381
902,903,1159,1424,1306,161,933,678,1446,1575,41,1454,53,1596,189,576,1609,212,1627,1257,749,1648,500,886,249,507,1407
1376,828,1094,1673,1578,1052,239,1040,49,149,1399,636,797,254,1439
353,1410,355,1123,1573,198,998,1511,1488,1170,52,568,1566
512,1546,1039,1168,1301,1176,1056,1313,1058,682,429,303,1199,954,187,1213,958,703,62,1217,1226,719,1116,607,1632,1515,1516,1266,117,631,120,1402,1277,1151
704,66,130,196,1282,359,1640,1610,459,397,1523,1141,1435,1308,1150
513,1273,399,1303,944,1332,1604,69,711,339,1493,342,345,218,352,993,997,614,999,110,1263,112,497,761,378
649,523,417,1059,1571,300,308,442,70,1613,1490,98,99,100,1251,1254,615,1127,1265
1024,1541,518,1542,1034,1548,1549,1562,1051,1069,1070,1584,1073,571,1084,1088,579,580,71,588,1102,1105,1107,1621,599,92,605,610,619,626,1658,123,124,1149,638,1155,1156,650,1162,658,1177,671,681,692,701,709,201,714,1230,720,725,726,731,1245,1246,735,226,227,738,741,232,745,750,753,1271,771,773,1288,780,273,793,800,1342,831,1343,833,326,327,867,374,386,1420,914,922,413,1447,938,946,947,950,439,1463,447,966,1478,979,469,1494,473,476,1507,498,1527,1529
1637,1062,967,1256,1677,78,1679,240,465,1362,309,629,250,1628
929,197,550,1225,461,1293,1327,1657,182,88,1401,988
97,262,1383,1644,1007,1423,340,344,1049,730,443
1444,261,102,293,1352,1033,1066,1385,1517,148,153,252,1375
1281,898,1154,388,396,1678,1685,1046,541,423,320,457,1103,1364,343,1248,1001,1006,1519,1137,1012,1270,1143,125
132,516,781,142,1038,791,664,543,1057,291,164,427,301,174,441,834,332,1101,336,210,211,214,478,1634,231,360,365,1140,1397,1663
1280,900,901,1540,1669,521,1161,145,146,150,294,1473,707,328,1359,593,1361,341,987,223,1249,241,1010
257,258,259,660,155,1582,949,1465,702,468,1497,1117,1633,1521,242,244,245,247,1018,253
268,913,280,285,286,544,418,166,1319,296,425,1320,172,173,564,1333,1462,695,1597,318,446,959,1472,322,1475,1598,1349,1477,199,200,455,970,1223,1351,333,1486,1491,601,603,1115,1499,481,1635,484,357,1124,1642,875,492,367,879,503,379,1404
1672,524,1296,530,1560,416,1184,677,426,1194,689,1457,1474,1476,1612,1358,597,228,236,1276,511
385,1153,1027,646,1031,1297,1557,1561,815,304,1216,582,971,1485,462,851,1496,739,742,1384,234,1528
645,392,265,267,1554,1299,1555,669,1183,932,1061,934,935,1063,1572,683,1205,1218,585,1227,1356,592,1489,1106,1109,986,347,989,1631,486,1128,1002,1005,1390,1654,1272,505
774,522,1163,525,526,528,659,915,1311,1316,1190,1072,691,573,1600,706,1233,594,1617,1368,755,504,510
