0,1604,1093,510,583,1673,522,1331,1112,381,1470
1472,1,1661,1606,1566,1160,1642,1483,155,1522,1459,1460,338,539,1501,1502,1439
96,128,2,115,456
129,1665,3,132,5,255,7,393,11,12,14,15,147,285,157,160,290,35,291,165,38,166,168,41,171,172,173,46,47,177,179,55,1337,59,60,316,62,444,446,65,1350,71,74,205,463,80,211,212,86,470,222,1255,106,107,364,113,114,371,254,1663
81,121,4,325,6,471,137
8,1036,1677,1553,1555,1560,542,550,1066,300,1457,1215,1217,1096,1615,88,999,1384,1009,373,120,124
1056,33,449,1571,9,458,1485,1458,306,1398,22
994,29,28,13,190
16,161,104,202,136
17,183,105,187,174
225,44,45,18,244,503,89,30,1279
1664,1637,1477,1319,1640,1609,361,1260,140,142,1487,1552,368,178,19,87,1500,1598
57,116,20,141
170,21,133,23
1405,389,1046,1672,24,333,94
25,51,188,253
181,214,438,280,27
256,234,1643,271,1298,1554,604,93,350,31
34,1411,1636,100,70,1666,203,1134
36,53,135,490,1322
450,37,1641,523,1486,1332,54,217,91,351
228,1669,1382,646,39,1607,1610,511,308,1272,1049,287
248,210,180,277,40,251
48,83,84,365,207
1505,1282,230,390,265,1644,49,991,1247
1409,1383,1355,274,50,1045,376,1662
159,1153,422,1352,56,1324,95
432,209,377,58,63
208,103,139,61,235
321,66,1667,1476,260,528,118,1145,378,507,1052,1053,286
67,1444,1253,584,424,267,1516,1550,1679,1103,1138,1012,1173,1305,1116,541
68,1318,233,395,493,1649,401,215,249,319
336,231,69,415
153,387,1380,421,102,73,330,75,525,1007,435,1365,1593
1660,1060,292,1481,1356,76,1328,241,242,1363,1274,1596
130,996,261,506,78
1601,1381,262,1295,79,1264,1265,1466,1275
992,82,453,1038
1440,1142,359,1401,90
455,1251,92,1335
97,194,1638,457,189,143
98,1602,549,1127,1674,302,304,475,543
402,451,1034,236,110,1071
547,163,358,1479,1645,1133,240,1616,1362,403,117,406
1330,1603,122,648,409,1546,1131
1121,145,123,411,237
416,1408,131,1092,1510,1254,268,464,1399,1306,1115
164,213,134,167,158
144,146,1219,1063,477
544,1515,587,1296,1490,149,987,1565
1504,995,1670,329,1130,1647,151,152,343
480,162,186,410
169,195,349,366
1159,185,1613,1327
483,197,554,1263,1648,1361,1400,1214
1120,448,1634,1605,198,1639,1676,1262,496,1392,1492,441,1307
1329,1395,1140,517,1095,216,318
1154,391,1512,1099,1612,1266,1301,566,1561,218,1151
513,322,1474,1547,220,1006
1299,1675,1125,239
257,1249,1635,425,283
1278,266,1035,1406
272,305,281,295,297,279,301
307,1491,1671,314,495,335
1169,482,310,459,1404
1136,1617,327,1595,1471
337,1410,1394,1403,1397,1067,1148
1443,1124,1572,1608,1132,1358,339,1364,1150,1503
1442,1570,340,998,1033
1040,1441,423,1576,489,347,1005
355,1353,1065,394,367,1359,379,372,1396,1499
1480,1122,1611,356
404,375,1594,1659,492
484,1407,1323,397,1135
418,1106,420,678,1146,1338
481,530,515,565,521,989
545,1058,1514,1300,501,1578,1419
601,546,1002,676
1449,781,1529,1190
787,1223,1192,795,1422
1424,801,803,807
1088,849,851,1204,853,856
1089,1090,1031,1453,883,884,885,886,887,1656,888,890,1205,1244,1206,889
1008,1042,1044,1037
1057,1393,1462,1068,1357,1118
1216,1250,1333,1334,1256,1166
1252,1257,1336,1321,1258
