0,1604,261,1093,583,510,1673,522,1487,1331,1112,1465,381,1470
1,130,1479,456,202,1616,338,211,1362,364,1133,1260,1645,240,368,117,441
448,3,325,1319,136,361,1160,140,336,81,539
4,103,137,170,84,1333,471,121,61,415
1472,5,133,40,210,21,277,23,248,183
1152,6,71,139,142,80,83,167,231,169,1257,44,365,51,55,380,1598
97,194,994,134,7,457,1038,47,143,1462,1336,60,189,1118
1056,449,649,458,9,1166,1458,467,405,22,1398,254,1439
1671,200,10,495,335,1649,307,85,312,314,255
65,546,417,193,357,1475,1511,1128,1642,11,12,491,1552,158,1663
1248,69,1638,13,14,431,1357,1393,29,190
168,1256,394,15,367,1394,147,470,250,59
1664,161,1636,166,70,1322,171,16,1042,247,25,188,222
225,1250,516,1252,1320,45,1262,1392,18,244,503,152,57,30
128,360,299,178,19,278,87,155,28,1406
35,132,453,104,20,214,279,281,27,1279
256,234,1643,271,1298,1554,604,93,350,31
34,1411,100,36,1666,135,490,203,1134,53
576,450,195,1351,523,1486,463,217,91,1566,351,418,37,1639,1641,370,1459,1332,54
481,446,1477,38,372,212,565,187,1500,1278
1120,484,43,108,269,397,428,272,150,1402,479
232,46,174,48,207,1139,180,276,280,1114,1403,157
416,1408,131,1092,1254,1510,268,461,464,562,52,1399,1306,1115,191
159,422,295,297,427,332,1135,1461,56,95
160,290,1255,393,107,432,209,114,86,63
64,96,105,74,106,266,1321,115,436,377
321,66,1667,260,1476,528,466,348,1052,1053,286,118,568,1145,378,507,638
67,548,424,584,267,1550,1012,569,603,541
480,162,68,1640,186,172,334,213,410,221
515,547,163,358,1609,78,529,530,403,406
257,1035,82,404,283,1249,1121,1635,425,362,492,251,1008,1460,375,1659
992,164,123,237,177,145,411,89,1594,379
1440,1505,1247,1251,1142,1335,1401,92,989,991
98,419,292,549,1060,1127,1481,1674,302,304,1274,475,543
291,1325,141,208,371,116,181,438,316,349
185,1380,1546,1131,1613,1327,1330,1365,1593,122
1442,324,423,489,521,1033,144,146,340,347,477,1502
1603,387,421,1159,648,330,409,525,1007,435,153
355,1258,235,173,301,366,179,1397,285,317
1665,517,198,426,496,305,1492,216,253,1307,1501,318
249,1318,233,395,493,401,1491,215,1113,319
1660,1602,1356,1328,1363,1334,444,220,1661,1596
472,617,620,686,1070,592,594,692,1014,1368
1474,1122,1480,1547,1611,430,1006,1678,497,315
454,1162,1679,1103,1173,1305,1116,1117,1444,1061,1253,1126,1513,1516,1138,1141
1381,1482,1261,557,1295,1265,1011,505,1466,1275
1124,996,1572,1608,1034,1132,1071,1364,506,1150
1537,868,869,870,871,872,873,874,875,876,877,1589,1624,1625
1379,1478,1518,1137,1013,1303,1339,988,1021,1438
1441,1570,1219,998,1063,1576,1037,1005,1040,1557
1217,999,1096,1066,1009,1457,1553,1555,1560,1215
1057,1410,1123,1350,1095,1329,1395,1140,1302,1213
1153,1634,1637,1605,1606,1352,1323,1324,1676,1407
