0,192,131,10,11,1359,80,1298,1363,470,26,1636,1257,45,47,241,55,381
2,3,4,5,6,7,8,1027,1035,12,13,14,1036,16,17,19,20,21,22,23,24,25,1044,27,28,540,30,31,32,545,36,37,38,39,40,41,1063,44,46,48,51,52,54,57,58,59,62,63,65,1090,1603,69,74,75,76,1104,81,82,83,84,85,86,87,89,601,1628,1117,94,95,96,608,100,103,105,106,107,108,114,115,121,123,128,129,1664,1155,133,135,137,1045,141,145,152,153,664,155,160,165,166,169,170,174,1199,180,183,190,1214,198,199,205,1229,207,209,210,214,1239,217,1255,1266,1270,248,251,1278,255,1289,276,278,280,795,290,297,299,301,823,1337,316,838,329,334,338,1375,1377,364,879,884,377,891,893,896,897,902,393,405,410,411,930,425,427,943,947,436,951,441,442,954,444,956,960,453,471,987,989,991,992,994,995,996,1005,1006
517,262,1543,1673,139,140,525,909,1679,528,147,279,156,158,543,544,162,1059,292,421,1572,296,1065,428,307,822,455,1095,202,203,211,339,467,349,479,1247,482,483,484,230,487,1256,887,510
704,385,674,682,653,1133,944,689,402,722,1680,1621,1686,696,1530,1180,1021
1562,1069,558,1074,1079,1592,570,574,577,580,588,598,603,605,1629,628,1658,647,655,1167,1684,1174,1175,671,1186,675,680,1197,1203,1204,1206,1209,1213,713,717,726,1240,1241,750,1271,761,1314,803,810,814,819,825,826,832,1347,849,853,1378,872,889,894,386,1413,413,939,940,941,945,948,949,952,953,955,957,958,1495,473,488,1520,502,1014,1016,1526
449,326,71,9,1227,1293,1485,596,218,1051,1502,927,1637,1062,423,1137,1458,309,1143
1302,281,1306,1307,1659,29,417,546,303,305,1597,319,1472,837,1350,1223,336,231,1641,233,492,366,367,1392,368,371,375,1403
416,33,1476,260,391,1225,522,1358,851,1276,1334,1623,440,1660,1053
288,1346,1540,1611,783,273,1110,1656,1177,666,606
224,1281,1542,937,396,429,1553,403,631,1338
1420,780,1559,794,284,414,672,551,1070,1469,1341,447,712,595,725,599,223,610,619,238,499
1600,771,775,1512,938,1547,459,1421,1039,1168,566,1591,1048,925
1156,777,657,529,1171,1041,1557,1047,817,690,562,692,184,1084,700,1085,705,579,457,1102,1360,465,597,469,476,1510,1651
1280,1474,1094,1226,330,908,269,524,1482,146,1170,356,49,306,1330,564,1335,1272,1275
384,1217,1349,901,78,911,1169,1522,1652,53
513,773,776,1034,1529,1678,676,1067,1328,1073,1599,201,337,1494,1626,1503,993,1004,111,753,1269,632,1273
905,523,1300,150,1305,154,159,161,801,164,176,308,60,1596,197,711,1224,1610,463,348,1373,222,110,511
576,193,66,1508,1422,112,915,789,1109,1401,986,187,508,990
1216,320,228,1316,392,1162,1106,1277,1116,1149,542,1471
1183,1475,1157,616,1161,716,1072,1619,1207,1080,1018,636,1567
1152,257,258,259,68,1666,265,1419,77,1357,163,1321,250,1008,435,244,1466,445
388,1672,1423,662,406,151,1439,1058,677,1066,686,313,70,1493,607,1382,1000,1645,1007,1655
98,1251,1352,73,1640,395,1134,1296,243,340,820,342,886,1593,283
1609,589,401,1425,343,92,1379,549,1573,998,1511,1643,749,1647,1648,1331,1459,565
739,1348,1444,1384,234,1356,1166,1527,1595,1374
997,1575,1131,684,1071,1399,1402,443,1309,1470
1665,1634,295,1598,266,113,404,181,1114,285,1406
1644,1132,781,748,397,1394,530,409,1594,317,351
1601,387,1092,1219,134,1031,1381,828,331,1040,118,1049,1148,253,191
1504,321,1220,903,1481,1513,1326,1487,1552,122,1565
256,1154,1411,1668,1033,143,1303,541,289,1313,1569,1061,584,1613,1490,1365,988,352,355,742,615,1135,1136,1009,1263,1011,378,254
1667,521,1675,399,1150,1052,1310,287,1056,1574,167,168,172,177,178,182,185,186,188,1088,1604,1221,345,1125,1129,1642,1515,1003,638
480,448,859,478,1159,656,1521,1297,721,249,1147,669,1054
1408,394,1038,1042,277,798,1057,1319,1325,179,438,312,314,446,834,204,1492,1364,221,481,1252,1262,495,1397,379,1405,1279
1285,1093,458,1037,910,1376,1442,1570,485,486,491,1390,496,1010,501,505,1339,189
407,1153,195,196,1669,294,1608,1516,304,913,498,1299,1523,791
1539,1480,275,659,1685,793,282,538,1499,229,613,1454,622,1586,627,373,1144
917,1308,1443,1317,426,302,1332,575,332,1612,1616,1361,1362,1122,614,359,235,237,239,240,629,247
929,931,932,1541,323,1259,1164,1617,594,1554,533,1368,892
772,645,1163,1677,1550,1555,919,1560,1176,1311,1184,673,1571,936,1078,573,327,462,1108,856,474,1631,1632,1519,1013,504,637
1536,1670,1096,652,1046,1118,354,547,1060,358,871,1001,815,497,1140,1142,1663
1446,1447,1160,1479,1099,1327,400,1583,1103,1528,1433,1112,380
1248,1473,1635,1639,1351,1486,1393,1653,1398,1534
1380,1128,1385,1322,1518,1295,1489,1556,1301,1525,1146,1407
1121,1249,1477,1318,1671,1323,1260,1615,1138,1139
1440,1449,1353,1324,1488,1649,1333,1400,1145,1661
1282,1253,1254,1127,1320,1355,1261,1265,1395,1465,1274,1662
1410,1124,1383,1576,1483,1457,1396,1141,1467,1215
1123,1674,1676,1424,1264,1429,1336,1404,1115,1500,1566
1120,1409,1602,1250,1605,1638,1258,1491,1460,1462
