0,1604,1093,510,583,1673,522,1331,1112,381,1470
1,36,135,10,211,307,85,53,222,1663
256,1665,257,2,3,261,7,266,11,269,15,271,20,278,23,25,283,27,155,35,37,38,295,299,428,44,48,432,178,51,436,55,312,57,314,59,60,61,318,63,64,68,71,456,74,205,78,81,82,84,342,87,216,89,90,217,92,93,351,96,353,99,357,359,233,106,234,108,364,235,372,116,377,250,255
992,325,5,133,40,1605,1038,210,180,404,1556,183,1307,157
134,1675,12,143,145,1361,164,167,239,1263,177,1648,1400,123,189,1214
98,100,70,203,302,304,94,24,1278,350
453,169,170,496,188,181,214,438,28,1406
547,163,358,1479,1133,1645,240,1616,1362,403,117,406,31
160,129,1255,41,107,209,114,115,86,62
1408,131,132,1092,136,268,461,464,416,1254,1510,173,562,179,52,1399,191
355,1606,360,361,1385,301,279,56,281,317
192,65,483,197,199,554,1299,341,408,313
321,66,1667,260,1476,528,466,348,1052,1053,286,118,568,1145,378,507,638
291,103,137,139,141,1392,471,280,121,415
448,1597,104,142,253,285,539,316,349,159
1443,1124,1157,1572,1608,204,1132,1358,111,402,339,1364,440,1150,1503
387,185,421,1159,648,330,171,409,525,1007,435,153,122
168,425,367,147,212,379,411,1306,1115,380
1603,1380,166,1546,1131,1613,1327,1330,1365,1593
1379,644,420,645,326,536,1518,400,275,1043,662,664
320,327,331,524,333,334,335,1617,468,538,293,1573,553,556,1136,1595,1471
515,488,1068,337,305,529,530,601,444,412
1152,1602,516,1671,1672,457,1487,1298,1439,481,546,1321,491,1643,565,503,1404,1405,446
480,576,450,484,1257,523,463,495,1598,479
1664,451,549,487,652,1042,505,475,604,543
454,1162,1679,1103,1173,1305,1116,1117,1444,1061,1253,1126,1513,1516,1138,1141
1127,1161,1034,1261,494,1071,1011,1044,1046,1338
1089,1090,1031,1244,889,1453,883,884,885,886,887,1656,888,890,1205,1206
1120,1123,1256,1609,1128,1067,1260,1147,1148,989
1217,999,1096,1066,1677,1009,1457,1555,1560,1215
1057,1251,1095,1065,1674,1134,1554,1140,1465,1213
1248,1121,1250,1635,1249,1258,1135,1113,1118,1279
1323,1357,1393,1394,1139,1333,1397,1336,1403,1407
1410,1411,1353,1322,1359,1329,1395,1396,1142,1462
1472,1153,1252,1319,1320,1324,1262,1334,1337,1661
1440,1477,1350,1318,1642,1332,1302,1335,1401,1402
1666,1636,1637,1638,1640,1641,1552,1649,1500,1566
