0,1665,1604,1093,102,583,1673,522,75,1331,381,510
1,1443,1124,364,1132,78,211,1364,1150,1503
129,2,393,266,17,276,21,278,165,41,1325,58,1594,62,74,209,82,84,86,1114,96,1255,105,362,107,114,371,115,377,1659
257,1282,3,390,7,265,10,1035,140,13,269,272,19,20,154,155,283,35,38,296,44,428,47,431,49,178,54,55,57,59,60,1468,190,319,68,69,71,80,213,87,215,89,90,217,92,344,991,95,1505,994,1247,357,230,359,235,1644,116,372,250,1278
133,5,404,28,40,169,170,46,51,180,181,438,188,61,195,453,1605,198,1354,207,210,1492,214,992,232,365,496,375,248,251,1406
65,194,516,197,134,12,143,145,1118,97,481,1635,164,167,172,177,1333,503,123
1409,135,264,16,274,1045,25,27,32,36,298,50,307,53,314,1355,85,342,478,353,1383,376,1662,255
417,1601,258,323,1381,262,79,1264,184,26
547,163,358,1479,1133,1645,240,1616,1362,403,117,406,31
34,185,100,70,330,203,1131,1330,1593,122
1668,1669,646,1607,138,1610,534,1304,1049,986,990,287,228,1382,39,1010,308,1272,511
355,1606,1319,361,301,1262,279,56,281,317
321,66,1667,260,1476,528,466,348,1052,1053,286,118,568,1145,378,507,638
67,1444,548,1126,424,584,267,1550,603,541
318,261,73,426,627,216,1112,127,1470,1663
352,612,326,586,109,77,1551,597,1048,1438
325,231,1038,174,336,83,1556,183,1307,157
550,294,1464,1036,1677,1519,1615,1457,1553,660,373,88,219,542
544,98,234,587,1515,302,1168,149,1565,350
130,1572,1157,1608,204,236,110,111,1358,339,440
1217,999,1096,1384,1066,1009,1555,1560,120,1215
132,1160,136,137,1676,141,280,285,415,159,161,179,441,1597,448,1351,1352,202,471,349,1634,1639,1392,253
324,1033,144,1040,146,340,1557,347,1441,1442,1570,998,423,1576,489,1005
168,425,367,1295,1265,147,379,411,1466,1275,380
153,387,1380,421,1159,648,1546,525,1613,1327,435,409
1603,166,395,171,397,1007,401,1365,410,222
608,1569,229,1094,1000,1326,176,564,310,254
192,193,446,457,1675,1299,341,408,483,554,491,1263,565,1400,313,189,1214
577,1154,388,391,1099,1612,593,532,1561,218,606,997,1512,1266,566,1276,1151
1122,227,356,1480,619,1611,430,1006,497,315
422,360,297,394,332,1260,470,1337,444,1661
1120,1153,1472,1123,1252,1128,1256,1320,427,989
1602,487,1482,652,1071,442,439,505,506,445
450,1475,546,1641,1642,523,463,1552,1336,1566
451,1411,1318,1353,1034,1643,1359,1396,1302,1405
454,1162,1679,1103,1173,1305,1116,1117,1061,1253,1513,1516,1138,1012,1141,569
1410,996,1350,455,1672,1322,1323,1329,1395,1499
482,549,459,1483,557,543,1554,1146,540,1439
484,1637,1095,1065,1134,1042,1491,1140,1403,1213
1664,1477,1511,490,1357,1486,1459,1046,1500,1501
1463,1379,1478,1518,1303,1137,1043,1143,536,1339,988,1021
609,1127,1161,1261,1487,1522,1011,1397,1338,575
1289,823,1199,816,1425,1426,820,822,1623,825
840,841,842,843,844,845,846,847,848,1290,1291,1427,1428,1452,1688
1152,1249,1257,1258,1321,1008,1139,1460,1113,1598
1248,1121,1250,1251,1638,1135,1394,1142,1462,1279
