0,1604,1093,510,583,1673,522,1331,1112,381,1470
1,3,4,10,11,15,16,19,20,23,24,25,27,34,35,36,37,38,42,44,47,48,51,53,55,57,59,61,64,68,69,70,71,72,73,74,75,78,80,81,84,85,87,89,90,91,92,93,94,96,98,99,100,102,105,106,108,110,113,115,116,627,127,128,1663,130,135,140,144,146,155,190,203,205,211,213,221,222,225,1255,233,234,235,236,250,254,255,256,257,259,261,266,269,271,272,283,299,302,304,307,310,312,318,319,342,350,357,359,364,370,372,426,428,431,456,994
1665,129,2,6,7,393,1035,17,21,278,160,290,295,41,432,58,62,63,209,82,215,216,217,351,95,107,114,377,1278
5,133,1038,404,1556,1307,157,40,169,170,180,181,438,183,188,195,1605,325,198,453,1354,336,210,83,1492,214,992,231,365,496,375,251,1406
1217,1464,8,1096,1066,1384,1036,1677,1615,1553,1457,1555,1560,1215
1670,329,526,18,150,343,151,152,30,1504,354,995,551,1130,45,1647,243
1601,258,323,26,1381,262,79,1264,1265,1295,184,1466,1275
547,163,358,1479,1133,1645,240,1616,1362,403,117,406,31
32,1409,478,1383,264,298,1355,50,274,1045,376,1662
1668,1669,646,1607,138,1610,534,1304,1049,986,990,287,228,1382,39,1010,308,1272,511
1505,1282,991,390,230,296,265,1644,49,344,154,1468,1247
416,1408,131,1092,1254,1510,268,461,464,562,52,1399,1306,1115,191
1153,530,281,1319,1320,427,1067,1068,1324,1334,56,1337,1472,1216,1606,1609,337,989,1120,1123,1252,360,1128,1256,1260,1262,368,1147,1148,1661
192,65,194,193,197,200,1675,1299,341,408,97,162,1125,177,1400,186,123,1214
321,66,1667,260,1476,528,466,348,1052,1053,286,118,568,1145,378,507,638
67,584,267,1550,1103,1679,1173,1305,541,1444,1061,1126,548,424,1516,1138
196,1481,1356,76,206,1363,1596,419,1060,292,363,1328,241,242,1274,1660
1463,1379,1478,1518,1551,400,1043,1303,1048,1339,1438
1160,1676,539,285,159,415,161,316,1597,1351,1352,202,471,349,1634,1639,103,104,1392,121
1443,1124,1157,1572,1608,204,1132,1358,111,339,1364,440,1150,1503
153,387,648,330,1131,525,1330,435,1593,122
544,1059,1001,1097,587,1515,1168,1296,1490,149,987,1565
1603,1380,421,185,1159,1546,1613,1007,1327,1365,409
640,545,1058,1514,1163,1419,237,1578,244,1300,535,249,247,252,607
674,1114,362,492,1325,366,371,276,277,1594,1659
320,327,331,524,333,334,335,1617,468,538,293,1573,553,556,1136,1595,1471
384,513,322,1122,356,1474,1547,396,1611,1006
1441,1442,1570,324,998,423,1576,489,1033,1005,1040,340,1557,347
1473,1156,1574,519,328,1386,527,656,369,1521,1525
704,1313,1184,420,742,718,721,730,699,701
480,1440,1477,1065,1674,523,1486,439,477,1118
451,1672,1257,1482,459,1166,1359,1008,604,445
1410,1638,1511,455,1134,463,1487,1042,1460,475,1404
996,1158,1642,1034,652,1071,1106,1522,1332,1046,505,474,1439
1250,1318,1640,1258,1357,1169,1649,1336,1465,479
1152,481,1411,1350,1641,557,1393,565,1403,1500
482,1475,678,1095,1671,1353,543,493,1338,1407
1248,1121,484,517,1063,1483,1261,1298,1554,1044
516,490,1322,1552,1394,1396,1397,1462,503,1113,1279
1249,1602,1321,491,1643,1139,1302,506,1499,1598
1664,1636,1323,495,1011,1459,1333,1142,1405,1501
1635,1637,1502,521,1037,1329,1395,1401,1213,1566
1632,1311,1509,585,1259,1164,1580,559,1039,561,533,1559,1144,637,1631
576,1219,1146,1002,1614,1135,1491,1140,1402,575
1024,1025,1422,1423,785,786,787,788,789,790,791,792,793,794,795,796,797,798,799,1563,1192,1193,1194,1584,1084,1085,1086,1346,1223,1652,1531,1532
