1,36,135,10,211,307,85,53,222,1663
2,3,4,7,11,15,16,19,20,23,25,27,35,37,38,44,47,48,51,55,57,59,60,61,63,64,68,69,71,73,74,78,80,81,82,84,87,89,90,92,93,95,96,99,106,108,110,113,627,116,128,1665,155,178,205,213,216,217,233,234,235,236,250,255,256,257,259,261,266,269,271,272,278,283,295,299,312,314,318,319,342,351,353,357,359,364,370,372,377,426,428,431,432,436,456
992,325,5,133,40,1605,1038,210,180,404,1556,183,1307,157
289,550,294,1384,8,300,1036,1519,1615,660,182,1464,156,542
134,1675,12,143,145,1361,164,167,239,1263,177,1648,1400,123,189,1214
290,165,105,393,42,1035,13,17,21,190
1282,390,265,14,208,344,154,29,991,1247,1505,230,296,1644,49,187,1468
1670,329,526,18,150,343,151,152,30,1504,354,995,551,1130,45,1647,243
98,100,70,203,302,304,94,24,1278,350
453,169,170,496,188,181,214,438,28,1406
547,163,358,1479,1133,1645,240,1616,1362,403,117,406,31
1409,264,1355,395,397,401,274,1045,410,478,32,417,1383,298,50,376,1662
160,129,1255,41,107,209,114,115,86,62
207,276,277,1114,674,232,362,492,1325,174,46,366,371,248,1594,1659
192,65,483,197,199,554,1299,341,408,313
321,66,1667,260,1476,528,466,348,1052,1053,286,118,568,1145,378,507,638
196,1481,1356,76,206,1363,220,1596,419,1060,292,363,1328,241,242,1274,1660
352,612,586,77,109,597,374,1303,1048,636
195,198,231,1354,365,336,83,1492,375,251
124,1553,1170,245,246,373,88,219,120,126
291,103,137,139,141,1392,471,280,121,415
448,1597,104,142,253,285,539,316,349,159
1600,1495,1360,119,1271,632,1498,1467,508,1277
387,185,421,1159,648,330,171,409,525,1007,435,153,122
168,425,367,147,212,379,411,1306,1115,380
1280,385,1094,650,1484,589,270,1297,148,608,1569,229,1000,1326,176,564,1270
544,1059,389,1001,1097,587,1515,1168,1296,1490,149,987,1565
1603,1380,166,1546,1131,1613,1327,1330,1365,1593
577,1154,388,391,1612,593,532,1301,1561,218,606,288,615,1512,566,1469,1151
515,488,1068,337,305,529,530,601,444,412
1441,1442,1570,324,998,423,1576,489,1033,1005,1040,340,1557,347
579,581,582,1413,345,595,1273,346,443,572
517,455,490,493,1008,1460,439,442,540,445
1152,1602,516,1671,1672,457,1487,1298,1439,481,546,1321,491,1643,565,503,1404,1405,446
480,576,450,484,1257,523,463,495,1598,479
1664,451,549,487,652,1042,505,475,604,543
454,1162,1679,1103,1173,1305,1116,1117,1444,1061,1253,1126,1513,1516,1138,1141
512,482,521,1482,459,1483,557,1614,477,1502
1127,1161,1034,1261,494,1071,1011,1044,1046,1338
1475,996,1511,1486,1459,1491,1461,506,1499,1501
800,801,802,803,804,805,806,807,1347,812,1197,1198,1424,1533,1534,1535
1026,808,809,810,1195,811,813,814,815,1196
1478,1551,1137,1013,1143,1463,1339,988,1021,1438
1120,1123,1256,1609,1128,1067,1260,1147,1148,989
1217,999,1096,1066,1677,1009,1457,1555,1560,1215
1248,1121,1250,1635,1249,1258,1135,1113,1118,1279
1323,1357,1393,1394,1139,1333,1397,1336,1403,1407
1410,1411,1353,1322,1359,1329,1395,1396,1142,1462
1472,1153,1252,1319,1320,1324,1262,1334,1337,1661
1440,1477,1350,1318,1642,1332,1302,1335,1401,1402
1666,1636,1637,1638,1640,1641,1552,1649,1500,1566
