0,1331,510,583,1112,522,1470
1,130,78,529
121,2,471,40,137,415
3,132,281,279,105,1114
51,355,4,139
23,5,133,183
436,28,6,231
994,7,446,431
156,1384,660,8,1036,1519
120,1457,373,246
449,1458,306,1398,649,458,9
312,186,10,200
1475,11,565,38
481,372,1477,357,1352,1500,12
232,393,362,13
170,365,14,375
208,371,221,172,1325,334,15
16,1491,1671,104,27,255
17,42,21,165
18,45,244,1250
336,19,276,87,59,1403,174
1113,250,35,20
282,467,405,22
24,1672,94,1046
25,57,335,495
184,1601,26,1295
1152,80,167,1035,380,29
1121,1397,470,30,1258,237,366
1298,93,350,31
32,264,50,1409
224,33,101,1567
34,1411,1636,100,1666,203,1134
490,1042,36,135
576,1552,418,37,91
228,1669,308,39
41,58,129,62
108,43,428,269
44,55,1598,71
48,248,74,46
422,1462,56,1357,47
344,49,1282,265
191,52,1092,1399
53,70,166,1322,171,222
217,450,523,54
1008,193,134,1606,60
280,1394,61,103
96,377,106,63
64,113,266,277
65,212,1639,1351,491,1324,253
321,66,260,378,1052
1305,67,1173,1103
1649,68,233,395,493,319
1153,1634,1676,69
557,1011,487,72,505,1482,1261
216,75,1067,127
419,76,206,1334
400,275,77,597
258,323,262,1466,79
128,81,299,278
1392,1321,82,1406
83,251,190,1255
1139,84,325,207
353,85,342,1640,1065,442,1499
160,290,107,86
88,245,1677,1615
379,89,177,164
455,1251,359,90,92
187,95,1278,159
272,97,1637,1638,295
304,98,549,302,543
1410,99,259,1350,426,1213
102,521,540,1502,1385
352,612,988,109
402,1034,110,1071
339,1124,440,1503,204,111
112,616,1301,429
432,209,114,115
178,155,116,285
1616,1362,1645,1479
117,403,1133,406
528,1145,568,118
632,119,629,1495
648,122,1603,330
1256,145,123,411
1560,289,219,124
1553,126,294,542
416,1408,131,1510,1306,1115,268
136,427,301,448
1304,1668,1382,646,534,138,511
1257,140,1333,142
181,438,169,1659,141,1262
457,194,189,143
512,1216,144,601,1483
146,1219,477,1063
168,147,367,1472
544,587,149,1515
1402,1461,150,479
151,1130,995,1647
225,453,214,503,152,1279
153,409,525,1159
154,1644,1468,991
210,180,404,157
417,1460,158,1511
161,314,307,188
480,162,213,410
240,547,163,358
317,179,173,235
331,445,1302,175
176,1297,564,1569
1170,300,182,550
387,435,185,1593,1613
192,197,341,408
627,195,198,1663
196,220,444,1661
515,1044,199,652,205
690,618,605,1646
211,456,1609,202,441,364
249,401,1318,215
593,218,1220,532
1600,226,499,614,1549,238,223
1360,993,1269,1129
1474,227,396,407
1505,390,230,296,1247
256,1554,234,1643,604,271
506,451,236,996
1361,554,483,239
241,363,292,1481
1328,242,1660,1274
1670,243,526,343
1664,1405,389,247,333
252,1300,1509,1631
1002,1166,254,1439
425,394,283,257
1465,546,261,1487
1281,567,582,263,392
1061,1116,1117,454
424,569,548,1550
1513,1444,1012,1516
1326,385,650,270
1000,1270,1484,1094
574,692,1070,679
672,1107,1181,686
592,273,1075,655
376,274,1355,298
386,345,399,303,595,311,1273,443,284
466,1476,286,348
1049,986,287,1607
1320,291,316,349
297,539,332,361
382,675,309,1062
1169,459,1404,310
1400,313,1299,1648
497,1547,356,315
1123,1147,1501,318
320,468,524,327
1040,1441,324,423,489,347
644,645,326,1463,586,1339,636
1504,329,354,551
368,338,530,1260
1576,1570,340,1557
1641,1332,1486,351
360,1249,1635,1252
496,674,370,1492,1354,1307,463
1013,374,1021,1518
1673,1604,381,1093
611,685,563,1054,1055
1064,653,693,571,383
1680,434,1312,1494
516,484,1407,1323,397,1135
609,1522,676,488,412,1068,1101
1618,1580,501,1311
1106,420,452,678,1338,1614,575
1546,1380,1365,421
619,1611,430,1678
1353,1396,439,1359
1019,500,1414,447
1017,1018,1387,1308
1369,465,460,469
628,596,1079,631,684
464,562,461,1254
1602,475,1127,1674
478,1045,1662,1383
1594,492,1605,1038
507,1667,1053,638
514,519,1525,527
1057,1140,517,1095
536,664,662,1551
545,561,585,1163,1164,669,559
689,659,1574,1575,552
1650,1156,1149,1599
1073,682,677,639
579,572,581,1413
1144,1514,1632,637
695,711,1343,1447
705,1314,737,728,733
1185,722,1221,1109,696,697,700
1651,1621,1238,1527,748,749
745,738,1582,743
730,716,725,703
768,769,775,1389,755,1622
780,779,772,773
1288,784,782,783
752,753,1420,751
1186,1682,754,1189
759,756,757,1191
1240,1241,1562,1110
761,1242,764,765
778,770,771,766
760,1187,1222,758
1083,1188,1421,1239
762,763,1190,774
776,1345,777,767
1449,1530,1529,781
1296,1490,987,1565
1120,1642,1128,989
1272,1010,1610,990
992,1160,1597,1319
1266,1099,1276,997
1033,1442,1005,998
1096,1009,1464,999
1168,1097,1059,1001
1480,1122,1102,1006
1007,1330,1131,1327
1048,1043,1478,1143
1051,1277,1366,1271
1056,1568,1571,1485
1363,1060,1596,1356
1217,1066,1555,1215
1248,1393,1336,1118
1675,1125,1214,1263
1138,1253,1126,1679
1443,1132,1157,1150
1137,1379,1438,1303
1440,1401,1142,1335
1329,1395,1148,1337
1264,1265,1275,1381
1608,1572,1358,1364
1665,1459,1556,1566
