0,1,2,4,6,8,1035,13,14,530,21,23,26,28,29,30,546,35,38,39,44,45,46,51,54,56,57,58,59,61,62,63,64,69,74,81,82,83,84,87,96,100,106,107,108,1137,114,115,121,1659,128,132,160,165,169,172,174,179,180,183,186,188,190,198,205,207,208,209,212,215,216,217,220,1252,230,231,248,255,266,276,277,278,795,290,291,1336,329,361,364,365,377,401,417,422,423,424,446,992,994,495,496
1537,1281,1291,396,1420,1551,1171,1186,808,556,1070,1198,688,1074,1589,825,1085,830,1599,447,715,1100,846,848,594,595,1619,1237,598,1624,1625,1368,1369,1371,472,740,869,870,743,872,873,874,876,877,761
771,1220,1096,1547,1550,1560,1176,730,988,541,1309,1567,1058,1571,1508,550,1382,1066,822
131,135,1673,148,149,151,25,282,155,156,158,161,163,171,303,177,52,187,194,707,196,203,851,986,1254,1389,1012,1143,1272
1443,1667,1157,1127,457,267,1613,271,440,1117,510,31
32,1569,419,996,1381,1639,330,524,1647,1330,1490,373,381
256,1505,1154,1247,1126,236,1644,1297,1522,1660,351
99,68,37,838,1000,1578,1422,272,1010,243,1653
1475,584,1612,333,1040,1361,989,1053,483,1060,677,678,1575,41,1265,307,1523,191
273,537,666,1181,1196,1203,826,571,1342,1344,708,709,712,1231,1621,610,741,1510,613,617,110,750,639
192,225,1282,259,1636,1546,1135,80,49,176,1009,1363,1499,991
357,1670,1643,1645,1295,1263,1554,1302,1399,1306,1277,1471
289,450,390,1001,1486,1423,305,1364,343,312,60,94
1152,1671,1352,73,1323,525,1457,1395,411,1438
1664,355,1449,75,491,1466,1139,1594,317,318
416,387,1672,76,237,1356,1264,689,308,341
449,200,144,1299,1429,213,859,159,864,101,1384,1513,493,1261,1008,1334,1274,1275,126
1668,645,1183,1570,549,554,1476,837,582,1095,1481,1485,1365,350,1118,1253,1257,112,117,1142,120
1280,1413,1133,817,465,1652,1366,1494,1019,1149,542
321,995,517,134,1511,1640,304,1362,820,1045
774,1286,782,1180,1182,288,1190,682,1068,1588,693,182,185,1469,703,1343,468,735,362,748,370,504
1410,263,269,1566,1440,1063,296,1321,1325,1327,432,1458,564,310,1335,1465,314,1467,445,448,322,1474,1351,456,1223,334,462,1487,1491,1495,344,1113,1115,604,478,479,1248,354,1250,1123,360,1128,1256,1136,499,1396,1397,1140,1270,1148
1120,481,1634,1603,393,301,1262,336,1392,436,1492,285,1598
997,294,327,300,302,1358,607,1553,698,1339,1151
1219,1359,1617,1173,1561,347,1184,295,999,297,298,555,557,1005,1338,1214,575
576,454,1033,397,1649,316,503,1402,1404,1470
323,1576,779,461,1166,1103,1425,1146,540,1501
1408,1249,1473,328,1322,716,1676,1460,1333,1401
1441,1092,485,615,1067,1037,1488,337,1556,606
801,1604,998,807,338,1331,340,565,1459,1400
356,1353,1419,1260,1329,372,376,1497,1596,1279
1411,522,1038,664,409,1307,415,421,1318,1319,431,1462,1597,834,1482,359,1255,490,506,1403,1278
1472,1153,1638,1606,425,427,428,1298,534,379,1500,1663
418,803,1477,1607,400,1296,1042,501,444,380
385,1379,1479,1608,1610,1002,1357,1007,1044,1503
1217,1124,581,388,1514,1642,815,1648,1308,1215
1536,1121,1666,389,426,394,1324,1326,1393,1405
1088,867,1347,1285,486,1288,1069,1102,1104,1489,1557,1014,603
827,1415,1160,714,845,813,494,562,1587,754,413,632,539,861,1534
993,776,1480,1003,429,1071,1679,1073,435,1273,508,1021,1310
544,482,1380,1383,1674,1131,1515,1011,1141,442
1601,455,1320,1258,1552,497,1332,1493,1112,1407
640,1635,644,492,526,1134,1424,1169,1518,470
