0,1604,1093,510,583,1673,522,1331,1112,381,1470
1,130,456,1256,202,211,441,506
128,2,82,180,5,248,490
1120,3,42,139,235,1394,1462,1403,1597
81,137,4,436,276,169
6,278,40,105,492,46
1152,7,167,297,332,431,80,380
1056,1458,1571,405,1398,9,1485
480,417,1477,102,10,207,16,272,312,411,30
1410,195,1639,11,1404,141
1511,1319,491,12,366,145,1139,20,565,158,446
994,422,13,496,1492,57,1307,190
1665,546,1605,231,365,14,27,29,1598
516,1113,250,172,221,334,15
129,17,114,115,325,21,377
225,18,244,503,45,1279
1472,178,19,116,87,155
448,113,471,23,74,174
1405,389,1046,1672,24,333,94
1664,484,261,1258,75,1323,1676,372,1333,25,410,1407
213,103,415,28,61,375
256,234,1643,271,1298,1554,604,93,350,31
34,1411,1636,100,1666,203,1134
35,134,59,1322,140,1552,1397,89,379,285
161,530,36,453,299,188
1169,37,1606,53,1465,171,1661
38,123,56,1321,1594,142,361
64,96,48,336,360,44,157
1637,135,136,104,237,47,1393,177,51,470,316,220
1505,1282,49,1247,344,1644,991
450,1641,523,1486,1332,54,217,351
368,338,349,55,652,205,1663
1634,295,1392,84,181,280,60,1406
65,1350,71,1128,1640,1357,1459,212,310,1336,1566,159
68,1318,233,395,493,401,1649,215,249,319
1153,164,69,1252,1320,1038,463,1487,1042,83,95
1248,1121,162,515,70,1257,1324,1166,305,85,247,186,91
482,1351,488,73,521,1147,989,1502
996,200,1609,426,1642,1260,78,529,251
1264,1601,1265,1295,1381,1466,79
1096,1384,1677,1615,1009,1457,1553,1560,88,1215
1440,1251,359,455,1142,1335,1401,90,92
97,194,1638,457,189,143
98,1602,549,1127,1674,302,304,475,543
160,165,277,183,266,107
402,451,1034,236,110,1071
1124,1572,1608,1132,1358,111,1150,1503
288,1220,391,1512,1612,112,1301,1561,1151
547,163,358,1479,1645,1133,240,1616,1362,403,117,406
1603,648,1546,1131,525,1330,409,122
1556,1483,127,1037,1118,1135
355,132,279,281,427,301
133,393,1325,1262,208,371,214,253
1668,1382,646,138,1010,534,986,990
179,147,168,394,317,173,367
1504,995,1670,151,1130,1647
1250,166,1671,495,335,307,1491,152,314
153,1380,1159,1593,330,1327
387,435,421,1365,185,1613,1007
1057,199,1352,459,1044,254,187,444,222
1408,1092,1510,1254,464,1399,1306,1115,191
992,193,418,481,198,438,397
1060,292,1481,1356,206,1328,1363,1274,1660,1596
896,1543,1225,906,1226,954,893,1374,959
1544,917,1686,1317,939,940,941,942,944,945,947,948,949,950,952,953,1209,955,1592,957,958,960,1228,1229,1629,1378,1658
1329,1395,1140,517,1095,216,318
384,1474,227,580,396,1006,1678,497
1008,257,1249,1635,1460,425,283
321,1667,260,1476,528,348,1145,378,1052,1053,638
1136,1617,293,1573,327,1595,1471
1409,1045,1383,298,1355,1662
513,322,1122,356,407,1480,1547
512,1475,357,1447,711,1067,337,695,601,1148,1501
1441,1570,340,1557,1033,1005
1183,1313,1314,1221,742,1385,749,1582,719,722,1109,1526,725,730,539,1439
544,1296,1490,1059,1515,1565
1058,1311,1559,1514,1419,637,559
1186,773,780,1420,782,783,1529,1522,1110,761,1562
704,1184,1216,1334,1080,1002
1376,1348,903,1224,908,909,910,1375
929,931,932,1541,933,1542,936,937,938,1316,1591,1454,919,915,916,1685,1207,925
