0,1,3,515,5,7,11,12,13,16,17,18,19,20,21,23,24,25,28,29,30,31,32,33,34,40,42,44,46,51,56,57,58,59,60,61,64,65,66,68,74,75,76,79,80,81,82,83,84,86,87,88,601,89,1628,93,95,96,97,98,100,104,105,106,113,115,627,119,121,123,124,125,133,136,139,140,146,147,151,152,154,155,159,162,164,166,167,168,169,171,172,173,174,177,178,179,180,181,183,186,190,191,192,193,194,195,196,197,198,199,200,202,204,205,206,207,210,211,214,215,218,220,221,222,230,1255,235,242,244,248,253,1278,255,259,260,262,263,266,268,269,1301,277,281,285,291,295,321,322,325,837,328,332,335,349,351,354,358,359,360,361,364,366,368,372,375,376,377,379,390,393,394,395,911,401,404,405,406,409,930,425,943,441,956,453
128,2,4,6,107,1035,1325,251,278,1659
256,352,1253,1125,9,1481,523,1675,1613,530
10,906,422,1324,557,302,176,1331,565,467,212,1363,343,1505,353,1382,108,1655,249,1151
385,387,1348,73,908,14,1488,1493,608,485,683,239,815,497,1524,1270,1400,381
134,265,138,909,15,26,416,546,1060,421,38,424,47,50,951,445,576,1601,1219,1357,1373,225,355,1380,103,1385,237,1138,1139
901,1423,400,1298,27,35,45,48,307,54,55,1474,1353,463,1616,85,92,94,356,748,1662
36,1225,1229,1006,1261,1326,1395,1118,1565,1214
1154,1667,1541,1671,39,1672,1642,1332,1596,1661
1216,644,1355,1483,77,798,1384,41,233,1643,300,1644,1518,1011,1272,1146
1094,1674,910,1361,466,1306,90,1375,1248,163,998,487,1574,49,442,380
897,258,482,420,450,1057,1351,1379,91,333,1486,52,1657,603
1317,933,1515,240,629,1685,1303,185,1308,62
160,992,1603,165,329,209,114,1462,795,63
320,1217,323,70,391,1543,828,652,1126,1575,234,1194,1582,698,507,1276,254,1471
1549,914,1171,1435,1182,1447,938,952,703,831,966,71,711,968,967,970,595,599,856,731,232,753,1266,1269,631,1273
931,1446,135,1000,1358,1263,304,1297,592,1523,954
101,934,423,1161,1550,1299,568,120,126,127
961,1475,1124,357,102,649,1422,1519,1364,789,503,344,1629,158,286
1122,1251,619,110,309,1399,250,1052,958,1503
129,1665,131,132,137,781,141,142,276,280,1307,290,297,170,299,301,436,1598,1472,456,208,1634,231,367,1392,1394,371,116,887,1406
960,1352,1359,1617,153,1497,1305,730,1049,862,936,1007,1135,1264,1327,1654,122
1280,513,130,261,461,1489,662,1048,345,1309,671
1636,1640,1546,1099,1553,721,1557,1560,1433,1144,927
1476,902,999,459,1390,399,1362,148,917,1463,604,1149,542
1570,1036,1037,1454,1647,1009,1265,243,1402,988
161,292,454,1511,937,1001,203,1296,182,316
1409,1092,517,334,1424,1552,274,340,213,1623,217,475,1438,1381,294,1008,319
224,993,1316,997,614,486,1061,1107,1686,346
1313,227,1611,1293,1166,1137,1106,1108,1109,986
1127,1607,521,871,331,493,241,501,886,1374
257,451,1159,650,1356,1040,1173,597,540,669,989,990,1660,1063,1576,1513,1514,1652,636
289,1220,676,1322,270,272,1522,411,348,541
996,389,1254,528,338,342,1398,1053,1502,287
1539,516,296,1256,298,431,559,305,1554,313,1595,477,318
1573,1096,1128,1066,1164,1103,1199,1365,312,1018
544,1504,428,526,1329,884,1145,314,347,415
1221,582,550,1608,440,554,913,1586,1528,569,892,317
1536,834,1635,1638,1641,336,1429,410,1405,1470
481,418,491,365,495,1397,664,1114,1597,510
386,645,1030,1288,658,788,1687,1190,1084,1343,585,717,1230,462,976,977,978,1233,980,1621,1234,473,476,1245,1246,735,610,738,867,741,750,882,626,1271,761
1024,833,1545,714,1548,720,946,979,922,571
609,774,433,1235,691,949,790,959,1562,1311
417,1383,1257,1115,1134,1487,1170,1044,1142,1275
480,898,419,1604,739,903,584,1274,572,1439
448,1223,1320,490,427,492,1460,470,859,446
1606,838,807,489,1258,525,879,432,1491,893
1664,1441,1669,1639,1226,1648,435,1140,1500,1566
801,1442,929,1666,1479,875,820,438,1046,444
640,611,483,678,455,905,1458,1626,443,1148
1408,1121,1473,1440,1350,1407,1449,1335,1501,479
896,1477,1542,1033,587,524,589,782,1556,727,1499,991,545,484,1065,1645,1215
1602,1609,1419,1612,1615,496,1649,1045,1627,1663
1120,1153,994,1252,1605,1319,1260,1042,1113,543
1250,1411,549,1318,1401,1393,1425,1492,1334,1593
1056,1249,1152,1130,1131,749,1459,1653,1302,1247
1410,1321,1323,1466,1396,1333,822,1336,1594,1403
1349,1224,1482,1676,1132,1038,1112,1147,1404,1279
