0,1604,1093,510,583,1673,522,1331,1112,381,1470
1120,3
81,4
1080,716,727
706,740,710,714,1100,717,750,1388,724,1237,729,1082,734
1286,718,719,1619,723,725,1081,730,1182,703
704,707,1343,720,735
721,1235,1108
1287,1185,1314,1315,1448,1582,1583,696,697,700,1344,705,1221,712,713,715,1233,722,1620,1109,1621,1236,1238,726,728,731,732,733,736,737,738,739,741,743,744,745,746,747,748,749,1385,1651,1526,1527,1528
48,157
1594,142
1597,166
253,69
171,1661,1606
448,74
711,1614,695
1392,84,1406
1114,362
195,1639
140,116
136,427
1313,709,742,1234,1371,694,699,701,1342,1183
1184,698,708
702,1447
301,366
488,1351
5,183
6,231
7,431
8,1036,1677,1553,1555,660,1560,156,542,550,294,1066,300,1457,182,1464,1215,1217,1096,1615,88,219,999,1384,1519,1009,245,246,373,120,124,126
649,9,405,22,282,1567,1056,1568,33,1571,1458,306,449,458,1485,467,224,101,1398
200,10,312
11,565,38
372,12,357
13,190
29,14
250,15
16,25
225,45,18,244,503,1279
19,87
389,1672,333,1046,24,1405,94
1601,258,323,26,1381,262,1295,79,1264,1265,184,1466,1275
1258,1397,30
256,234,1643,271,1298,1554,604,93,350,31
32,1409,478,1383,264,298,1355,50,274,1045,376,1662
34,1411,1636,100,1666,203,1134
36,135,1322,490,53
91,37
576,418
228,1669,1382,1607,646,39,1610,287,308,1272,1049,511
1668,138,1010,534,1304,986,990
40,133
42,165
43,108,428,269,1461,150,1402,479
1257,44,1333,1598
1336,47
1505,1282,390,230,296,265,154,1644,49,344,991,1468,1247
51,139
416,1408,131,1092,1510,1254,268,461,464,562,52,1399,1306,1115,191
450,1641,523,1486,1332,54,217,351
1321,55,71
56,1153
104,57
1139,1394,59,1403
60,134
61,103
64,436
65,1642,1475,491
321,66,1667,1476,260,1052,528,466,118,568,1145,378,507,348,1053,638,286
267,1550,1679,1173,1305,541,1444,548,1061,424,67,584,1103,1116,1117,1253,1126,1516,1138,1012
68,1318,233,395,493,1649,401,215,249,319
70,1042,222
487,72,1482,557,1261,1011,505
73,1123,305
1057,75,1501
1660,419,196,292,1060,1481,363,76,1356,206,1328,241,242,1363,1274,1596
644,645,1551,400,275,1043,662,1303,536,664,1048,1438,1463,1339,326,1478,586,77,597,988,352,1379,612,109,1518,1137,374,1143,1021
1609,130,529,78
1152,80,380,167
83,365
1640,85
89,164
177,379
1440,90,1251,1335
359,455,1142,1401,92
1352,95,159
97,194,1638,457,143,189
98,1602,549,1127,1674,302,304,475,543
99,259,331,175,1302,1213,445
1161,540,102
1034,451,402
236,110,1071
1443,1124,1157,1572,1608,1132,204,1358,111,339,1364,440,1150,1503
1154,388,391,532,1301,1561,288,429,566,1469,577,1220,1099,1612,593,218,606,997,615,616,1512,1266,1276,125,1151
547,163,358,1479,1133,1645,1616,240,1362,403,117,406
1281,386,392,1171,1047,1051,284,567,311,443,1600,579,582,1360,595,1366,119,345,1498,346,223,993,226,614,1003,238,629,502,1271,632,1273,508,1277
1413,263,1129,1004,1549,399,1269,1495,572
1218,581,1418,1548,303,499,1467
121,471
137,415
387,648,409,1131,525,1330,1593,122
421,330,1613,1007,1327,435,1365,153
1603,1380,1159,1546,185
1121,237,145,411,123
1147,127
355,132
281,279
146,1219,477
144,1063
147,367
1280,1569,608,229,1094,1000,650,1484,1326,270,176,1297,148,564,1270
544,1059,1097,1001,587,1515,1296,1168,1490,149,987,1565
1504,354,995,1670,551,329,1130,526,1647,243,343,151
152,1250
178,155
193,417,158,1511
186,162,213
480,410
168,394
1113,172,221,334
179,317,173
276,174
181,438
1125,554,1675,239,1361,341,313,1214
192,483,1400,197,1263,1648,1299,408
1307,198
652,1044,205,199
641,610,1507,1506,519,328,1387,460,1069,527,1680,688,369,1172,1149,665,413
1283,1285,653,398,639,659,1054,1055,1312,1310,677,552,1064,684,685,1073,691,693,309,437,1079,1231,596,611,1520,1650,498,628,500,1267,1268,382,383
514,1018,1681,1050,670,671,673,680,681,682,555,690,563,434,571,1340,447,201,588,590,469,598,605,1508,618,634,1019,1023
642,1414,1517,1581,1074
1473,1156,1574,1386,656,1521,1525
675,1412,1062,1575,689,465,631,1496,1497,1309
654,1523,1078,1308,1599
1646,1494,1369,666,1017
441,202
208,371,1325
1128,212
216,1329,517,1095
1395,1140,318
220,444,1334
384,513,1474,322,1547,396,1006,1016,315
227,580,619,1102,1678,430,497,1493,407
1480,1122,1611,356
1320,235
1664,247
251,404
640,1163,1164,1039,533,535,1559,669,1311,1580,559,561,585,607,1632,1631,1509,1259,1144,252,637
545,1058,1514,1578,1419,1300,501
1002,1166,254,1439
1249,257,1635,425,283
272,1637,295
320,293,1573,327,524,556,1136,1617,468,1595,1471
297,332
1671,335,495,307,1491,314
482,459,1169,310,1404
1442,998,423,1576,489,1005,1557,347
1441,1570,324,1033,1040,340
336,325
337,1067,1148
368,338,1260
353,1065,1353,1359,1396,342,439,442,1499
361,1319
370,1459,1566,463
432,377
484,1323,397,1135,1407
412,1068
420,452,1146,678,494,474,1106,473,1338,575
426,1350,1410
481,1500
1477,446
1256,470
496,1492
506,996
512,1483
530,515
521,1037,1502
1160,539
1552,546
1216,601
1008,1460
1248,1357,1393,1462,1118
1354,1556
1465,1487
1634,1676
