0,1,2,4,5,6,8,1035,13,14,17,530,21,23,26,28,29,30,35,38,39,44,45,46,50,51,54,56,57,58,59,61,62,63,64,74,81,82,83,84,86,87,96,100,106,107,108,1137,114,115,121,1659,125,128,129,132,165,169,172,174,180,183,186,188,190,198,205,207,208,209,215,217,220,1252,230,231,248,266,276,277,278,795,290,291,1336,329,361,364,365,371,377,401,417,422,423,424,446,992,994,495,496
1409,1282,259,3,262,7,1546,140,141,142,16,164,167,170,176,49,48,178,55,192,200,80,1363,214,89,92,93,221,95,225,103,104,235,1135,1009,116,250,253
1057,1574,1447,1350,1161,1094,489,204,143,1046,987,1150
1636,71,27,105,79,19,20,85,1499,991
135,1673,138,148,151,155,161,162,163,36,187,194,199,851,986,1254,1389,1012,1143,1272
1667,319,1384,457,1065,1008,1300,440,1274,1275,31,126,511
32,65,1569,419,996,1381,1639,330,524,1647,145,1330,1490,373,381
256,33,1154,1505,646,1126,1644,528,475,1660,286,351
416,99,387,37,838,1000,1672,1356,272,1010,341
1475,584,1612,333,1040,1361,989,1053,483,1060,677,678,1575,41,1265,307,1523,191
320,611,583,1678,1263,1295,210,660,53,407
450,390,1486,1423,1364,213,343,88,157,94,289,1001,305,312,123,60
68,1578,76,237,1422,1264,689,243,308,1653
1221,134,807,73,75,1518,1329,1595,636,318
1122,1412,1062,1034,1675,202,332,1615,529,1052
1280,1413,652,1133,465,1494,631,378,315,1149
1570,1476,549,582,645,837,1095,554,1668,1485,112,350
516,325,133,1605,137,1609,781,404,405,280,1114,299,173,113,1394,441,1406
1253,1257,1481,117,1142,1365,120,154,1118,1183
512,449,197,1670,586,1036,1299,153,1306,1643,1645,182,1399,185,1277,1471
227,1124,1637,201,1129,1514,500,507,1496,251,508
353,1603,261,393,233,268,1132,463,1492,375
1157,267,271,1305,287,1443,292,1059,306,1334,568,1613,1117,1125,1127,234,1261,493,239,510
834,263,296,1482,462,1327,564,1396,1270,344,479
1351,1128,522,269,432,499,310,314,1467,415
1219,327,1358,1553,1561,347,294,295,297,298,555,300,557,302,698,1338,1339,575
355,323,1638,1511,1258,1357,304,337,340,376
608,418,427,1676,492,1139,470,503,1402,1500,317
321,995,389,1479,331,501,406,442,380,1596
322,421,359,456,1256,334,1335,506,604,1566
1408,1153,803,453,328,394,428,400,1466,540
354,1123,1250,1410,1255,490,1140,664,1465,1115
1152,1473,1504,356,1515,1260,1169,1594,444,1470
448,1248,360,1325,1038,431,1491,1113,445,478
640,801,1602,1249,1472,525,526,1393,372,565
1601,426,461,379,820,1333,1460,1112,411,543
385,482,517,1383,615,1576,622,1457,1106,606
544,513,547,392,1608,589,430,1166,572,1503
1186,869,743,872,873,874,876,1551,761,1369
740,808,396,877,1070,846,688,594,1589,1371
868,1156,870,871,519,1385,875,1619,630,727
472,1624,715,1100,1198,1291,848,1237,598,1368
1281,1537,1420,1599,1074,825,1625,1085,830,447
1411,1318,1319,1321,1136,1307,1397,1462,409,1403
993,1217,1480,1642,1003,1648,435,1273,1021,1215
454,998,1033,1067,1011,1459,1141,1401,1147,1279
1347,486,1288,714,1069,845,494,1557,827,861
1536,1121,1607,1352,1353,1322,491,1324,1332,1405
1664,1604,1671,1640,1674,1552,497,1649,1044,1497
1092,1606,1131,1007,1042,1045,534,1145,1404,1501
1184,997,999,1005,1359,1617,1173,1151,1214,607
650,1323,1610,1326,1170,1331,1362,1493,1398,1407
1442,1379,1380,1449,1002,1419,844,1488,1395,1438
1440,1474,1063,1223,1487,1458,1495,1148,1597,1278
