0,1604,261,1093,583,510,1673,522,1487,1331,1112,1465,381,1470
1,130,1479,456,202,1616,338,211,1362,364,1133,1260,1645,240,368,117,441
129,2,165,41,42,17,113,58,1597,62
448,3,325,1319,136,361,1160,140,336,81,539
4,103,137,170,84,1333,471,121,61,415
1472,5,133,40,210,21,277,23,248,183
1152,6,71,139,142,80,83,167,231,169,1257,44,365,51,55,380,1598
97,194,994,134,7,457,1038,47,143,1462,1336,60,189,1118
289,294,550,8,1384,1036,300,1615,1519,660,182,1464,156,542
1217,999,1096,1066,1553,1457,1555,1009,1560,1215
1056,449,649,9,458,1166,1458,467,405,22,1398,254,1439
1568,33,224,1571,101,1002,1485,306,282,1567
1671,200,10,495,335,1649,307,85,312,314,255
65,546,417,193,357,1475,1511,1128,1642,11,12,491,1552,158,1663
1248,69,1638,13,14,431,1357,1393,29,190
168,1256,394,15,367,1394,147,470,250,59
1664,161,1636,166,70,1322,171,16,1042,247,25,188,222
225,1250,516,1252,1320,45,1262,1392,18,244,503,152,57,30
128,360,299,178,19,278,87,155,28,1406
35,132,453,104,20,214,279,281,27,1279
389,1670,1672,329,333,526,1046,151,24,343,94,1504,354,995,551,1130,1647,243,1405
1601,258,323,262,487,72,79,1264,184,26
1381,1482,1261,557,1295,1265,1011,505,1466,1275
256,234,1643,271,1298,1554,604,93,350,31
32,1409,264,298,1662,274,50,1045,342,376,478
353,1383,1353,1065,1355,1359,1396,439,442,1499
34,1411,100,36,1666,135,490,203,1134,53
576,450,195,1351,523,1486,463,217,91,1566,351,418,37,1639,1641,370,1459,1332,54
481,446,1477,38,372,212,565,187,1500,1278
1668,1669,646,1607,138,1610,534,1304,1049,986,990,287,228,1382,39,1010,308,1272,511
1120,484,43,108,269,397,428,272,150,1402,479
232,46,174,48,207,1139,180,276,280,1114,1403,157
1282,90,230,359,296,265,390,455,1644,49,344,154,1468
416,1408,131,1092,1254,1510,268,461,464,562,52,1399,1306,1115,191
159,422,295,297,427,332,1135,1461,56,95
160,290,1255,393,107,432,209,114,86,63
64,96,105,74,106,266,1321,115,436,377
321,66,1667,260,1476,528,466,348,1052,1053,286,118,568,1145,378,507,638
480,162,68,1640,186,172,334,213,410,221
249,1318,233,395,493,401,1491,215,1113,319
259,99,73,1354,75,331,175,1556,1337,445
196,199,363,76,205,206,652,241,242,1044
644,645,326,586,77,400,275,1043,597,662,1463
352,612,536,109,1551,374,1143,664,1048,636
515,547,163,358,1609,78,529,530,403,406
257,1035,82,404,283,1249,1121,1635,425,362,492,251,1008,1460,375,1659
992,164,123,237,177,145,411,89,1594,379
1440,1505,1247,1251,1142,1335,1401,92,989,991
98,419,292,549,1060,1127,1481,1674,302,304,1274,475,543
451,1443,1157,236,204,110,111,1358,402,339,440,1503
577,1154,388,391,1612,593,532,1301,1561,218,606,288,615,1512,566,1469,1151
291,1325,141,208,371,116,181,438,316,349
1600,1281,386,263,392,399,303,1366,567,284,311
993,1218,1129,1418,1003,1004,1171,1047,1273,1051
1271,1548,1360,119,1495,632,1498,1467,508,1277
153,1603,387,421,1159,648,330,525,1007,435,409
185,1380,1546,1131,1613,1327,1330,1365,1593,122
1441,1570,1219,998,1063,1576,1037,1005,1040,1557
1442,324,423,521,1033,489,144,146,340,347,477,1502
544,1059,1001,1097,587,1515,1168,1296,1490,149,987,1565
355,1258,235,173,301,366,179,1397,285,317
192,197,1675,1361,1299,341,408,483,1125,554,239,1263,1648,1400,313,1214
1665,517,198,426,496,305,1492,216,253,1307,1501,318
514,519,527,1680,1681,552,555,1520,1521,498,563,1523,500,1525,1017,1018,1019,1023
1283,1156,1285,1231,1650,1267,1172,1268,1149,1599
631,684,689,465,691,628,596,693,1079,437,1309
681,682,588,688,1074,690,434,571,1308,413,447
1312,611,685,590,1073,469,1055,1310,1054,639
641,610,1050,618,460,1078,598,634,1340,605
673,675,677,1062,1575,1064,680,201,653,398,1581,659,309,665,382,383
642,1574,328,1069,654,656,369,666,670,671
1660,1602,1356,1328,1363,1334,444,220,1661,1596
384,513,322,227,580,356,619,396,1102,1493,407,1016
1474,1122,1480,1547,1611,1678,430,1006,497,315
640,545,1509,1514,1163,1259,559,561,1300,533,535,1144,669
1124,996,1572,1608,1034,1132,1071,1364,506,1150
1286,1447,716,718,719,720,1619,723,725,727,1080,1081,730,1182,703
706,740,710,714,1100,717,750,1388,1232,721,702,1235,724,1237,1108,729,1082,734
1184,1313,708,709,742,711,1234,1371,694,695,698,699,701,1342,1183
1344,705,1314,1527,1287,712,713,1528,715,722,1236,1109,1238,1526,696,697,700,1343
736,1185,737,1315,738,726,728,731,732,733
739,741,1221,743,1448,744,745,746,747,748
704,707,749,1582,1583,1233,1651,1620,1621,735
1057,1410,1123,1350,1095,1329,1395,1140,1302,1213
1153,1634,1637,1605,1606,1352,1323,1324,1676,1407
