0,1,3,515,5,7,11,12,13,16,18,19,20,21,23,24,25,28,29,30,31,32,33,34,40,42,46,51,56,57,58,59,60,61,63,64,65,66,1603,68,74,75,76,79,80,81,82,83,84,87,88,89,601,93,95,96,97,98,100,104,105,106,113,114,115,627,119,121,123,124,125,133,136,139,140,146,147,151,152,154,155,159,160,162,164,165,166,167,168,169,171,172,173,174,177,178,179,180,181,186,190,191,192,193,194,195,196,197,198,199,200,202,204,205,206,207,209,210,211,214,215,218,220,221,222,230,1255,235,242,244,253,255,259,260,262,263,266,268,269,277,281,795,285,291,295,1325,321,322,325,837,328,329,332,335,349,351,354,358,359,360,361,364,366,368,372,375,376,379,390,393,394,395,911,401,405,406,409,930,425,943,441,956,453,992
128,2,4,6,107,1035,251,278,1462,1659
256,352,1125,1253,1481,9,1675,523,1613,530
1540,1157,1668,1129,791,1679,1141,247,508,511
422,1511,10,906,557,302,176,1363,565,1151
385,387,1348,73,908,14,1488,1493,608,485,683,239,815,497,1524,1270,1400,381
134,265,138,909,15,26,416,546,1060,421,38,424,47,50,951,445,576,1601,1219,1357,1373,225,355,1380,103,1385,237,1138,1139
44,17,404,1301,86,183,248,377,1628,1278
901,1423,400,1298,27,35,45,48,307,54,55,1474,1353,463,1616,85,92,94,356,748,1662
36,1225,1229,1006,1261,1326,1395,1118,1565,1214
706,932,37,458,429,271,1328,1168,719,1555,660,117,534
67,581,1414,615,682,1547,555,1039,689,533,1339,1180
996,1254,39,528,338,342,1398,1053,1502,287
1216,644,1355,1483,77,798,1384,41,233,1643,300,1644,1518,1011,1272,1146
1094,1674,910,1361,466,1306,90,1375,1248,163,998,487,1574,49,442,380
897,258,482,420,450,1057,1351,1379,91,333,1486,52,1657,603
1476,902,999,459,1390,399,1362,148,917,1463,604,1149,542
933,1317,1515,240,1685,629,1303,185,1308,62
993,1443,1507,69,776,345,653,1529,1310,671
513,1282,261,997,1061,397,1330,308,1048,1465,1309
1280,224,130,1316,293,486,944,1489,1107,725
1572,1003,1004,494,1520,1686,1526,505,1658,1599
320,1217,323,70,391,1543,828,652,1126,1575,1194,234,1582,698,507,1276,254,1471
1218,1027,1444,236,112,1490,1043,252,373,1116
1284,1032,1549,529,402,1171,914,537,666,794,1436,1435,1182,1314,1447,1448,938,687,688,817,694,311,952,825,826,827,1085,703,831,1346,965,710,71,711,713,839,966,967,845,846,973,974,968,970,595,599,856,731,733,861,232,617,1386,623,1391,753,754,369,1266,1269,631,1016,1273
1286,403,275,1172,1176,548,1445,1195,950,1078,1211,188,969,715,972,1228,975,723,606,229,1512,618,755,1143
673,804,1160,971,1455,566,1559,539,796,189
288,228,1637,1062,552,78,1300,1469,1150,1503
900,135,143,1297,931,677,1446,426,304,954,457,1358,592,341,219,99,1000,1263,1523,118,378
257,451,1159,650,1356,1040,1173,597,540,669,989,990,1660,1063,1576,1513,1514,1652,636
101,934,423,1161,568,1550,1299,120,126,127
961,1475,1124,357,102,649,1422,1519,1364,789,503,344,1629,158,286
521,1296,161,292,937,1331,182,316,454,331,1374,1505,1382,1127,871,493,241,501,886,1655
353,1607,1001,203,1324,108,467,212,343,249
1632,384,396,430,1105,499,1177,1530,1630,1119
1633,1281,1227,915,500,947,374,407,1496,1017
935,1162,1516,1677,1102,337,1021,885,1117,350
771,773,1413,775,1544,777,267,780,273,657,1041,1051,284,1067,1070,1073,315,1088,326,1478,1480,201,330,722,726,1495,728,216,223,226,628,630,638
704,963,1285,1673,1421,1294,1012,469,1366,1047,184,1561,474,447
129,1665,131,132,137,141,142,781,276,280,1307,290,297,170,299,301,436,1598,1472,456,208,1634,231,367,1392,1394,371,116,887,1406
960,1352,1359,1617,153,1497,1305,730,1049,862,936,1007,1135,1264,1327,1654,122
1546,144,1553,145,1557,1560,1433,927,1569,693,1099,593,721,339,851,1636,742,1640,245,632,1144
1095,583,327,616,1295,306,310,538,1467,156,157,1534
1570,1036,1037,1454,1647,1009,1265,243,1402,988
1409,1092,517,334,1424,1552,274,340,213,1623,217,475,1438,1381,294,1008,319
1313,227,1611,1293,1166,1137,1106,1108,1109,986
289,1220,676,1322,270,272,1522,411,348,541
512,865,1600,707,1123,808,1002,282,1678,1583,468,1338,575
1221,582,550,296,749,559,1554,1586,1365,569,1595,892,317
1152,1249,1250,312,298,1226,1134,305,1653,1336,1275,1247
516,1608,1256,554,1528,431,913,440,477,318
1539,1573,1096,1128,1066,1164,1103,1199,313,1018
544,1536,834,314,1038,336,410,1405,510,415
1635,1349,1638,1641,1482,526,1429,347,1404,1470
481,418,491,428,365,495,1397,664,1114,1597
1154,1667,1541,389,1671,1672,1642,1332,1596,1661
1602,1477,549,1479,1258,1491,1492,1140,1396,1501
417,1350,1542,1321,587,1419,496,1393,1593,1403
480,898,419,1604,739,903,584,1274,572,1439
448,1223,1320,490,427,492,1460,470,859,446
801,1153,929,1605,838,1319,432,822,438,543
896,1033,524,589,782,1487,1615,1556,727,1499,1627,1500,545,611,484,1645,435
1215,1411,483,678,807,905,1612,879,1115,991
1056,1065,1257,1130,1131,1458,1044,1626,443,1148
1664,1473,1410,1666,1121,1669,1606,1639,1649,1566
1609,489,1323,875,525,820,1045,1466,444,479
1408,1440,1442,1318,455,1407,1170,1459,1334,1663
1377,1090,695,1101,1005,1262,786,1525,471,506,478
640,1441,1383,1449,1648,1425,1142,1335,1302,1401
1504,1224,1676,1132,1329,884,1112,1145,1147,1279
1120,994,1252,1260,1042,1333,1046,1113,1594,893
