0,1536,450,37,1285,1065,1322,1353,1486,1424,721,274,1332,312,217
774,8,782,659,22,793,665,412,1190,1068,1453,1580,1583,560,1457,833,707,718,594,468,1367,1368,1244,605,862,613,488,877,751,504
1031,1159,9,1565,798,289,545,419,1570,303,1458,185,1465,1600,1361,1112,986,989,1381,1383,239,886,1143,1534
256,1664,258,1670,10,1295,145,1045,34,418,298,176,178,822,1593,187,316,323,459,76,470,90,987,991,480,355,1000,1001,1640,1138,380
1666,1635,1252,456,1321,426,11,1357,150,154,1499,92,29,159
131,135,522,269,16,1044,25,1325,50,1601,1350,204,463,1487,342,484,1649,376,1405
1408,1153,1667,261,1419,1169,18,151,155,801,1407,300,1326,305,306,1330,1596,1470,1607,1609,330,203,1363,608,228,1636,1257,234,237,241,1265,1139,118,1147,126,511
19,1440,417,177,438,441,1594,194,1605,75,338,1491,340,93,479,1120,1249,994,108,1404
1410,260,516,134,270,21,549,807,1319,1320,171,47,693,1335,188,80,1260,1134,1393,1662
33,130,227,513,1122,1157,1443,1128,1669,525,1263,119,1277,378,571,572,1053,1215
640,162,1602,36,1661,38,1449,1042,435,1274,124,349,94
262,1674,1675,397,272,530,39,168,1447,1324,442,66,582,584,1610,331,206,596,215,1118,230,358,871,1261,112,240,1648,381
97,859,1380,357,1639,265,1130,461,557,1135,49,411,606
257,546,259,1123,1442,1351,1166,52,564,310,279,534,1467,1402,475,1439
641,773,776,1034,524,780,529,657,1046,794,797,1309,810,1194,1197,1073,53,567,443,1341,831,1216,322,1346,708,1220,1480,714,1107,1493,1494,1623,346,218,1503,739,1637,614,870,616,620,1004,238,497,498,1009,1014,631,1528,1529,1019,254
1472,1121,834,421,198,422,1638,235,140,147,1396,149,56,157
1024,514,1160,1161,267,523,1163,399,1039,787,790,535,792,1303,1559,539,1180,1563,1182,1055,1183,1313,1186,1192,1193,682,556,1586,566,829,1089,706,67,1611,212,1108,733,1501,1631,352,1632,612,229,742,1512,1129,1513,1259,109,1520,630,758,120,761,637
321,1059,68,1476,646,615,1604,683,236,332,1561,1149,1273,604,477,638
98,1060,1477,70,487,359,199,1254,555,587,748,1668,1508,1305,1275
1223,73,1385,1482,77,1005,1333,1302,601,347,318
136,271,676,423,552,684,430,195,1221,201,78,335,465,856,1645,110,1522,890,506,508,1150
519,650,1162,1547,653,1553,1173,1048,1308,413,288,293,1061,1069,1582,569,189,1342,1469,451,709,457,1358,79,1365,219,99,494,1523
1441,101,1253,1355,333,1423,464,528,1362,1395,1554,182,1049,122,91,319
1030,1043,1047,536,1051,1062,1574,1070,562,570,1599,1088,579,1613,1102,1103,1104,1618,595,1619,1109,1116,1117,1119,610,619,1133,111,623,1137,628,632,1656,647,652,654,1167,1168,1171,1174,1177,666,674,1188,1196,692,1204,1205,1206,700,704,705,712,1231,725,726,1237,732,223,750,753,1269,763,1281,771,772,1284,1288,1291,273,1310,813,1328,309,827,1347,848,849,1360,851,853,1386,369,370,882,883,887,888,889,384,1412,1415,396,402,403,408,433,447,462,466,1490,469,473,993,1505,1507,1510,493,1013,1016,1018
1027,1176,282,541,286,287,1058,420,686,698,320,1356,592,341,730,990,1124,1125,1384,1643,749,1011,117,505,125,1151
1414,648,138,1550,275,660,788,1300,1301,1557,1056,1569,547,1571,677,1572,1066,1071,568,313,1471,581,1481,1495,348,1126,999,1003,1006,1519,499,885,1527
544,995,1502,391,542,521,1672,1678,143,1296,1615,1679,339,1331,1113,1276,350,607
385,1033,148,1429,1560,156,1057,1444,550,815,1327,191,1219,1093,1094,1096,1352,1612,1511,1270,1145
1036,1037,1164,1040,1425,1556,406,153,540,1566,416,1446,1063,1199,1339,1217,1479,586,1483,716,597,345,988,1008,1398,636
1673,407,1052,161,1573,429,302,1338,575,1474,327,583,1099,593,1492,222,356,997,1642,1515,1516,879,496,1647,1266,243,1524,629,1655,252
1280,1282,388,1677,1184,163,1576,689,308,1466,1214,193,1617,728,224,1382,1012,247,1401,507,1399
192,1475,996,1092,454,1400,458,1002,1546,589,1644,559,1359,820,373,216
482,1154,485,486,678,1578,1323,1136,1488,210,1170,1489,533,1337,1146,1115,253,1438
509,645,775,1421,1422,1297,1555,662,1054,1311,1445,1072,1463,1080,703,577,1230,719,1106,1624,474,611,874,245,1144,1021
1504,1218,483,1251,1379,1411,554,526,1616,1298,1299,565,1141,1306,828
