129,2,4,5,6,7,11,12,165,38,41,42,169,431,565,183,58,62,446,1477,1606,325,336,81,212,481,357,231,113,372
3,137,139,15,280,28,157,415,160,172,1325,51,316,61,334,208,84,470,471,1113,1114,221,103,360,1256,1258,371,121,250,1279
289,550,294,1384,8,300,1036,1519,1615,1457,660,126,156,542
71,136,200,10,1160,44,1321,55,312,539
1252,13,46,207,48,365,83,1462,375,190
1248,1638,140,14,1393,82,178,116,155,29
1671,1322,1134,335,16,495,307,25,314,27,255
133,40,1128,17,210,21,277,23,248,1500
225,1250,516,45,18,244,1397,503,152,30
448,170,141,1262,142,1392,19,181,438,87
35,164,1637,168,173,177,179,20,1403,317
98,549,389,1672,333,302,1046,24,94,543
256,234,1643,604,271,1298,1554,220,1334,444,93,350,31
32,1249,1635,484,264,298,50,274,1460,85
34,1411,1636,100,36,1666,490,203,1491,53
576,417,418,37,295,1486,272,1335,158,351
233,43,428,108,269,493,1461,150,1402,479
194,134,393,457,74,1357,143,278,1118,97,994,290,105,47,180,60,189
1505,1282,390,230,296,265,1257,154,49,1333,344,410,1468,1598
1440,450,1251,455,359,523,54,217,90,92
1121,195,425,297,123,332,1676,1008,56,411,159
480,162,991,104,1644,213,214,57,186,1247
355,1319,394,427,367,147,1139,279,281,59
1472,1255,107,432,209,114,115,86,377,63
64,96,128,232,106,266,299,1035,436,1336
992,65,546,1475,261,69,491,187,463,1552,370,1459,1278,1659,1406
321,66,1667,260,1476,528,466,348,1052,1053,286,118,568,1145,378,507,638
68,453,1353,395,1359,401,342,215,1499,353,1318,1065,1649,1396,439,249,442,319
1664,161,166,70,135,171,1042,247,188,222
1057,674,198,73,426,75,496,305,627,1492,1465,1501,253
419,196,1060,292,1481,363,76,1356,206,1328,241,242,1274,1660,1596
644,645,326,586,77,400,275,1043,597,1303,636
1677,124,1170,245,182,246,88,373,219,120
89,193,1511,1641,1394,379,1332,1142,1401,91
257,1153,1605,422,167,237,397,145,376,283,95
512,482,102,1161,1002,459,1483,1166,1169,310,1404,540,254,1439
547,163,451,1479,1034,236,1645,110,1616,402,403,406
1443,1124,1608,204,1132,1358,111,339,1364,440
515,996,358,1133,1071,240,530,1362,117,506
1603,387,421,648,330,1131,525,1330,435,1593,122
291,132,1320,361,235,301,366,285,349,1597
1216,1441,1442,324,1576,489,521,144,146,340,601,347,477,1502
1280,385,1094,650,1484,589,270,1297,148,608,1569,229,1000,1326,176,564,1270
544,1059,1001,1097,587,1515,1168,1296,1490,149,987,1565
1602,1670,329,1674,526,343,151,475,1504,354,995,551,1127,1130,1647,304,243,1405
153,1380,1159,409,1546,1613,1007,1327,1365,185
362,1642,492,174,1038,404,276,1594,251,1566
192,197,1675,1361,1299,341,408,483,1125,554,239,1263,1648,1400,313,1214
199,456,652,205,1260,368,338,1363,1044,1661
577,1154,388,391,593,532,1301,1561,218,606,288,997,1512,1266,1276,1469,1151
609,676,452,420,678,1101,1522,473,474,575
643,647,1415,617,620,1070,655,657,1014,1015,602,1341
1218,579,581,582,1418,1360,1171,595,1047,345,346,1051,993,1129,1003,311,1273,443,572
1570,1219,998,1063,423,1033,1037,1005,1040,1557
454,1162,1550,1103,1679,1173,1305,1116,1117,1444,1061,1253,1126,1516,1012,1141
1409,478,1383,1640,1355,1323,1135,1045,1662,1407
1381,487,1482,1261,557,1265,1011,505,1466,1275
800,801,802,803,804,805,1026,807,1195,812,1197,1198,1424,1533,1534,1535
1347,806,808,809,810,811,1196,813,814,815
1379,1478,1518,1137,1013,1143,1463,1339,988,1021
1120,1152,1254,1639,1351,1324,1399,1306,1115,989
1217,1464,999,1096,1066,1009,1553,1555,1560,1215
1665,1410,1123,1350,1354,1487,1556,1337,1307,1663
