1,1124,1572,202,364,1132,211,1364,441,1150
129,2,3,4,5,6,133,1160,136,137,393,140,17,21,277,23,539,415,160,290,165,1319,40,169,41,42,432,183,58,1597,63,1472,448,81,209,210,86,471,96,121,231,361,105,106,107,113,114,115,248,377
128,257,1152,7,1035,13,14,145,404,283,411,29,157,1321,425,170,46,431,48,180,190,325,74,332,1357,207,336,82,83,84,1118,992,1249,1248,1635,994,1255,232,362,492,365,251,375,123
1505,164,104,200,10,312,57,1403,152,1247
65,1475,1637,134,38,11,12,491,1332,60
516,139,269,141,15,142,143,18,19,20,397,150,1402,280,155,28,285,30,35,291,1320,43,172,45,301,428,1325,178,51,1461,181,438,316,189,61,194,457,334,208,470,87,1113,349,221,479,225,1252,103,1256,360,1258,235,108,366,1262,1392,1135,371,116,244,1397,503,250,1407
453,135,1353,1359,16,342,25,27,1499,353,36,1065,1322,490,1396,53,439,442,255
389,70,1672,333,1046,247,24,94,1405,222
192,350,554,1643,1675,271,1298,1299,1554,341,1400,93,1214,31
1409,264,401,274,1045,32,1318,298,50,319,215,478,1383,1640,233,493,1649,376,249,1662
34,1411,1380,100,1666,551,171,203,526,1134,151
576,1477,37,1351,1128,1639,463,370,91,989
168,59,394,44,177,1333,89,379,1598,991
159,1153,195,422,1352,1676,47,212,56,1500,95
1282,132,390,265,147,279,281,154,296,427,173,49,179,1468,317,214,344,1250,355,230,1257,1644,367,1394,1139
450,1605,69,523,1038,1486,272,217,351,357,295,1641,1642,372,565,54,1594,187,1278
1121,71,167,297,237,80,1393,1462,55,380
800,801,802,803,804,1026,807,808,1195,812,1197,814,1198,1424,1533,1535
1347,805,806,809,810,811,1196,813,815,1534
64,266,299,174,276,436,278,1114,1659,1406
321,66,1667,260,1476,528,466,348,1052,1053,286,118,568,1145,378,507,638
68,1671,1355,395,335,495,307,1491,85,314
1123,517,426,75,1556,216,1337,540,318,127
419,292,1060,1674,363,76,206,241,242,1363
352,612,326,586,109,77,1551,597,1048,1438
289,1464,1036,1677,1519,1615,1457,1553,660,182,246,88,219,124
258,323,262,455,1482,1295,90,92,1440,1251,1381,359,1261,1264,1265,1011,1401,1466,1275
480,97,162,484,1638,186,1323,213,410,1279
1602,196,199,1481,652,1356,205,1044,475,543,1660,98,549,1127,302,304,1328,1274,1596
1057,1410,102,1095,1350,1161,1140,1147,1148,1501
163,996,451,1034,236,1133,110,1616,402,403,1362,406
547,515,358,1479,1645,1071,240,530,117,506
1217,999,1096,1384,1066,1009,1555,1560,120,1215
354,995,1636,329,330,1330,243,343,185,122
1219,324,1033,144,1040,146,340,1557,347,477,1441,1442,1570,998,423,1063,1576,489,1005
608,385,650,1484,270,1166,1326,148,254,1439
544,1059,1001,1097,587,1515,1168,1296,1490,149,987,1565
153,387,421,1159,648,1546,525,1327,435,409
1120,193,546,417,481,1634,446,1324,1460,158
1664,161,166,456,1260,368,338,1042,220,1334,444,188,1661
256,483,1125,197,234,239,1263,1361,1648,408,313,604
577,1154,388,391,1099,1612,593,532,1561,218,606,997,1512,1266,566,1276,1151
1281,386,579,1495,1413,392,1418,399,303,1467,1271,1277,443,311
1478,1518,400,1106,1043,374,1143,1338,1303,575
636,1379,420,645,1137,1463,473,1146,1339,988,1021
454,1162,1679,1103,1173,1305,1116,1117,1061,1253,1513,1516,1138,1012,1141,569
1632,1509,1514,1163,1259,1419,533,535,1144,669,1631
1504,1603,1670,1130,1131,1613,1007,1647,1365,1593
