0,3,0.125
0,5,0.07638888888888888
0,9,0.1597222222222222
0,15,0.07638888888888888
0,16,0.020833333333333332
3,5,0.1597222222222222
3,9,0.07638888888888888
3,15,0.1597222222222222
3,16,0.10416666666666666
5,9,0.13888888888888887
5,15,0.0
5,16,0.05555555555555555
9,15,0.13888888888888887
9,16,0.13888888888888887
15,16,0.05555555555555555
