0,3,0.125
0,5,0.07638888888888888
0,9,0.1597222222222222
0,12,0.1597222222222222
0,14,0.125
3,5,0.1597222222222222
3,9,0.07638888888888888
3,12,0.07638888888888888
3,14,0.041666666666666664
5,9,0.13888888888888887
5,12,0.13888888888888887
5,14,0.10416666666666666
9,12,0.0
9,14,0.020833333333333332
12,14,0.020833333333333332
