0,129,2,4,5,6,1035,13,17,274,147,21,158,160,295,41,42,169,425,428,432,436,183,58,1470,62,65,198,74,82,86,93,479,481,490,107,108,1262,248,121,254
384,1,130,1413,1608,202,1034,396,1498,732,993,1122,1443,619,364,498,502,119
3,7,11,14,16,530,19,20,23,27,28,549,44,46,47,61,63,64,81,83,84,87,96,103,105,106,114,1139,115,116,128,133,137,142,165,166,168,170,173,179,711,209,210,214,232,235,276,277,278,280,795,285,297,299,834,325,333,336,354,360,361,365,366,367,375,377,389,393,418,422,424,427,1457,1462,445,470,471,491,492
8,1515,1325,178,242,376,91,540,477,94
194,9,1322,525,463,1044,251,124,1597,319
159,161,10,587,139,1392,85,1497,250,95
516,12,781,15,145,404,405,152,409,157,30,29,417,290,35,310,439,441,186,314,316,448,200,329,205,334,335,338,213,89,1114,220,1500,222,225,356,359,495,244,503,1659
164,100,228,237,18,1336,281,59,60,1598
512,420,519,1424,339,820,342,118,22,987,1566
640,544,199,1352,1320,1546,1393,122,510,1247
1601,331,272,1495,24,1504,1635,996,1279,1318,431,499,372,1142,1335,191
1154,135,138,522,526,143,406,25,154,543,287,302,304,1460,312,188,193,1113,221,355,483,611,255
1536,26,32,416,419,678,300,307,435,576,322,196,88,224,98,99,1250,358,487,1256,1260,241,247,505
992,68,262,401,1491,279,664,56,92,31
33,292,43,429,399,689,466,1461,569,1052
34,131,66,197,357,450,1128,1475,370,318
385,650,343,411,350,608,291,36,101,104,298,171,683,306,506,564,1274,381,1407
258,195,1603,327,1492,475,253,97,803,37,1459,1332,1333,1145,187,1405
1411,1606,38,73,586,1257,177,55,189,351
541,547,1637,39,1612,206,1297,341,1272,1661
1408,1121,453,230,40,362,207,48,57,155
515,456,457,45,461,528,1169,1138,151,1403,511
256,289,1358,1359,1423,1519,1362,1299,50,1660
1280,1251,998,1065,523,1131,1037,1049,1147,1565
1409,132,231,301,80,1458,51,371,410,415
1667,1127,583,1640,1642,807,1645,77,1295,719,148,1301,1148
1440,454,649,1066,1007,1552,52,597,185,1118
1665,261,296,233,1482,212,53,565,283,989
546,69,167,1466,181,54,1594,379,349,190
67,1092,1573,1509,618,1356,1421,120,859,223
801,259,1510,71,1261,240,562,340,566,348
1512,1161,1258,1001,1327,1008,1009,1265,1337,127
452,1126,1382,1386,1580,1583,1144,793,988,1471
288,449,517,229,75,844,1005,622,656,1469
1281,1412,580,78,529,402,465,1366,1494,1496,226,227,500,1269,1526,567,571,315,572
484,1477,478,446,1484,1134,79,368,1394,1406
1120,353,162,1479,455,140,269,268,397,380
480,1249,136,395,442,501,1397,90,123,604
102,134,1641,236,721,373,789,216,1306,347,125
770,550,585,1578,779,109,1550,593,755,1172
1472,1153,266,172,141,174,208,113,180,438
388,645,1607,1610,554,1643,1649,126,1021,542
1476,1254,1159,1480,1353,1357,1615,497,1493,1596
707,1156,1219,1677,1485,1551,144,1488,467,1428,282,1570,1446,1447,1574,1449,1576,1383,575
1442,1381,1422,559,1425,990,1399,1338,1438,1439
1569,1061,293,1000,1006,1168,337,1273,986,1213
1282,163,644,263,648,1321,426,270,149,215
1666,387,451,582,584,1036,589,1490,1331,150,407,728,1398
1410,1602,1160,1419,1676,1326,1300,1396,1402,1467
313,521,458,1518,400,176,305,1112,153,539
1664,994,1123,1252,1130,557,1038,496,182,1501
1672,203,204,271,211,1524,440,443,444,607
257,1474,217,1255,1486,601,1465,1339,1278,1663
704,513,1507,1157,614,552,1648,596,345,218,508,638,1503
324,1604,265,489,464,243,308,662,344,991
323,260,421,390,249,394,332,1401,1499,317
646,392,267,1616,660,676,1129,1328,1266,1522,629,1334,1143,568,507,1276
641,769,1284,709,1549,1200,1562,692,666,1528,794,1271,1342
613,810,1196,1197,1102,1360,817,696,761,605
1155,1548,720,848,1106,851,1108,1109,1174,1559,1047,1621,1180,1567,1571,1572,1191,1078
1184,1668,1062,684,1133,1071,1263,309,631,701
326,679,555,750,815,690,1171,1652,727,735
1473,1634,1605,1350,328,1033,1323,1132,1324,1355,1298,1395,1307,1502
1186,1188,1288,1193,1004,1198,1041,1489,792,1055
1217,1220,837,1547,1361,786,595,1553,1617,1149,791,474,603,1309,352,1313,1277,1214
581,1669,1162,1611,652,1675,718,1678,1053,403,1176,1561,378,1117
771,1163,716,1259,1618,725,1563,509,413,703
800,772,1069,654,655,1584,1105,1619,1110,1175,504,1182,414,1119
773,845,752,1073,849,753,754,853,663,1369,671
1314,1064,588,751,757,825,827,476,829,639
835,1415,1420,1231,1682,790,1022,472,1371,1448,1451,813,1646,816,1651,1204,1654,826,830
579,486,743,712,1167,722,726,599,1341,831
1057,1441,1223,462,1521,1011,1012,1141,1365,702
963,964,966,1544,1687,904,944,977,914,947,1686,1590,890,1630
960,1090,932,1229,1454,884,1685,981,982,888,916,954,1437
1317,934,935,967,970,1227,1293,1390,917,1433,1626,1435,927
962,1545,1292,972,985,975,880,881,1432,921,923,924
1633,899,877,912,976,978,980,918,1208,922
1378,1029,869,872,968,946,948,952,920,957
1089,969,873,876,942,878,883,1591,984,889
928,907,939,940,1455,926,1656,1244,894,895
1537,965,1032,941,973,1391,974,945,953,955
1091,1210,1294,1206,1209,1434,1211,1564,1245,1246
1453,1456,983,979,1684,1589,1431,1592,1625,1436
896,1377,897,929,961,1539,1349,875,909,893,911,887,951,1627,1629
933,901,871,903,1225,905,910,913,956,1628
898,931,900,1540,902,1543,936,937,1541,1542,908,1031,1224,886,1655,1657,1375
1376,930,1348,1226,906,879,943,892,1373,1374
1538,868,938,971,874,1228,919,950,1207,1624,1658,891,1212,958
1316,1030,870,882,915,949,1205,885,925,959
1183,997,1093,1095,1094,1002,1429,1653,1146,1215
1056,1058,1380,1124,1444,999,1384,1557,1048,1151
1638,1639,1063,1351,1354,1483,1644,1136,1010,1556
1152,1248,1671,1319,1511,1487,1264,1042,1140,1115
