0,129,2,4,5,6,260,390,1401,394,13,17,147,21,160,421,295,41,42,169,299,432,436,183,58,317,62,65,323,74,332,333,82,86,215,1499,121,107,1139,248,249
384,1,130,1413,1608,1034,202,396,1498,732,1503,993,1122,1443,619,364,498,502,119
3,132,133,263,7,137,393,11,648,270,14,16,1042,19,20,149,23,280,410,27,28,155,30,285,415,418,163,168,1321,426,297,170,424,44,173,46,174,48,57,61,1477,1606,325,336,81,83,84,214,471,220,375,232,360,361,491,492,365,366,367,244,116,503,1405
516,8,9,10,522,12,525,526,15,1035,18,25,29,543,31,35,40,47,54,56,59,60,68,69,80,89,90,1114,92,93,95,100,108,113,123,124,1153,1154,141,143,145,154,157,158,162,164,167,172,179,180,181,190,193,194,198,711,205,207,221,225,228,230,231,235,237,242,251,254,268,269,781,274,279,281,287,290,1325,301,314,319,834,329,334,335,338,349,353,354,355,356,362,379,389,404,405,406,409,425,428,1458,1460,438,441,1470,448,453,455,1479,457,1484,463,470,1500,479,480,481,992,490,495,501
512,1251,1667,583,649,1005,1423,1424,339,52,1301,118,22,185
191,153,331,1323,176,305,400,24,1145,1663
1635,99,324,678,26,489,300,1265,1497,122
196,1166,1490,1046,88,1305,32,1250,487,1135,307,435,1270,1398,506,1275
392,399,1052,607,33,676,43,429,239,112,689,1266,1328,629,1461,1143,569,1276
97,34,258,803,1123,327,1319,73,499,1598
1536,640,265,662,161,291,36,171,683,308,576,1604,85,991,224,608,483,996,104,241,243,1142
37,1605,197,1132,140,187,212,1336,250,475
484,38,427,1169,178,1459,94,91,445,1406
1120,159,139,45,397,1466,1403,540,477,511
1056,1313,1058,1380,1444,1384,1513,49,822,1048
256,289,1505,1280,645,70,1481,459,748,50,1299,1364,341,1523,156
1472,266,208,1394,51,371,439,1113,188,255
1152,261,296,298,306,564,565,53,446,79,343,478,350,351,1252,1511,233,1515,1134,1393,372,376,1274,381
385,101,136,395,1487,1138,55,442,411,1407
64,1121,96,106,1322,209,114,278,1462,63
1665,66,131,195,1609,586,1482,177,1140,1045,189,318
259,454,71,719,1295,597,1440,801,807,1640,1001,554,1327,1649,1337,126,127
452,592,337,408,986,797,1054,612,615,1002,1386,556,1580,1583,1463,1144,1215
288,420,229,75,656,1011,820,1365,342,1469
1670,1673,1642,1131,1037,77,1359,1645,987,1566
1281,580,1412,78,465,529,1494,1310,227,110,430,111,1520,500,693,567,632,572
128,1408,166,105,210,276,277,1044,87,1597
98,1666,358,584,1036,493,1331,247,728,505
1040,789,534,1306,545,674,1063,423,184,1351,1354,1483,216,357,102,1253,1136,1010,252,1404
1282,1603,359,103,213,1333,152,186,316,222
1155,1221,518,1414,647,1106,788,1108,1109,1559,536,537,1621,1571,1572,1578,1582,1586
795,1411,165,422,1257,142,530,115,377,1659
192,677,294,391,523,1297,117,568,1147,1565
134,1350,1160,521,458,721,1300,1112,539,347,1502,1638,1641,236,1518,1395,373,1402,125
1249,549,135,138,587,302,304,1457,1397,604
1569,707,293,462,559,144,1103,1422,573,702
1127,1161,1066,1258,1007,1552,1329,148,1148,1118
407,387,388,451,582,995,589,1357,150,1527
1601,515,644,456,1352,1546,461,528,1495,151,1247,1634,1130,431,368,1594,1339,510
1442,517,1447,1449,1551,1425,1338,1213,1438,1439
1128,1355,1676,1324,1326,1486,1298,182,1302,1307
416,544,1639,199,1261,464,1009,340,344,1465,348
257,546,1409,1474,262,200,557,1262,310,601
705,386,776,201,1418,1269,1526,311,571,284
1184,203,652,271,403,1524,1334,378,443,444
292,1060,646,204,1648,466,1522,660,440,507
417,994,496,401,1392,1491,664,217,380,253
482,548,1674,330,234,494,1170,1330,219,990
1504,611,1510,1512,1644,240,1008,562,566,312
577,581,742,267,1675,718,1557,791,633,698,1308,1053
1664,1410,1318,1320,1419,272,1332,1396,1335,1279
675,1508,1285,1575,810,273,817,691,727,473
1248,1671,1255,1115,1038,1264,1492,283,989,1278
1636,1637,1610,1643,1612,1021,1363,1661,1662,286
704,514,1507,1062,552,1003,684,653,1173,1303,1176,1117
1473,450,1475,1602,328,1033,370,313,1467,1501
352,1220,1124,997,999,1547,1361,1149,1277,1214
1346,1051,1102,1268,694,1271,1529,1050,1019,1181,1342
771,414,1163,1389,655,504,1563,509,413,703
654,658,790,1182,800,1577,1451,1069,688,1584,1203,1587,1088,710,713,715,1230,856,1631,1632,610,866,752,1654
1570,1092,1381,1126,1383,1574,1576,1356,1421,561,467,859,669,1471
773,1415,1682,663,671,1314,1064,1448,1204,825,827,1231,1234,1240,1369,1241,1371,476,751,753,754,757,1014,1022,639
1024,1027,772,1286,1289,1291,1039,804,553,1195,1080,1595,828,1222,716,717,1104,1105,1233,723,1618,725,1110,1619,1119,864,1259,1517
1093,1094,1095,1164,533,1429,1653,1146,988,1183
1548,1549,1562,679,811,555,1197,1196,815,1199,1200,690,696,1343,833,714,1107,605,613,750,761,634
1450,813,1070,558,816,826,574,830,1347,835,839,846,847,598,1368,861,862,867,617,1646
579,712,1167,1680,722,726,599,570,1341,831
1216,770,1445,779,1099,593,659,755,758,1623
1540,900,1542,908,930,936,937,943,1348,1226,1373,1375,1376,879,886,1655,1657,892,893
963,964,1030,966,1544,1687,904,967,944,977,882,914,947,1590,1686,890,925,1630
868,1317,934,935,970,1227,971,1390,915,885,917,1626,1435
962,1545,1592,1292,972,975,880,1456,1432,921,923,924
1378,1029,872,968,946,948,1589,952,920,957
1537,869,1032,873,876,878,1391,883,889,894
1089,899,969,942,1455,912,881,918,1591,922
1633,907,877,976,978,980,984,1431,1208,895
928,939,940,941,945,1656,953,1434,1244,926
1091,1211,1453,1294,1206,1209,1210,955,1564,1245
965,973,974,1625,979,1684,983,985,1436,1246
938,874,919,884,950,1207,1624,891,1437,958
1538,1090,1316,870,1228,1205,949,1658,1212,959
896,1377,897,1539,929,905,875,909,910,911,887,913,951,1627,1629
961,1349,933,871,901,1225,903,916,956,1628
960,931,932,1541,1224,906,1454,981,982,888,1374
898,902,1543,1031,1293,1229,1685,1433,954,927
1669,1162,1611,1516,1613,1678,1679,1617,1561,1309
