65,35,3,171,47,244,54,152
96,5,114,115,21,278,87,405,63
8,10,12,45,108,15,79,88,94,95
194,351,9,525,463,1458,251,124,319
423,170,46,16,208,370,19,787,217,638
132,200,310,151,184,89,252,30
1093,1094,1509,72,1583,49,369,467,245,408,793,1183
356,231,461,78,80,528,1500,190
1506,548,550,1096,585,1097,109,1550,1043,1172,1018,539,542
705,386,738,745,110,238,500,1366,1494,1496,571,284
707,524,1422,559,144,1551,1213,1438,1439
449,1156,1447,1449,234,844,1485,1677,175,1428,535,730,282
609,1155,518,720,848,275,788,851,1174,823,1683,857,637,1534,1567
673,1572,326,1191,783,1106,1108,1109,1078,1047,1180,798,735
1153,354,674,580,453,1256,782,335,401,1491,534
1186,1188,1288,1193,1004,1198,624,563,792,346,763,1055
547,359,522,543,1038,410,475,1278,415
741,686,1102,469,694,1271,1529,1051,382,383
1024,1027,1289,1163,1291,1581,1039,1104,1563,509,413,703
772,1165,1517,655,1105,1619,1110,504,414,1119
771,1158,1259,716,1389,1618,531,725,766
1568,1185,1571,647,1171,1621,1559,536,537
1508,679,553,554,555,556,1548,750,815,1199,690,1107
1219,1446,775,749,1006,1399,1273,990,575
804,1222,1286,1195,1072,1233,723,1080,1081,1083,670,1023
160,199,1192,107,300,432,1040,82,1264,241,183,248,121,62
514,201,430,111,273,632,473,634
64,129,128,106,209,86,377,58
165,422,166,105,169,210,276,277
329,13,17,530,84,253,795,157
2,325,41,299,44,336,81,436
384,396,498,402,502,119,315,311
4,133,6,393,490,74,142,83
67,452,561,533,120,665,474,223
352,485,363,527,633,538,636,669
418,137,266,366,113,371,438,28
291,456,360,51,20,439,188,255
608,1,130,515,36,202,364,211
517,293,551,519,523,337,532,569
227,292,646,392,267,204,660,218
33,645,440,399,466,341,568,507
417,7,492,173,14,495,471,285
512,102,649,77,562,52,566,216
66,131,258,521,560,627,373,318
168,297,361,207,367,143,27,220
98,39,203,76,206,271,307,596
640,321,99,358,662,246,26,247
546,69,198,42,147,186,379,222
32,196,135,104,138,25,154,287
193,164,100,103,139,18,213,60
0,257,197,37,53,182,601,187
1253,38,177,212,55,56,91,189
161,333,302,178,85,215,317,343
232,11,491,301,172,404,23,1114,61
448,290,141,174,180,116,214,280
320,387,388,70,43,239,112,339,372,22,118,185,219,381,126
256,289,192,294,50,117,156,286
259,134,71,236,240,148,340,347,348,125,127
224,324,265,272,243,308,150,122
344,298,331,306,24,313,350,191
230,167,40,362,48,57,155,29
322,357,295,1068,557,465,375,281
1152,994,1673,1486,1614,1137,145,1304
477,162,446,425,457,428,269,397,254,59,93,158,159
353,68,262,140,92,250,380,31
544,1249,101,90,1479,136,395,406,442,123
1504,480,34,228,73,237,304,283
288,482,420,229,330,75,458,494,342,510
97,327,328,400,305,176,499,153
451,454,489,493,431,464,497,407
481,376,427,565,664,540,478,479
834,611,644,390,1035,526,604,445
416,385,803,678,435,564,411,1470
1190,774,717,433,659,468,630,758
1216,1157,1067,1003,1103,1232,1235,1054
732,619,684,653,1367,412,573,702
1443,1413,1417,1385,1005,1263,1071,1296
992,1409,1392,1169,1394,1138,1403,1406
677,391,1608,583,429,403,508,607
1248,1282,1123,1154,1128,1132,1042,1460
1477,1325,1459,1492,1397,1336,1466,1499
1664,1603,1605,1671,1609,1457,1594,1598
576,1034,462,656,721,789,505,606
1122,1350,1351,1354,1329,1302,1306,1404
1478,1063,1483,1136,1521,1010,1525,1464
545,1125,1260,1556,1045,1593,1274,1663
832,1518,303,146,1555,1523,695,1407
1250,1319,1515,1645,1405,1333,1560,1501
323,260,421,648,394,426,332,249
1408,1411,263,1257,1321,1322,1044,1401
1121,163,1606,270,1139,149,1659,1597
1472,1474,419,683,652,235,1262,529,506,179,181,567,378,572,349
450,484,488,368,496,470,279,511
225,516,1255,205,334,338,503,221
706,195,1279,1672,1033,1140,822,1112,1145,698,859,989,1662,1247
1665,996,1160,1261,1008,1009,1265,1142
995,1161,1258,1036,1332,1046,1270,991
1221,1285,1194,1099,1196,1197,1200,1239
1254,1001,1482,1066,1166,1135,1275,1118
865,1218,1311,1445,1414,1013,1310,1343
864,1217,997,1095,1173,1146,988,1277
1600,1575,1578,1549,1582,1586,696,1562
1412,1382,1418,1386,1361,1429,1303,761
1251,1318,1159,1127,1131,1007,1148,1021
1573,811,1580,1547,1652,1653,1623,1595
1410,1320,1352,1323,1419,1298,1396,1307
1280,1634,1059,998,1065,1037,1049,987
1570,1574,1576,714,1613,1679,1617,1553
1355,1324,1326,1393,1395,1300,1335,1402
1601,1057,1129,1170,1012,1141,1272,1147
833,770,675,810,817,755,727,828
1602,1635,1604,1638,1639,1641,1546,1676
1313,1381,1356,1421,1269,1338,1308,1309
1223,1052,1266,1011,1143,1467,1276,1150
672,708,776,682,786,691,693,1526
1569,1668,1669,1611,1678,1557,1015,1561
1440,1473,1305,1357,1327,1331,1398,1337
1281,993,1124,614,742,1117,1149,733
1666,1607,1640,1642,1644,1552,1649,1495
1442,1379,1380,1444,1383,1384,779,1425
581,1062,1162,718,309,1176,1498,701
1536,1476,1510,1512,1480,1493,1527,1502
1220,1092,1126,999,1520,1048,1214,1151
838,1674,1675,1647,1648,1616,1554,1565
801,807,748,719,689,1490,820,728
1358,1423,1424,1359,1295,1299,1297,1301
1184,1056,1667,1060,1061,1000,1168,1053
1513,1516,1488,1522,1461,1463,797,1471
1610,1643,1612,1615,1596,1660,1469,1566
513,676,552,1328,1364,1334,631,345
1441,1353,1133,1362,1363,1330,1365,1400
1058,837,1002,1164,791,1144,986,1215
1505,1507,1636,1637,1481,1514,1519,1661
355,1468,1252,1670,424,1115,441,1130,365,781,1134,409,314,1339,316
264,459,1101,594,626,374,443,541
261,455,296,233,268,274,242,1462
389,549,711,586,587,501,312,1113
1120,1475,1511,1484,1497,1487,1524,1465
704,226,483,487,650,1116,444,1503
769,641,739,709,1528,398,1360,692,600,697,666,794,1342
1346,1284,623,1267,1268,1050,1019,1181
768,802,1028,805,784,785,790,764
806,809,1290,813,558,816,826,574
578,835,839,840,841,843,1020,830
1287,846,847,590,850,598,855,602
867,617,621,1558,860,861,862,863
642,1315,680,681,651,658,661,667
736,737,1070,434,472,731,700,447
1189,1098,1074,1203,1111,1177,1178,1084
744,1450,746,1451,747,1430,1340,765
1347,1646,1651,1620,1236,1622,1654,1238
752,756,759,1368,1242,1243,1532,1533
1344,1283,777,780,685,687,657,437,824,1530
579,712,1680,722,726,599,570,831
486,1167,1041,1075,1079,1016,1017,1085
1312,743,620,1681,1489,628,1341,1599
800,1025,1632,812,654,1631,688,818,668,799
710,713,715,1069,1201,1175,1179,1182
1577,460,1452,1584,1587,1588,856,734
1088,610,866,1230,1076,1077,1082,635
643,773,639,1650,1531,663,825,827,699,1022,671
1415,588,845,849,852,853,476,829
1064,1231,1073,1426,1234,1204,1240,1086
1345,1314,1448,1387,1420,1369,1370,1371
751,753,754,1682,757,1014,1241,767
1026,836,520,778,842,1579,1388,1585,724,854,760,729,762,1535
740,808,1100,814,625,819,858,796
1187,1416,1202,1427,1237,821,1372,1087
612,613,615,584,589,591,593,595,603,605
577,582,616,618,622,592,629,597
