0,1,2,3,4,514,6,7,8,515,10,11,12,13,14,15,16,17,18,19,20,528,529,23,530,25,26,27,28,29,30,31,32,33,34,35,36,37,542,39,40,41,42,548,44,45,46,47,48,612,51,52,53,54,1040,56,57,58,59,60,61,62,63,64,65,66,613,68,69,580,73,74,78,79,80,81,82,595,84,85,86,596,88,89,90,597,92,93,94,95,96,601,98,99,603,101,605,103,104,608,106,107,108,109,110,111,531,113,114,618,116,615,622,119,627,121,533,123,629,632,633,634,128,129,130,638,132,133,1153,135,136,137,138,140,141,142,143,616,145,146,149,151,152,539,154,155,157,158,160,162,163,164,165,166,167,168,169,170,171,172,173,174,1192,178,180,181,182,183,184,187,188,189,190,193,194,196,197,198,199,201,202,203,207,208,209,210,550,212,213,214,215,217,218,220,228,1253,230,231,232,234,237,1264,241,248,249,250,251,252,253,254,255,257,260,261,262,263,264,266,268,269,270,273,787,276,277,280,283,795,285,290,291,297,299,301,304,311,315,320,674,325,329,332,333,335,336,341,356,359,360,361,364,366,367,370,371,377,379,381,382,383,384,385,390,391,393,394,395,396,399,402,404,414,417,418,422,423,430,432,436,438,439,1035,448,453,456,461,469,471,473,1500,1114,490,491,492,495,504
354,547,1255,200,1256,683,782,401,1491,310,534,410,349,415
386,523,272,662,284,286,288,294,43,431,308,571,705,327,75,204,76,1366,1494,344,1496,219,738,229,745,238,243,500,510
512,519,521,22,1047,24,1572,554,50,562,1078,566,70,71,582,584,77,589,1106,1108,1109,97,102,112,117,118,122,125,126,127,131,645,134,649,148,150,153,1180,156,673,1191,176,185,191,192,216,735,224,236,239,240,246,247,256,258,259,265,783,798,289,298,300,305,306,307,313,321,324,326,328,331,339,340,342,343,347,348,350,358,372,373,387,388,400,407,420,451,454,458,464,489,493,497,499
1024,1027,1289,1163,1291,1581,363,1039,1104,309,345,1563,509,413,703
1475,1252,1673,139,1465,1101,302,1487,274,242,626,281,314,316,222
704,226,1511,650,206,594,1115,412,541,287
516,279,161,1068,557,1472,322,334,465,221,992,227,355,357,233,362,1262,1524,375
994,295,424,365,1486,1614,179,147,470,503
1156,5,105,1449,1677,175,115,1428,21,278,87,83,405
449,546,1447,844,1485,560,211,535,730,282
1670,781,1045,409,425,428,1459,441,186,1339,1470,1484,1492,1497,1113,479,481,1130,1134
832,1417,1103,271,433,403,443,444,573,606
483,611,549,487,1034,459,374,312,318,1503
1120,353,455,296,457,397,1460,565,664,380
1122,834,389,711,1609,586,587,1116,501,1468
1665,195,1279,1033,1140,1142,1213,1112,1145,989,1247
865,1158,1259,1389,1165,1105,1107,1110,1239,1119
1601,996,1160,1482,1261,1008,1265,1009,1332,991
772,1194,1196,1517,1197,1199,1200,1102,1619,1051
864,1185,1221,1096,1097,1618,1171,1043,1172,1343
995,1161,1546,1258,1036,1001,1393,1046,1495,1270
1218,1508,1285,1099,1548,1015,1269,1013,1271,696
1281,1217,997,1146,1529,1549,761,1018,988,1277
1473,1634,1410,1318,1320,1419,1323,1298,1396,1307
1220,1093,1094,1095,1418,1002,1164,686,1526,1214
1568,1571,1412,1575,1550,1652,1621,694,1559,1562
1602,1254,1127,1066,1355,1166,1135,1275,1467,1118
1352,1324,1676,1326,1395,1300,1331,1335,1402,1502
1536,1666,1635,1604,1638,1639,1640,1641,1644,728
801,1251,1159,1131,1007,1490,1305,987,1148,1021
1445,1414,714,1578,1386,1361,1429,1303,1310,1311
1667,1510,1607,1642,719,1552,1649,1327,1615,1596
833,1506,1092,1124,1126,1582,1117,1144,1149,1183
707,676,807,1512,775,748,749,820,822,1337
1382,999,1162,716,1053,1176,986,1595,1151,1215
1636,1353,1610,1643,1357,1295,1301,1398,1527,1566
1440,1280,706,581,742,1480,718,791,698,859
1600,1573,1580,1520,1553,1586,1617,725,1653,1623
998,1612,1037,1358,1359,1423,1297,1363,1299,1493
1057,1059,1476,1637,1065,1129,1012,1141,1272,1049
1313,770,771,679,750,690,755,1463,828,766
1505,1328,1362,1330,1364,1365,1399,1400,1147,1661
1672,1514,1674,1551,1616,1170,1554,1660,1565,1662
1056,1058,741,1061,1000,1168,1048,1498,1309,1150
1441,708,837,838,1223,733,1519,786,793,797
1444,1509,1381,1384,811,1356,1421,1583,1338,1308
1569,1570,1574,1576,1422,1647,1679,1011,1557,1469
1379,776,682,779,815,1266,691,1461,693,727
1219,1060,1675,1052,1006,1522,1143,1273,1276,990
1442,675,1380,1446,1383,1439,1547,1425,1438,1471
1669,1513,810,1611,1516,1613,1678,1488,817,1561
652,159,419,567,572,446,1474,450,323,91,475,477,484,100,378,368,1137,376,506,124,1278,511
225,522,235,205,1038,496,338,244,1462,543
1152,319,38,488,9,177,55,1304,317,351
1155,517,646,518,392,267,527,1683,660,275,788,408,665,538,669,1567,292,293,49,561,823,568,569,575,577,67,452,72,720,848,466,337,851,467,857,474,223,352,609,485,369,245,120,507,636,637
482,551,330,524,494,559,144,532,1174,1534
774,1190,614,717,653,659,468,630,1367,758
513,1507,552,1385,619,684,1235,631,701,702
644,421,427,525,463,1392,1138,540,445,478
1216,1184,1062,1067,1003,462,1232,1648,1173,1054
993,732,1413,677,429,689,502,440,508,607
1443,1351,1608,1354,1133,1296,1424,1334,1306,1404
480,648,426,526,1169,1458,406,442,604,1406
1668,1157,1125,1063,1481,1260,1005,1071,1263,1010
1408,1409,1322,1325,1394,1139,1336,1401,1466,1403
576,545,583,303,656,1521,721,1555,789,695
1250,1605,1132,1645,1136,1556,1525,1560,1593,1274
640,1504,1478,1483,1515,1518,1329,1523,1464,1501
1248,1121,1282,1123,1319,1128,1257,1042,1044,1663
1664,1603,803,1411,1350,1671,1606,1333,1302,1405
416,544,678,1321,435,564,411,1499,505,1659
1249,1154,1477,1479,1457,1397,1594,1597,1598,1407
641,1346,769,1284,709,739,398,600,666,794
647,585,555,537,623,1360,692,536,697,1050
672,556,592,593,1267,1268,1528,1019,1181,1342
768,802,1315,1028,805,806,1646,1532,784,785,1651,1620,790,1622,1654,1242,1243,764
578,1287,809,813,558,816,830,826,1340,574
835,1347,839,840,841,1290,843,590,846,847
860,850,598,855,1368,602,1020,861,862,863
642,867,617,651,621,1070,658,661,1430,1533
680,681,1450,1074,434,472,667,700,731,447
736,1189,1098,1203,1236,1558,1111,1177,1178,1084
737,744,746,1451,747,752,756,1238,759,765
1312,1344,1288,777,1193,780,1004,1198,655,624,1681,1530,563,792,346,763,1599
579,685,687,657,437,831,824,570,1341,1055
1283,712,1167,1489,1041,1075,1079,1016,1017,1085
1186,1188,486,743,620,1680,722,628,726,599
800,1025,1632,710,1577,812,1452,654,1230,688,1631,818,1588,668,799
553,1069,1584,1201,1076,1077,1175,1082,1179,1182
1088,610,866,713,715,460,1587,856,635,734
643,773,1415,1064,1387,671,498,1650,1371,1531,663,825,827,639
1420,588,845,1073,849,852,853,699,476,829
1345,1314,1448,1231,1682,1426,1204,1234,1369,1086
751,753,754,757,1014,1240,1241,1370,1022,767
1026,836,1416,520,778,808,1388,814,1585,819,821,796,1535
1187,1286,842,1195,1100,1202,1427,1237,1023,1087
804,591,1072,723,724,854,729,858,1372,670
740,1222,1579,760,625,1233,1080,1081,762,1083
