510,1546,331,431,272,1393,372,1335,24,381,350,191
1664,34,177,182,1336,1465,1594,1339,1598,450,197,73,586,601,1123,1130,1264,370,1663
547,1468,39,264,1256,203,459,364,206,78,211,1524,596,378,444,541,638
288,1441,420,229,998,1223,75,1005,1358,1519,656,1521,1011,1469
134,102,1063,1351,1354,1483,236,1638,1641,1136,721,1010,373,789,1306,347,125
224,640,1536,1635,324,996,1604,265,489,1261,1265,243,308,662,1142,344,122,991
1569,707,1438,517,293,524,462,559,144,622,1422,1551,1213,702,1439
832,1478,488,1614,303,146,1555,1556,1525,374,695,1560,627,1116,606
1282,163,644,1411,1597,263,648,1257,1321,1603,1606,270,1044,149,1333,1115,1405
1385,1067,1068,1101,782,1103,433,594,626,412,573,1054
864,774,1190,553,1417,717,1232,1235,468,630,758,1595,828,1367
35,355,522,543,237,1262,143,349,145,338,1458,29,181,439,188,221,255
194,100,228,9,525,463,283,251,124,319
0,129,15,147,160,295,42,432,183,314,58,62,65,82,86,93,225,107,121
2,5,6,41,74,490,13,17,436,21
4,133,441,12,781,503,409,186,316,222
96,64,168,297,11,491,209,114,23,277,278,87,248,377,63
1120,193,162,354,455,457,268,18,281,60
128,165,166,105,106,169,81,210,115,276
418,325,422,299,142,530,83,84,795,28
3,359,235,47,367,179,1460,244,470,152
7,360,361,492,14,16,19,20,1113,61
232,44,174,366,46,116,214,471,280,285
512,1251,583,649,77,339,52,118,22,185,987
1667,1642,1131,1037,1645,1359,1423,1424,1301,1566
576,385,1250,99,358,678,300,241,506,247,26,411
32,98,196,487,650,1260,307,435,88,505
33,1481,204,429,399,271,689,403,440,607
704,227,580,652,529,465,1334,567,443,572
992,546,994,356,198,1511,200,205,401,1492,310,217,379,253
37,269,1487,212,565,53,475,664,187,95
481,425,428,274,1491,279,56,158,254,479
353,68,164,1035,108,1459,59,92,1470,31
192,1505,676,392,43,1522,1363,1364,117,629,1461,568,569,507,1052,1661,1662
292,646,391,1672,294,267,466,660,341,286
1059,1637,1129,1612,1328,1616,1266,1143,1272,1276
448,137,170,266,141,336,113,371,180,438,1114
140,397,45,178,376,91,540,477,94,159
103,424,365,335,1138,213,54,27,220,30
516,69,453,40,362,334,1169,375,89,190
230,167,155,48,80,51,57,410,1403,415
290,132,231,172,301,173,207,1392,208,404
1472,1153,417,393,329,495,405,1462,1500,157
1056,577,1058,548,1513,527,1679,49,1647,467,822,1048,633,698,669,1150
1570,1379,1380,1381,1574,1383,1576,1444,1384,1557
256,1280,289,519,1065,523,1297,50,1049,1147
1057,1362,1299,1012,1141,1365,342,820,1660,1565
1248,66,357,1128,1482,1132,1486,1042,1140,1045,1302,989
1665,1475,131,1605,195,1671,327,1609,1501,318
408,793,665,797,1573,556,1580,1583,1338,1471,706,452,592,337,1488,859,485,615,1386
1217,1215,1092,1093,997,1094,1126,786,988,1183
67,72,618,369,561,595,245,120,603,223
1509,1382,1095,1002,1356,1421,1164,1463,1144,986
1636,645,70,542,388,748,1357,1615,497,156,1596
1476,1254,1607,1159,1353,1480,1610,1643,1493,1021
454,807,719,464,240,562,148,597,566,127
1127,1001,1258,1066,1036,1161,1007,1008,1009,1118
801,259,71,1640,554,1649,1331,340,348,126
1440,1510,1639,1512,1644,1327,1552,1295,1337,1148
1666,387,1296,150,407,1305,677,1464,1593,321,451,582,76,589,728,493,1523,246,1398
995,1527,1125,584,1166,1135,1490,1270,1046,1275
322,419,135,104,1479,138,171,1325,526,406,154,287
608,480,1249,291,36,1154,683,302,25,90
258,1410,1318,1319,1320,1352,1160,1323,1419,499,1332,1396,1467,1502
153,328,521,458,1324,400,176,305,313,539
803,1355,1326,1298,1395,1300,1145,1402,1307,1279
1601,97,1634,1602,1473,1033,1676,1495,1112,1247
416,544,483,611,199,136,395,564,312,1497,1407
1504,101,1477,1274,1515,298,306,343,442,123
673,1508,1221,1414,326,647,109,783,1107,1652,536,537,798,735
1185,1218,1191,1106,1171,1108,1078,1047,1180,1311
1568,1571,1572,1575,1578,1548,1582,1586,1621,1559
672,679,682,555,750,815,1199,690,1109,727
352,514,708,110,1520,1361,691,693,632,473,733
1285,363,1003,653,430,111,1173,1303,1277,1310
513,1507,1668,614,552,1675,684,239,112,1648,309,631,345,218,508,701,1503
1184,1060,1157,1062,1133,1263,1071,1053,1176,1117
384,1,130,1608,202,619,396,498,502,119,732
1281,993,1443,1412,1413,1122,1034,402,1498,315
775,551,234,282,749,1485,1677,1168,532,535,538,636,575
320,449,482,616,330,844,494,175,1425,730
1442,1219,1156,1061,1446,1000,1006,1170,1273,990
1447,1449,1674,1514,1554,1330,1428,1399,1400,219
386,776,1418,1051,284,571,705,1102,1366,1494,1496,226,738,745,238,500,1526,1271,1529
741,201,686,469,1269,1015,694,311,382,383
257,1474,261,478,296,233,557,1134,79,496,1466,1659,446,351
1408,1121,1409,1252,1322,1394,1397,1401,604,1406
1152,421,38,1255,426,1038,55,215,189,1278
545,674,1253,423,560,787,534,184,252,216
1670,1350,1192,1673,1518,1040,1137,1329,1304,1404
834,323,260,549,390,262,394,587,332,427,1484,304,1457,1139,249,250,1499,445
515,484,456,139,461,528,368,151,380,511
161,389,711,8,10,333,242,85,501,317
675,613,810,811,1549,1517,273,817,696,761,605,1343
1186,1188,1288,1193,1196,1197,1198,1200,1562,1055
833,772,714,655,624,563,792,346,763,414
1024,1027,1289,1291,1163,1165,1039,1104,1105,1110
1004,1581,703,1619,504,634,1563,509,413,1119
770,1155,518,779,275,788,1683,1174,1567,1445,1194,720,848,1618,851,857,1389,755,1534
609,771,1158,1259,716,531,725,823,637,766
641,769,739,709,398,1489,1530,692,628,666,600,697,794,1085,1599
1283,777,780,685,687,657,437,824,570,831
1284,1167,1041,1267,1268,1075,1079,1050,1019,1181
579,486,743,712,620,623,722,726,599,1528
1344,1312,1346,1680,1681,1360,1016,1017,1341,1342
643,1064,588,751,671,753,754,1531,663,699,639
578,642,1028,617,621,590,558,598,602,574
773,845,1073,849,852,757,825,827,829,767
700,680,681,651,658,853,661,667,476,1086
736,737,744,746,747,752,756,1558,759,731
768,802,764,805,806,784,785,790,1532,765
1070,1231,1234,1650,1204,1074,1014,1240,1241,1022
835,839,840,809,841,813,816,1682,826,830
1345,1314,1347,1315,1450,1451,1340,1430,1368,1084
1177,1189,1098,843,846,847,850,1111,1369,1178
867,447,434,855,472,1370,860,861,862,863
1287,1290,1387,1243,1203,1236,1238,1242,1371,1020
1415,1448,1420,1646,1426,1651,1620,1654,1622,1533
1025,1416,654,1427,799,800,1535,812,1452,818,1239,856,1372,734,610,866,1388,635,1023
865,804,1286,710,713,591,688,723,668,670
1026,1187,1100,1069,1202,1076,1237,1077,1082,1087
836,520,808,778,842,814,819,821,854,796
1088,1577,1230,1072,1201,1175,1080,1081,1179,1182
762,740,1579,715,460,625,724,760,729,858
1632,1222,1195,1584,1233,1585,1587,1588,1083,1631
1124,1669,999,1162,1611,1547,1613,1678,1516,1553,1617,1561,1149,1214,1151
1313,1220,837,742,581,718,791,474,1308,1309
1216,1506,1146,1096,1097,585,1099,1043,1172,1013,1429,1018
1600,612,838,550,1550,593,659,533,1653,1623
