{
    "train_avg_precision": {
        "best_results": [
            1.0,
            1.0,
            1.0,
            1.0,
            0.0
        ],
        "all_results": [
            [
                1.0,
                1.0,
                1.0,
                1.0,
                0.0
            ],
            [
                1.0,
                0.0,
                0.0,
                0.0,
                0.0
            ],
            [
                1.0,
                0.0,
                0.009345794392523364,
                0.0,
                0.0
            ],
            [
                1.0,
                1.0,
                1.0,
                0.0,
                0.0
            ]
        ],
        "epoches": [
            0,
            10,
            20,
            30
        ]
    },
    "train_avg_recall": {
        "best_results": [
            0.9105504587155964,
            0.481651376146789,
            0.6666666666666666,
            0.38990825688073394,
            0.0
        ],
        "all_results": [
            [
                0.9105504587155964,
                0.481651376146789,
                0.6666666666666666,
                0.38990825688073394,
                0.0
            ],
            [
                0.9105504587155964,
                0.0,
                0.0,
                0.0,
                0.0
            ],
            [
                0.9105504587155964,
                0.0,
                0.6666666666666666,
                0.0,
                0.0
            ],
            [
                0.9105504587155964,
                0.481651376146789,
                0.4908256880733945,
                0.0,
                0.0
            ]
        ],
        "epoches": [
            0,
            10,
            20,
            30
        ]
    },
    "train_avg_f1": {
        "best_results": [
            0.9531812725090036,
            0.6501547987616099,
            0.6584615384615384,
            0.5610561056105611,
            0.0
        ],
        "all_results": [
            [
                0.9531812725090036,
                0.6501547987616099,
                0.6584615384615384,
                0.5610561056105611,
                0.0
            ],
            [
                0.9531812725090036,
                0.0,
                0.0,
                0.0,
                0.0
            ],
            [
                0.9531812725090036,
                0.0,
                0.0184331797235023,
                0.0,
                0.0
            ],
            [
                0.9531812725090036,
                0.6501547987616099,
                0.6584615384615384,
                0.0,
                0.0
            ]
        ],
        "epoches": [
            0,
            10,
            20,
            30
        ]
    },
    "train_avg_accuracy": {
        "best_results": [
            0.9105504751205444,
            0.5183486342430115,
            0.5114678740501404,
            0.6100917458534241,
            0.75
        ],
        "all_results": [
            [
                0.9105504751205444,
                0.5183486342430115,
                0.5114678740501404,
                0.6100917458534241,
                0.75
            ],
            [
                0.9105504751205444,
                0.5183486342430115,
                0.5091742873191833,
                0.6100917458534241,
                0.75
            ],
            [
                0.9105504751205444,
                0.5183486342430115,
                0.5114678740501404,
                0.6100917458534241,
                0.75
            ],
            [
                0.9105504751205444,
                0.4816513657569885,
                0.49082568287849426,
                0.6100917458534241,
                0.75
            ]
        ],
        "epoches": [
            0,
            10,
            20,
            30
        ]
    },
    "val_avg_precision": {
        "best_results": [
            1.0,
            1.0,
            1.0,
            1.0,
            0.0
        ],
        "all_results": [
            [
                1.0,
                1.0,
                1.0,
                1.0,
                0.0
            ],
            [
                1.0,
                0.0,
                0.0,
                0.0,
                0.0
            ],
            [
                1.0,
                0.0,
                0.012987012987012988,
                0.0,
                0.0
            ],
            [
                1.0,
                1.0,
                1.0,
                0.0,
                0.0
            ]
        ],
        "epoches": [
            0,
            10,
            20,
            30
        ]
    },
    "val_avg_recall": {
        "best_results": [
            0.910958904109589,
            0.5753424657534246,
            0.5273972602739726,
            0.5068493150684932,
            0.0
        ],
        "all_results": [
            [
                0.910958904109589,
                0.5753424657534246,
                0.5273972602739726,
                0.5068493150684932,
                0.0
            ],
            [
                0.910958904109589,
                0.0,
                0.0,
                0.0,
                0.0
            ],
            [
                0.910958904109589,
                0.0,
                0.5,
                0.0,
                0.0
            ],
            [
                0.910958904109589,
                0.5753424657534246,
                0.5273972602739726,
                0.0,
                0.0
            ]
        ],
        "epoches": [
            0,
            10,
            20,
            30
        ]
    },
    "val_avg_f1": {
        "best_results": [
            0.953405017921147,
            0.7304347826086955,
            0.6905829596412556,
            0.6727272727272727,
            0.0
        ],
        "all_results": [
            [
                0.953405017921147,
                0.7304347826086955,
                0.6905829596412556,
                0.6727272727272727,
                0.0
            ],
            [
                0.953405017921147,
                0.0,
                0.0,
                0.0,
                0.0
            ],
            [
                0.953405017921147,
                0.0,
                0.025316455696202535,
                0.0,
                0.0
            ],
            [
                0.953405017921147,
                0.7304347826086955,
                0.6905829596412556,
                0.0,
                0.0
            ]
        ],
        "epoches": [
            0,
            10,
            20,
            30
        ]
    },
    "val_avg_accuracy": {
        "best_results": [
            0.9109588861465454,
            0.5753424763679504,
            0.5273972749710083,
            0.5068492889404297,
            0.6712328791618347
        ],
        "all_results": [
            [
                0.9109588861465454,
                0.5753424763679504,
                0.5273972749710083,
                0.5068492889404297,
                0.6712328791618347
            ],
            [
                0.9109588861465454,
                0.42465752363204956,
                0.4726027250289917,
                0.4931506812572479,
                0.6712328791618347
            ],
            [
                0.9109588861465454,
                0.42465752363204956,
                0.4726027250289917,
                0.4931506812572479,
                0.6712328791618347
            ],
            [
                0.9109588861465454,
                0.5753424763679504,
                0.5273972749710083,
                0.4931506812572479,
                0.6712328791618347
            ]
        ],
        "epoches": [
            0,
            10,
            20,
            30
        ]
    },
    "test_avg_precision": {
        "best_results": [
            1.0,
            1.0,
            1.0,
            1.0,
            0.0
        ],
        "all_results": [
            [
                1.0,
                1.0,
                1.0,
                1.0,
                0.0
            ],
            [
                1.0,
                0.0,
                0.0,
                0.0,
                0.0
            ],
            [
                1.0,
                0.0,
                0.056179775280898875,
                0.0,
                0.0
            ],
            [
                1.0,
                1.0,
                1.0,
                0.0,
                0.0
            ]
        ],
        "epoches": [
            0,
            10,
            20,
            30
        ]
    },
    "test_avg_recall": {
        "best_results": [
            0.7808219178082192,
            0.6438356164383562,
            1.0,
            0.3835616438356164,
            0.0
        ],
        "all_results": [
            [
                0.7808219178082192,
                0.6438356164383562,
                1.0,
                0.3835616438356164,
                0.0
            ],
            [
                0.7808219178082192,
                0.0,
                0.0,
                0.0,
                0.0
            ],
            [
                0.7808219178082192,
                0.0,
                1.0,
                0.0,
                0.0
            ],
            [
                0.7808219178082192,
                0.6438356164383562,
                0.6095890410958904,
                0.0,
                0.0
            ]
        ],
        "epoches": [
            0,
            10,
            20,
            30
        ]
    },
    "test_avg_f1": {
        "best_results": [
            0.8769230769230769,
            0.7833333333333334,
            0.7574468085106383,
            0.5544554455445544,
            0.0
        ],
        "all_results": [
            [
                0.8769230769230769,
                0.7833333333333334,
                0.7574468085106383,
                0.5544554455445544,
                0.0
            ],
            [
                0.8769230769230769,
                0.0,
                0.0,
                0.0,
                0.0
            ],
            [
                0.8769230769230769,
                0.0,
                0.10638297872340426,
                0.0,
                0.0
            ],
            [
                0.8769230769230769,
                0.7833333333333334,
                0.7574468085106383,
                0.0,
                0.0
            ]
        ],
        "epoches": [
            0,
            10,
            20,
            30
        ]
    },
    "test_avg_accuracy": {
        "best_results": [
            0.7808219194412231,
            0.6438356041908264,
            0.6095890402793884,
            0.6164383292198181,
            0.5890411138534546
        ],
        "all_results": [
            [
                0.7808219194412231,
                0.6438356041908264,
                0.6095890402793884,
                0.6164383292198181,
                0.5890411138534546
            ],
            [
                0.7808219194412231,
                0.3561643958091736,
                0.3904109597206116,
                0.6164383292198181,
                0.5890411138534546
            ],
            [
                0.7808219194412231,
                0.3561643958091736,
                0.42465752363204956,
                0.6164383292198181,
                0.5890411138534546
            ],
            [
                0.7808219194412231,
                0.6438356041908264,
                0.6095890402793884,
                0.6164383292198181,
                0.5890411138534546
            ]
        ],
        "epoches": [
            0,
            10,
            20,
            30
        ]
    }
}