{
    "train_avg_precision": {
        "best_results": [
            1.0,
            0.0,
            1.0,
            1.0,
            0.0
        ],
        "all_results": [
            [
                1.0,
                0.0,
                1.0,
                1.0,
                0.0
            ],
            [
                1.0,
                0.0,
                0.0,
                0.0,
                0.0
            ],
            [
                1.0,
                0.0,
                0.0,
                0.0,
                0.0
            ],
            [
                1.0,
                0.0,
                0.0,
                0.0,
                0.0
            ],
            [
                1.0,
                0.0,
                0.0,
                0.0,
                0.0
            ],
            [
                1.0,
                0.0,
                0.0,
                0.0,
                0.0
            ],
            [
                1.0,
                0.0,
                0.0,
                0.0,
                0.0
            ]
        ],
        "epoches": [
            0,
            10,
            20,
            30,
            40,
            50,
            60
        ]
    },
    "train_avg_recall": {
        "best_results": [
            0.9513776337115073,
            0.0,
            0.25162337662337664,
            0.19642857142857142,
            0.0
        ],
        "all_results": [
            [
                0.9513776337115073,
                0.0,
                0.25162337662337664,
                0.19642857142857142,
                0.0
            ],
            [
                0.9513776337115073,
                0.0,
                0.0,
                0.0,
                0.0
            ],
            [
                0.9513776337115073,
                0.0,
                0.0,
                0.0,
                0.0
            ],
            [
                0.9513776337115073,
                0.0,
                0.0,
                0.0,
                0.0
            ],
            [
                0.9513776337115073,
                0.0,
                0.0,
                0.0,
                0.0
            ],
            [
                0.9513776337115073,
                0.0,
                0.0,
                0.0,
                0.0
            ],
            [
                0.9513776337115073,
                0.0,
                0.0,
                0.0,
                0.0
            ]
        ],
        "epoches": [
            0,
            10,
            20,
            30,
            40,
            50,
            60
        ]
    },
    "train_avg_f1": {
        "best_results": [
            0.9750830564784053,
            0.0,
            0.40207522697795073,
            0.3283582089552239,
            0.0
        ],
        "all_results": [
            [
                0.9750830564784053,
                0.0,
                0.40207522697795073,
                0.3283582089552239,
                0.0
            ],
            [
                0.9750830564784053,
                0.0,
                0.0,
                0.0,
                0.0
            ],
            [
                0.9750830564784053,
                0.0,
                0.0,
                0.0,
                0.0
            ],
            [
                0.9750830564784053,
                0.0,
                0.0,
                0.0,
                0.0
            ],
            [
                0.9750830564784053,
                0.0,
                0.0,
                0.0,
                0.0
            ],
            [
                0.9750830564784053,
                0.0,
                0.0,
                0.0,
                0.0
            ],
            [
                0.9750830564784053,
                0.0,
                0.0,
                0.0,
                0.0
            ]
        ],
        "epoches": [
            0,
            10,
            20,
            30,
            40,
            50,
            60
        ]
    },
    "train_avg_accuracy": {
        "best_results": [
            0.9513776302337646,
            0.854132890701294,
            0.7487844228744507,
            0.803889811038971,
            0.9108589887619019
        ],
        "all_results": [
            [
                0.9513776302337646,
                0.854132890701294,
                0.7487844228744507,
                0.803889811038971,
                0.9108589887619019
            ],
            [
                0.9513776302337646,
                0.854132890701294,
                0.7487844228744507,
                0.803889811038971,
                0.9108589887619019
            ],
            [
                0.9513776302337646,
                0.854132890701294,
                0.7487844228744507,
                0.803889811038971,
                0.9108589887619019
            ],
            [
                0.9513776302337646,
                0.854132890701294,
                0.7487844228744507,
                0.803889811038971,
                0.9108589887619019
            ],
            [
                0.9513776302337646,
                0.854132890701294,
                0.7487844228744507,
                0.803889811038971,
                0.9108589887619019
            ],
            [
                0.9513776302337646,
                0.854132890701294,
                0.7487844228744507,
                0.803889811038971,
                0.9108589887619019
            ],
            [
                0.9513776302337646,
                0.854132890701294,
                0.7487844228744507,
                0.803889811038971,
                0.9108589887619019
            ]
        ],
        "epoches": [
            0,
            10,
            20,
            30,
            40,
            50,
            60
        ]
    },
    "val_avg_precision": {
        "best_results": [
            1.0,
            0.0,
            1.0,
            1.0,
            0.0
        ],
        "all_results": [
            [
                1.0,
                0.0,
                1.0,
                1.0,
                0.0
            ],
            [
                1.0,
                0.0,
                0.0,
                0.0,
                0.0
            ],
            [
                1.0,
                0.0,
                0.0,
                0.0,
                0.0
            ],
            [
                1.0,
                0.0,
                0.0,
                0.0,
                0.0
            ],
            [
                1.0,
                0.0,
                0.0,
                0.0,
                0.0
            ],
            [
                1.0,
                0.0,
                0.0,
                0.0,
                0.0
            ],
            [
                1.0,
                0.0,
                0.0,
                0.0,
                0.0
            ]
        ],
        "epoches": [
            0,
            10,
            20,
            30,
            40,
            50,
            60
        ]
    },
    "val_avg_recall": {
        "best_results": [
            0.8543689320388349,
            0.0,
            0.5728155339805825,
            0.19902912621359223,
            0.0
        ],
        "all_results": [
            [
                0.8543689320388349,
                0.0,
                0.5728155339805825,
                0.19902912621359223,
                0.0
            ],
            [
                0.8543689320388349,
                0.0,
                0.0,
                0.0,
                0.0
            ],
            [
                0.8543689320388349,
                0.0,
                0.0,
                0.0,
                0.0
            ],
            [
                0.8543689320388349,
                0.0,
                0.0,
                0.0,
                0.0
            ],
            [
                0.8543689320388349,
                0.0,
                0.0,
                0.0,
                0.0
            ],
            [
                0.8543689320388349,
                0.0,
                0.0,
                0.0,
                0.0
            ],
            [
                0.8543689320388349,
                0.0,
                0.0,
                0.0,
                0.0
            ]
        ],
        "epoches": [
            0,
            10,
            20,
            30,
            40,
            50,
            60
        ]
    },
    "val_avg_f1": {
        "best_results": [
            0.9214659685863874,
            0.0,
            0.7283950617283951,
            0.3319838056680162,
            0.0
        ],
        "all_results": [
            [
                0.9214659685863874,
                0.0,
                0.7283950617283951,
                0.3319838056680162,
                0.0
            ],
            [
                0.9214659685863874,
                0.0,
                0.0,
                0.0,
                0.0
            ],
            [
                0.9214659685863874,
                0.0,
                0.0,
                0.0,
                0.0
            ],
            [
                0.9214659685863874,
                0.0,
                0.0,
                0.0,
                0.0
            ],
            [
                0.9214659685863874,
                0.0,
                0.0,
                0.0,
                0.0
            ],
            [
                0.9214659685863874,
                0.0,
                0.0,
                0.0,
                0.0
            ],
            [
                0.9214659685863874,
                0.0,
                0.0,
                0.0,
                0.0
            ]
        ],
        "epoches": [
            0,
            10,
            20,
            30,
            40,
            50,
            60
        ]
    },
    "val_avg_accuracy": {
        "best_results": [
            0.8543689250946045,
            0.8252426981925964,
            0.5728155374526978,
            0.8009708523750305,
            0.8834951519966125
        ],
        "all_results": [
            [
                0.8543689250946045,
                0.8252426981925964,
                0.5728155374526978,
                0.8009708523750305,
                0.8834951519966125
            ],
            [
                0.8543689250946045,
                0.8252426981925964,
                0.42718446254730225,
                0.8009708523750305,
                0.8834951519966125
            ],
            [
                0.8543689250946045,
                0.8252426981925964,
                0.42718446254730225,
                0.8009708523750305,
                0.8834951519966125
            ],
            [
                0.8543689250946045,
                0.8252426981925964,
                0.42718446254730225,
                0.8009708523750305,
                0.8834951519966125
            ],
            [
                0.8543689250946045,
                0.8252426981925964,
                0.42718446254730225,
                0.8009708523750305,
                0.8834951519966125
            ],
            [
                0.8543689250946045,
                0.8252426981925964,
                0.42718446254730225,
                0.8009708523750305,
                0.8834951519966125
            ],
            [
                0.8543689250946045,
                0.8252426981925964,
                0.42718446254730225,
                0.8009708523750305,
                0.8834951519966125
            ]
        ],
        "epoches": [
            0,
            10,
            20,
            30,
            40,
            50,
            60
        ]
    },
    "test_avg_precision": {
        "best_results": [
            1.0,
            0.0,
            0.9767441860465116,
            1.0,
            0.0
        ],
        "all_results": [
            [
                1.0,
                0.0,
                0.9767441860465116,
                1.0,
                0.0
            ],
            [
                1.0,
                0.0,
                0.0,
                0.0,
                0.0
            ],
            [
                1.0,
                0.0,
                0.0,
                0.0,
                0.0
            ],
            [
                1.0,
                0.0,
                0.0,
                0.0,
                0.0
            ],
            [
                1.0,
                0.0,
                0.0,
                0.0,
                0.0
            ],
            [
                1.0,
                0.0,
                0.0,
                0.0,
                0.0
            ],
            [
                1.0,
                0.0,
                0.0,
                0.0,
                0.0
            ]
        ],
        "epoches": [
            0,
            10,
            20,
            30,
            40,
            50,
            60
        ]
    },
    "test_avg_recall": {
        "best_results": [
            0.7961165048543689,
            0.0,
            0.417910447761194,
            0.21890547263681592,
            0.0
        ],
        "all_results": [
            [
                0.7961165048543689,
                0.0,
                0.417910447761194,
                0.21890547263681592,
                0.0
            ],
            [
                0.7961165048543689,
                0.0,
                0.0,
                0.0,
                0.0
            ],
            [
                0.7961165048543689,
                0.0,
                0.0,
                0.0,
                0.0
            ],
            [
                0.7961165048543689,
                0.0,
                0.0,
                0.0,
                0.0
            ],
            [
                0.7961165048543689,
                0.0,
                0.0,
                0.0,
                0.0
            ],
            [
                0.7961165048543689,
                0.0,
                0.0,
                0.0,
                0.0
            ],
            [
                0.7961165048543689,
                0.0,
                0.0,
                0.0,
                0.0
            ]
        ],
        "epoches": [
            0,
            10,
            20,
            30,
            40,
            50,
            60
        ]
    },
    "test_avg_f1": {
        "best_results": [
            0.8864864864864864,
            0.0,
            0.5853658536585367,
            0.3591836734693878,
            0.0
        ],
        "all_results": [
            [
                0.8864864864864864,
                0.0,
                0.5853658536585367,
                0.3591836734693878,
                0.0
            ],
            [
                0.8864864864864864,
                0.0,
                0.0,
                0.0,
                0.0
            ],
            [
                0.8864864864864864,
                0.0,
                0.0,
                0.0,
                0.0
            ],
            [
                0.8864864864864864,
                0.0,
                0.0,
                0.0,
                0.0
            ],
            [
                0.8864864864864864,
                0.0,
                0.0,
                0.0,
                0.0
            ],
            [
                0.8864864864864864,
                0.0,
                0.0,
                0.0,
                0.0
            ],
            [
                0.8864864864864864,
                0.0,
                0.0,
                0.0,
                0.0
            ]
        ],
        "epoches": [
            0,
            10,
            20,
            30,
            40,
            50,
            60
        ]
    },
    "test_avg_accuracy": {
        "best_results": [
            0.7961165308952332,
            0.7135922312736511,
            0.582524299621582,
            0.7864077687263489,
            0.7864077687263489
        ],
        "all_results": [
            [
                0.7961165308952332,
                0.7135922312736511,
                0.582524299621582,
                0.7864077687263489,
                0.7864077687263489
            ],
            [
                0.7961165308952332,
                0.7135922312736511,
                0.582524299621582,
                0.7864077687263489,
                0.7864077687263489
            ],
            [
                0.7961165308952332,
                0.7135922312736511,
                0.582524299621582,
                0.7864077687263489,
                0.7864077687263489
            ],
            [
                0.7961165308952332,
                0.7135922312736511,
                0.582524299621582,
                0.7864077687263489,
                0.7864077687263489
            ],
            [
                0.7961165308952332,
                0.7135922312736511,
                0.582524299621582,
                0.7864077687263489,
                0.7864077687263489
            ],
            [
                0.7961165308952332,
                0.7135922312736511,
                0.582524299621582,
                0.7864077687263489,
                0.7864077687263489
            ],
            [
                0.7961165308952332,
                0.7135922312736511,
                0.582524299621582,
                0.7864077687263489,
                0.7864077687263489
            ]
        ],
        "epoches": [
            0,
            10,
            20,
            30,
            40,
            50,
            60
        ]
    }
}