{
    "train_avg_precision": {
        "best_results": [
            1.0,
            1.0,
            1.0,
            1.0,
            1.0
        ],
        "all_results": [
            [
                1.0,
                1.0,
                1.0,
                1.0,
                1.0
            ],
            [
                1.0,
                0.0,
                1.0,
                0.0,
                0.0
            ],
            [
                1.0,
                0.0,
                1.0,
                0.0,
                0.0
            ],
            [
                1.0,
                0.0,
                1.0,
                0.0,
                0.0
            ],
            [
                1.0,
                0.0,
                1.0,
                0.0,
                0.0
            ]
        ],
        "epoches": [
            0,
            10,
            20,
            30,
            40
        ]
    },
    "train_avg_recall": {
        "best_results": [
            0.5702702702702702,
            0.3864864864864865,
            0.9243243243243243,
            0.47297297297297297,
            0.32432432432432434
        ],
        "all_results": [
            [
                0.5702702702702702,
                0.3864864864864865,
                0.9243243243243243,
                0.47297297297297297,
                0.32432432432432434
            ],
            [
                0.5702702702702702,
                0.0,
                0.9243243243243243,
                0.0,
                0.0
            ],
            [
                0.5702702702702702,
                0.0,
                0.9243243243243243,
                0.0,
                0.0
            ],
            [
                0.5702702702702702,
                0.0,
                0.9243243243243243,
                0.0,
                0.0
            ],
            [
                0.5702702702702702,
                0.0,
                0.9243243243243243,
                0.0,
                0.0
            ]
        ],
        "epoches": [
            0,
            10,
            20,
            30,
            40
        ]
    },
    "train_avg_f1": {
        "best_results": [
            0.7263339070567986,
            0.557504873294347,
            0.9606741573033708,
            0.6422018348623852,
            0.489795918367347
        ],
        "all_results": [
            [
                0.7263339070567986,
                0.557504873294347,
                0.9606741573033708,
                0.6422018348623852,
                0.489795918367347
            ],
            [
                0.7263339070567986,
                0.0,
                0.9606741573033708,
                0.0,
                0.0
            ],
            [
                0.7263339070567986,
                0.0,
                0.9606741573033708,
                0.0,
                0.0
            ],
            [
                0.7263339070567986,
                0.0,
                0.9606741573033708,
                0.0,
                0.0
            ],
            [
                0.7263339070567986,
                0.0,
                0.9606741573033708,
                0.0,
                0.0
            ]
        ],
        "epoches": [
            0,
            10,
            20,
            30,
            40
        ]
    },
    "train_avg_accuracy": {
        "best_results": [
            0.570270299911499,
            0.6135135293006897,
            0.9243243336677551,
            0.5270270109176636,
            0.6756756901741028
        ],
        "all_results": [
            [
                0.570270299911499,
                0.6135135293006897,
                0.9243243336677551,
                0.5270270109176636,
                0.6756756901741028
            ],
            [
                0.570270299911499,
                0.6135135293006897,
                0.9243243336677551,
                0.5270270109176636,
                0.6756756901741028
            ],
            [
                0.570270299911499,
                0.6135135293006897,
                0.9243243336677551,
                0.5270270109176636,
                0.6756756901741028
            ],
            [
                0.570270299911499,
                0.6135135293006897,
                0.9243243336677551,
                0.5270270109176636,
                0.6756756901741028
            ],
            [
                0.570270299911499,
                0.6135135293006897,
                0.9243243336677551,
                0.5270270109176636,
                0.6756756901741028
            ]
        ],
        "epoches": [
            0,
            10,
            20,
            30,
            40
        ]
    },
    "val_avg_precision": {
        "best_results": [
            1.0,
            1.0,
            1.0,
            1.0,
            1.0
        ],
        "all_results": [
            [
                1.0,
                1.0,
                1.0,
                1.0,
                1.0
            ],
            [
                1.0,
                0.0,
                1.0,
                0.0,
                0.0
            ],
            [
                1.0,
                0.0,
                1.0,
                0.0,
                0.0
            ],
            [
                1.0,
                0.0,
                1.0,
                0.0,
                0.0
            ],
            [
                1.0,
                0.0,
                1.0,
                0.0,
                0.0
            ]
        ],
        "epoches": [
            0,
            10,
            20,
            30,
            40
        ]
    },
    "val_avg_recall": {
        "best_results": [
            0.5887096774193549,
            0.6129032258064516,
            0.8629032258064516,
            0.5161290322580645,
            0.4112903225806452
        ],
        "all_results": [
            [
                0.5887096774193549,
                0.6129032258064516,
                0.8629032258064516,
                0.5161290322580645,
                0.4112903225806452
            ],
            [
                0.5887096774193549,
                0.0,
                0.8629032258064516,
                0.0,
                0.0
            ],
            [
                0.5887096774193549,
                0.0,
                0.8629032258064516,
                0.0,
                0.0
            ],
            [
                0.5887096774193549,
                0.0,
                0.8629032258064516,
                0.0,
                0.0
            ],
            [
                0.5887096774193549,
                0.0,
                0.8629032258064516,
                0.0,
                0.0
            ]
        ],
        "epoches": [
            0,
            10,
            20,
            30,
            40
        ]
    },
    "val_avg_f1": {
        "best_results": [
            0.7411167512690355,
            0.76,
            0.9264069264069265,
            0.6808510638297872,
            0.5828571428571429
        ],
        "all_results": [
            [
                0.7411167512690355,
                0.76,
                0.9264069264069265,
                0.6808510638297872,
                0.5828571428571429
            ],
            [
                0.7411167512690355,
                0.0,
                0.9264069264069265,
                0.0,
                0.0
            ],
            [
                0.7411167512690355,
                0.0,
                0.9264069264069265,
                0.0,
                0.0
            ],
            [
                0.7411167512690355,
                0.0,
                0.9264069264069265,
                0.0,
                0.0
            ],
            [
                0.7411167512690355,
                0.0,
                0.9264069264069265,
                0.0,
                0.0
            ]
        ],
        "epoches": [
            0,
            10,
            20,
            30,
            40
        ]
    },
    "val_avg_accuracy": {
        "best_results": [
            0.5887096524238586,
            0.6129032373428345,
            0.8629032373428345,
            0.5161290168762207,
            0.5887096524238586
        ],
        "all_results": [
            [
                0.5887096524238586,
                0.6129032373428345,
                0.8629032373428345,
                0.5161290168762207,
                0.5887096524238586
            ],
            [
                0.5887096524238586,
                0.3870967626571655,
                0.8629032373428345,
                0.4838709533214569,
                0.5887096524238586
            ],
            [
                0.5887096524238586,
                0.3870967626571655,
                0.8629032373428345,
                0.4838709533214569,
                0.5887096524238586
            ],
            [
                0.5887096524238586,
                0.3870967626571655,
                0.8629032373428345,
                0.4838709533214569,
                0.5887096524238586
            ],
            [
                0.5887096524238586,
                0.3870967626571655,
                0.8629032373428345,
                0.4838709533214569,
                0.5887096524238586
            ]
        ],
        "epoches": [
            0,
            10,
            20,
            30,
            40
        ]
    },
    "test_avg_precision": {
        "best_results": [
            1.0,
            1.0,
            1.0,
            1.0,
            1.0
        ],
        "all_results": [
            [
                1.0,
                1.0,
                1.0,
                1.0,
                1.0
            ],
            [
                1.0,
                0.0,
                1.0,
                0.0,
                0.0
            ],
            [
                1.0,
                0.0,
                1.0,
                0.0,
                0.0
            ],
            [
                1.0,
                0.0,
                1.0,
                0.0,
                0.0
            ],
            [
                1.0,
                0.0,
                1.0,
                0.0,
                0.0
            ]
        ],
        "epoches": [
            0,
            10,
            20,
            30,
            40
        ]
    },
    "test_avg_recall": {
        "best_results": [
            0.6693548387096774,
            0.532258064516129,
            0.6532258064516129,
            0.5967741935483871,
            0.4435483870967742
        ],
        "all_results": [
            [
                0.6693548387096774,
                0.532258064516129,
                0.6532258064516129,
                0.5967741935483871,
                0.4435483870967742
            ],
            [
                0.6693548387096774,
                0.0,
                0.6532258064516129,
                0.0,
                0.0
            ],
            [
                0.6693548387096774,
                0.0,
                0.6532258064516129,
                0.0,
                0.0
            ],
            [
                0.6693548387096774,
                0.0,
                0.6532258064516129,
                0.0,
                0.0
            ],
            [
                0.6693548387096774,
                0.0,
                0.6532258064516129,
                0.0,
                0.0
            ]
        ],
        "epoches": [
            0,
            10,
            20,
            30,
            40
        ]
    },
    "test_avg_f1": {
        "best_results": [
            0.8019323671497584,
            0.6947368421052631,
            0.7902439024390243,
            0.7474747474747475,
            0.6145251396648045
        ],
        "all_results": [
            [
                0.8019323671497584,
                0.6947368421052631,
                0.7902439024390243,
                0.7474747474747475,
                0.6145251396648045
            ],
            [
                0.8019323671497584,
                0.0,
                0.7902439024390243,
                0.0,
                0.0
            ],
            [
                0.8019323671497584,
                0.0,
                0.7902439024390243,
                0.0,
                0.0
            ],
            [
                0.8019323671497584,
                0.0,
                0.7902439024390243,
                0.0,
                0.0
            ],
            [
                0.8019323671497584,
                0.0,
                0.7902439024390243,
                0.0,
                0.0
            ]
        ],
        "epoches": [
            0,
            10,
            20,
            30,
            40
        ]
    },
    "test_avg_accuracy": {
        "best_results": [
            0.6693548560142517,
            0.5322580933570862,
            0.6532257795333862,
            0.5967742204666138,
            0.5564516186714172
        ],
        "all_results": [
            [
                0.6693548560142517,
                0.5322580933570862,
                0.6532257795333862,
                0.5967742204666138,
                0.5564516186714172
            ],
            [
                0.6693548560142517,
                0.4677419364452362,
                0.6532257795333862,
                0.4032258093357086,
                0.5564516186714172
            ],
            [
                0.6693548560142517,
                0.4677419364452362,
                0.6532257795333862,
                0.4032258093357086,
                0.5564516186714172
            ],
            [
                0.6693548560142517,
                0.4677419364452362,
                0.6532257795333862,
                0.4032258093357086,
                0.5564516186714172
            ],
            [
                0.6693548560142517,
                0.4677419364452362,
                0.6532257795333862,
                0.4032258093357086,
                0.5564516186714172
            ]
        ],
        "epoches": [
            0,
            10,
            20,
            30,
            40
        ]
    }
}