58,6,73,202,521,303,410,687,402,753,116,373,186,319
608,454,8,107,13,365,527,176,465,496,19,627,694,183,440
64,448,741,265,330,588,398,15,336,309,661,472
567,423,363,142,111,47,337,21,502,597,604
33,382,577,611,226,191,391,711,234,106,479,46,270,94,63
481,385,471,37,266,493,178,307,630,631,665,122,315
352,613,519,360,41,392,458,584,712,335,623,761
640,449,672,351,42,497,371,660,758,535,697,285,415
292,837,583,328,368,274,370,435,824,61,318
768,546,2,166,71,139,112,434,343,571,766,447
320,257,581,649,394,522,428,109,77,251,468,313,123,477,286
576,36,325,542,520,489,441,525,333,82,243,377,570,606
224,407,354,646,231,108,526,721,693,87,219,540,735
321,866,579,100,716,812,400,369,819,569,539
101,296,460,301,302,346,495,117,374,216,218,347,317,702
832,928,776,744,809,876,1005,271,143,850,947,246,858,126
483,426,491,236,432,145,629,213,605
451,357,710,366,728,689,247,664,636,701,190,255
480,738,709,518,264,617,267,204,559,560,568,379,699,350,287
833,706,674,801,419,327,681,209,887,825,890,380,509,926,895
580,358,230,262,137,556,688,724,700,445
549,295,425,618,334,306,340,501,278,438,89,253,510,375
704,775,717,624,720,594,755,405,789,790
544,453,553,684,685,655,626,499,851,757,919,729,799
641,3,132,452,536,464,339,149,504
326,647,395,175,692,311,280,511
323,229,329,537,601,241,273,152,473,90,411,127
160,420,170,10,591,48,17,207
131,324,390,393,396,78,56,60
516,484,138,397,144,530,565,158
227,478,492,240,304,114,564,533,312,666,414
487,199,43,433,566,88,474,349
389,261,104,11,305,85,24,223
384,228,232,555,237,494,180,607
388,167,201,76,205,431,210,573
355,707,839,651,652,427,12,558,436,348,698,412,703
845,147,820,635,92,637,862,831
800,291,781,847,404,634,599,538,316,670
233,362,782,529,20,662,663,861
288,512,450,387,263,463,275,723,342,25,574,543
705,517,421,105,235,364,696,283
482,185,486,200,300,508,308,628,279,409,444,157
161,165,135,554,462,466,119,159
258,548,133,331,401,310,154,222
130,162,293,268,430,81,57,27
547,99,169,206,80,277,153,221
198,294,633,595,691,531,695,248,345
98,551,72,140,429,557,115,446
34,603,297,587,179,602,475,31
32,416,456,424,490,299,239,413
545,739,356,552,872,214,408,314
769,578,70,488,361,763,669,383
0,737,196,249,455,524,44,783,467,217,507,252
134,422,338,403,562,437,86,534
164,49,177,148,53,215,121,125
163,69,372,84,54,59,189,95
66,103,39,29,51,52,93,30
128,439,550,359,498,22,503,250
96,256,172,187,238,528,113,443
67,74,141,18,83,150,155,28
197,840,873,586,722,787,725,793,91,667,731
609,678,622,211,855,344,730,188
353,332,461,269,367,399,110,798,500,505,734
713,874,714,242,181,406,282,668
376,650,656,792,658,598,760,857,381
386,515,541,811,784,561,786,765
193,715,846,750,146,915,120,732
1025,993,803,743,1037,813,878,951,953
961,322,777,910,917,985,124,927
995,996,967,968,935,970,981,281
868,751,785,977,1041,1042,987,829
675,643,906,945,817,827,988,958
614,936,877,818,914,596,949,923
997,841,924,632,980,920,952,956
963,965,680,971,940,944,955,957
930,999,905,1006,979,600,989,990
610,676,902,168,904,779,653,719,943,879,882,756
796,842,748,620,815,657,853,476
736,772,869,871,969,816,883,922
898,771,932,774,875,908,889,891
834,900,836,740,615,745,778,718
896,897,770,642,804,870,683,747,619,174,752,244,726,442,764
864,417,780,212,469,854,856,892
195,773,810,791,749,941,849,946,821,885,983,984,797,894
802,901,585,589,881,822,762,794
867,933,938,939,907,590,948,575
865,612,677,838,823,795,893,863
929,966,298,523,1002,621,918,671
513,835,644,485,203,459,593,245,284,638
673,4,645,616,648,173,754,341
1024,962,964,1033,1003,1004,844,1007,1011,884,1014,1016,860,1021
1026,1027,998,1001,1045,1018,1019,254
1028,1032,1036,911,1044,1012,1017,1022
992,937,1034,974,1046,1015,950,921
903,1035,1039,1008,954,859,1020,1023
418,1030,1031,973,909,1009,1010,659
1000,843,1038,880,913,1040,1013,828
960,289,994,899,259,976,978,759,986,925,830,991
972,942,975,912,852,916,982,959
290,742,457,848,690,788,888,506,572
686,654,592,814,625,378,826,639
931,1029,934,679,682,1043,886,767
514,805,582,807,808,806,727,733
