0,576,737,34,36,98,198,489,137,441,333,525,595,217,570
513,4,644,648,284,673,173,435,318,837,203,459,341,230,616,363,368,245,638
320,481,608,581,454,8,266,522,428,111,176,527,21,694,122
33,483,711,236,460,46,270,432,145,117,374,629,213,311,479
640,449,672,100,701,415,42,497,371,660,758,535,697,285,351
58,325,358,580,101,741,202,262,687,15,753,82,116,373,186,445,606,319
768,546,2,166,71,139,112,434,343,698,571,766,447
271,146,787,792,667,541,811,812,188,321,716,846,850,344,857,873,750,120,381
801,706,419,327,744,681,809,209,926,887,825,858,380,509,890,895
480,738,709,518,295,549,617,267,559,560,436,149,501,375,568,89,379,350
326,296,301,302,303,496,175,216,346,347,317,702
6,73,521,218,13,495,402,627,183,410
355,707,457,651,652,12,654,845,427,558,820,348,412,378,635,92,637,703
290,839,685,592,626,851,147,888,862,831
385,641,3,132,452,37,536,334,464,465,307,630,504
440,647,395,107,365,339,692,19,280,511
800,833,674,835,781,782,847,593,663,634,316
291,233,529,538,20,662,599,282,861,670
482,323,227,229,169,508,308,279,152,473,444
420,486,207,85,88,56,443,60,95,223
160,228,133,261,10,331,48,565,24,153
99,324,548,131,393,170,554,462,81,57
162,390,396,591,144,80,273,628,154,157
388,516,329,138,78,494,530,564,537,222
705,517,108,526,721,723,693,251,477,735
354,646,649,394,77,87,407,25,283,540
128,130,258,389,141,528,148,150,409,161,165,177,49,53,310,185,67,200,125
547,163,69,135,74,84,372,187,189,159
293,39,172,430,18,22,119,27,29,30
268,300,498,83,52,277,312,155,28,221
66,103,76,206,238,401,466,51,54,439
96,359,232,297,205,431,113,179,180,215,248,345,90,59,349,446,607
414,478,487,492,429,240,304,503,474,542
294,551,167,550,555,140,557,562,691,633
384,72,587,43,433,114,533,250,475,31
256,199,201,305,210,115,602,566,666,573
416,769,578,739,356,421,669,383,424,456,490,458,364,239,699,413,763
224,545,32,70,552,105,872,214,408,314
451,357,710,360,332,366,367,335,689,181,664,539,668
41,714,190,761,247,728,505,636,734,255
611,520,377,330,234,44,398,783,336,243,309,661,472,249,252,605,382
64,448,577,196,265,588,467,507,94,63
257,645,485,231,109,47,337,754,468,597,219,604,286
423,556,142,688,724,502,567,313,123,700
352,353,613,519,328,361,488,299,461,370,274,404,61
292,583,392,584,712,110,623,500,824,798
391,524,397,403,534,411,158,422,426,437,191,455,338,86,226,484,104,491,241
134,106,11,237,17,531,695,601,603,127
866,579,713,586,874,362,269,399,722,819,725,406,793,569,731
609,197,678,840,622,242,211,855,730,91
1029,1033,1003,1004,1036,1007,751,1011,1044,1014,1016
1027,803,998,1001,1037,1043,1045,1018,1019,254
1025,322,995,967,935,968,970,910,917,124
992,1032,909,974,1042,1046,1015,921,829,1022
418,1028,903,1034,1039,1008,911,1009,954,1023
961,860,1035,785,884,951,953,859,1020,927
1024,868,996,1031,913,1041,817,1012,977,1017
841,777,971,940,1006,596,952,985,923,924
1026,1030,1000,843,844,973,1010,659,914,1013
993,962,963,964,956,980,949,950,987,828
675,680,937,1038,1040,880,944,920,632,1021
965,997,743,999,989,945,979,955,957,990
930,740,773,748,749,941,719,813,600,794,827,796
676,902,614,904,168,882,894,281,988,958
610,771,933,938,939,849,657,853,889,575
772,836,615,936,875,877,878,816,818,981
736,869,585,969,779,780,946,821,891,892
417,842,907,620,174,815,879,883,244,476
834,643,932,774,871,778,906,653,212,469
898,900,745,1002,905,908,718,943,756,922
387,263,264,275,278,543,288,425,178,306,438,696,315,450,471,235,493,631,253
512,510,618,204,463,340,342,665,574,287
704,193,515,805,742,876,400,786,690,788,405,594,376,506,826,765,639
775,650,717,624,656,720,915,755,658,369
386,715,686,784,561,789,598,790,760,732
832,514,931,195,934,679,776,682,143,767,886,246,863
865,806,807,582,808,893,848,727,572,733
994,259,899,791,976,983,759,984,797,830,991
928,986,802,867,901,972,881,947,885,762
960,1005,589,975,590,916,948,822,126,959
929,612,677,966,838,298,523,918,795,671
289,810,621,942,912,978,852,982,823,925
896,897,642,770,804,870,553,747,683,619,814,752,757,854,726,856,729,764
544,864,453,684,655,625,499,919,442,799
