707,12
741,101,15
536,465,19
423,21,47
25,723,543
441,36,333
249,44,783
824,61,583
251,77
437,86,534
107,452,365
581,468,109
519,110,798
120,811
313,123,428
280,385,132
246,143
146,846
147,845,862
176,454,527
178,618,631
282,668,181
667,188
664,190
193,658,786
840,793,197
218,302
224,693
226,483,252
552,490,239
513,245,318
451,636,247
257,286,502
342,263
481,266
857,271
274,578
512,450,275
370,292
296,346,317
361,299
496,627,303
424,769,314
674,538,316
328,670
336,448,472
344,792,858
347,495
352,584,404
763,356,214
364,421
539,357,366
368,435,837
400,369,100
541,381,750
588,661,398
412,839
427,831
897,442
665,122,493
728,505,710
506,826,654
876,515,915
848,572
682,582,807
586,622
822,589,590
592,888
864,619,726
712,488,623
625,814
698,635,651
731,678
776,832,679
896,683,764
851,685
639,686,742
689,722,874
690,788
704,775
919,729,799
730,855
733,806
784,765
770,804
810,797
808,886
852,982,975
865,195,893
931,1043,1029
217,570
0,737
73,402,6
13,183
104,88
127,207
11,237
800,20,861
662,782
433,179
531,31
416,872
408,456
32,413
360,761,335
41,613
58,373
325,687
605,46
382,63
64,377,309
520,243
545,669
70,383
633,602,691
72,198
721,231,87
108,646
355,285
820,348
92,558
432,234
577,94
528,329,565
138,533
323,261
530,131
96,256
56,397
426,106,191
491,391
112,768
2,501
436,166
1025,124,910
1037,917
785,927
914,935
1041,803
777,961
920,967
923,951
1042,322
968,675
952,924
953,940
680,970
817,977
945,985
955,949
979,956
980,829
987,957
944,989
993,965
841,995
963,971
596,990
868,996
997,743
1006,999
632,751
850,947,1005
928,126
305,429
130,300
115,76
133,486
24,228
331,564
273,223
537,85
603,557
338,695
134,455
345,475
140,446
163,157
154,430
462,30
169,547
162,277
221,135
172,141
155,189
161,444
51,103
165,159
187,84
372,268
476,796,871
168,969
842,620
748,653
879,815
882,883
417,244
212,469
780,174
175,511
326,702
137,98,595
210,666
201,180
49,18,148
53,293
185,177
164,93
121,125
52,69
83,28
74,39
562,422
507,196
200,492,95
573,478
466,59
555,414
240,199
550,494
753,186,604
202,580
116,319
203,644
459,284
458,699
264,204
498,205,390
304,81
258,238
229,78
388,60
482,439
232,431
609,725,895
873,211
216,301
117,311
354,219
540,407
526,735
150,119
548,222
29,22
409,206
66,67
233,634
291,847
288,739,696
235,463
145,236
213,629
297,542
248,294
152,113,359
48,250
1030,998
1003,903
1001,911
659,1007
1011,1028
418,1018
921,954
859,843
1008,974
1012,973
1000,1014
1009,1019
1010,1013
1016,1015
1017,1020
254,1023
960,899
289,994
978,259
986,759
925,830
242,406
713,269
91,399
460,374,479
611,270
33,711
149,278,375
549,510
905,643
906,988
600,813
281,981
930,614
936,877
818,878
827,958
425,287
560,709
457,290
378,637
881,298,983
612,823
306,340,295
253,438
307,37
315,630
628,308
90,215
443,503
312,474,389
401,27
310,167
8,608,694
320,111
321,787
716,812
801,327
380,887
419,926
714,367
332,734
504,3,395
339,647
673,341
648,638
227,487
384,551
587,349
114,43
568,379
480,350
672,758
497,660
42,351
392,500,461
529,353
688,700
525,262
445,358
781,599
362,663
640,371,415
701,255
376,715,656
561,386
649,394
522,477
265,330,467
403,524
594,789,790
755,405
521,410
82,606
17,158
411,516
241,484
473,420
601,10
617,559
449,697
267,535
544,757
553,453
684,655
626,499
464,641,692
440,387
89,334,343
574,471
597,142,645
754,485
576,34
489,567
825,706,509
209,681
744,809
514,767
934,727
705,283
105,517
447,71
738,518
929,802,523
867,966
337,173
724,556
363,230
54,607
508,566
153,99
554,279
80,128
324,591
144,57
160,170
393,396
569,579
866,819
585,749
794,575
939,941
616,890
593,833
835,4
650,732
760,598
736,657,719
610,869
779,853
834,676,922
772,836
740,615
745,778
900,902
718,943
816,756
838,791
948,621
984,885
762,795
624,717
720,805
642,854
752,870
856,747
434,546,766
571,139
652,703
901,863,677
918,671
891,771,932
898,875
904,774
889,908
1002,933
821,773
938,894
937,964,828
962,860
844,909
884,950
849,946
907,892
1024,880,1004
913,1026
1045,1031
912,991,976
916,959
972,942
1033,1027
992,1036
1034,1044
1032,1035
1038,1039
1040,1046
1021,1022
